RECORDING_SESSION_LABEL,TRIAL_LABEL,DATA_FILE,CURRENT_FIX_MSG_TIME_1,CURRENT_FIX_INDEX,CURRENT_FIX_LABEL,CURRENT_FIX_DURATION,CURRENT_FIX_START,CURRENT_FIX_END,CURRENT_FIX_INTEREST_AREAS,CURRENT_FIX_INTEREST_AREA_FIX_COUNT,CURRENT_FIX_PUPIL,CURRENT_FIX_RUN_DWELL_TIME,CURRENT_FIX_X,CURRENT_FIX_Y,CURRENT_FIX_RUN_INDEX,CURRENT_FIX_RUN_SIZE,CURRENT_FIX_X_RESOLUTION,CURRENT_FIX_Y_RESOLUTION,PREVIOUS_SAC_INDEX,PREVIOUS_SAC_LABEL,PREVIOUS_SAC_DIRECTION,PREVIOUS_SAC_DURATION,PREVIOUS_SAC_AMPLITUDE,PREVIOUS_SAC_AVG_VELOCITY,PREVIOUS_SAC_PEAK_VELOCITY,PREVIOUS_SAC_START_INTEREST_AREAS,PREVIOUS_SAC_START_TIME,PREVIOUS_SAC_END_TIME,PREVIOUS_SAC_START_X,PREVIOUS_SAC_START_Y,PREVIOUS_SAC_END_X,PREVIOUS_SAC_END_Y,NEXT_SAC_INDEX,NEXT_SAC_LABEL,NEXT_SAC_DIRECTION,NEXT_SAC_DURATION,NEXT_SAC_AMPLITUDE,NEXT_SAC_AVG_VELOCITY,NEXT_SAC_PEAK_VELOCITY,NEXT_SAC_END_INTEREST_AREAS,NEXT_SAC_START_TIME,NEXT_SAC_END_TIME,NEXT_SAC_START_X,NEXT_SAC_START_Y,NEXT_SAC_END_X,NEXT_SAC_END_Y,PREVIOUS_FIX_ANGLE,PREVIOUS_FIX_DIRECTION,PREVIOUS_FIX_DISTANCE,ItemNO,audiofilename,imagefilename,TRIAL_INDEX,TRIAL_START_TIME
p14,Trial: 37,p14.edf,60,1,Fixation: 39 ms,275,39,313,"[ 5, 8, 13, 99]",2,980,275,1035.5,402.2,1,1,36.55,37.2,.,.,.,.,.,.,.,.,.,.,.,.,.,.,1,Saccade: 314 ms,LEFT,72,20.11,279.33,432.72,[ ],314,385,1034.7,399.3,456.5,870.8,.,.,.,A12,D7.wav,D7_FAM_She_is_washing_the_dishes.png,19,25978818
p14,Trial: 37,p14.edf,.,2,Fixation: 3343 ms,138,3343,3480,"[ 10, 16, 28, 99]",9,1041,138,407.0,600.6,1,1,35.9,37.25,10,Saccade: 3226 ms,UP,117,19.44,166.2,1022.4,[ ],3226,3342,307.8,1423.9,399,616.3,11,Saccade: 3481 ms,UP,52,9.49,182.55,439.45,"[ 3, 99]",3481,3532,408.9,597.5,640.1,342.7,17.08,RIGHT,18.15,A12,D7.wav,D7_FAM_She_is_washing_the_dishes.png,19,25978818
p14,Trial: 37,p14.edf,.,3,Fixation: 3533 ms,107,3533,3639,"[ 3, 99]",9,1038,245,647.2,330.5,1,2,35.2,36.5,11,Saccade: 3481 ms,UP,52,9.49,182.55,439.45,"[ 10, 16, 99]",3481,3532,408.9,597.5,640.1,342.7,12,Saccade: 3640 ms,UP,32,3.81,119.06,203.01,"[ 3, 99]",3640,3671,650.5,328.7,670.4,190.8,-132.69,DOWN,9.97,A12,D7.wav,D7_FAM_She_is_washing_the_dishes.png,19,25978818
p14,Trial: 37,p14.edf,.,4,Fixation: 3672 ms,138,3672,3809,"[ 3, 99]",9,1059,245,670.7,199.8,2,2,35.3,36.7,12,Saccade: 3640 ms,UP,32,3.81,119.06,203.01,"[ 3, 99]",3640,3671,650.5,328.7,670.4,190.8,13,Saccade: 3810 ms,LEFT,57,12.28,215.5,504.74,"[ 2, 99]",3810,3866,673,204.6,231.2,224.2,-100.58,DOWN,3.63,A12,D7.wav,D7_FAM_She_is_washing_the_dishes.png,19,25978818
p14,Trial: 37,p14.edf,.,5,Fixation: 3867 ms,124,3867,3990,[ 99],75,1127,15922,219.5,225.7,5,75,36.7,37.4,13,Saccade: 3810 ms,LEFT,57,12.28,215.5,504.74,"[ 3, 99]",3810,3866,673,204.6,231.2,224.2,14,Saccade: 3991 ms,RIGHT,10,0.53,52.95,47.62,"[ 2, 99]",3991,4000,222.1,225.9,240.9,221,3.19,RIGHT,12.55,A12,D7.wav,D7_FAM_She_is_washing_the_dishes.png,19,25978818
p14,Trial: 37,p14.edf,.,6,Fixation: 4001 ms,516,4001,4516,"[ 2, 99]",4,1114,516,236.7,221.8,1,1,36.6,37.3,14,Saccade: 3991 ms,RIGHT,10,0.53,52.95,47.62,[ 99],3991,4000,222.1,225.9,240.9,221,15,Saccade: 4517 ms,RIGHT,53,13.55,255.61,439.01,"[ 3, 99]",4517,4569,243.2,222.7,729.9,240.8,-167.46,.,0.48,A12,D7.wav,D7_FAM_She_is_washing_the_dishes.png,19,25978818
p14,Trial: 37,p14.edf,.,7,Fixation: 4570 ms,146,4570,4715,"[ 3, 99]",9,988,340,723.3,234.9,1,2,35.3,36.6,15,Saccade: 4517 ms,RIGHT,53,13.55,255.61,439.01,"[ 2, 99]",4517,4569,243.2,222.7,729.9,240.8,16,Saccade: 4716 ms,LEFT,18,1.1,61.21,83.65,"[ 3, 99]",4716,4733,724.2,234.5,686.1,226.4,178.5,LEFT,13.54,A12,D7.wav,D7_FAM_She_is_washing_the_dishes.png,19,25978818
p14,Trial: 37,p14.edf,.,8,Fixation: 4734 ms,194,4734,4927,"[ 3, 99]",9,968,340,697.0,227.8,2,2,35.3,36.6,16,Saccade: 4716 ms,LEFT,18,1.1,61.21,83.65,"[ 3, 99]",4716,4733,724.2,234.5,686.1,226.4,17,Saccade: 4928 ms,DOWN,69,15.88,230.17,511.23,"[ 19, 99]",4928,4996,698.6,230.8,533.7,799.1,-14.59,RIGHT,0.77,A12,D7.wav,D7_FAM_She_is_washing_the_dishes.png,19,25978818
p14,Trial: 37,p14.edf,.,9,Fixation: 4997 ms,200,4997,5196,"[ 19, 99]",1,863,200,525.4,815.3,1,1,36.15,38.3,17,Saccade: 4928 ms,DOWN,69,15.88,230.17,511.23,"[ 3, 99]",4928,4996,698.6,230.8,533.7,799.1,18,Saccade: 5197 ms,LEFT,63,0.95,15.08,87.53,[ 99],5197,5259,525.2,823.8,491.3,817.6,72.98,UP,16.41,A12,D7.wav,D7_FAM_She_is_washing_the_dishes.png,19,25978818
p14,Trial: 37,p14.edf,.,10,Fixation: 5260 ms,98,5260,5357,[ 99],75,858,15922,486.2,812.3,10,75,36.2,38.35,18,Saccade: 5197 ms,LEFT,63,0.95,15.08,87.53,"[ 19, 99]",5197,5259,525.2,823.8,491.3,817.6,19,Saccade: 5358 ms,.,2,0.1,48.74,28.13,[ 99],5358,5359,478.2,808,476.1,805,-4.13,RIGHT,1.09,A12,D7.wav,D7_FAM_She_is_washing_the_dishes.png,19,25978818
p14,Trial: 37,p14.edf,.,11,Fixation: 5423 ms,159,5423,5581,"[ 16, 99]",12,831,639,481.2,794.6,1,4,36.2,38.25,20,Saccade: 5408 ms,.,15,0.34,22.71,37.33,[ 99],5408,5422,484.8,811.6,473.8,805.7,21,Saccade: 5582 ms,LEFT,43,6.31,146.74,246.64,"[ 10, 16, 29, 99]",5582,5624,485.7,796.5,271.4,708.3,-73.36,.,0.48,A12,D7.wav,D7_FAM_She_is_washing_the_dishes.png,19,25978818
p14,Trial: 37,p14.edf,.,12,Fixation: 5625 ms,174,5625,5798,"[ 10, 16, 29, 99]",9,996,480,278.4,710.0,1,3,36.8,38.1,21,Saccade: 5582 ms,LEFT,43,6.31,146.74,246.64,[ 99],5582,5624,485.7,796.5,271.4,708.3,22,Saccade: 5799 ms,RIGHT,16,0.86,53.72,71.97,"[ 10, 16, 29, 99]",5799,5814,280.1,713.4,311.6,715.1,-21.74,RIGHT,5.98,A12,D7.wav,D7_FAM_She_is_washing_the_dishes.png,19,25978818
p14,Trial: 37,p14.edf,.,13,Fixation: 5815 ms,156,5815,5970,"[ 10, 16, 29, 99]",9,969,480,310.3,713.9,2,3,36.6,38.0,22,Saccade: 5799 ms,RIGHT,16,0.86,53.72,71.97,"[ 10, 16, 29, 99]",5799,5814,280.1,713.4,311.6,715.1,23,Saccade: 5971 ms,RIGHT,14,0.96,68.44,73.37,"[ 10, 16, 29, 99]",5971,5984,310.2,708.2,338.1,686.3,173.28,LEFT,0.88,A12,D7.wav,D7_FAM_She_is_washing_the_dishes.png,19,25978818
p14,Trial: 37,p14.edf,.,14,Fixation: 5985 ms,150,5985,6134,"[ 10, 16, 29, 99]",9,958,480,342.7,684.0,3,3,36.4,37.8,23,Saccade: 5971 ms,RIGHT,14,0.96,68.44,73.37,"[ 10, 16, 29, 99]",5971,5984,310.2,708.2,338.1,686.3,24,Saccade: 6135 ms,LEFT,44,6.65,151.17,275.15,"[ 7, 12, 99]",6135,6178,342.8,683.4,156.2,520.6,-138.37,LEFT,1.19,A12,D7.wav,D7_FAM_She_is_washing_the_dishes.png,19,25978818
p14,Trial: 37,p14.edf,.,15,Fixation: 6179 ms,224,6179,6402,"[ 7, 12, 99]",4,1013,224,163.7,520.5,1,1,37.25,37.7,24,Saccade: 6135 ms,LEFT,44,6.65,151.17,275.15,"[ 10, 16, 29, 99]",6135,6178,342.8,683.4,156.2,520.6,25,Saccade: 6403 ms,RIGHT,39,7.05,180.68,290.61,[ 99],6403,6441,167.7,522.6,410,435.5,-41.7,RIGHT,6.51,A12,D7.wav,D7_FAM_She_is_washing_the_dishes.png,19,25978818
p14,Trial: 37,p14.edf,.,16,Fixation: 6504 ms,143,6504,6646,"[ 12, 99]",8,978,367,281.0,470.5,2,2,36.35,37.2,26,Saccade: 6475 ms,LEFT,29,3.77,129.83,238.13,"[ 14, 99]",6475,6503,405.9,432.2,274.2,465.9,27,Saccade: 6647 ms,RIGHT,57,14.41,252.84,513.94,"[ 3, 99]",6647,6703,281,470.1,767.4,292.7,-157.27,LEFT,3.46,A12,D7.wav,D7_FAM_She_is_washing_the_dishes.png,19,25978818
p14,Trial: 37,p14.edf,.,17,Fixation: 6704 ms,240,6704,6943,"[ 3, 99]",9,812,240,783.6,279.9,1,1,35.35,36.6,27,Saccade: 6647 ms,RIGHT,57,14.41,252.84,513.94,"[ 12, 99]",6647,6703,281,470.1,767.4,292.7,28,Saccade: 6944 ms,RIGHT,36,2.67,74.08,160.06,"[ 9, 13, 99]",6944,6979,781.7,276,853,340.3,-159.77,LEFT,14.94,A12,D7.wav,D7_FAM_She_is_washing_the_dishes.png,19,25978818
p14,Trial: 37,p14.edf,.,18,Fixation: 6980 ms,252,6980,7231,"[ 9, 13, 99]",5,789,632,847.0,341.6,1,3,35.55,36.7,28,Saccade: 6944 ms,RIGHT,36,2.67,74.08,160.06,[ 99],6944,6979,781.7,276,853,340.3,29,Saccade: 7232 ms,.,7,0.34,48.54,42.19,"[ 9, 13, 99]",7232,7238,844.7,338.6,835,331.2,136.73,LEFT,2.46,A12,D7.wav,D7_FAM_She_is_washing_the_dishes.png,19,25978818
p14,Trial: 37,p14.edf,.,19,Fixation: 7239 ms,173,7239,7411,"[ 9, 13, 99]",5,802,632,839.6,333.0,2,3,35.5,36.6,29,Saccade: 7232 ms,.,7,0.34,48.54,42.19,"[ 9, 13, 99]",7232,7238,844.7,338.6,835,331.2,30,Saccade: 7412 ms,LEFT,13,0.81,62.11,65.78,"[ 9, 13, 99]",7412,7424,834.4,336.3,805.8,337.5,-48.4,.,0.31,A12,D7.wav,D7_FAM_She_is_washing_the_dishes.png,19,25978818
p14,Trial: 37,p14.edf,.,20,Fixation: 7425 ms,207,7425,7631,"[ 9, 13, 99]",5,769,632,807.2,341.8,3,3,35.4,36.6,30,Saccade: 7412 ms,LEFT,13,0.81,62.11,65.78,"[ 9, 13, 99]",7412,7424,834.4,336.3,805.8,337.5,31,Saccade: 7632 ms,RIGHT,39,5.71,146.3,268.63,"[ 8, 13, 99]",7632,7670,808.5,341.9,1012.5,360.9,14.74,RIGHT,0.95,A12,D7.wav,D7_FAM_She_is_washing_the_dishes.png,19,25978818
p14,Trial: 37,p14.edf,.,21,Fixation: 7671 ms,146,7671,7816,"[ 8, 13, 99]",6,668,302,1008.1,357.0,1,2,36.35,37.1,31,Saccade: 7632 ms,RIGHT,39,5.71,146.3,268.63,"[ 9, 13, 99]",7632,7670,808.5,341.9,1012.5,360.9,32,Saccade: 7817 ms,RIGHT,13,1.01,78.02,75,"[ 5, 8, 13, 99]",7817,7829,1006.1,357.9,1040.1,372.7,175.79,LEFT,5.62,A12,D7.wav,D7_FAM_She_is_washing_the_dishes.png,19,25978818
p14,Trial: 37,p14.edf,.,22,Fixation: 7830 ms,156,7830,7985,"[ 5, 8, 13, 99]",2,652,156,1038.6,368.9,1,1,36.55,37.2,32,Saccade: 7817 ms,RIGHT,13,1.01,78.02,75,"[ 8, 13, 99]",7817,7829,1006.1,357.9,1040.1,372.7,33,Saccade: 7986 ms,LEFT,30,3.9,129.87,227.44,"[ 13, 25, 99]",7986,8015,1036.6,363.5,896.2,372.1,159.05,LEFT,0.9,A12,D7.wav,D7_FAM_She_is_washing_the_dishes.png,19,25978818
p14,Trial: 37,p14.edf,.,23,Fixation: 8016 ms,184,8016,8199,"[ 13, 25, 99]",16,721,1476,895.3,372.5,6,8,35.7,36.8,33,Saccade: 7986 ms,LEFT,30,3.9,129.87,227.44,"[ 8, 13, 99]",7986,8015,1036.6,363.5,896.2,372.1,34,Saccade: 8200 ms,.,6,0.28,46.72,37.52,"[ 13, 25, 99]",8200,8205,888,375.8,878.1,374.3,1.41,RIGHT,3.97,A12,D7.wav,D7_FAM_She_is_washing_the_dishes.png,19,25978818
p14,Trial: 37,p14.edf,.,24,Fixation: 8206 ms,141,8206,8346,"[ 13, 25, 99]",16,748,1476,876.9,379.2,7,8,35.7,36.7,34,Saccade: 8200 ms,.,6,0.28,46.72,37.52,"[ 13, 25, 99]",8200,8205,888,375.8,878.1,374.3,35,Saccade: 8347 ms,RIGHT,24,2.2,91.7,139.75,"[ 13, 26, 99]",8347,8370,875.9,380.1,948,347.2,19.48,RIGHT,0.55,A12,D7.wav,D7_FAM_She_is_washing_the_dishes.png,19,25978818
p14,Trial: 37,p14.edf,.,25,Fixation: 8371 ms,217,8371,8587,"[ 13, 26, 99]",16,748,1476,955.9,339.4,8,8,36.0,36.9,35,Saccade: 8347 ms,RIGHT,24,2.2,91.7,139.75,"[ 13, 25, 99]",8347,8370,875.9,380.1,948,347.2,36,Saccade: 8588 ms,DOWN,74,4.21,56.83,245.31,"[ 18, 22, 99]",8588,8661,954,344,986.5,496.2,-153.86,LEFT,2.45,A12,D7.wav,D7_FAM_She_is_washing_the_dishes.png,19,25978818
p14,Trial: 37,p14.edf,.,26,Fixation: 8728 ms,99,8728,8826,"[ 18, 22, 99]",4,655,306,981.1,506.9,1,2,36.3,37.2,37,Saccade: 8719 ms,DOWN,9,0.55,61.06,46.01,"[ 18, 22, 99]",8719,8727,982.1,496.6,983.4,517,38,Saccade: 8827 ms,.,38,0.26,6.86,30.72,"[ 18, 22, 99]",8827,8864,982.5,510.4,976.5,502.9,98.77,UP,4.57,A12,D7.wav,D7_FAM_She_is_washing_the_dishes.png,19,25978818
p14,Trial: 37,p14.edf,.,27,Fixation: 8865 ms,207,8865,9071,"[ 18, 22, 99]",4,694,306,976.1,492.5,2,2,36.2,37.15,38,Saccade: 8827 ms,.,38,0.26,6.86,30.72,"[ 18, 22, 99]",8827,8864,982.5,510.4,976.5,502.9,39,Saccade: 9072 ms,LEFT,91,19.3,212.04,529.42,"[ 10, 16, 99]",9072,9162,974.4,484.5,285.2,618.4,-70.4,.,0.41,A12,D7.wav,D7_FAM_She_is_washing_the_dishes.png,19,25978818
p14,Trial: 37,p14.edf,.,28,Fixation: 9163 ms,130,9163,9292,"[ 10, 16, 99]",9,923,130,286.7,618.6,1,1,36.5,37.6,39,Saccade: 9072 ms,LEFT,91,19.3,212.04,529.42,"[ 18, 99]",9072,9162,974.4,484.5,285.2,618.4,40,Saccade: 9293 ms,LEFT,29,3.91,134.97,221.49,[ 99],9293,9321,287.9,620.4,166.9,540.2,10.09,RIGHT,19.26,A12,D7.wav,D7_FAM_She_is_washing_the_dishes.png,19,25978818
p14,Trial: 37,p14.edf,.,29,Fixation: 9322 ms,192,9322,9513,"[ 12, 99]",8,940,192,167.5,533.0,1,1,37.2,37.7,40,Saccade: 9293 ms,LEFT,29,3.91,134.97,221.49,"[ 10, 16, 99]",9293,9321,287.9,620.4,166.9,540.2,41,Saccade: 9514 ms,DOWN,27,2.68,99.25,177.69,"[ 16, 99]",9514,9540,168.3,532.4,215.6,621.5,-35.1,RIGHT,3.95,A12,D7.wav,D7_FAM_She_is_washing_the_dishes.png,19,25978818
p14,Trial: 37,p14.edf,.,30,Fixation: 9541 ms,84,9541,9624,"[ 16, 99]",12,933,84,218.1,619.3,1,1,37.0,37.85,41,Saccade: 9514 ms,DOWN,27,2.68,99.25,177.69,"[ 12, 99]",9514,9540,168.3,532.4,215.6,621.5,42,Saccade: 9625 ms,RIGHT,243,21.19,87.21,589.31,"[ 18, 22, 99]",9625,9867,220.2,620.9,992.7,529,120.84,UP,2.66,A12,D7.wav,D7_FAM_She_is_washing_the_dishes.png,19,25978818
p14,Trial: 37,p14.edf,.,31,Fixation: 10096 ms,198,10096,10293,"[ 23, 99]",6,950,1239,433.6,274.5,1,5,35.6,36.7,44,Saccade: 10016 ms,LEFT,80,17.05,213.07,529.8,"[ 18, 22, 99]",10016,10095,993.1,525.8,427.2,281.9,45,Saccade: 10294 ms,RIGHT,38,2.65,69.77,126.59,"[ 20, 23, 99]",10294,10331,432,272.5,519.3,236.5,-122.69,DOWN,10.99,A12,D7.wav,D7_FAM_She_is_washing_the_dishes.png,19,25978818
p14,Trial: 37,p14.edf,.,32,Fixation: 10332 ms,151,10332,10482,"[ 20, 23, 99]",1,923,151,513.1,237.8,1,1,35.35,36.65,45,Saccade: 10294 ms,RIGHT,38,2.65,69.77,126.59,"[ 23, 99]",10294,10331,432,272.5,519.3,236.5,46,Saccade: 10483 ms,LEFT,27,3.38,125.28,232.22,"[ 23, 99]",10483,10509,513.6,235.8,395.5,211.5,-155.94,LEFT,2.45,A12,D7.wav,D7_FAM_She_is_washing_the_dishes.png,19,25978818
p14,Trial: 37,p14.edf,.,33,Fixation: 10510 ms,324,10510,10833,"[ 23, 99]",6,946,1239,399.7,210.1,3,5,35.75,36.9,46,Saccade: 10483 ms,LEFT,27,3.38,125.28,232.22,"[ 20, 23, 99]",10483,10509,513.6,235.8,395.5,211.5,47,Saccade: 10834 ms,RIGHT,38,6.54,172.22,317.91,"[ 23, 99]",10834,10871,403.5,207.2,635.8,204,-13.29,RIGHT,3.28,A12,D7.wav,D7_FAM_She_is_washing_the_dishes.png,19,25978818
p14,Trial: 37,p14.edf,.,34,Fixation: 10872 ms,234,10872,11105,"[ 23, 99]",6,879,1239,636.2,199.3,4,5,35.3,36.7,47,Saccade: 10834 ms,RIGHT,38,6.54,172.22,317.91,"[ 23, 99]",10834,10871,403.5,207.2,635.8,204,48,Saccade: 11106 ms,LEFT,25,2.89,115.64,193.41,"[ 21, 23, 99]",11106,11130,638.2,198.6,550.4,252.6,-177.48,LEFT,6.66,A12,D7.wav,D7_FAM_She_is_washing_the_dishes.png,19,25978818
p14,Trial: 37,p14.edf,.,35,Fixation: 11131 ms,332,11131,11462,"[ 21, 23, 99]",1,888,332,541.9,259.1,1,1,35.3,36.6,48,Saccade: 11106 ms,LEFT,25,2.89,115.64,193.41,"[ 23, 99]",11106,11130,638.2,198.6,550.4,252.6,49,Saccade: 11463 ms,LEFT,51,12.75,249.97,444.33,"[ 12, 99]",11463,11513,541.1,258.4,160.9,528.4,31.42,RIGHT,3.13,A12,D7.wav,D7_FAM_She_is_washing_the_dishes.png,19,25978818
p14,Trial: 37,p14.edf,.,36,Fixation: 11514 ms,335,11514,11848,"[ 7, 12, 99]",4,1034,496,169.7,519.5,1,2,37.25,37.7,49,Saccade: 11463 ms,LEFT,51,12.75,249.97,444.33,"[ 21, 23, 99]",11463,11513,541.1,258.4,160.9,528.4,50,Saccade: 11849 ms,.,9,0.35,39.28,33.72,"[ 7, 12, 99]",11849,11857,173.9,519.1,184.8,511.7,34.34,RIGHT,12.43,A12,D7.wav,D7_FAM_She_is_washing_the_dishes.png,19,25978818
p14,Trial: 37,p14.edf,.,37,Fixation: 11858 ms,161,11858,12018,"[ 7, 12, 99]",4,1041,496,183.8,507.7,2,2,37.05,37.6,50,Saccade: 11849 ms,.,9,0.35,39.28,33.72,"[ 7, 12, 99]",11849,11857,173.9,519.1,184.8,511.7,51,Saccade: 12019 ms,RIGHT,27,3.83,141.87,234.96,"[ 14, 99]",12019,12045,180.8,506.3,318.5,479.4,-140.45,.,0.49,A12,D7.wav,D7_FAM_She_is_washing_the_dishes.png,19,25978818
p14,Trial: 37,p14.edf,.,38,Fixation: 12046 ms,211,12046,12256,"[ 4, 14, 99]",1,1000,211,330.9,482.2,1,1,36.1,37.05,51,Saccade: 12019 ms,RIGHT,27,3.83,141.87,234.96,"[ 7, 12, 17, 99]",12019,12045,180.8,506.3,318.5,479.4,52,Saccade: 12257 ms,DOWN,45,7.52,167.15,310.16,"[ 10, 16, 99]",12257,12301,329.8,484.7,274.8,762.9,-170.36,LEFT,4.08,A12,D7.wav,D7_FAM_She_is_washing_the_dishes.png,19,25978818
p14,Trial: 37,p14.edf,.,39,Fixation: 12302 ms,209,12302,12510,"[ 10, 16, 99]",9,990,209,275.0,760.5,1,1,37.0,38.45,52,Saccade: 12257 ms,DOWN,45,7.52,167.15,310.16,"[ 4, 14, 99]",12257,12301,329.8,484.7,274.8,762.9,53,Saccade: 12511 ms,RIGHT,65,19.65,302.33,632.94,"[ 13, 99]",12511,12575,273.5,759.9,872.9,359.8,78.28,UP,7.53,A12,D7.wav,D7_FAM_She_is_washing_the_dishes.png,19,25978818
p14,Trial: 37,p14.edf,.,40,Fixation: 12576 ms,157,12576,12732,"[ 13, 99]",16,863,720,888.3,350.4,1,4,35.7,36.7,53,Saccade: 12511 ms,RIGHT,65,19.65,302.33,632.94,"[ 10, 16, 99]",12511,12575,273.5,759.9,872.9,359.8,54,Saccade: 12733 ms,LEFT,24,1.96,81.8,136.15,"[ 9, 13, 99]",12733,12756,886,351,818.7,331.6,-147.1,LEFT,20.09,A12,D7.wav,D7_FAM_She_is_washing_the_dishes.png,19,25978818
p14,Trial: 37,p14.edf,.,41,Fixation: 12757 ms,139,12757,12895,"[ 9, 13, 99]",5,875,139,826.1,329.9,1,1,35.5,36.6,54,Saccade: 12733 ms,LEFT,24,1.96,81.8,136.15,"[ 9, 13, 99]",12733,12756,886,351,818.7,331.6,55,Saccade: 12896 ms,RIGHT,78,4.8,61.49,294.52,"[ 8, 13, 99]",12896,12973,825.2,335,995,364.2,-17.75,RIGHT,1.83,A12,D7.wav,D7_FAM_She_is_washing_the_dishes.png,19,25978818
p14,Trial: 37,p14.edf,13119,42,Fixation: 12974 ms,204,12974,13177,"[ 8, 13, 99]",6,861,204,996.5,386.1,1,1,36.3,37.0,55,Saccade: 12896 ms,RIGHT,78,4.8,61.49,294.52,"[ 9, 13, 99]",12896,12973,825.2,335,995,364.2,56,Saccade: 13178 ms,LEFT,33,5.38,163.06,306.8,"[ 9, 13, 99]",13178,13210,994.6,389.8,805,353.3,162.17,LEFT,4.99,A12,D7.wav,D7_FAM_She_is_washing_the_dishes.png,19,25978818
p14,Trial: 37,p14.edf,13355,43,Fixation: 13211 ms,220,13211,13430,"[ 9, 13, 99]",5,1015,220,805.8,347.3,1,1,35.4,36.6,56,Saccade: 13178 ms,LEFT,33,5.38,163.06,306.8,"[ 8, 13, 99]",13178,13210,994.6,389.8,805,353.3,57,Saccade: 13431 ms,DOWN,352,14.25,40.47,1423.03,[ 99],13431,13782,805.1,354.8,483.7,767,-11.21,RIGHT,5.42,A12,D7.wav,D7_FAM_She_is_washing_the_dishes.png,19,25978818
p14,Trial: 37,p14.edf,.,44,Fixation: 14680 ms,154,14680,14833,"[ 10, 16, 99]",9,1302,740,386.2,674.5,1,2,36.1,37.6,58,Saccade: 14641 ms,LEFT,39,2.99,76.77,149.21,"[ 16, 99]",14641,14679,471.8,735.9,384.1,670.1,59,Saccade: 14834 ms,DOWN,383,3.18,8.29,580.67,"[ 16, 99]",14834,15216,386.2,678.3,462.5,768,36.92,RIGHT,14.68,A12,D7.wav,D7_FAM_She_is_washing_the_dishes.png,19,25978818
p14,Trial: 37,p14.edf,16460,45,Fixation: 16436 ms,586,16436,17021,"[ 10, 16, 99]",9,1400,740,421.1,716.2,2,2,36.1,37.75,60,Saccade: 16418 ms,LEFT,18,1.24,69.04,89.54,"[ 16, 99]",16418,16435,461.4,717.9,416.9,723.3,61,Saccade: 17022 ms,RIGHT,21,1.27,60.69,102.84,[ 99],17022,17042,424.9,701.2,467.5,683.4,131.14,UP,1.47,A12,D7.wav,D7_FAM_She_is_washing_the_dishes.png,19,25978818
p14,Trial: 37,p14.edf,17240,46,Fixation: 17043 ms,527,17043,17569,[ 99],75,1509,15922,465.8,677.2,46,75,35.85,37.5,61,Saccade: 17022 ms,RIGHT,21,1.27,60.69,102.84,"[ 10, 16, 99]",17022,17042,424.9,701.2,467.5,683.4,62,Saccade: 17570 ms,LEFT,28,3.52,125.84,218.96,"[ 10, 16, 28, 99]",17570,17597,477.5,676.9,352.9,652.1,-140.16,LEFT,1.62,A12,D7.wav,D7_FAM_She_is_washing_the_dishes.png,19,25978818
p14,Trial: 37,p14.edf,.,47,Fixation: 17598 ms,160,17598,17757,"[ 10, 16, 28, 99]",9,1613,160,356.0,648.8,1,1,36.2,37.55,62,Saccade: 17570 ms,LEFT,28,3.52,125.84,218.96,[ 99],17570,17597,477.5,676.9,352.9,652.1,63,Saccade: 17758 ms,UP,39,5.57,142.94,253.27,[ 99],17758,17796,356.2,645.5,290.4,448.9,-13.95,RIGHT,3.14,A12,D7.wav,D7_FAM_She_is_washing_the_dishes.png,19,25978818
p14,Trial: 37,p14.edf,.,48,Fixation: 17797 ms,111,17797,17907,[ 99],75,1769,15922,292.8,437.4,48,75,36.25,37.1,63,Saccade: 17758 ms,UP,39,5.57,142.94,253.27,"[ 10, 16, 28, 99]",17758,17796,356.2,645.5,290.4,448.9,64,Saccade: 17908 ms,RIGHT,59,14.61,247.7,566.59,"[ 3, 27, 99]",17908,17966,293.6,441.3,799.2,302.8,-72.88,DOWN,5.93,A12,D7.wav,D7_FAM_She_is_washing_the_dishes.png,19,25978818
p14,Trial: 37,p14.edf,.,49,Fixation: 17967 ms,127,17967,18093,"[ 3, 99]",9,1486,340,808.9,301.1,1,2,35.4,36.6,64,Saccade: 17908 ms,RIGHT,59,14.61,247.7,566.59,"[ 14, 99]",17908,17966,293.6,441.3,799.2,302.8,65,Saccade: 18094 ms,LEFT,19,1.05,55.05,76.69,"[ 3, 27, 99]",18094,18112,807.2,301,770.7,307.1,-165.6,LEFT,14.87,A12,D7.wav,D7_FAM_She_is_washing_the_dishes.png,19,25978818
p14,Trial: 37,p14.edf,.,50,Fixation: 18113 ms,213,18113,18325,"[ 3, 27, 99]",9,1412,340,784.4,303.8,2,2,35.35,36.6,65,Saccade: 18094 ms,LEFT,19,1.05,55.05,76.69,"[ 3, 99]",18094,18112,807.2,301,770.7,307.1,66,Saccade: 18326 ms,LEFT,51,15.77,309.14,556.03,"[ 2, 99]",18326,18376,785.9,304,217.6,313.6,6.08,RIGHT,0.7,A12,D7.wav,D7_FAM_She_is_washing_the_dishes.png,19,25978818
p14,Trial: 37,p14.edf,.,51,Fixation: 18377 ms,171,18377,18547,"[ 2, 99]",4,1588,351,231.0,324.3,1,2,36.65,37.25,66,Saccade: 18326 ms,LEFT,51,15.77,309.14,556.03,"[ 3, 27, 99]",18326,18376,785.9,304,217.6,313.6,67,Saccade: 18548 ms,DOWN,17,1.06,62.46,79.06,"[ 2, 99]",18548,18564,234.3,327.7,233.9,367.2,2.07,RIGHT,15.38,A12,D7.wav,D7_FAM_She_is_washing_the_dishes.png,19,25978818
p14,Trial: 37,p14.edf,18630,52,Fixation: 18565 ms,180,18565,18744,"[ 2, 99]",4,1560,351,234.3,362.7,2,2,36.6,37.2,67,Saccade: 18548 ms,DOWN,17,1.06,62.46,79.06,"[ 2, 99]",18548,18564,234.3,327.7,233.9,367.2,68,Saccade: 18745 ms,DOWN,26,3.4,130.77,253.12,"[ 7, 12, 99]",18745,18770,233.9,363.6,156.9,464,94.99,UP,1.04,A12,D7.wav,D7_FAM_She_is_washing_the_dishes.png,19,25978818
p14,Trial: 37,p14.edf,.,53,Fixation: 18771 ms,243,18771,19013,"[ 7, 12, 99]",4,1551,243,158.1,462.4,1,1,37.2,37.6,68,Saccade: 18745 ms,DOWN,26,3.4,130.77,253.12,"[ 2, 99]",18745,18770,233.9,363.6,156.9,464,69,Saccade: 19014 ms,RIGHT,30,3.61,120.42,207.15,[ 99],19014,19043,160.9,464.6,293.6,468.6,52.24,UP,3.37,A12,D7.wav,D7_FAM_She_is_washing_the_dishes.png,19,25978818
p14,Trial: 37,p14.edf,.,54,Fixation: 19044 ms,812,19044,19855,"[ 14, 99]",2,1430,812,300.4,476.3,1,1,36.25,37.1,69,Saccade: 19014 ms,RIGHT,30,3.61,120.42,207.15,"[ 7, 12, 99]",19014,19043,160.9,464.6,293.6,468.6,70,Saccade: 19856 ms,UP,29,2.31,79.68,137.49,"[ 12, 99]",19856,19884,314.8,483.2,257.7,420.4,174.51,LEFT,3.89,A12,D7.wav,D7_FAM_She_is_washing_the_dishes.png,19,25978818
p14,Trial: 37,p14.edf,.,55,Fixation: 19885 ms,115,19885,19999,"[ 12, 99]",8,1385,115,256.8,418.7,1,1,36.45,37.2,70,Saccade: 19856 ms,UP,29,2.31,79.68,137.49,"[ 14, 99]",19856,19884,314.8,483.2,257.7,420.4,71,Saccade: 20000 ms,UP,36,5.18,143.96,258.28,"[ 2, 99]",20000,20035,256.1,418,238.4,225.8,-52.27,DOWN,1.96,A12,D7.wav,D7_FAM_She_is_washing_the_dishes.png,19,25978818
p14,Trial: 37,p14.edf,.,56,Fixation: 20036 ms,236,20036,20271,"[ 2, 99]",4,1372,236,247.6,228.3,1,1,36.55,37.25,71,Saccade: 20000 ms,UP,36,5.18,143.96,258.28,[ 99],20000,20035,256.1,418,238.4,225.8,72,Saccade: 20272 ms,RIGHT,59,12.58,213.25,410.07,"[ 3, 99]",20272,20330,255.5,230.3,707.1,239.8,-87.18,DOWN,5.12,A12,D7.wav,D7_FAM_She_is_washing_the_dishes.png,19,25978818
p14,Trial: 37,p14.edf,.,57,Fixation: 20331 ms,196,20331,20526,"[ 3, 99]",9,1260,196,718.8,238.1,1,1,35.3,36.6,72,Saccade: 20272 ms,RIGHT,59,12.58,213.25,410.07,"[ 2, 99]",20272,20330,255.5,230.3,707.1,239.8,73,Saccade: 20527 ms,DOWN,80,13.03,162.84,339.83,[ 99],20527,20606,720,241.8,539.3,686.1,178.84,LEFT,13.12,A12,D7.wav,D7_FAM_She_is_washing_the_dishes.png,19,25978818
p14,Trial: 37,p14.edf,.,58,Fixation: 20607 ms,290,20607,20896,[ 99],75,1126,15922,522.3,693.9,58,75,35.75,37.55,73,Saccade: 20527 ms,DOWN,80,13.03,162.84,339.83,"[ 3, 99]",20527,20606,720,241.8,539.3,686.1,74,Saccade: 20897 ms,DOWN,324,8.02,24.75,563.79,[ ],20897,21220,517.3,704.2,361.1,967.5,65.78,UP,13.48,A12,D7.wav,D7_FAM_She_is_washing_the_dishes.png,19,25978818
p14,Trial: 37,p14.edf,.,59,Fixation: 21479 ms,447,21479,21925,[ 99],75,1072,15922,478.0,739.4,59,75,36.0,37.85,75,Saccade: 21440 ms,RIGHT,39,4.55,116.65,212.34,"[ 10, 16, 29, 99]",21440,21478,331.5,701.7,490.6,747.1,76,Saccade: 21926 ms,RIGHT,46,9.2,199.9,304.07,[ 99],21926,21971,473.9,735.8,794.1,653.7,44.34,RIGHT,1.73,A12,D7.wav,D7_FAM_She_is_washing_the_dishes.png,19,25978818
p14,Trial: 37,p14.edf,.,60,Fixation: 21972 ms,114,21972,22085,[ 99],75,1008,15922,792.9,655.2,60,75,35.75,37.35,76,Saccade: 21926 ms,RIGHT,46,9.2,199.9,304.07,[ 99],21926,21971,473.9,735.8,794.1,653.7,77,Saccade: 22086 ms,LEFT,49,9.46,193.06,387.93,"[ 16, 99]",22086,22134,798.8,662.5,481.7,792.9,-165.69,LEFT,9.06,A12,D7.wav,D7_FAM_She_is_washing_the_dishes.png,19,25978818
p14,Trial: 37,p14.edf,.,61,Fixation: 22135 ms,530,22135,22664,"[ 16, 99]",12,981,530,479.6,769.9,1,1,36.15,38.1,77,Saccade: 22086 ms,LEFT,49,9.46,193.06,387.93,[ 99],22086,22134,798.8,662.5,481.7,792.9,78,Saccade: 22665 ms,LEFT,32,3.19,99.84,173.89,"[ 10, 16, 99]",22665,22696,482.3,764.6,385.6,698.4,19.23,RIGHT,9.23,A12,D7.wav,D7_FAM_She_is_washing_the_dishes.png,19,25978818
p14,Trial: 37,p14.edf,.,62,Fixation: 22801 ms,134,22801,22934,"[ 8, 13, 99]",6,1000,134,984.0,435.3,1,1,36.25,37.05,79,Saccade: 22727 ms,RIGHT,74,17.82,240.84,572.87,"[ 10, 16, 99]",22727,22800,392.2,696.3,987.6,437.6,80,Saccade: 22935 ms,DOWN,21,1.42,67.6,110.05,[ 99],22935,22955,979.4,436.2,961,485.3,-147.42,LEFT,16.54,A12,D7.wav,D7_FAM_She_is_washing_the_dishes.png,19,25978818
p14,Trial: 37,p14.edf,.,63,Fixation: 22956 ms,138,22956,23093,[ 99],75,1017,15922,968.1,480.5,63,75,36.15,37.1,80,Saccade: 22935 ms,DOWN,21,1.42,67.6,110.05,"[ 13, 99]",22935,22955,979.4,436.2,961,485.3,81,Saccade: 23094 ms,.,15,0.25,16.46,37.48,[ 99],23094,23108,968.6,486.3,967.6,477.2,70.19,UP,1.3,A12,D7.wav,D7_FAM_She_is_washing_the_dishes.png,19,25978818
p14,Trial: 37,p14.edf,.,64,Fixation: 23109 ms,259,23109,23367,[ 99],75,973,15922,971.8,483.3,64,75,36.2,37.1,81,Saccade: 23094 ms,.,15,0.25,16.46,37.48,[ 99],23094,23108,968.6,486.3,967.6,477.2,82,Saccade: 23368 ms,DOWN,33,0.75,22.63,42.96,"[ 18, 22, 99]",23368,23400,969.7,474.2,972,501.8,143.58,.,0.13,A12,D7.wav,D7_FAM_She_is_washing_the_dishes.png,19,25978818
p14,Trial: 37,p14.edf,.,65,Fixation: 23401 ms,150,23401,23550,"[ 18, 22, 99]",4,907,496,973.2,505.6,1,2,36.25,37.2,82,Saccade: 23368 ms,DOWN,33,0.75,22.63,42.96,"[ 13, 99]",23368,23400,969.7,474.2,972,501.8,83,Saccade: 23551 ms,.,16,0.25,15.54,37.7,"[ 18, 22, 99]",23551,23566,977.1,514.5,975.5,505.4,93.68,UP,0.6,A12,D7.wav,D7_FAM_She_is_washing_the_dishes.png,19,25978818
p14,Trial: 37,p14.edf,.,66,Fixation: 23567 ms,346,23567,23912,"[ 18, 22, 99]",4,853,496,975.9,512.8,2,2,36.25,37.2,83,Saccade: 23551 ms,.,16,0.25,15.54,37.7,"[ 18, 22, 99]",23551,23566,977.1,514.5,975.5,505.4,84,Saccade: 23913 ms,UP,177,3.94,22.27,1535.64,"[ 5, 8, 13, 99]",23913,24089,984.9,524,1023.3,382.9,111.05,.,0.21,A12,D7.wav,D7_FAM_She_is_washing_the_dishes.png,19,25978818
p14,Trial: 37,p14.edf,.,67,Fixation: 24253 ms,128,24253,24380,"[ 13, 99]",16,697,128,984.0,457.1,1,1,36.25,37.1,85,Saccade: 24202 ms,DOWN,51,1.53,29.93,140.01,"[ 8, 13, 99]",24202,24252,1002,412.5,992,468.2,86,Saccade: 24381 ms,.,16,0.21,13.06,49.34,"[ 13, 99]",24381,24396,988.6,452,982.5,447.4,-98.48,DOWN,1.52,A12,D7.wav,D7_FAM_She_is_washing_the_dishes.png,19,25978818
p14,Trial: 37,p14.edf,.,68,Fixation: 24700 ms,168,24700,24867,"[ 22, 99]",6,745,363,917.1,575.8,1,2,36.05,37.25,88,Saccade: 24672 ms,DOWN,28,1.94,69.31,121.04,"[ 18, 22, 99]",24672,24699,967.7,526,922.4,581.2,89,Saccade: 24868 ms,.,14,0.19,13.44,47.44,"[ 22, 99]",24868,24881,917.9,567.4,916.3,560.6,59.9,UP,3.69,A12,D7.wav,D7_FAM_She_is_washing_the_dishes.png,19,25978818
p14,Trial: 37,p14.edf,.,69,Fixation: 24882 ms,195,24882,25076,"[ 22, 99]",6,728,363,900.2,574.4,2,2,35.95,37.15,89,Saccade: 24868 ms,.,14,0.19,13.44,47.44,"[ 22, 99]",24868,24881,917.9,567.4,916.3,560.6,90,Saccade: 25077 ms,.,9,0.36,39.55,35.95,[ 99],25077,25085,885.8,564.8,895.9,572.9,-4.58,.,0.47,A12,D7.wav,D7_FAM_She_is_washing_the_dishes.png,19,25978818
p14,Trial: 37,p14.edf,.,70,Fixation: 25302 ms,80,25302,25381,"[ 24, 99]",2,636,166,859.9,522.1,1,2,35.7,36.9,92,Saccade: 25219 ms,UP,83,1.45,17.42,83.26,"[ 24, 99]",25219,25301,888.4,564,864.2,516.7,93,Saccade: 25382 ms,.,21,0.41,19.57,35.27,"[ 24, 99]",25382,25402,854.6,514.5,861.5,527.9,-51.47,DOWN,1.81,A12,D7.wav,D7_FAM_She_is_washing_the_dishes.png,19,25978818
p14,Trial: 37,p14.edf,.,71,Fixation: 25403 ms,86,25403,25488,"[ 24, 99]",2,632,166,861.9,523.5,2,2,35.7,36.95,93,Saccade: 25382 ms,.,21,0.41,19.57,35.27,"[ 24, 99]",25382,25402,854.6,514.5,861.5,527.9,94,Saccade: 25489 ms,UP,294,7.74,26.31,237.31,"[ 3, 99]",25489,25782,865,521.4,745,265.7,145.91,.,0.07,A12,D7.wav,D7_FAM_She_is_washing_the_dishes.png,19,25978818
p14,Trial: 37,p14.edf,.,72,Fixation: 26669 ms,156,26669,26824,"[ 23, 99]",6,875,156,989.7,312.0,1,1,36.3,37.05,97,Saccade: 26508 ms,RIGHT,161,4.96,30.78,188.44,"[ 23, 99]",26508,26668,830.3,210.2,989,292.9,98,Saccade: 26825 ms,LEFT,96,8.08,84.12,376.53,"[ 3, 99]",26825,26920,1002.6,338.2,715.2,310.1,-121.84,DOWN,6.73,A12,D7.wav,D7_FAM_She_is_washing_the_dishes.png,19,25978818
p14,Trial: 37,p14.edf,.,73,Fixation: 26921 ms,232,26921,27152,"[ 3, 99]",9,1122,232,723.8,316.4,1,1,35.2,36.5,98,Saccade: 26825 ms,LEFT,96,8.08,84.12,376.53,[ 99],26825,26920,1002.6,338.2,715.2,310.1,99,Saccade: 27153 ms,RIGHT,191,9.86,51.61,1430.12,"[ 8, 13, 99]",27153,27343,723.8,326.3,1073.3,389.3,0.92,RIGHT,7.44,A12,D7.wav,D7_FAM_She_is_washing_the_dishes.png,19,25978818
p14,Trial: 37,p14.edf,.,74,Fixation: 27414 ms,241,27414,27654,"[ 8, 13, 99]",6,1046,241,1008.6,388.2,1,1,36.3,37.1,100,Saccade: 27390 ms,LEFT,24,1.95,81.18,138.37,"[ 8, 13, 99]",27390,27413,1068.4,396.7,997.2,395.2,101,Saccade: 27655 ms,LEFT,62,20.01,322.79,532.19,"[ 12, 99]",27655,27716,1005.6,378.7,281.5,438.7,166.24,LEFT,8.2,A12,D7.wav,D7_FAM_She_is_washing_the_dishes.png,19,25978818
p14,Trial: 37,p14.edf,.,75,Fixation: 27717 ms,152,27717,27868,"[ 12, 99]",8,1268,152,281.3,448.4,1,1,36.3,37.1,101,Saccade: 27655 ms,LEFT,62,20.01,322.79,532.19,"[ 8, 13, 99]",27655,27716,1005.6,378.7,281.5,438.7,102,Saccade: 27869 ms,DOWN,260,14,53.83,1431.53,[ ],27869,28128,278.5,452.7,12.5,924.8,4.63,RIGHT,20.1,A12,D7.wav,D7_FAM_She_is_washing_the_dishes.png,19,25978818
