RECORDING_SESSION_LABEL,TRIAL_LABEL,DATA_FILE,CURRENT_FIX_MSG_TIME_1,CURRENT_FIX_INDEX,CURRENT_FIX_LABEL,CURRENT_FIX_DURATION,CURRENT_FIX_START,CURRENT_FIX_END,CURRENT_FIX_INTEREST_AREAS,CURRENT_FIX_INTEREST_AREA_FIX_COUNT,CURRENT_FIX_PUPIL,CURRENT_FIX_RUN_DWELL_TIME,CURRENT_FIX_X,CURRENT_FIX_Y,CURRENT_FIX_RUN_INDEX,CURRENT_FIX_RUN_SIZE,CURRENT_FIX_X_RESOLUTION,CURRENT_FIX_Y_RESOLUTION,PREVIOUS_SAC_INDEX,PREVIOUS_SAC_LABEL,PREVIOUS_SAC_DIRECTION,PREVIOUS_SAC_DURATION,PREVIOUS_SAC_AMPLITUDE,PREVIOUS_SAC_AVG_VELOCITY,PREVIOUS_SAC_PEAK_VELOCITY,PREVIOUS_SAC_START_INTEREST_AREAS,PREVIOUS_SAC_START_TIME,PREVIOUS_SAC_END_TIME,PREVIOUS_SAC_START_X,PREVIOUS_SAC_START_Y,PREVIOUS_SAC_END_X,PREVIOUS_SAC_END_Y,NEXT_SAC_INDEX,NEXT_SAC_LABEL,NEXT_SAC_DIRECTION,NEXT_SAC_DURATION,NEXT_SAC_AMPLITUDE,NEXT_SAC_AVG_VELOCITY,NEXT_SAC_PEAK_VELOCITY,NEXT_SAC_END_INTEREST_AREAS,NEXT_SAC_START_TIME,NEXT_SAC_END_TIME,NEXT_SAC_START_X,NEXT_SAC_START_Y,NEXT_SAC_END_X,NEXT_SAC_END_Y,PREVIOUS_FIX_ANGLE,PREVIOUS_FIX_DIRECTION,PREVIOUS_FIX_DISTANCE,ItemNO,audiofilename,imagefilename,TRIAL_INDEX,TRIAL_START_TIME
p9,Trial: 40,p9.edf,68,1,Fixation: 7 ms,316,7,322,"[ 21, 99]",6,1120,316,545.9,388.1,1,1,35.25,36.5,.,.,.,.,.,.,.,.,.,.,.,.,.,.,1,Saccade: 323 ms,DOWN,57,17.1,300.02,625.34,[ ],323,379,551.3,387.8,707.9,1023,.,.,.,A23,D7.wav,D7_FAM_She_is_washing_the_dishes.png,19,1681423
p9,Trial: 40,p9.edf,.,2,Fixation: 380 ms,287,380,666,[ ],.,782,.,703.3,987.7,.,.,36.9,40.0,1,Saccade: 323 ms,DOWN,57,17.1,300.02,625.34,"[ 21, 99]",323,379,551.3,387.8,707.9,1023,2,Saccade: 667 ms,LEFT,10,0.59,59.3,50.09,[ ],667,676,699.2,980.3,679.1,989.5,105.55,UP,16.27,A23,D7.wav,D7_FAM_She_is_washing_the_dishes.png,19,1681423
p9,Trial: 40,p9.edf,3200,3,Fixation: 677 ms,2772,677,3448,[ ],.,609,.,680.7,989.6,.,.,36.75,39.8,2,Saccade: 667 ms,LEFT,10,0.59,59.3,50.09,[ ],667,676,699.2,980.3,679.1,989.5,3,Saccade: 3449 ms,UP,103,16.58,160.95,297.83,"[ 21, 99]",3449,3551,683.1,971.4,632.2,342.1,4.44,RIGHT,0.62,A23,D7.wav,D7_FAM_She_is_washing_the_dishes.png,19,1681423
p9,Trial: 40,p9.edf,.,4,Fixation: 3552 ms,107,3552,3658,[ 99],57,750,19547,694.5,262.7,1,56,35.25,36.55,3,Saccade: 3449 ms,UP,103,16.58,160.95,297.83,[ ],3449,3551,683.1,971.4,632.2,342.1,4,Saccade: 3659 ms,RIGHT,46,3.06,66.58,86.07,"[ 15, 99]",3659,3704,741.9,233.7,846.5,263.8,-91.15,DOWN,19.05,A23,D7.wav,D7_FAM_She_is_washing_the_dishes.png,19,1681423
p9,Trial: 40,p9.edf,.,5,Fixation: 3705 ms,158,3705,3862,"[ 15, 99]",3,776,158,849.3,273.0,1,1,35.6,36.7,4,Saccade: 3659 ms,RIGHT,46,3.06,66.58,86.07,[ 99],3659,3704,741.9,233.7,846.5,263.8,5,Saccade: 3863 ms,RIGHT,39,4.42,113.39,218.58,"[ 4, 99]",3863,3901,847.8,280.6,1004.5,251.8,176.32,LEFT,4.38,A23,D7.wav,D7_FAM_She_is_washing_the_dishes.png,19,1681423
p9,Trial: 40,p9.edf,.,6,Fixation: 3902 ms,171,3902,4072,"[ 4, 99]",9,757,1013,996.7,259.9,1,2,36.35,37.1,5,Saccade: 3863 ms,RIGHT,39,4.42,113.39,218.58,"[ 15, 99]",3863,3901,847.8,280.6,1004.5,251.8,6,Saccade: 4073 ms,RIGHT,21,1.36,64.68,109.36,"[ 4, 99]",4073,4093,997,261.8,1046.5,262.6,-175.05,LEFT,4.11,A23,D7.wav,D7_FAM_She_is_washing_the_dishes.png,19,1681423
p9,Trial: 40,p9.edf,.,7,Fixation: 4094 ms,842,4094,4935,"[ 4, 99]",9,780,1013,1033.7,266.3,2,2,36.55,37.25,6,Saccade: 4073 ms,RIGHT,21,1.36,64.68,109.36,"[ 4, 99]",4073,4093,997,261.8,1046.5,262.6,7,Saccade: 4936 ms,LEFT,22,0.72,32.94,50.74,"[ 4, 99]",4936,4957,1027.2,261.1,1005.8,245.3,170.37,LEFT,1.03,A23,D7.wav,D7_FAM_She_is_washing_the_dishes.png,19,1681423
p9,Trial: 40,p9.edf,.,8,Fixation: 5056 ms,248,5056,5303,"[ 6, 99]",5,926,248,374.5,212.2,1,1,35.9,36.95,8,Saccade: 4980 ms,LEFT,76,17.08,224.75,567.31,[ 99],4980,5055,987.2,238.2,371.1,212.3,9,Saccade: 5304 ms,LEFT,28,3.34,119.3,238.71,"[ 9, 99]",5304,5331,375.2,204.5,279.5,279.8,-4.58,RIGHT,18.26,A23,D7.wav,D7_FAM_She_is_washing_the_dishes.png,19,1681423
p9,Trial: 40,p9.edf,.,9,Fixation: 5332 ms,292,5332,5623,"[ 9, 99]",1,1051,292,288.0,264.1,1,1,36.25,37.05,9,Saccade: 5304 ms,LEFT,28,3.34,119.3,238.71,"[ 6, 99]",5304,5331,375.2,204.5,279.5,279.8,10,Saccade: 5624 ms,RIGHT,204,9.97,48.89,1476.13,[ 99],5624,5827,299.9,261.8,655,234.8,30.33,RIGHT,2.78,A23,D7.wav,D7_FAM_She_is_washing_the_dishes.png,19,1681423
p9,Trial: 40,p9.edf,.,10,Fixation: 6370 ms,476,6370,6845,"[ 4, 99]",9,1141,476,978.6,441.2,1,1,36.2,37.05,11,Saccade: 6316 ms,RIGHT,54,11.31,209.47,430.19,"[ 21, 99]",6316,6369,637.9,249,989,455.8,12,Saccade: 6846 ms,DOWN,40,7.14,178.59,377.51,"[ 17, 18, 99]",6846,6885,967.6,443.3,1090.8,680.8,165.92,LEFT,19.65,A23,D7.wav,D7_FAM_She_is_washing_the_dishes.png,19,1681423
p9,Trial: 40,p9.edf,.,11,Fixation: 6886 ms,476,6886,7361,"[ 17, 18, 99]",2,1233,476,1074.7,649.6,1,1,37.2,38.1,12,Saccade: 6846 ms,DOWN,40,7.14,178.59,377.51,[ 99],6846,6885,967.6,443.3,1090.8,680.8,13,Saccade: 7362 ms,LEFT,238,20.8,87.41,1749.3,"[ 21, 99]",7362,7599,1067.6,628.3,451.7,176.9,115.27,UP,6.13,A23,D7.wav,D7_FAM_She_is_washing_the_dishes.png,19,1681423
p9,Trial: 40,p9.edf,.,12,Fixation: 8031 ms,364,8031,8394,"[ 6, 99]",5,1459,364,368.6,204.6,1,1,35.9,37.0,14,Saccade: 8004 ms,LEFT,27,3.34,123.84,239.52,[ 99],8004,8030,472.4,161.9,360.7,205.9,15,Saccade: 8395 ms,LEFT,22,1.87,84.83,130.74,"[ 9, 99]",8395,8416,366.6,210.3,317.2,257.1,-31.53,RIGHT,22.66,A23,D7.wav,D7_FAM_She_is_washing_the_dishes.png,19,1681423
p9,Trial: 40,p9.edf,.,13,Fixation: 8417 ms,289,8417,8705,[ 99],57,1498,19547,322.7,249.3,10,56,36.1,37.0,15,Saccade: 8395 ms,LEFT,22,1.87,84.83,130.74,"[ 6, 99]",8395,8416,366.6,210.3,317.2,257.1,16,Saccade: 8706 ms,RIGHT,234,14.86,63.49,1769.75,"[ 15, 99]",8706,8939,317.6,256.7,848,306.9,43.46,RIGHT,1.76,A23,D7.wav,D7_FAM_She_is_washing_the_dishes.png,19,1681423
p9,Trial: 40,p9.edf,.,14,Fixation: 9512 ms,710,9512,10221,"[ 2, 99]",3,1495,710,833.8,500.0,1,1,35.6,36.85,17,Saccade: 9474 ms,DOWN,38,5.14,135.3,306.58,"[ 15, 99]",9474,9511,845.8,337,830.1,525.5,18,Saccade: 10222 ms,RIGHT,45,8.1,179.95,334.5,"[ 5, 18, 99]",10222,10266,841.9,475.6,1120.3,577.2,154.54,LEFT,15.79,A23,D7.wav,D7_FAM_She_is_washing_the_dishes.png,19,1681423
p9,Trial: 40,p9.edf,.,15,Fixation: 10267 ms,365,10267,10631,"[ 5, 18, 99]",4,1394,365,1117.8,569.8,1,1,37.4,37.9,18,Saccade: 10222 ms,RIGHT,45,8.1,179.95,334.5,"[ 2, 99]",10222,10266,841.9,475.6,1120.3,577.2,19,Saccade: 10632 ms,LEFT,60,10.03,167.23,468.46,[ 99],10632,10691,1126.9,567.4,764.8,518.4,166.5,LEFT,8,A23,D7.wav,D7_FAM_She_is_washing_the_dishes.png,19,1681423
p9,Trial: 40,p9.edf,.,16,Fixation: 10692 ms,1111,10692,11802,"[ 15, 99]",3,1390,1111,746.9,492.1,1,1,35.4,36.75,19,Saccade: 10632 ms,LEFT,60,10.03,167.23,468.46,"[ 5, 18, 99]",10632,10691,1126.9,567.4,764.8,518.4,20,Saccade: 11803 ms,UP,165,3.13,18.97,1539.79,"[ 15, 99]",11803,11967,767.9,472.9,805.3,364.9,-11.55,RIGHT,10.4,A23,D7.wav,D7_FAM_She_is_washing_the_dishes.png,19,1681423
p9,Trial: 40,p9.edf,.,17,Fixation: 12411 ms,231,12411,12641,[ 99],57,1355,19547,984.4,215.5,14,56,36.25,37.15,21,Saccade: 12346 ms,RIGHT,65,6.47,99.5,251.79,"[ 15, 99]",12346,12410,787.6,366.8,974.7,226.4,22,Saccade: 12642 ms,RIGHT,23,2.57,111.94,165.46,[ 99],12642,12664,985.4,217.4,1075.8,190.3,-131.53,DOWN,10,A23,D7.wav,D7_FAM_She_is_washing_the_dishes.png,19,1681423
p9,Trial: 40,p9.edf,13176,18,Fixation: 12665 ms,1165,12665,13829,[ 99],57,1406,19547,1078.0,180.4,15,56,36.95,37.55,22,Saccade: 12642 ms,RIGHT,23,2.57,111.94,165.46,[ 99],12642,12664,985.4,217.4,1075.8,190.3,23,Saccade: 13830 ms,LEFT,79,19.62,248.34,685.52,[ 99],13830,13908,1082.3,178,367.2,179.3,-159.82,LEFT,2.72,A23,D7.wav,D7_FAM_She_is_washing_the_dishes.png,19,1681423
p9,Trial: 40,p9.edf,.,19,Fixation: 13909 ms,148,13909,14056,"[ 7, 99]",2,1556,148,345.5,187.1,1,1,36.0,37.05,23,Saccade: 13830 ms,LEFT,79,19.62,248.34,685.52,[ 99],13830,13908,1082.3,178,367.2,179.3,24,Saccade: 14057 ms,RIGHT,27,2.66,98.66,207.09,[ 99],14057,14083,335.3,191,430.7,195.4,0.51,RIGHT,20.08,A23,D7.wav,D7_FAM_She_is_washing_the_dishes.png,19,1681423
p9,Trial: 40,p9.edf,14170,20,Fixation: 14084 ms,245,14084,14328,[ 99],57,1562,19547,417.9,190.6,17,56,35.7,36.9,24,Saccade: 14057 ms,RIGHT,27,2.66,98.66,207.09,"[ 7, 99]",14057,14083,335.3,191,430.7,195.4,25,Saccade: 14329 ms,DOWN,50,6.76,135.18,299.18,"[ 21, 99]",14329,14378,410.9,194.9,517,417.7,177.32,LEFT,2.02,A23,D7.wav,D7_FAM_She_is_washing_the_dishes.png,19,1681423
p9,Trial: 40,p9.edf,.,21,Fixation: 14379 ms,142,14379,14520,"[ 21, 99]",6,1533,142,522.0,407.0,1,1,35.3,36.6,25,Saccade: 14329 ms,DOWN,50,6.76,135.18,299.18,[ 99],14329,14378,410.9,194.9,517,417.7,26,Saccade: 14521 ms,DOWN,23,1.38,59.82,111.72,"[ 12, 99]",14521,14543,520.1,404,485.9,439.8,116.47,UP,6.58,A23,D7.wav,D7_FAM_She_is_washing_the_dishes.png,19,1681423
p9,Trial: 40,p9.edf,.,22,Fixation: 14677 ms,118,14677,14794,"[ 2, 99]",3,1423,118,856.1,425.6,1,1,35.6,36.7,27,Saccade: 14623 ms,RIGHT,54,9.93,183.9,449.26,"[ 21, 99]",14623,14676,490.7,434.7,843.1,424.3,28,Saccade: 14795 ms,RIGHT,68,8.52,125.22,398.87,"[ 5, 18, 99]",14795,14862,859.7,431.3,1145.7,557.5,176.92,LEFT,9.44,A23,D7.wav,D7_FAM_She_is_washing_the_dishes.png,19,1681423
p9,Trial: 40,p9.edf,.,23,Fixation: 14863 ms,260,14863,15122,"[ 5, 18, 99]",4,1223,260,1141.3,548.7,1,1,37.55,37.9,28,Saccade: 14795 ms,RIGHT,68,8.52,125.22,398.87,"[ 2, 99]",14795,14862,859.7,431.3,1145.7,557.5,29,Saccade: 15123 ms,LEFT,81,21.45,264.81,684.49,"[ 6, 99]",15123,15203,1138,551.8,408,257.1,157.06,LEFT,8.47,A23,D7.wav,D7_FAM_She_is_washing_the_dishes.png,19,1681423
p9,Trial: 40,p9.edf,.,24,Fixation: 15204 ms,246,15204,15449,"[ 6, 99]",5,1184,246,397.5,265.7,1,1,35.7,36.8,29,Saccade: 15123 ms,LEFT,81,21.45,264.81,684.49,"[ 5, 18, 99]",15123,15203,1138,551.8,408,257.1,30,Saccade: 15450 ms,RIGHT,66,17.23,261.01,556.91,"[ 4, 99]",15450,15515,396.7,269.6,1017.7,274,-20.46,RIGHT,21.68,A23,D7.wav,D7_FAM_She_is_washing_the_dishes.png,19,1681423
p9,Trial: 40,p9.edf,.,25,Fixation: 15516 ms,172,15516,15687,"[ 4, 99]",9,1150,781,1022.7,260.8,1,4,36.45,37.2,30,Saccade: 15450 ms,RIGHT,66,17.23,261.01,556.91,"[ 6, 99]",15450,15515,396.7,269.6,1017.7,274,31,Saccade: 15688 ms,RIGHT,25,1.76,70.22,131.75,"[ 4, 99]",15688,15712,1022,254,1076.6,288.6,-179.56,LEFT,17.33,A23,D7.wav,D7_FAM_She_is_washing_the_dishes.png,19,1681423
p9,Trial: 40,p9.edf,15724,26,Fixation: 15713 ms,215,15713,15927,"[ 4, 99]",9,1166,781,1067.8,280.2,2,4,36.8,37.35,31,Saccade: 15688 ms,RIGHT,25,1.76,70.22,131.75,"[ 4, 99]",15688,15712,1022,254,1076.6,288.6,32,Saccade: 15928 ms,UP,13,0.92,71.06,74.24,"[ 4, 99]",15928,15940,1072.1,275.5,1055.4,245.5,157.09,LEFT,1.34,A23,D7.wav,D7_FAM_She_is_washing_the_dishes.png,19,1681423
p9,Trial: 40,p9.edf,.,27,Fixation: 15941 ms,152,15941,16092,"[ 4, 99]",9,1169,781,1060.1,252.6,3,4,36.7,37.3,32,Saccade: 15928 ms,UP,13,0.92,71.06,74.24,"[ 4, 99]",15928,15940,1072.1,275.5,1055.4,245.5,33,Saccade: 16093 ms,UP,18,0.79,43.65,71.88,"[ 4, 99]",16093,16110,1062.7,268.8,1077.2,243.4,-74.18,DOWN,0.77,A23,D7.wav,D7_FAM_She_is_washing_the_dishes.png,19,1681423
p9,Trial: 40,p9.edf,.,28,Fixation: 16111 ms,242,16111,16352,"[ 4, 99]",9,1130,781,1074.6,241.6,4,4,36.9,37.4,33,Saccade: 16093 ms,UP,18,0.79,43.65,71.88,"[ 4, 99]",16093,16110,1062.7,268.8,1077.2,243.4,34,Saccade: 16353 ms,LEFT,97,18.59,191.61,451.35,[ 99],16353,16449,1078.7,229,404.1,218.7,-143.22,.,0.49,A23,D7.wav,D7_FAM_She_is_washing_the_dishes.png,19,1681423
p9,Trial: 40,p9.edf,.,29,Fixation: 16450 ms,459,16450,16908,"[ 21, 99]",6,1264,459,418.4,217.1,1,1,35.7,36.85,34,Saccade: 16353 ms,LEFT,97,18.59,191.61,451.35,[ 99],16353,16449,1078.7,229,404.1,218.7,35,Saccade: 16909 ms,RIGHT,59,18.94,320.99,617.16,[ 99],16909,16967,422,217.5,1112.3,217.9,-2.09,RIGHT,18.09,A23,D7.wav,D7_FAM_She_is_washing_the_dishes.png,19,1681423
p9,Trial: 40,p9.edf,17020,30,Fixation: 16968 ms,148,16968,17115,[ 99],57,1238,19547,1098.9,213.6,27,56,37.1,37.6,35,Saccade: 16909 ms,RIGHT,59,18.94,320.99,617.16,"[ 21, 99]",16909,16967,422,217.5,1112.3,217.9,36,Saccade: 17116 ms,LEFT,33,2.59,78.43,239.53,"[ 11, 99]",17116,17148,1099.5,210.4,1005.7,194.3,-179.71,LEFT,18.7,A23,D7.wav,D7_FAM_She_is_washing_the_dishes.png,19,1681423
p9,Trial: 40,p9.edf,.,31,Fixation: 17149 ms,388,17149,17536,"[ 11, 99]",1,1237,388,1001.6,193.2,1,1,36.4,37.25,36,Saccade: 17116 ms,LEFT,33,2.59,78.43,239.53,[ 99],17116,17148,1099.5,210.4,1005.7,194.3,37,Saccade: 17537 ms,LEFT,75,18.07,240.88,625.1,"[ 7, 99]",17537,17611,999,193.4,345,193.9,-11.63,RIGHT,2.7,A23,D7.wav,D7_FAM_She_is_washing_the_dishes.png,19,1681423
p9,Trial: 40,p9.edf,.,32,Fixation: 17612 ms,128,17612,17739,"[ 7, 99]",2,1281,128,342.3,198.2,1,1,36.0,37.1,37,Saccade: 17537 ms,LEFT,75,18.07,240.88,625.1,"[ 11, 99]",17537,17611,999,193.4,345,193.9,38,Saccade: 17740 ms,RIGHT,21,1.5,71.23,102.64,[ 99],17740,17760,341,199.4,387.4,171.5,0.42,RIGHT,18.21,A23,D7.wav,D7_FAM_She_is_washing_the_dishes.png,19,1681423
p9,Trial: 40,p9.edf,18110,33,Fixation: 17761 ms,482,17761,18242,[ 99],57,1310,19547,379.4,177.7,30,56,35.9,37.0,38,Saccade: 17740 ms,RIGHT,21,1.5,71.23,102.64,"[ 7, 99]",17740,17760,341,199.4,387.4,171.5,39,Saccade: 18243 ms,RIGHT,75,18.19,242.48,548.89,"[ 3, 99]",18243,18317,373,176,1032.2,183.1,-151.8,LEFT,1.17,A23,D7.wav,D7_FAM_She_is_washing_the_dishes.png,19,1681423
p9,Trial: 40,p9.edf,.,34,Fixation: 18318 ms,127,18318,18444,"[ 3, 99]",2,1245,127,1037.5,178.9,1,1,36.65,37.4,39,Saccade: 18243 ms,RIGHT,75,18.19,242.48,548.89,[ 99],18243,18317,373,176,1032.2,183.1,40,Saccade: 18445 ms,LEFT,24,1.52,63.35,118.6,"[ 11, 99]",18445,18468,1039.1,183.2,983.9,177.4,179.9,LEFT,18.14,A23,D7.wav,D7_FAM_She_is_washing_the_dishes.png,19,1681423
p9,Trial: 40,p9.edf,.,35,Fixation: 18469 ms,560,18469,19028,[ 99],57,1229,19547,991.8,171.3,32,56,36.35,37.3,40,Saccade: 18445 ms,LEFT,24,1.52,63.35,118.6,"[ 3, 99]",18445,18468,1039.1,183.2,983.9,177.4,41,Saccade: 19029 ms,DOWN,23,1.86,80.92,123.59,"[ 2, 99]",19029,19051,991,173.5,964.3,237,-9.23,RIGHT,1.27,A23,D7.wav,D7_FAM_She_is_washing_the_dishes.png,19,1681423
p9,Trial: 40,p9.edf,.,36,Fixation: 19052 ms,268,19052,19319,"[ 2, 99]",3,1189,268,966.2,237.3,1,1,36.1,37.0,41,Saccade: 19029 ms,DOWN,23,1.86,80.92,123.59,[ 99],19029,19051,991,173.5,964.3,237,42,Saccade: 19320 ms,RIGHT,27,2.53,93.72,169.74,[ 99],19320,19346,966.5,239.8,1057.7,224.9,68.31,UP,1.91,A23,D7.wav,D7_FAM_She_is_washing_the_dishes.png,19,1681423
p9,Trial: 40,p9.edf,19490,37,Fixation: 19347 ms,427,19347,19773,"[ 3, 99]",2,1128,427,1051.8,220.0,1,1,36.75,37.4,42,Saccade: 19320 ms,RIGHT,27,2.53,93.72,169.74,"[ 2, 99]",19320,19346,966.5,239.8,1057.7,224.9,43,Saccade: 19774 ms,LEFT,67,17.3,258.21,602.46,"[ 21, 99]",19774,19840,1050,217.5,424.6,220.9,-168.81,LEFT,2.4,A23,D7.wav,D7_FAM_She_is_washing_the_dishes.png,19,1681423
p9,Trial: 40,p9.edf,.,38,Fixation: 19841 ms,136,19841,19976,"[ 21, 99]",6,1090,136,425.0,216.3,1,1,35.6,36.8,43,Saccade: 19774 ms,LEFT,67,17.3,258.21,602.46,"[ 3, 99]",19774,19840,1050,217.5,424.6,220.9,44,Saccade: 19977 ms,LEFT,21,1.56,74.48,111.51,"[ 6, 99]",19977,19997,426.2,221.1,373.8,241,-0.33,RIGHT,17.33,A23,D7.wav,D7_FAM_She_is_washing_the_dishes.png,19,1681423
p9,Trial: 40,p9.edf,.,39,Fixation: 19998 ms,364,19998,20361,"[ 6, 99]",5,1082,364,386.1,230.8,1,1,35.8,36.9,44,Saccade: 19977 ms,LEFT,21,1.56,74.48,111.51,"[ 21, 99]",19977,19997,426.2,221.1,373.8,241,45,Saccade: 20362 ms,RIGHT,73,19.38,265.52,573.12,[ 99],20362,20434,389.8,215.2,1094.9,240.3,19.86,RIGHT,1.16,A23,D7.wav,D7_FAM_She_is_washing_the_dishes.png,19,1681423
p9,Trial: 40,p9.edf,.,40,Fixation: 20435 ms,108,20435,20542,[ 99],57,1050,19547,1098.5,233.6,37,56,37.05,37.5,45,Saccade: 20362 ms,RIGHT,73,19.38,265.52,573.12,"[ 6, 99]",20362,20434,389.8,215.2,1094.9,240.3,46,Saccade: 20543 ms,LEFT,23,1.49,64.65,103.48,"[ 3, 99]",20543,20565,1100.9,233.2,1047.1,222.3,179.78,LEFT,19.56,A23,D7.wav,D7_FAM_She_is_washing_the_dishes.png,19,1681423
p9,Trial: 40,p9.edf,.,41,Fixation: 20566 ms,1322,20566,21887,[ 99],57,958,19547,1064.5,221.7,38,56,36.8,37.4,46,Saccade: 20543 ms,LEFT,23,1.49,64.65,103.48,[ 99],20543,20565,1100.9,233.2,1047.1,222.3,47,Saccade: 21888 ms,.,10,0.49,48.57,47.75,"[ 4, 99]",21888,21897,1070.7,224,1073.1,242,-19.04,RIGHT,0.97,A23,D7.wav,D7_FAM_She_is_washing_the_dishes.png,19,1681423
p9,Trial: 40,p9.edf,.,42,Fixation: 21898 ms,267,21898,22164,"[ 4, 99]",9,875,453,1071.6,242.8,1,2,36.8,37.4,47,Saccade: 21888 ms,.,10,0.49,48.57,47.75,[ 99],21888,21897,1070.7,224,1073.1,242,48,Saccade: 22165 ms,DOWN,13,0.87,67.14,70.47,"[ 4, 99]",22165,22177,1065.4,243.7,1065.1,276.3,108.88,UP,0.6,A23,D7.wav,D7_FAM_She_is_washing_the_dishes.png,19,1681423
p9,Trial: 40,p9.edf,.,43,Fixation: 22178 ms,186,22178,22363,"[ 4, 99]",9,855,453,1064.5,271.0,2,2,36.8,37.3,48,Saccade: 22165 ms,DOWN,13,0.87,67.14,70.47,"[ 4, 99]",22165,22177,1065.4,243.7,1065.1,276.3,49,Saccade: 22364 ms,LEFT,62,16.59,267.65,490.62,[ 99],22364,22425,1063.7,268,631.7,699.9,75.67,UP,0.78,A23,D7.wav,D7_FAM_She_is_washing_the_dishes.png,19,1681423
p9,Trial: 40,p9.edf,.,44,Fixation: 22426 ms,127,22426,22552,[ 99],57,844,19547,638.2,695.4,41,56,35.65,37.45,49,Saccade: 22364 ms,LEFT,62,16.59,267.65,490.62,"[ 4, 99]",22364,22425,1063.7,268,631.7,699.9,50,Saccade: 22553 ms,DOWN,22,1.67,75.8,110.36,"[ 1, 99]",22553,22574,635.1,692.6,664.2,747.3,43.98,RIGHT,16.35,A23,D7.wav,D7_FAM_She_is_washing_the_dishes.png,19,1681423
p9,Trial: 40,p9.edf,.,45,Fixation: 22575 ms,213,22575,22787,"[ 1, 99]",2,825,402,666.5,751.4,1,2,35.8,37.8,50,Saccade: 22553 ms,DOWN,22,1.67,75.8,110.36,[ 99],22553,22574,635.1,692.6,664.2,747.3,51,Saccade: 22788 ms,LEFT,19,1.26,66.09,95.05,"[ 1, 99]",22788,22806,665.9,750.4,624.8,769.8,118.02,UP,1.69,A23,D7.wav,D7_FAM_She_is_washing_the_dishes.png,19,1681423
p9,Trial: 40,p9.edf,.,46,Fixation: 22807 ms,189,22807,22995,"[ 1, 99]",2,797,402,636.1,773.7,2,2,35.9,37.95,51,Saccade: 22788 ms,LEFT,19,1.26,66.09,95.05,"[ 1, 99]",22788,22806,665.9,750.4,624.8,769.8,52,Saccade: 22996 ms,RIGHT,78,12.67,162.49,227.97,"[ 17, 18, 99]",22996,23073,637.9,771.4,1081.8,633.9,34.77,RIGHT,1.03,A23,D7.wav,D7_FAM_She_is_washing_the_dishes.png,19,1681423
p9,Trial: 40,p9.edf,.,47,Fixation: 23074 ms,121,23074,23194,"[ 17, 18, 99]",2,756,121,1071.4,626.8,1,1,37.1,37.95,52,Saccade: 22996 ms,RIGHT,78,12.67,162.49,227.97,"[ 1, 99]",22996,23073,637.9,771.4,1081.8,633.9,53,Saccade: 23195 ms,RIGHT,21,1.74,83,115.46,"[ 5, 18, 99]",23195,23215,1065.9,625.4,1127.3,603.9,-162.02,LEFT,12.54,A23,D7.wav,D7_FAM_She_is_washing_the_dishes.png,19,1681423
p9,Trial: 40,p9.edf,.,48,Fixation: 23216 ms,588,23216,23803,"[ 5, 18, 99]",4,725,588,1136.3,607.2,1,1,37.55,38.05,53,Saccade: 23195 ms,RIGHT,21,1.74,83,115.46,"[ 17, 18, 99]",23195,23215,1065.9,625.4,1127.3,603.9,54,Saccade: 23804 ms,LEFT,69,15.76,228.34,469.85,[ 99],23804,23872,1138.5,608.9,639.7,318.9,-163.48,LEFT,1.81,A23,D7.wav,D7_FAM_She_is_washing_the_dishes.png,19,1681423
p9,Trial: 40,p9.edf,.,49,Fixation: 23873 ms,148,23873,24020,[ 99],57,749,19547,651.6,314.1,46,56,35.2,36.5,54,Saccade: 23804 ms,LEFT,69,15.76,228.34,469.85,"[ 5, 18, 99]",23804,23872,1138.5,608.9,639.7,318.9,55,Saccade: 24021 ms,RIGHT,38,4.74,124.82,254.18,"[ 15, 99]",24021,24058,648.4,307.9,798.7,384.3,-30.55,RIGHT,15.47,A23,D7.wav,D7_FAM_She_is_washing_the_dishes.png,19,1681423
p9,Trial: 40,p9.edf,.,50,Fixation: 24059 ms,148,24059,24206,"[ 15, 99]",3,777,148,796.9,377.7,1,1,35.4,36.6,55,Saccade: 24021 ms,RIGHT,38,4.74,124.82,254.18,[ 99],24021,24058,648.4,307.9,798.7,384.3,56,Saccade: 24207 ms,LEFT,47,6.49,138.02,315.51,"[ 21, 99]",24207,24253,795.5,376.6,571,329.9,157.08,LEFT,4.47,A23,D7.wav,D7_FAM_She_is_washing_the_dishes.png,19,1681423
p9,Trial: 40,p9.edf,.,51,Fixation: 24254 ms,274,24254,24527,"[ 21, 99]",6,787,274,581.4,322.1,1,1,35.2,36.5,56,Saccade: 24207 ms,LEFT,47,6.49,138.02,315.51,"[ 15, 99]",24207,24253,795.5,376.6,571,329.9,57,Saccade: 24528 ms,RIGHT,64,17.53,273.9,471.99,"[ 5, 18, 99]",24528,24591,579.7,323.3,1185.8,535.3,-13.99,RIGHT,6.29,A23,D7.wav,D7_FAM_She_is_washing_the_dishes.png,19,1681423
p9,Trial: 40,p9.edf,.,52,Fixation: 24592 ms,140,24592,24731,"[ 5, 18, 99]",4,752,140,1182.2,520.2,1,1,37.85,38.0,57,Saccade: 24528 ms,RIGHT,64,17.53,273.9,471.99,"[ 21, 99]",24528,24591,579.7,323.3,1185.8,535.3,58,Saccade: 24732 ms,LEFT,78,19.04,244.13,392.77,"[ 21, 99]",24732,24809,1178.4,518.2,493.6,386.2,162.08,LEFT,17.29,A23,D7.wav,D7_FAM_She_is_washing_the_dishes.png,19,1681423
p9,Trial: 40,p9.edf,.,53,Fixation: 24810 ms,241,24810,25050,"[ 21, 99]",6,811,241,507.2,383.5,1,1,35.35,36.6,58,Saccade: 24732 ms,LEFT,78,19.04,244.13,392.77,"[ 5, 18, 99]",24732,24809,1178.4,518.2,493.6,386.2,59,Saccade: 25051 ms,LEFT,27,3.36,124.32,240.11,"[ 6, 99]",25051,25077,509.8,388.4,392.1,369.2,-11.24,RIGHT,18.8,A23,D7.wav,D7_FAM_She_is_washing_the_dishes.png,19,1681423
p9,Trial: 40,p9.edf,.,54,Fixation: 25078 ms,144,25078,25221,"[ 6, 99]",5,831,144,395.0,373.5,1,1,35.7,36.7,59,Saccade: 25051 ms,LEFT,27,3.36,124.32,240.11,"[ 21, 99]",25051,25077,509.8,388.4,392.1,369.2,60,Saccade: 25222 ms,LEFT,49,9.31,189.92,461.64,"[ 10, 99]",25222,25270,393.7,377.2,103.1,560.7,-4.94,RIGHT,3.17,A23,D7.wav,D7_FAM_She_is_washing_the_dishes.png,19,1681423
p9,Trial: 40,p9.edf,.,55,Fixation: 25271 ms,209,25271,25479,"[ 10, 99]",4,853,2757,108.8,560.0,1,4,37.8,38.1,60,Saccade: 25222 ms,LEFT,49,9.31,189.92,461.64,"[ 6, 99]",25222,25270,393.7,377.2,103.1,560.7,61,Saccade: 25480 ms,RIGHT,20,1.51,75.32,123.29,"[ 10, 99]",25480,25499,108.4,561.1,149.4,600.7,32.63,RIGHT,9.25,A23,D7.wav,D7_FAM_She_is_washing_the_dishes.png,19,1681423
p9,Trial: 40,p9.edf,.,56,Fixation: 25500 ms,829,25500,26328,"[ 10, 99]",4,881,2757,149.3,602.3,2,4,37.45,38.0,61,Saccade: 25480 ms,RIGHT,20,1.51,75.32,123.29,"[ 10, 99]",25480,25499,108.4,561.1,149.4,600.7,62,Saccade: 26329 ms,.,7,0.34,47.96,39.69,"[ 10, 99]",26329,26335,156.3,597.8,143.9,595.7,134.08,UP,1.55,A23,D7.wav,D7_FAM_She_is_washing_the_dishes.png,19,1681423
p9,Trial: 40,p9.edf,.,57,Fixation: 26336 ms,765,26336,27100,"[ 10, 99]",4,831,2757,144.9,592.3,3,4,37.45,37.95,62,Saccade: 26329 ms,.,7,0.34,47.96,39.69,"[ 10, 99]",26329,26335,156.3,597.8,143.9,595.7,63,Saccade: 27101 ms,.,12,0.48,40.2,43.29,"[ 10, 99]",27101,27112,151.9,579.6,134.5,584.6,-65.96,.,0.29,A23,D7.wav,D7_FAM_She_is_washing_the_dishes.png,19,1681423
p9,Trial: 40,p9.edf,.,58,Fixation: 27113 ms,954,27113,28066,"[ 10, 99]",4,759,2757,134.0,575.0,4,4,37.35,37.8,63,Saccade: 27101 ms,.,12,0.48,40.2,43.29,"[ 10, 99]",27101,27112,151.9,579.6,134.5,584.6,64,Saccade: 28067 ms,RIGHT,51,6.65,130.3,176.57,[ 99],28067,28117,177.2,514.3,403.4,426.7,-57.46,DOWN,0.54,A23,D7.wav,D7_FAM_She_is_washing_the_dishes.png,19,1681423
p9,Trial: 40,p9.edf,28240,59,Fixation: 28118 ms,142,28118,28259,[ 99],57,759,19547,426.7,414.4,56,56,35.65,36.75,64,Saccade: 28067 ms,RIGHT,51,6.65,130.3,176.57,"[ 10, 99]",28067,28117,177.2,514.3,403.4,426.7,.,.,.,.,.,.,.,.,.,.,.,.,.,.,-151.75,LEFT,9.1,A23,D7.wav,D7_FAM_She_is_washing_the_dishes.png,19,1681423
