RECORDING_SESSION_LABEL,TRIAL_LABEL,DATA_FILE,CURRENT_FIX_MSG_TIME_1,CURRENT_FIX_INDEX,CURRENT_FIX_LABEL,CURRENT_FIX_DURATION,CURRENT_FIX_START,CURRENT_FIX_END,CURRENT_FIX_INTEREST_AREAS,CURRENT_FIX_INTEREST_AREA_FIX_COUNT,CURRENT_FIX_PUPIL,CURRENT_FIX_RUN_DWELL_TIME,CURRENT_FIX_X,CURRENT_FIX_Y,CURRENT_FIX_RUN_INDEX,CURRENT_FIX_RUN_SIZE,CURRENT_FIX_X_RESOLUTION,CURRENT_FIX_Y_RESOLUTION,PREVIOUS_SAC_INDEX,PREVIOUS_SAC_LABEL,PREVIOUS_SAC_DIRECTION,PREVIOUS_SAC_DURATION,PREVIOUS_SAC_AMPLITUDE,PREVIOUS_SAC_AVG_VELOCITY,PREVIOUS_SAC_PEAK_VELOCITY,PREVIOUS_SAC_START_INTEREST_AREAS,PREVIOUS_SAC_START_TIME,PREVIOUS_SAC_END_TIME,PREVIOUS_SAC_START_X,PREVIOUS_SAC_START_Y,PREVIOUS_SAC_END_X,PREVIOUS_SAC_END_Y,NEXT_SAC_INDEX,NEXT_SAC_LABEL,NEXT_SAC_DIRECTION,NEXT_SAC_DURATION,NEXT_SAC_AMPLITUDE,NEXT_SAC_AVG_VELOCITY,NEXT_SAC_PEAK_VELOCITY,NEXT_SAC_END_INTEREST_AREAS,NEXT_SAC_START_TIME,NEXT_SAC_END_TIME,NEXT_SAC_START_X,NEXT_SAC_START_Y,NEXT_SAC_END_X,NEXT_SAC_END_Y,PREVIOUS_FIX_ANGLE,PREVIOUS_FIX_DIRECTION,PREVIOUS_FIX_DISTANCE,ItemNO,audiofilename,imagefilename,TRIAL_INDEX,TRIAL_START_TIME
p5,Trial: 33,p5.edf,61,1,Fixation: 7 ms,347,7,353,"[ 4, 99]",5,646,347,852.2,396.6,1,1,35.6,36.7,.,.,.,.,.,.,.,.,.,.,.,.,.,.,1,Saccade: 354 ms,DOWN,65,13.7,210.73,499.63,[ ],354,418,853,396.8,677.2,879.8,.,.,.,A15,D7.wav,D7_FAM_She_is_washing_the_dishes.png,14,2937094
p5,Trial: 33,p5.edf,.,2,Fixation: 3387 ms,142,3387,3528,"[ 13, 99]",4,717,142,663.8,812.8,1,1,36.0,38.15,3,Saccade: 3355 ms,UP,32,4.02,125.5,237.44,[ ],3355,3386,673,951.6,660,796.4,4,Saccade: 3529 ms,UP,64,13.1,204.76,482.02,"[ 7, 10, 99]",3529,3592,663.1,808.6,529.1,339.7,64.68,UP,12.3,A15,D7.wav,D7_FAM_She_is_washing_the_dishes.png,14,2937094
p5,Trial: 33,p5.edf,.,3,Fixation: 3593 ms,251,3593,3843,"[ 7, 10, 99]",15,831,251,519.4,312.8,1,1,35.3,36.5,4,Saccade: 3529 ms,UP,64,13.1,204.76,482.02,"[ 13, 99]",3529,3592,663.1,808.6,529.1,339.7,5,Saccade: 3844 ms,LEFT,41,4.1,99.96,306.03,"[ 2, 11, 99]",3844,3884,520.7,309,375,308.8,-73.18,DOWN,13.99,A15,D7.wav,D7_FAM_She_is_washing_the_dishes.png,14,2937094
p5,Trial: 33,p5.edf,.,4,Fixation: 3885 ms,162,3885,4046,"[ 2, 11, 99]",9,835,337,366.1,312.0,1,2,35.8,36.8,5,Saccade: 3844 ms,LEFT,41,4.1,99.96,306.03,"[ 7, 10, 99]",3844,3884,520.7,309,375,308.8,6,Saccade: 4047 ms,LEFT,23,1.54,67.09,111.69,"[ 2, 11, 99]",4047,4069,364.9,309.9,315.4,284.2,-0.29,RIGHT,4.31,A15,D7.wav,D7_FAM_She_is_washing_the_dishes.png,14,2937094
p5,Trial: 33,p5.edf,.,5,Fixation: 4070 ms,175,4070,4244,"[ 2, 11, 99]",9,767,337,322.2,285.8,2,2,36.1,37.0,6,Saccade: 4047 ms,LEFT,23,1.54,67.09,111.69,"[ 2, 11, 99]",4047,4069,364.9,309.9,315.4,284.2,7,Saccade: 4245 ms,DOWN,47,4.57,97.19,342.3,"[ 6, 11, 99]",4245,4291,319.6,280.4,418.2,414.8,-30.18,RIGHT,1.41,A15,D7.wav,D7_FAM_She_is_washing_the_dishes.png,14,2937094
p5,Trial: 33,p5.edf,.,6,Fixation: 4292 ms,143,4292,4434,"[ 6, 11, 99]",10,739,143,426.9,430.5,1,1,35.6,36.7,7,Saccade: 4245 ms,DOWN,47,4.57,97.19,342.3,"[ 2, 11, 99]",4245,4291,319.6,280.4,418.2,414.8,8,Saccade: 4435 ms,UP,53,7.77,146.55,371.3,"[ 21, 99]",4435,4487,429.6,429.3,414.9,143.1,126.64,UP,4.89,A15,D7.wav,D7_FAM_She_is_washing_the_dishes.png,14,2937094
p5,Trial: 33,p5.edf,.,7,Fixation: 4488 ms,242,4488,4729,"[ 21, 99]",5,687,367,415.4,125.9,1,2,35.8,37.1,8,Saccade: 4435 ms,UP,53,7.77,146.55,371.3,"[ 6, 11, 99]",4435,4487,429.6,429.3,414.9,143.1,9,Saccade: 4730 ms,UP,11,0.52,47.63,46.2,"[ 21, 99]",4730,4740,414.8,125.7,403.7,110,-87.77,DOWN,8.26,A15,D7.wav,D7_FAM_She_is_washing_the_dishes.png,14,2937094
p5,Trial: 33,p5.edf,.,8,Fixation: 4741 ms,125,4741,4865,"[ 21, 99]",5,694,367,407.9,110.5,2,2,35.9,37.2,9,Saccade: 4730 ms,UP,11,0.52,47.63,46.2,"[ 21, 99]",4730,4740,414.8,125.7,403.7,110,10,Saccade: 4866 ms,RIGHT,74,18.03,243.69,635.21,"[ 3, 99]",4866,4939,409.3,111.2,1044.9,268.2,-63.22,.,0.46,A15,D7.wav,D7_FAM_She_is_washing_the_dishes.png,14,2937094
p5,Trial: 33,p5.edf,.,9,Fixation: 4940 ms,132,4940,5071,"[ 3, 99]",7,666,1001,1044.8,266.6,1,4,36.6,37.3,10,Saccade: 4866 ms,RIGHT,74,18.03,243.69,635.21,"[ 21, 99]",4866,4939,409.3,111.2,1044.9,268.2,11,Saccade: 5072 ms,UP,32,3.01,93.91,191.19,"[ 3, 99]",5072,5103,1046.7,266,1115.1,177.3,166.59,LEFT,18.06,A15,D7.wav,D7_FAM_She_is_washing_the_dishes.png,14,2937094
p5,Trial: 33,p5.edf,.,10,Fixation: 5104 ms,195,5104,5298,"[ 3, 99]",7,626,1001,1107.6,180.1,2,4,37.2,37.7,11,Saccade: 5072 ms,UP,32,3.01,93.91,191.19,"[ 3, 99]",5072,5103,1046.7,266,1115.1,177.3,12,Saccade: 5299 ms,DOWN,52,4.7,90.46,305.44,"[ 3, 99]",5299,5350,1105.1,177.6,1061.7,348.4,-126.42,DOWN,2.87,A15,D7.wav,D7_FAM_She_is_washing_the_dishes.png,14,2937094
p5,Trial: 33,p5.edf,.,11,Fixation: 5351 ms,296,5351,5646,"[ 3, 99]",7,628,1001,1060.1,369.9,3,4,36.7,37.3,12,Saccade: 5299 ms,DOWN,52,4.7,90.46,305.44,"[ 3, 99]",5299,5350,1105.1,177.6,1061.7,348.4,13,Saccade: 5647 ms,UP,163,0.67,4.09,750.46,"[ 3, 99]",5647,5809,1063.5,385,1078.2,365.1,75.75,UP,5.22,A15,D7.wav,D7_FAM_She_is_washing_the_dishes.png,14,2937094
p5,Trial: 33,p5.edf,.,12,Fixation: 6063 ms,378,6063,6440,"[ 3, 99]",7,670,1001,1081.3,253.7,4,4,36.9,37.45,14,Saccade: 6031 ms,UP,32,3.48,108.83,184.17,"[ 3, 99]",6031,6062,1071.9,362.8,1082.6,233,15,Saccade: 6441 ms,UP,27,2.54,94.22,162.21,"[ 3, 99]",6441,6467,1083.2,256.9,1114,166.6,-100.5,DOWN,3.16,A15,D7.wav,D7_FAM_She_is_washing_the_dishes.png,14,2937094
p5,Trial: 33,p5.edf,.,13,Fixation: 6957 ms,181,6957,7137,"[ 4, 99]",5,710,181,942.4,420.9,1,1,36.0,36.9,17,Saccade: 6901 ms,DOWN,56,7.3,130.39,444.99,"[ 3, 99]",6901,6956,1118.1,183.4,948.4,394,18,Saccade: 7138 ms,LEFT,51,7.46,146.35,417.75,"[ 7, 8, 99]",7138,7188,951.5,419.3,694.9,348.2,49.73,UP,5.89,A15,D7.wav,D7_FAM_She_is_washing_the_dishes.png,14,2937094
p5,Trial: 33,p5.edf,.,14,Fixation: 7189 ms,322,7189,7510,"[ 7, 8, 99]",15,705,322,677.6,353.8,1,1,35.2,36.5,18,Saccade: 7138 ms,LEFT,51,7.46,146.35,417.75,"[ 4, 99]",7138,7188,951.5,419.3,694.9,348.2,19,Saccade: 7511 ms,LEFT,49,6.28,128.25,386.6,"[ 6, 11, 99]",7511,7559,683.5,355.2,466.5,402.9,-13.81,RIGHT,7.66,A15,D7.wav,D7_FAM_She_is_washing_the_dishes.png,14,2937094
p5,Trial: 33,p5.edf,.,15,Fixation: 7560 ms,240,7560,7799,"[ 6, 11, 99]",10,677,600,450.3,412.0,1,2,35.45,36.65,19,Saccade: 7511 ms,LEFT,49,6.28,128.25,386.6,"[ 7, 8, 99]",7511,7559,683.5,355.2,466.5,402.9,20,Saccade: 7800 ms,LEFT,18,1,55.36,76.36,"[ 6, 11, 99]",7800,7817,452,419.4,417.9,429.3,13.89,RIGHT,6.63,A15,D7.wav,D7_FAM_She_is_washing_the_dishes.png,14,2937094
p5,Trial: 33,p5.edf,.,16,Fixation: 7818 ms,360,7818,8177,"[ 6, 11, 99]",10,686,600,424.8,423.2,2,2,35.6,36.7,20,Saccade: 7800 ms,LEFT,18,1,55.36,76.36,"[ 6, 11, 99]",7800,7817,452,419.4,417.9,429.3,21,Saccade: 8178 ms,LEFT,49,6.68,136.34,369,"[ 11, 99]",8178,8226,421.6,422.2,198.1,518.5,23.05,RIGHT,0.78,A15,D7.wav,D7_FAM_She_is_washing_the_dishes.png,14,2937094
p5,Trial: 33,p5.edf,.,17,Fixation: 8227 ms,168,8227,8394,"[ 19, 99]",5,672,1681,180.3,525.3,1,5,37.05,37.6,21,Saccade: 8178 ms,LEFT,49,6.68,136.34,369,"[ 6, 11, 99]",8178,8226,421.6,422.2,198.1,518.5,22,Saccade: 8395 ms,UP,205,0.94,4.57,374.2,"[ 18, 19, 99]",8395,8599,184.1,526.2,171.2,493.5,22.21,RIGHT,7.27,A15,D7.wav,D7_FAM_She_is_washing_the_dishes.png,14,2937094
p5,Trial: 33,p5.edf,.,18,Fixation: 8726 ms,226,8726,8951,"[ 17, 19, 99]",4,730,1513,218.7,561.2,1,4,36.9,37.6,23,Saccade: 8703 ms,RIGHT,23,1.32,57.51,109,"[ 17, 19, 99]",8703,8725,188.6,540.1,223.8,574.7,24,Saccade: 8952 ms,LEFT,16,0.95,59.27,75.24,"[ 17, 19, 99]",8952,8967,215.1,555.2,180.9,563.4,137.41,LEFT,1.41,A15,D7.wav,D7_FAM_She_is_washing_the_dishes.png,14,2937094
p5,Trial: 33,p5.edf,.,19,Fixation: 8968 ms,477,8968,9444,"[ 17, 19, 99]",4,691,1513,181.7,566.5,2,4,37.15,37.8,24,Saccade: 8952 ms,LEFT,16,0.95,59.27,75.24,"[ 17, 19, 99]",8952,8967,215.1,555.2,180.9,563.4,25,Saccade: 9445 ms,.,238,0.44,1.86,374.64,"[ 17, 19, 99]",9445,9682,189.1,568.7,204.8,573.5,8.01,RIGHT,1.01,A15,D7.wav,D7_FAM_She_is_washing_the_dishes.png,14,2937094
p5,Trial: 33,p5.edf,.,20,Fixation: 9873 ms,543,9873,10415,"[ 17, 19, 99]",4,679,1513,160.0,583.7,3,4,37.4,37.95,26,Saccade: 9856 ms,LEFT,17,0.96,56.51,76.25,"[ 17, 19, 99]",9856,9872,198.4,558.5,165.9,573.5,27,Saccade: 10416 ms,RIGHT,19,1.2,63.21,81.34,"[ 17, 19, 99]",10416,10434,148,589.9,188,569.4,37.96,RIGHT,0.74,A15,D7.wav,D7_FAM_She_is_washing_the_dishes.png,14,2937094
p5,Trial: 33,p5.edf,.,21,Fixation: 10435 ms,267,10435,10701,"[ 17, 19, 99]",4,636,1513,181.6,566.1,4,4,37.1,37.75,27,Saccade: 10416 ms,RIGHT,19,1.2,63.21,81.34,"[ 17, 19, 99]",10416,10434,148,589.9,188,569.4,28,Saccade: 10702 ms,UP,180,3.13,17.38,346.88,"[ 18, 19, 99]",10702,10881,191.2,566.2,145.3,458,-141.27,LEFT,0.74,A15,D7.wav,D7_FAM_She_is_washing_the_dishes.png,14,2937094
p5,Trial: 33,p5.edf,.,22,Fixation: 11035 ms,227,11035,11261,"[ 2, 11, 99]",9,684,227,319.2,270.4,1,1,36.1,37.0,29,Saccade: 10984 ms,UP,51,6.85,134.31,326.42,"[ 18, 19, 99]",10984,11034,156.1,484.7,311.8,284.1,30,Saccade: 11262 ms,UP,36,4.49,124.6,260.66,"[ 21, 99]",11262,11297,317.7,269.5,391.9,121.7,-115.42,DOWN,8.76,A15,D7.wav,D7_FAM_She_is_washing_the_dishes.png,14,2937094
p5,Trial: 33,p5.edf,.,23,Fixation: 11298 ms,204,11298,11501,"[ 21, 99]",5,685,643,390.6,133.7,1,3,35.9,37.15,30,Saccade: 11262 ms,UP,36,4.49,124.6,260.66,"[ 2, 11, 99]",11262,11297,317.7,269.5,391.9,121.7,31,Saccade: 11502 ms,UP,11,0.57,51.76,50.35,"[ 21, 99]",11502,11512,392.8,133.3,398.2,112.9,-118.28,DOWN,4.19,A15,D7.wav,D7_FAM_She_is_washing_the_dishes.png,14,2937094
p5,Trial: 33,p5.edf,.,24,Fixation: 11513 ms,314,11513,11826,"[ 21, 99]",5,675,643,401.0,113.7,2,3,35.9,37.2,31,Saccade: 11502 ms,UP,11,0.57,51.76,50.35,"[ 21, 99]",11502,11512,392.8,133.3,398.2,112.9,32,Saccade: 11827 ms,RIGHT,14,0.78,56,61.69,"[ 21, 99]",11827,11840,402.6,112.8,430.7,112.1,-118.3,DOWN,0.61,A15,D7.wav,D7_FAM_She_is_washing_the_dishes.png,14,2937094
p5,Trial: 33,p5.edf,.,25,Fixation: 11841 ms,125,11841,11965,"[ 21, 99]",5,658,643,423.6,109.7,3,3,35.8,37.15,32,Saccade: 11827 ms,RIGHT,14,0.78,56,61.69,"[ 21, 99]",11827,11840,402.6,112.8,430.7,112.1,33,Saccade: 11966 ms,RIGHT,51,7.75,152.05,468.91,"[ 22, 99]",11966,12016,424.4,108.7,700.7,99.2,-170.31,LEFT,0.64,A15,D7.wav,D7_FAM_She_is_washing_the_dishes.png,14,2937094
p5,Trial: 33,p5.edf,.,26,Fixation: 12017 ms,174,12017,12190,"[ 22, 99]",1,662,174,726.2,103.6,1,1,35.5,37.0,33,Saccade: 11966 ms,RIGHT,51,7.75,152.05,468.91,"[ 21, 99]",11966,12016,424.4,108.7,700.7,99.2,34,Saccade: 12191 ms,RIGHT,198,2.14,10.8,822.27,[ 99],12191,12388,729.9,111.9,799.4,143.9,-178.89,LEFT,8.49,A15,D7.wav,D7_FAM_She_is_washing_the_dishes.png,14,2937094
p5,Trial: 33,p5.edf,.,27,Fixation: 12584 ms,256,12584,12839,"[ 7, 8, 99]",15,780,489,661.6,348.4,1,2,35.2,36.5,35,Saccade: 12533 ms,DOWN,51,6.18,121.24,445.87,[ 99],12533,12583,795.8,132.3,675.3,322,36,Saccade: 12840 ms,LEFT,48,4.32,90.06,316.38,"[ 7, 10, 99]",12840,12887,660.3,356.3,517.7,300.6,74.66,UP,6.91,A15,D7.wav,D7_FAM_She_is_washing_the_dishes.png,14,2937094
p5,Trial: 33,p5.edf,.,28,Fixation: 12888 ms,233,12888,13120,"[ 7, 10, 99]",15,784,489,503.1,286.9,2,2,35.35,36.6,36,Saccade: 12840 ms,LEFT,48,4.32,90.06,316.38,"[ 7, 8, 99]",12840,12887,660.3,356.3,517.7,300.6,37,Saccade: 13121 ms,DOWN,53,4.5,84.98,312.11,"[ 6, 11, 99]",13121,13173,502.9,277.2,450.4,433.1,-20.53,RIGHT,4.8,A15,D7.wav,D7_FAM_She_is_washing_the_dishes.png,14,2937094
p5,Trial: 33,p5.edf,13190,29,Fixation: 13174 ms,314,13174,13487,"[ 11, 99]",19,788,314,445.8,462.6,1,1,35.5,36.7,37,Saccade: 13121 ms,DOWN,53,4.5,84.98,312.11,"[ 7, 10, 99]",13121,13173,502.9,277.2,450.4,433.1,38,Saccade: 13488 ms,DOWN,47,3.2,68.11,269.81,"[ 2, 11, 99]",13488,13534,448.5,459.7,430.9,576.4,71.36,UP,5.06,A15,D7.wav,D7_FAM_She_is_washing_the_dishes.png,14,2937094
p5,Trial: 33,p5.edf,.,30,Fixation: 13535 ms,222,13535,13756,"[ 2, 99]",9,798,586,427.2,599.0,1,2,35.8,37.15,38,Saccade: 13488 ms,DOWN,47,3.2,68.11,269.81,"[ 11, 99]",13488,13534,448.5,459.7,430.9,576.4,39,Saccade: 13757 ms,UP,25,2.34,93.63,160.34,"[ 2, 11, 99]",13757,13781,422.6,604,392.9,522.8,81.96,UP,3.73,A15,D7.wav,D7_FAM_She_is_washing_the_dishes.png,14,2937094
p5,Trial: 33,p5.edf,14000,31,Fixation: 13782 ms,364,13782,14145,"[ 2, 11, 99]",9,811,586,398.8,528.4,2,2,35.8,37.0,39,Saccade: 13757 ms,UP,25,2.34,93.63,160.34,"[ 2, 99]",13757,13781,422.6,604,392.9,522.8,40,Saccade: 14146 ms,UP,169,3.53,20.89,326.31,"[ 2, 11, 99]",14146,14314,403.3,525.6,405.8,395.5,-67.38,DOWN,2.06,A15,D7.wav,D7_FAM_She_is_washing_the_dishes.png,14,2937094
p5,Trial: 33,p5.edf,.,32,Fixation: 14854 ms,226,14854,15079,"[ 7, 10, 99]",15,808,417,531.1,324.1,1,2,35.3,36.5,42,Saccade: 14821 ms,RIGHT,33,3.46,104.75,186.02,"[ 6, 11, 99]",14821,14853,453.5,409.6,541.6,321.8,43,Saccade: 15080 ms,RIGHT,29,3.47,119.58,236.68,"[ 7, 8, 99]",15080,15108,534.3,319.4,650.4,359,-123.8,DOWN,6.69,A15,D7.wav,D7_FAM_She_is_washing_the_dishes.png,14,2937094
p5,Trial: 33,p5.edf,15260,33,Fixation: 15109 ms,191,15109,15299,"[ 7, 8, 99]",15,780,417,640.0,353.8,2,2,35.2,36.5,43,Saccade: 15080 ms,RIGHT,29,3.47,119.58,236.68,"[ 7, 10, 99]",15080,15108,534.3,319.4,650.4,359,44,Saccade: 15300 ms,RIGHT,51,7.56,148.25,438.99,"[ 4, 99]",15300,15350,640.4,358.6,908.5,371.9,165.24,LEFT,3.19,A15,D7.wav,D7_FAM_She_is_washing_the_dishes.png,14,2937094
p5,Trial: 33,p5.edf,.,34,Fixation: 15351 ms,339,15351,15689,"[ 4, 99]",5,736,542,930.3,378.5,1,2,35.85,36.85,44,Saccade: 15300 ms,RIGHT,51,7.56,148.25,438.99,"[ 7, 8, 99]",15300,15350,640.4,358.6,908.5,371.9,45,Saccade: 15690 ms,RIGHT,21,1.42,67.65,107.41,[ 99],15690,15710,932.8,386.2,983.7,380.4,175.29,LEFT,8.2,A15,D7.wav,D7_FAM_She_is_washing_the_dishes.png,14,2937094
p5,Trial: 33,p5.edf,.,35,Fixation: 15711 ms,203,15711,15913,"[ 4, 99]",5,716,542,976.1,380.8,2,2,36.2,37.0,45,Saccade: 15690 ms,RIGHT,21,1.42,67.65,107.41,"[ 4, 99]",15690,15710,932.8,386.2,983.7,380.4,46,Saccade: 15914 ms,UP,17,0.97,56.9,67.12,"[ 3, 99]",15914,15930,977.5,383.5,1001,356.9,177.2,LEFT,1.27,A15,D7.wav,D7_FAM_She_is_washing_the_dishes.png,14,2937094
p5,Trial: 33,p5.edf,.,36,Fixation: 15931 ms,307,15931,16237,"[ 3, 99]",7,683,843,998.1,358.9,1,3,36.3,37.0,46,Saccade: 15914 ms,UP,17,0.97,56.9,67.12,[ 99],15914,15930,977.5,383.5,1001,356.9,47,Saccade: 16238 ms,UP,38,5.94,156.33,289.35,"[ 3, 99]",16238,16275,998.7,356.8,1119.7,172,-135.72,LEFT,0.85,A15,D7.wav,D7_FAM_She_is_washing_the_dishes.png,14,2937094
p5,Trial: 33,p5.edf,16430,37,Fixation: 16276 ms,207,16276,16482,"[ 3, 99]",7,654,843,1114.9,176.9,2,3,37.25,37.7,47,Saccade: 16238 ms,UP,38,5.94,156.33,289.35,"[ 3, 99]",16238,16275,998.7,356.8,1119.7,172,48,Saccade: 16483 ms,.,12,0.47,39.32,41.88,"[ 3, 99]",16483,16494,1113.6,173.7,1097.1,167.7,-123.1,DOWN,5.82,A15,D7.wav,D7_FAM_She_is_washing_the_dishes.png,14,2937094
p5,Trial: 33,p5.edf,.,38,Fixation: 16495 ms,329,16495,16823,"[ 3, 99]",7,677,843,1099.4,173.3,3,3,37.1,37.65,48,Saccade: 16483 ms,.,12,0.47,39.32,41.88,"[ 3, 99]",16483,16494,1113.6,173.7,1097.1,167.7,49,Saccade: 16824 ms,LEFT,60,6.98,116.37,393.77,"[ 4, 99]",16824,16883,1097.3,179.2,906,350.5,-12.91,.,0.43,A15,D7.wav,D7_FAM_She_is_washing_the_dishes.png,14,2937094
p5,Trial: 33,p5.edf,.,39,Fixation: 16884 ms,115,16884,16998,"[ 4, 99]",5,727,115,903.6,364.1,1,1,35.8,36.8,49,Saccade: 16824 ms,LEFT,60,6.98,116.37,393.77,"[ 3, 99]",16824,16883,1097.3,179.2,906,350.5,50,Saccade: 16999 ms,LEFT,70,15.06,215.21,542.03,"[ 2, 11, 14, 99]",16999,17068,904,366.1,364.9,381.9,43.66,RIGHT,7.42,A15,D7.wav,D7_FAM_She_is_washing_the_dishes.png,14,2937094
p5,Trial: 33,p5.edf,.,40,Fixation: 17069 ms,177,17069,17245,"[ 2, 11, 99]",9,787,177,362.1,390.7,1,1,35.85,36.8,50,Saccade: 16999 ms,LEFT,70,15.06,215.21,542.03,"[ 4, 99]",16999,17068,904,366.1,364.9,381.9,51,Saccade: 17246 ms,RIGHT,25,2.38,95.2,178.1,"[ 6, 11, 99]",17246,17270,358.1,390.8,439.1,417.2,2.74,RIGHT,15.13,A15,D7.wav,D7_FAM_She_is_washing_the_dishes.png,14,2937094
p5,Trial: 33,p5.edf,.,41,Fixation: 17271 ms,231,17271,17501,"[ 6, 11, 99]",10,867,231,423.9,414.0,1,1,35.55,36.7,51,Saccade: 17246 ms,RIGHT,25,2.38,95.2,178.1,"[ 2, 11, 99]",17246,17270,358.1,390.8,439.1,417.2,52,Saccade: 17502 ms,LEFT,21,0.86,41.14,79.43,"[ 2, 11, 99]",17502,17522,422.4,414.8,392.7,406.4,159.89,LEFT,1.84,A15,D7.wav,D7_FAM_She_is_washing_the_dishes.png,14,2937094
p5,Trial: 33,p5.edf,.,42,Fixation: 17523 ms,215,17523,17737,"[ 2, 11, 99]",9,932,215,395.8,404.2,1,1,35.7,36.8,52,Saccade: 17502 ms,LEFT,21,0.86,41.14,79.43,"[ 6, 11, 99]",17502,17522,422.4,414.8,392.7,406.4,53,Saccade: 17738 ms,DOWN,17,1.02,60.03,72.19,"[ 6, 11, 14, 99]",17738,17754,389.7,398.3,387.7,435.8,-18.68,RIGHT,0.83,A15,D7.wav,D7_FAM_She_is_washing_the_dishes.png,14,2937094
p5,Trial: 33,p5.edf,.,43,Fixation: 17755 ms,193,17755,17947,"[ 6, 11, 14, 99]",10,950,193,384.9,424.9,1,1,35.7,36.8,53,Saccade: 17738 ms,DOWN,17,1.02,60.03,72.19,"[ 2, 11, 99]",17738,17754,389.7,398.3,387.7,435.8,54,Saccade: 17948 ms,UP,178,1.02,5.71,415.14,"[ 2, 11, 99]",17948,18125,387.8,424.9,384.3,387.7,61.51,UP,0.64,A15,D7.wav,D7_FAM_She_is_washing_the_dishes.png,14,2937094
p5,Trial: 33,p5.edf,.,44,Fixation: 18484 ms,366,18484,18849,"[ 2, 11, 99]",9,844,366,305.8,279.3,1,1,36.15,37.0,55,Saccade: 18438 ms,UP,46,4.18,90.77,307.84,"[ 6, 11, 99]",18438,18483,396.3,416.2,316.3,285.9,56,Saccade: 18850 ms,RIGHT,51,5.51,108.13,387.64,"[ 6, 11, 99]",18850,18900,301.9,279.4,453.7,409.6,-60.84,DOWN,4.52,A15,D7.wav,D7_FAM_She_is_washing_the_dishes.png,14,2937094
p5,Trial: 33,p5.edf,.,45,Fixation: 18901 ms,195,18901,19095,"[ 6, 11, 99]",10,817,544,466.7,427.3,1,2,35.45,36.7,56,Saccade: 18850 ms,RIGHT,51,5.51,108.13,387.64,"[ 2, 11, 99]",18850,18900,301.9,279.4,453.7,409.6,57,Saccade: 19096 ms,LEFT,18,0.94,52.43,69.88,"[ 6, 11, 99]",19096,19113,469.4,428.8,443.8,406.5,138.22,LEFT,6.03,A15,D7.wav,D7_FAM_She_is_washing_the_dishes.png,14,2937094
p5,Trial: 33,p5.edf,.,46,Fixation: 19114 ms,349,19114,19462,"[ 6, 11, 99]",10,800,544,451.5,414.8,2,2,35.5,36.7,57,Saccade: 19096 ms,LEFT,18,0.94,52.43,69.88,"[ 6, 11, 99]",19096,19113,469.4,428.8,443.8,406.5,58,Saccade: 19463 ms,LEFT,184,0.59,3.19,494.67,"[ 6, 11, 99]",19463,19646,457.7,419.3,437.2,423.2,-38.48,RIGHT,0.55,A15,D7.wav,D7_FAM_She_is_washing_the_dishes.png,14,2937094
p5,Trial: 33,p5.edf,.,47,Fixation: 20018 ms,251,20018,20268,"[ 20, 99]",5,826,391,647.7,623.0,1,2,35.45,37.05,59,Saccade: 19962 ms,DOWN,56,7.62,136.09,415.94,"[ 6, 11, 99]",19962,20017,454.3,393.6,631.6,605.2,60,Saccade: 20269 ms,UP,20,1.31,65.75,91.12,"[ 20, 99]",20269,20288,650.1,624.1,652.3,575.5,134.41,UP,7.9,A15,D7.wav,D7_FAM_She_is_washing_the_dishes.png,14,2937094
p5,Trial: 33,p5.edf,.,48,Fixation: 20289 ms,140,20289,20428,"[ 20, 99]",5,794,391,651.7,586.7,2,2,35.4,36.95,60,Saccade: 20269 ms,UP,20,1.31,65.75,91.12,"[ 20, 99]",20269,20288,650.1,624.1,652.3,575.5,61,Saccade: 20429 ms,LEFT,52,7.46,143.55,416.05,"[ 6, 11, 99]",20429,20480,652.7,591.6,456.4,407.4,-96.57,DOWN,0.99,A15,D7.wav,D7_FAM_She_is_washing_the_dishes.png,14,2937094
p5,Trial: 33,p5.edf,.,49,Fixation: 20481 ms,270,20481,20750,"[ 6, 11, 99]",10,771,1162,446.9,399.9,1,3,35.5,36.65,61,Saccade: 20429 ms,LEFT,52,7.46,143.55,416.05,"[ 20, 99]",20429,20480,652.7,591.6,456.4,407.4,62,Saccade: 20751 ms,LEFT,20,1.58,79.01,115.58,"[ 6, 11, 99]",20751,20770,450.3,400.1,400,426.1,-41.3,RIGHT,7.69,A15,D7.wav,D7_FAM_She_is_washing_the_dishes.png,14,2937094
p5,Trial: 33,p5.edf,.,50,Fixation: 20771 ms,329,20771,21099,"[ 6, 11, 99]",10,771,1162,410.2,422.8,2,3,35.65,36.8,62,Saccade: 20751 ms,LEFT,20,1.58,79.01,115.58,"[ 6, 11, 99]",20751,20770,450.3,400.1,400,426.1,63,Saccade: 21100 ms,DOWN,11,0.62,56.3,52.24,"[ 6, 11, 99]",21100,21110,409,424.8,396.5,443.6,31.15,RIGHT,1.21,A15,D7.wav,D7_FAM_She_is_washing_the_dishes.png,14,2937094
p5,Trial: 33,p5.edf,.,51,Fixation: 21111 ms,563,21111,21673,"[ 6, 11, 99]",10,748,1162,400.6,439.6,3,3,35.7,36.8,63,Saccade: 21100 ms,DOWN,11,0.62,56.3,52.24,"[ 6, 11, 99]",21100,21110,409,424.8,396.5,443.6,64,Saccade: 21674 ms,DOWN,34,2.92,85.74,151.34,"[ 11, 99]",21674,21707,405.2,439.6,454.8,534,59.48,UP,0.53,A15,D7.wav,D7_FAM_She_is_washing_the_dishes.png,14,2937094
p5,Trial: 33,p5.edf,.,52,Fixation: 21708 ms,130,21708,21837,"[ 2, 11, 99]",9,688,130,443.3,524.9,1,1,35.6,36.9,64,Saccade: 21674 ms,DOWN,34,2.92,85.74,151.34,"[ 6, 11, 99]",21674,21707,405.2,439.6,454.8,534,65,Saccade: 21838 ms,RIGHT,47,5.38,114.55,398.07,"[ 20, 99]",21838,21884,442.3,524.7,629.4,565.3,117.36,UP,2.61,A15,D7.wav,D7_FAM_She_is_washing_the_dishes.png,14,2937094
p5,Trial: 33,p5.edf,.,53,Fixation: 21885 ms,195,21885,22079,"[ 20, 99]",5,667,195,650.2,573.3,1,1,35.4,36.9,65,Saccade: 21838 ms,RIGHT,47,5.38,114.55,398.07,"[ 2, 11, 99]",21838,21884,442.3,524.7,629.4,565.3,66,Saccade: 22080 ms,DOWN,50,4.68,93.58,298.99,"[ 13, 99]",22080,22129,646.8,567.8,684.1,737.9,167.32,LEFT,5.97,A15,D7.wav,D7_FAM_She_is_washing_the_dishes.png,14,2937094
p5,Trial: 33,p5.edf,.,54,Fixation: 22130 ms,318,22130,22447,"[ 13, 99]",4,665,318,684.5,755.0,1,1,35.8,37.75,66,Saccade: 22080 ms,DOWN,50,4.68,93.58,298.99,"[ 20, 99]",22080,22129,646.8,567.8,684.1,737.9,67,Saccade: 22448 ms,UP,41,5.83,142.23,261.3,"[ 20, 99]",22448,22488,684.4,755.1,610.2,552,101.2,UP,4.96,A15,D7.wav,D7_FAM_She_is_washing_the_dishes.png,14,2937094
p5,Trial: 33,p5.edf,.,55,Fixation: 22489 ms,249,22489,22737,"[ 20, 99]",5,663,383,615.8,556.4,1,2,35.3,36.8,67,Saccade: 22448 ms,UP,41,5.83,142.23,261.3,"[ 13, 99]",22448,22488,684.4,755.1,610.2,552,68,Saccade: 22738 ms,RIGHT,44,3.8,86.48,236.45,"[ 5, 20, 99]",22738,22781,617.5,555.1,750.8,536.4,-70.06,DOWN,5.67,A15,D7.wav,D7_FAM_She_is_washing_the_dishes.png,14,2937094
p5,Trial: 33,p5.edf,.,56,Fixation: 22782 ms,134,22782,22915,"[ 5, 20, 99]",1,634,134,762.6,542.3,1,1,35.45,36.85,68,Saccade: 22738 ms,RIGHT,44,3.8,86.48,236.45,"[ 20, 99]",22738,22781,617.5,555.1,750.8,536.4,69,Saccade: 22916 ms,UP,48,5.02,104.56,288.11,"[ 7, 8, 99]",22916,22963,765.6,547,685.6,382.6,-174.73,LEFT,4.17,A15,D7.wav,D7_FAM_She_is_washing_the_dishes.png,14,2937094
p5,Trial: 33,p5.edf,.,57,Fixation: 22964 ms,239,22964,23202,"[ 7, 8, 99]",15,639,2212,673.0,375.6,1,7,35.2,36.5,69,Saccade: 22916 ms,UP,48,5.02,104.56,288.11,"[ 5, 20, 99]",22916,22963,765.6,547,685.6,382.6,70,Saccade: 23203 ms,.,7,0.25,35.12,34.94,"[ 7, 8, 99]",23203,23209,668.3,375.8,663.7,368.2,-60.84,DOWN,5.21,A15,D7.wav,D7_FAM_She_is_washing_the_dishes.png,14,2937094
p5,Trial: 33,p5.edf,.,58,Fixation: 23210 ms,243,23210,23452,"[ 7, 8, 99]",15,659,2212,666.2,366.6,2,7,35.2,36.5,70,Saccade: 23203 ms,.,7,0.25,35.12,34.94,"[ 7, 8, 99]",23203,23209,668.3,375.8,663.7,368.2,71,Saccade: 23453 ms,UP,153,0.76,4.98,544.53,"[ 7, 8, 99]",23453,23605,671.3,371.2,659.3,346.3,-51.92,.,0.31,A15,D7.wav,D7_FAM_She_is_washing_the_dishes.png,14,2937094
p5,Trial: 33,p5.edf,.,59,Fixation: 24997 ms,272,24997,25268,"[ 7, 8, 99]",15,812,2212,650.7,351.8,3,7,35.2,36.5,73,Saccade: 24982 ms,LEFT,15,0.9,59.88,66.42,"[ 7, 8, 99]",24982,24996,671.8,337.1,645.9,355.9,74,Saccade: 25269 ms,RIGHT,15,0.69,45.94,54.85,"[ 7, 8, 99]",25269,25283,654.7,355.3,678.9,353.6,-42.64,RIGHT,0.6,A15,D7.wav,D7_FAM_She_is_washing_the_dishes.png,14,2937094
p5,Trial: 33,p5.edf,.,60,Fixation: 25284 ms,589,25284,25872,"[ 7, 8, 99]",15,764,2212,674.3,352.1,4,7,35.2,36.5,74,Saccade: 25269 ms,RIGHT,15,0.69,45.94,54.85,"[ 7, 8, 99]",25269,25283,654.7,355.3,678.9,353.6,75,Saccade: 25873 ms,DOWN,13,0.52,39.93,45.12,"[ 7, 8, 99]",25873,25885,673.1,357,671.8,375.9,179.3,LEFT,0.67,A15,D7.wav,D7_FAM_She_is_washing_the_dishes.png,14,2937094
p5,Trial: 33,p5.edf,.,61,Fixation: 25886 ms,433,25886,26318,"[ 7, 8, 99]",15,753,2212,671.2,369.3,5,7,35.2,36.5,75,Saccade: 25873 ms,DOWN,13,0.52,39.93,45.12,"[ 7, 8, 99]",25873,25885,673.1,357,671.8,375.9,76,Saccade: 26319 ms,.,10,0.49,48.88,48.31,"[ 7, 8, 99]",26319,26328,671.1,373.4,688.3,373.8,79.41,.,0.48,A15,D7.wav,D7_FAM_She_is_washing_the_dishes.png,14,2937094
p5,Trial: 33,p5.edf,.,62,Fixation: 26329 ms,281,26329,26609,"[ 7, 8, 99]",15,731,2212,687.7,373.4,6,7,35.2,36.5,76,Saccade: 26319 ms,.,10,0.49,48.88,48.31,"[ 7, 8, 99]",26319,26328,671.1,373.4,688.3,373.8,77,Saccade: 26610 ms,LEFT,21,1.23,58.58,97.32,"[ 7, 8, 99]",26610,26630,687.9,373.2,644.6,372.9,166.52,.,0.48,A15,D7.wav,D7_FAM_She_is_washing_the_dishes.png,14,2937094
p5,Trial: 33,p5.edf,.,63,Fixation: 26631 ms,155,26631,26785,"[ 7, 8, 99]",15,728,2212,656.7,370.6,7,7,35.2,36.5,77,Saccade: 26610 ms,LEFT,21,1.23,58.58,97.32,"[ 7, 8, 99]",26610,26630,687.9,373.2,644.6,372.9,78,Saccade: 26786 ms,DOWN,62,9.27,149.57,339.24,"[ 13, 99]",26786,26847,653.2,366,665,708.9,-4.98,RIGHT,0.88,A15,D7.wav,D7_FAM_She_is_washing_the_dishes.png,14,2937094
p5,Trial: 33,p5.edf,.,64,Fixation: 26848 ms,392,26848,27239,"[ 13, 99]",4,689,647,670.7,735.1,1,2,35.75,37.6,78,Saccade: 26786 ms,DOWN,62,9.27,149.57,339.24,"[ 7, 8, 99]",26786,26847,653.2,366,665,708.9,79,Saccade: 27240 ms,UP,15,0.86,57.43,64.88,"[ 13, 99]",27240,27254,675.5,736.7,663,707.1,92.3,UP,9.85,A15,D7.wav,D7_FAM_She_is_washing_the_dishes.png,14,2937094
p5,Trial: 33,p5.edf,.,65,Fixation: 27255 ms,255,27255,27509,"[ 13, 99]",4,642,647,668.7,705.3,2,2,35.7,37.5,79,Saccade: 27240 ms,UP,15,0.86,57.43,64.88,"[ 13, 99]",27240,27254,675.5,736.7,663,707.1,80,Saccade: 27510 ms,UP,57,8.46,148.38,323.32,"[ 7, 8, 99]",27510,27566,670.7,704.7,675.4,391.8,-85.97,DOWN,0.8,A15,D7.wav,D7_FAM_She_is_washing_the_dishes.png,14,2937094
p5,Trial: 33,p5.edf,.,66,Fixation: 27567 ms,264,27567,27830,"[ 7, 8, 99]",15,652,471,669.6,366.8,1,2,35.2,36.5,80,Saccade: 27510 ms,UP,57,8.46,148.38,323.32,[ 99],27510,27566,670.7,704.7,675.4,391.8,81,Saccade: 27831 ms,.,10,0.4,40.43,42.73,"[ 7, 8, 99]",27831,27840,665.7,366.6,654,358.2,-90.16,DOWN,9.15,A15,D7.wav,D7_FAM_She_is_washing_the_dishes.png,14,2937094
p5,Trial: 33,p5.edf,.,67,Fixation: 27841 ms,207,27841,28047,"[ 7, 8, 99]",15,658,471,651.5,357.2,2,2,35.2,36.5,81,Saccade: 27831 ms,.,10,0.4,40.43,42.73,"[ 7, 8, 99]",27831,27840,665.7,366.6,654,358.2,82,Saccade: 28048 ms,LEFT,182,0.6,3.3,530.64,"[ 7, 8, 99]",28048,28229,654.8,360.6,637.4,348.2,-27.09,RIGHT,0.58,A15,D7.wav,D7_FAM_She_is_washing_the_dishes.png,14,2937094
