RECORDING_SESSION_LABEL,TRIAL_LABEL,DATA_FILE,CURRENT_FIX_MSG_TIME_1,CURRENT_FIX_INDEX,CURRENT_FIX_LABEL,CURRENT_FIX_DURATION,CURRENT_FIX_START,CURRENT_FIX_END,CURRENT_FIX_INTEREST_AREAS,CURRENT_FIX_INTEREST_AREA_FIX_COUNT,CURRENT_FIX_PUPIL,CURRENT_FIX_RUN_DWELL_TIME,CURRENT_FIX_X,CURRENT_FIX_Y,CURRENT_FIX_RUN_INDEX,CURRENT_FIX_RUN_SIZE,CURRENT_FIX_X_RESOLUTION,CURRENT_FIX_Y_RESOLUTION,PREVIOUS_SAC_INDEX,PREVIOUS_SAC_LABEL,PREVIOUS_SAC_DIRECTION,PREVIOUS_SAC_DURATION,PREVIOUS_SAC_AMPLITUDE,PREVIOUS_SAC_AVG_VELOCITY,PREVIOUS_SAC_PEAK_VELOCITY,PREVIOUS_SAC_START_INTEREST_AREAS,PREVIOUS_SAC_START_TIME,PREVIOUS_SAC_END_TIME,PREVIOUS_SAC_START_X,PREVIOUS_SAC_START_Y,PREVIOUS_SAC_END_X,PREVIOUS_SAC_END_Y,NEXT_SAC_INDEX,NEXT_SAC_LABEL,NEXT_SAC_DIRECTION,NEXT_SAC_DURATION,NEXT_SAC_AMPLITUDE,NEXT_SAC_AVG_VELOCITY,NEXT_SAC_PEAK_VELOCITY,NEXT_SAC_END_INTEREST_AREAS,NEXT_SAC_START_TIME,NEXT_SAC_END_TIME,NEXT_SAC_START_X,NEXT_SAC_START_Y,NEXT_SAC_END_X,NEXT_SAC_END_Y,PREVIOUS_FIX_ANGLE,PREVIOUS_FIX_DIRECTION,PREVIOUS_FIX_DISTANCE,ItemNO,audiofilename,imagefilename,TRIAL_INDEX,TRIAL_START_TIME
p7,Trial: 25,p7.edf,62,1,Fixation: 7 ms,257,7,263,"[ 24, 99]",3,975,257,943.4,412.1,1,1,36.0,36.9,.,.,.,.,.,.,.,.,.,.,.,.,.,.,1,Saccade: 264 ms,DOWN,79,15.98,202.3,606.99,[ ],264,342,942.5,410.9,607.4,905.3,.,.,.,A17,D7.wav,D7_FAM_She_is_washing_the_dishes.png,14,19058877
p7,Trial: 25,p7.edf,.,2,Fixation: 343 ms,205,343,547,[ ],.,899,.,611.4,912.9,.,.,36.45,39.1,1,Saccade: 264 ms,DOWN,79,15.98,202.3,606.99,"[ 24, 99]",264,342,942.5,410.9,607.4,905.3,2,Saccade: 548 ms,RIGHT,21,0.82,39.18,78.73,[ ],548,568,613.3,922.9,634.9,945.4,55.18,UP,16.05,A17,D7.wav,D7_FAM_She_is_washing_the_dishes.png,14,19058877
p7,Trial: 25,p7.edf,.,3,Fixation: 569 ms,733,569,1301,[ ],.,802,.,627.8,952.0,.,.,36.6,39.45,2,Saccade: 548 ms,RIGHT,21,0.82,39.18,78.73,[ ],548,568,613.3,922.9,634.9,945.4,3,Saccade: 1302 ms,.,236,0.47,1.99,272.56,[ ],1302,1537,626.9,956.3,621.4,973.9,114.28,UP,1.09,A17,D7.wav,D7_FAM_She_is_washing_the_dishes.png,14,19058877
p7,Trial: 25,p7.edf,.,4,Fixation: 3398 ms,228,3398,3625,[ 9],3,880,228,633.4,861.7,1,1,36.2,38.65,4,Saccade: 3375 ms,UP,23,1.94,84.53,149.46,[ ],3375,3397,619.4,942.3,631.5,867.5,5,Saccade: 3626 ms,RIGHT,62,12.64,203.89,372.55,[ 99],3626,3687,633.7,856.8,977.8,540,-93.81,DOWN,2.32,A17,D7.wav,D7_FAM_She_is_washing_the_dishes.png,14,19058877
p7,Trial: 25,p7.edf,.,5,Fixation: 3688 ms,148,3688,3835,"[ 8, 99]",12,906,414,994.3,526.8,1,2,36.35,37.3,5,Saccade: 3626 ms,RIGHT,62,12.64,203.89,372.55,[ 9],3626,3687,633.7,856.8,977.8,540,6,Saccade: 3836 ms,UP,40,5.33,133.36,287.19,"[ 7, 8, 99]",3836,3875,994.4,525.2,1036.9,331.3,-138.45,LEFT,13.29,A17,D7.wav,D7_FAM_She_is_washing_the_dishes.png,14,19058877
p7,Trial: 25,p7.edf,.,6,Fixation: 3876 ms,266,3876,4141,"[ 7, 8, 99]",9,920,266,1036.8,331.2,1,1,36.55,37.2,6,Saccade: 3836 ms,UP,40,5.33,133.36,287.19,"[ 8, 99]",3836,3875,994.4,525.2,1036.9,331.3,7,Saccade: 4142 ms,LEFT,76,17.55,230.99,574.34,"[ 11, 99]",4142,4217,1037.8,327.4,404.7,356.4,-102.52,DOWN,5.38,A17,D7.wav,D7_FAM_She_is_washing_the_dishes.png,14,19058877
p7,Trial: 25,p7.edf,.,7,Fixation: 4218 ms,166,4218,4383,"[ 4, 11, 99]",3,978,166,410.0,357.8,1,1,35.6,36.7,7,Saccade: 4142 ms,LEFT,76,17.55,230.99,574.34,"[ 7, 8, 99]",4142,4217,1037.8,327.4,404.7,356.4,8,Saccade: 4384 ms,LEFT,31,5.84,188.35,384.29,"[ 3, 99]",4384,4414,407.4,362.5,195.8,357.3,2.37,RIGHT,17.39,A17,D7.wav,D7_FAM_She_is_washing_the_dishes.png,14,19058877
p7,Trial: 25,p7.edf,.,8,Fixation: 4415 ms,288,4415,4702,"[ 3, 99]",15,993,530,189.1,356.7,1,2,36.9,37.35,8,Saccade: 4384 ms,LEFT,31,5.84,188.35,384.29,"[ 11, 99]",4384,4414,407.4,362.5,195.8,357.3,9,Saccade: 4703 ms,DOWN,178,1.19,6.68,879.74,"[ 3, 99]",4703,4880,188.7,371.2,166.1,409.4,-0.28,RIGHT,6.09,A17,D7.wav,D7_FAM_She_is_washing_the_dishes.png,14,19058877
p7,Trial: 25,p7.edf,.,9,Fixation: 5125 ms,242,5125,5366,"[ 3, 99]",15,985,530,173.6,350.7,2,2,37.0,37.4,10,Saccade: 5101 ms,UP,24,2.05,85.48,160.49,"[ 3, 99]",5101,5124,174.4,422,176.5,345.2,11,Saccade: 5367 ms,RIGHT,73,18.33,251.08,471.63,"[ 14, 99]",5367,5439,174.4,351,838.6,333.9,-20.94,.,0.45,A17,D7.wav,D7_FAM_She_is_washing_the_dishes.png,14,19058877
p7,Trial: 25,p7.edf,.,10,Fixation: 5440 ms,183,5440,5622,[ 99],60,980,17410,866.1,334.0,6,59,35.55,36.7,11,Saccade: 5367 ms,RIGHT,73,18.33,251.08,471.63,"[ 3, 99]",5367,5439,174.4,351,838.6,333.9,12,Saccade: 5623 ms,RIGHT,173,4.78,27.63,810.21,"[ 7, 8, 99]",5623,5795,867.7,346.2,1039.7,332.4,-178.65,LEFT,19.1,A17,D7.wav,D7_FAM_She_is_washing_the_dishes.png,14,19058877
p7,Trial: 25,p7.edf,.,11,Fixation: 5992 ms,682,5992,6673,"[ 8, 99]",12,1007,682,1056.1,314.5,1,1,36.65,37.25,13,Saccade: 5969 ms,RIGHT,23,0.87,37.99,81.48,"[ 7, 8, 99]",5969,5991,1039.1,333.3,1066.2,315.9,14,Saccade: 6674 ms,LEFT,44,6.07,137.96,331.6,[ 99],6674,6717,1050.5,320.9,858.8,211.6,-174.28,LEFT,5.29,A17,D7.wav,D7_FAM_She_is_washing_the_dishes.png,14,19058877
p7,Trial: 25,p7.edf,.,12,Fixation: 6718 ms,178,6718,6895,[ 99],60,1038,17410,862.3,214.8,8,59,35.7,36.8,14,Saccade: 6674 ms,LEFT,44,6.07,137.96,331.6,"[ 8, 99]",6674,6717,1050.5,320.9,858.8,211.6,15,Saccade: 6896 ms,LEFT,26,2.94,113.17,225.04,"[ 16, 99]",6896,6921,861.7,214.6,757.1,214.9,-26.69,RIGHT,6,A17,D7.wav,D7_FAM_She_is_washing_the_dishes.png,14,19058877
p7,Trial: 25,p7.edf,.,13,Fixation: 6922 ms,148,6922,7069,"[ 16, 99]",3,1036,148,764.8,216.2,1,1,35.4,36.7,15,Saccade: 6896 ms,LEFT,26,2.94,113.17,225.04,[ 99],6896,6921,861.7,214.6,757.1,214.9,16,Saccade: 7070 ms,LEFT,65,9.45,145.31,448.83,"[ 17, 99]",7070,7134,766.4,215.8,435.3,157.9,0.8,RIGHT,2.74,A17,D7.wav,D7_FAM_She_is_washing_the_dishes.png,14,19058877
p7,Trial: 25,p7.edf,.,14,Fixation: 7135 ms,333,7135,7467,"[ 17, 99]",1,1006,333,443.0,161.7,1,1,35.65,36.95,16,Saccade: 7070 ms,LEFT,65,9.45,145.31,448.83,"[ 16, 99]",7070,7134,766.4,215.8,435.3,157.9,17,Saccade: 7468 ms,LEFT,55,8.38,152.42,435.49,"[ 3, 99]",7468,7522,443.4,165,198.4,349,-9.28,RIGHT,9.18,A17,D7.wav,D7_FAM_She_is_washing_the_dishes.png,14,19058877
p7,Trial: 25,p7.edf,.,15,Fixation: 7523 ms,214,7523,7736,"[ 3, 99]",15,941,975,200.9,362.0,1,4,36.85,37.3,17,Saccade: 7468 ms,LEFT,55,8.38,152.42,435.49,"[ 17, 99]",7468,7522,443.4,165,198.4,349,18,Saccade: 7737 ms,LEFT,28,0.79,28.12,110.28,"[ 3, 99]",7737,7764,200.8,363.4,175.3,349.3,38.93,RIGHT,8.59,A17,D7.wav,D7_FAM_She_is_washing_the_dishes.png,14,19058877
p7,Trial: 25,p7.edf,.,16,Fixation: 7765 ms,232,7765,7996,"[ 3, 99]",15,927,975,168.6,350.2,2,4,37.05,37.45,18,Saccade: 7737 ms,LEFT,28,0.79,28.12,110.28,"[ 3, 99]",7737,7764,200.8,363.4,175.3,349.3,19,Saccade: 7997 ms,DOWN,43,1.99,46.25,156.88,"[ 3, 99]",7997,8039,167.9,352.5,162.7,426.9,-19.86,RIGHT,0.93,A17,D7.wav,D7_FAM_She_is_washing_the_dishes.png,14,19058877
p7,Trial: 25,p7.edf,.,17,Fixation: 8040 ms,227,8040,8266,"[ 2, 3, 99]",4,947,227,169.2,439.9,1,1,37.15,37.5,19,Saccade: 7997 ms,DOWN,43,1.99,46.25,156.88,"[ 3, 99]",7997,8039,167.9,352.5,162.7,426.9,20,Saccade: 8267 ms,DOWN,30,4.82,160.57,297.57,"[ 3, 99]",8267,8296,172.1,443.6,208.5,621.4,90.39,UP,2.39,A17,D7.wav,D7_FAM_She_is_washing_the_dishes.png,14,19058877
p7,Trial: 25,p7.edf,.,18,Fixation: 8297 ms,302,8297,8598,"[ 3, 99]",15,1015,975,204.6,635.0,4,4,37.1,37.95,20,Saccade: 8267 ms,DOWN,30,4.82,160.57,297.57,"[ 2, 3, 99]",8267,8296,172.1,443.6,208.5,621.4,21,Saccade: 8599 ms,RIGHT,55,8.58,156.01,369.51,"[ 11, 99]",8599,8653,200.7,636.8,464,465.6,100.45,UP,5.26,A17,D7.wav,D7_FAM_She_is_washing_the_dishes.png,14,19058877
p7,Trial: 25,p7.edf,.,19,Fixation: 8654 ms,152,8654,8805,"[ 11, 99]",10,1071,895,477.6,453.0,1,3,35.45,36.7,21,Saccade: 8599 ms,RIGHT,55,8.58,156.01,369.51,"[ 3, 99]",8599,8653,200.7,636.8,464,465.6,22,Saccade: 8806 ms,LEFT,31,2.02,65.16,205.7,"[ 4, 11, 99]",8806,8836,478.2,448.5,425.7,398,-147.06,LEFT,8.97,A17,D7.wav,D7_FAM_She_is_washing_the_dishes.png,14,19058877
p7,Trial: 25,p7.edf,.,20,Fixation: 8837 ms,264,8837,9100,"[ 4, 11, 99]",3,1091,264,418.5,387.8,1,1,35.6,36.7,22,Saccade: 8806 ms,LEFT,31,2.02,65.16,205.7,"[ 11, 99]",8806,8836,478.2,448.5,425.7,398,23,Saccade: 9101 ms,RIGHT,31,3.7,119.21,214.26,"[ 5, 11, 99]",9101,9131,414.4,389.1,535.5,337.5,-46.88,DOWN,2.43,A17,D7.wav,D7_FAM_She_is_washing_the_dishes.png,14,19058877
p7,Trial: 25,p7.edf,.,21,Fixation: 9132 ms,479,9132,9610,"[ 5, 11, 99]",2,1058,479,536.7,340.3,1,1,35.3,36.5,23,Saccade: 9101 ms,RIGHT,31,3.7,119.21,214.26,"[ 4, 11, 99]",9101,9131,414.4,389.1,535.5,337.5,24,Saccade: 9611 ms,LEFT,48,6.09,126.81,363.45,"[ 11, 99]",9611,9658,540.8,347.9,326.3,381.7,-158.73,LEFT,3.58,A17,D7.wav,D7_FAM_She_is_washing_the_dishes.png,14,19058877
p7,Trial: 25,p7.edf,.,22,Fixation: 9659 ms,117,9659,9775,[ 99],60,1020,17410,307.4,384.3,18,59,36.05,36.95,24,Saccade: 9611 ms,LEFT,48,6.09,126.81,363.45,"[ 5, 11, 99]",9611,9658,540.8,347.9,326.3,381.7,25,Saccade: 9776 ms,LEFT,40,3.98,99.51,246.59,"[ 3, 99]",9776,9815,306.5,386.2,164.5,353.1,10.56,RIGHT,6.54,A17,D7.wav,D7_FAM_She_is_washing_the_dishes.png,14,19058877
p7,Trial: 25,p7.edf,.,23,Fixation: 9816 ms,173,9816,9988,"[ 3, 99]",15,997,434,166.4,351.8,1,2,37.1,37.5,25,Saccade: 9776 ms,LEFT,40,3.98,99.51,246.59,[ 99],9776,9815,306.5,386.2,164.5,353.1,26,Saccade: 9989 ms,RIGHT,17,0.54,31.78,56.13,"[ 3, 99]",9989,10005,164.5,347,182.8,338.8,-12.76,RIGHT,3.95,A17,D7.wav,D7_FAM_She_is_washing_the_dishes.png,14,19058877
p7,Trial: 25,p7.edf,.,24,Fixation: 10006 ms,261,10006,10266,"[ 3, 99]",15,990,434,177.6,338.6,2,2,37.0,37.4,26,Saccade: 9989 ms,RIGHT,17,0.54,31.78,56.13,"[ 3, 99]",9989,10005,164.5,347,182.8,338.8,27,Saccade: 10267 ms,RIGHT,167,23.71,141.95,686.95,"[ 7, 8, 99]",10267,10433,175.4,339.1,1047.7,329.9,-130.62,.,0.46,A17,D7.wav,D7_FAM_She_is_washing_the_dishes.png,14,19058877
p7,Trial: 25,p7.edf,.,25,Fixation: 10588 ms,340,10588,10927,"[ 8, 99]",12,928,340,1064.6,318.1,1,1,36.7,37.3,28,Saccade: 10558 ms,.,30,0.49,16.47,89.16,"[ 8, 99]",10558,10587,1040.6,312.9,1058,318,29,Saccade: 10928 ms,DOWN,42,4.04,96.31,305.07,"[ 24, 99]",10928,10969,1063.4,319.4,1164.3,431.8,-178.69,LEFT,24.08,A17,D7.wav,D7_FAM_She_is_washing_the_dishes.png,14,19058877
p7,Trial: 25,p7.edf,.,26,Fixation: 10970 ms,354,10970,11323,"[ 24, 99]",3,936,354,1171.8,443.7,1,1,37.6,37.75,29,Saccade: 10928 ms,DOWN,42,4.04,96.31,305.07,"[ 8, 99]",10928,10969,1063.4,319.4,1164.3,431.8,30,Saccade: 11324 ms,LEFT,29,5.01,172.81,364.31,"[ 7, 8, 99]",11324,11352,1167.8,444.8,988,401,130.77,UP,4.42,A17,D7.wav,D7_FAM_She_is_washing_the_dishes.png,14,19058877
p7,Trial: 25,p7.edf,.,27,Fixation: 11353 ms,376,11353,11728,"[ 6, 7, 8, 99]",2,992,376,991.7,412.2,1,1,36.25,37.05,30,Saccade: 11324 ms,LEFT,29,5.01,172.81,364.31,"[ 24, 99]",11324,11352,1167.8,444.8,988,401,31,Saccade: 11729 ms,DOWN,31,1.01,32.63,125.99,"[ 7, 8, 99]",11729,11759,990.9,416.9,1012.1,447.6,-9.8,RIGHT,4.95,A17,D7.wav,D7_FAM_She_is_washing_the_dishes.png,14,19058877
p7,Trial: 25,p7.edf,.,28,Fixation: 11760 ms,103,11760,11862,"[ 7, 8, 99]",9,1017,876,1021.6,448.7,2,4,36.45,37.2,31,Saccade: 11729 ms,DOWN,31,1.01,32.63,125.99,"[ 6, 7, 8, 99]",11729,11759,990.9,416.9,1012.1,447.6,32,Saccade: 11863 ms,LEFT,25,2.13,85.32,194.24,"[ 7, 8, 99]",11863,11887,1024.2,449,965,398,129.92,UP,1.28,A17,D7.wav,D7_FAM_She_is_washing_the_dishes.png,14,19058877
p7,Trial: 25,p7.edf,.,29,Fixation: 11888 ms,192,11888,12079,"[ 7, 8, 99]",9,1023,876,967.5,401.1,3,4,36.1,37.0,32,Saccade: 11863 ms,LEFT,25,2.13,85.32,194.24,"[ 8, 99]",11863,11887,1024.2,449,965,398,33,Saccade: 12080 ms,UP,20,0.95,47.42,70.2,"[ 7, 8, 99]",12080,12099,968.8,401.4,988.1,372.4,-40.71,RIGHT,1.97,A17,D7.wav,D7_FAM_She_is_washing_the_dishes.png,14,19058877
p7,Trial: 25,p7.edf,.,30,Fixation: 12100 ms,205,12100,12304,"[ 7, 8, 99]",9,1011,876,985.6,373.8,4,4,36.2,37.0,33,Saccade: 12080 ms,UP,20,0.95,47.42,70.2,"[ 7, 8, 99]",12080,12099,968.8,401.4,988.1,372.4,34,Saccade: 12305 ms,UP,50,3.85,77.09,239.2,"[ 24, 99]",12305,12354,989.1,373.2,954.3,235.1,-124.16,DOWN,0.89,A17,D7.wav,D7_FAM_She_is_washing_the_dishes.png,14,19058877
p7,Trial: 25,p7.edf,.,31,Fixation: 12355 ms,329,12355,12683,"[ 24, 99]",3,969,329,948.8,229.3,1,1,36.1,37.0,34,Saccade: 12305 ms,UP,50,3.85,77.09,239.2,"[ 7, 8, 99]",12305,12354,989.1,373.2,954.3,235.1,35,Saccade: 12684 ms,DOWN,31,2.71,87.35,202.01,[ 99],12684,12714,948.6,231,881.1,302.9,-75.39,DOWN,4.04,A17,D7.wav,D7_FAM_She_is_washing_the_dishes.png,14,19058877
p7,Trial: 25,p7.edf,.,32,Fixation: 12715 ms,199,12715,12913,[ 99],60,945,17410,871.8,308.6,28,59,35.65,36.7,35,Saccade: 12684 ms,DOWN,31,2.71,87.35,202.01,"[ 24, 99]",12684,12714,948.6,231,881.1,302.9,36,Saccade: 12914 ms,DOWN,25,1.79,71.74,161.77,[ 99],12914,12938,870.6,310,886.7,373.7,45.08,UP,3.04,A17,D7.wav,D7_FAM_She_is_washing_the_dishes.png,14,19058877
p7,Trial: 25,p7.edf,13137,33,Fixation: 12939 ms,229,12939,13167,[ 99],60,934,17410,889.7,373.2,29,59,35.7,36.75,36,Saccade: 12914 ms,DOWN,25,1.79,71.74,161.77,[ 99],12914,12938,870.6,310,886.7,373.7,37,Saccade: 13168 ms,UP,33,5.52,167.37,358.63,"[ 15, 16, 99]",13168,13200,892.1,375.7,787.7,203.7,105.92,UP,1.83,A17,D7.wav,D7_FAM_She_is_washing_the_dishes.png,14,19058877
p7,Trial: 25,p7.edf,13275,34,Fixation: 13201 ms,342,13201,13542,"[ 15, 16, 99]",2,964,342,778.0,209.6,1,1,35.4,36.7,37,Saccade: 13168 ms,UP,33,5.52,167.37,358.63,"[ 24, 99]",13168,13200,892.1,375.7,787.7,203.7,38,Saccade: 13543 ms,DOWN,41,4.73,115.34,344.91,"[ 13, 14, 99]",13543,13583,776.1,208.2,748.5,378.9,-54.8,DOWN,5.45,A17,D7.wav,D7_FAM_She_is_washing_the_dishes.png,14,19058877
p7,Trial: 25,p7.edf,.,35,Fixation: 13584 ms,195,13584,13778,"[ 13, 14, 99]",4,984,195,745.2,385.4,1,1,35.3,36.5,38,Saccade: 13543 ms,DOWN,41,4.73,115.34,344.91,"[ 15, 16, 99]",13543,13583,776.1,208.2,748.5,378.9,39,Saccade: 13779 ms,LEFT,52,6.17,118.67,390.47,"[ 5, 11, 99]",13779,13830,746.2,389.9,531.6,351.2,79.07,UP,4.89,A17,D7.wav,D7_FAM_She_is_washing_the_dishes.png,14,19058877
p7,Trial: 25,p7.edf,13866,36,Fixation: 13831 ms,202,13831,14032,"[ 5, 11, 99]",2,988,202,513.7,357.4,1,1,35.3,36.5,39,Saccade: 13779 ms,LEFT,52,6.17,118.67,390.47,"[ 13, 14, 99]",13779,13830,746.2,389.9,531.6,351.2,40,Saccade: 14033 ms,LEFT,161,1.6,9.92,802.08,"[ 11, 99]",14033,14193,512.7,369.2,456.3,373.3,-6.67,RIGHT,6.6,A17,D7.wav,D7_FAM_She_is_washing_the_dishes.png,14,19058877
p7,Trial: 25,p7.edf,.,37,Fixation: 14338 ms,290,14338,14627,"[ 11, 99]",10,1056,719,398.8,366.5,2,3,35.7,36.7,41,Saccade: 14315 ms,LEFT,23,1.62,70.34,140.29,"[ 11, 99]",14315,14337,453.6,360.6,396.8,370.4,42,Saccade: 14628 ms,LEFT,23,1.49,64.57,127,"[ 10, 11, 99]",14628,14650,396.7,364.2,346.6,382.5,4.39,RIGHT,3.25,A17,D7.wav,D7_FAM_She_is_washing_the_dishes.png,14,19058877
p7,Trial: 25,p7.edf,.,38,Fixation: 14651 ms,227,14651,14877,"[ 10, 11, 99]",1,1080,227,349.1,383.8,1,1,35.9,36.9,42,Saccade: 14628 ms,LEFT,23,1.49,64.57,127,[ 99],14628,14650,396.7,364.2,346.6,382.5,43,Saccade: 14878 ms,LEFT,49,4.52,92.19,304.79,"[ 3, 99]",14878,14926,346.1,381.6,188.8,430.5,18.71,RIGHT,1.47,A17,D7.wav,D7_FAM_She_is_washing_the_dishes.png,14,19058877
p7,Trial: 25,p7.edf,.,39,Fixation: 14927 ms,224,14927,15150,"[ 2, 3, 99]",4,1090,423,173.8,439.5,1,2,37.05,37.45,43,Saccade: 14878 ms,LEFT,49,4.52,92.19,304.79,"[ 10, 11, 99]",14878,14926,346.1,381.6,188.8,430.5,44,Saccade: 15151 ms,LEFT,23,2.25,97.7,168.65,"[ 3, 99]",15151,15173,174.8,438.7,92.2,454.9,17.32,RIGHT,5.03,A17,D7.wav,D7_FAM_She_is_washing_the_dishes.png,14,19058877
p7,Trial: 25,p7.edf,15225,40,Fixation: 15174 ms,199,15174,15372,"[ 1, 2, 3, 99]",2,1158,199,100.5,454.1,1,1,37.75,37.85,44,Saccade: 15151 ms,LEFT,23,2.25,97.7,168.65,"[ 2, 3, 99]",15151,15173,174.8,438.7,92.2,454.9,45,Saccade: 15373 ms,RIGHT,178,19.21,107.95,1027.98,"[ 14, 99]",15373,15550,101.3,457.5,801.1,397.4,11.19,RIGHT,2,A17,D7.wav,D7_FAM_She_is_washing_the_dishes.png,14,19058877
p7,Trial: 25,p7.edf,.,41,Fixation: 15708 ms,133,15708,15840,[ 99],60,1192,17410,949.1,406.4,37,59,35.95,36.9,46,Saccade: 15666 ms,RIGHT,42,3.67,87.26,310.18,"[ 14, 99]",15666,15707,803.1,393,932.6,410.9,47,Saccade: 15841 ms,UP,31,1.08,34.68,119.12,"[ 8, 99]",15841,15871,950.4,408.4,963.6,371.1,-176.83,LEFT,23.06,A17,D7.wav,D7_FAM_She_is_washing_the_dishes.png,14,19058877
p7,Trial: 25,p7.edf,.,42,Fixation: 15872 ms,167,15872,16038,[ 99],60,1231,17410,955.9,369.3,38,59,36.05,36.9,47,Saccade: 15841 ms,UP,31,1.08,34.68,119.12,[ 99],15841,15871,950.4,408.4,963.6,371.1,48,Saccade: 16039 ms,RIGHT,23,0.74,32.34,84.29,"[ 7, 8, 99]",16039,16061,954.9,367.7,981.7,369.4,-100.64,DOWN,1.02,A17,D7.wav,D7_FAM_She_is_washing_the_dishes.png,14,19058877
p7,Trial: 25,p7.edf,16285,43,Fixation: 16062 ms,592,16062,16653,"[ 7, 8, 99]",9,1224,592,979.1,365.8,1,1,36.2,37.0,48,Saccade: 16039 ms,RIGHT,23,0.74,32.34,84.29,[ 99],16039,16061,954.9,367.7,981.7,369.4,49,Saccade: 16654 ms,DOWN,173,0.93,5.4,943.21,"[ 6, 7, 8, 99]",16654,16826,985.8,381.5,1002.8,411.4,-171.61,LEFT,0.65,A17,D7.wav,D7_FAM_She_is_washing_the_dishes.png,14,19058877
p7,Trial: 25,p7.edf,.,44,Fixation: 17000 ms,476,17000,17475,"[ 3, 99]",15,1317,476,191.5,422.7,1,1,36.95,37.4,50,Saccade: 16919 ms,LEFT,81,21.8,269.09,670.32,"[ 7, 8, 99]",16919,16999,987.9,391.4,191.5,411.9,51,Saccade: 17476 ms,RIGHT,78,22.62,290.03,541.05,"[ 6, 7, 8, 99]",17476,17553,182.2,432.6,1011.7,397.1,4.06,RIGHT,21.59,A17,D7.wav,D7_FAM_She_is_washing_the_dishes.png,14,19058877
p7,Trial: 25,p7.edf,.,45,Fixation: 17554 ms,147,17554,17700,"[ 6, 7, 8, 99]",2,1181,147,1035.7,396.8,1,1,36.5,37.15,51,Saccade: 17476 ms,RIGHT,78,22.62,290.03,541.05,"[ 3, 99]",17476,17553,182.2,432.6,1011.7,397.1,52,Saccade: 17701 ms,LEFT,34,1.18,34.62,154.97,"[ 6, 7, 8, 99]",17701,17734,1040.3,399.4,1004.7,375,-178.27,LEFT,23,A17,D7.wav,D7_FAM_She_is_washing_the_dishes.png,14,19058877
p7,Trial: 25,p7.edf,.,46,Fixation: 17735 ms,156,17735,17890,"[ 7, 8, 99]",9,1217,303,998.0,372.6,2,2,36.3,37.1,52,Saccade: 17701 ms,LEFT,34,1.18,34.62,154.97,"[ 6, 7, 8, 99]",17701,17734,1040.3,399.4,1004.7,375,53,Saccade: 17891 ms,LEFT,85,22.96,270.16,676.99,"[ 2, 3, 99]",17891,17975,999.9,373,160.6,462.5,-32.19,RIGHT,1.22,A17,D7.wav,D7_FAM_She_is_washing_the_dishes.png,14,19058877
p7,Trial: 25,p7.edf,17980,47,Fixation: 17976 ms,198,17976,18173,"[ 2, 3, 99]",4,1373,198,171.4,465.9,1,1,37.15,37.6,53,Saccade: 17891 ms,LEFT,85,22.96,270.16,676.99,"[ 7, 8, 99]",17891,17975,999.9,373,160.6,462.5,54,Saccade: 18174 ms,UP,23,1.36,59.09,104.2,"[ 3, 99]",18174,18196,169.1,468.6,188.3,421.5,6.33,RIGHT,22.65,A17,D7.wav,D7_FAM_She_is_washing_the_dishes.png,14,19058877
p7,Trial: 25,p7.edf,.,48,Fixation: 18197 ms,606,18197,18802,"[ 3, 99]",15,1376,1661,193.3,429.7,2,4,36.9,37.4,54,Saccade: 18174 ms,UP,23,1.36,59.09,104.2,"[ 2, 3, 99]",18174,18196,169.1,468.6,188.3,421.5,55,Saccade: 18803 ms,LEFT,24,2.35,97.81,178.7,"[ 1, 3, 99]",18803,18826,198.7,427.2,111.8,437,-121.5,DOWN,1.13,A17,D7.wav,D7_FAM_She_is_washing_the_dishes.png,14,19058877
p7,Trial: 25,p7.edf,.,49,Fixation: 18827 ms,303,18827,19129,"[ 1, 3, 99]",2,1285,303,123.6,440.0,1,1,37.55,37.7,55,Saccade: 18803 ms,LEFT,24,2.35,97.81,178.7,"[ 3, 99]",18803,18826,198.7,427.2,111.8,437,56,Saccade: 19130 ms,RIGHT,203,1.64,8.06,896.16,"[ 2, 3, 99]",19130,19332,125.1,447.5,182.7,467.6,8.33,RIGHT,1.89,A17,D7.wav,D7_FAM_She_is_washing_the_dishes.png,14,19058877
p7,Trial: 25,p7.edf,.,50,Fixation: 19655 ms,554,19655,20208,"[ 3, 99]",15,1266,1661,182.7,339.5,4,4,36.95,37.4,57,Saccade: 19629 ms,UP,26,2.71,104.15,177.63,"[ 3, 99]",19629,19654,180.7,433.1,182.2,331.7,58,Saccade: 20209 ms,RIGHT,67,15.69,234.23,473.02,[ 99],20209,20275,186.9,345.3,609.8,740.8,-120.66,DOWN,3.11,A17,D7.wav,D7_FAM_She_is_washing_the_dishes.png,14,19058877
p7,Trial: 25,p7.edf,.,51,Fixation: 20276 ms,432,20276,20707,"[ 9, 99]",3,1156,655,623.4,770.3,1,2,35.85,37.9,58,Saccade: 20209 ms,RIGHT,67,15.69,234.23,473.02,"[ 3, 99]",20209,20275,186.9,345.3,609.8,740.8,59,Saccade: 20708 ms,UP,23,1.75,76.27,133.02,"[ 9, 99]",20708,20730,619.6,775.4,625.8,709.5,136.62,LEFT,16.66,A17,D7.wav,D7_FAM_She_is_washing_the_dishes.png,14,19058877
p7,Trial: 25,p7.edf,.,52,Fixation: 20731 ms,223,20731,20953,"[ 9, 99]",3,1182,655,629.8,717.8,2,2,35.7,37.6,59,Saccade: 20708 ms,UP,23,1.75,76.27,133.02,"[ 9, 99]",20708,20730,619.6,775.4,625.8,709.5,60,Saccade: 20954 ms,DOWN,256,1.11,4.35,485.82,"[ 9, 99]",20954,21209,629.6,718.4,626.9,760.3,-97.33,DOWN,1.4,A17,D7.wav,D7_FAM_She_is_washing_the_dishes.png,14,19058877
p7,Trial: 25,p7.edf,.,53,Fixation: 21314 ms,312,21314,21625,"[ 11, 99]",10,1166,554,455.3,366.3,1,2,35.5,36.6,61,Saccade: 21249 ms,UP,65,10.96,168.67,543.85,"[ 9, 99]",21249,21313,623.1,729.4,450.5,364.1,62,Saccade: 21626 ms,LEFT,30,1.29,43.05,150.17,"[ 4, 11, 99]",21626,21655,459.2,371.1,413.7,364.8,-62.64,DOWN,10.67,A17,D7.wav,D7_FAM_She_is_washing_the_dishes.png,14,19058877
p7,Trial: 25,p7.edf,.,54,Fixation: 21656 ms,242,21656,21897,"[ 11, 99]",10,1119,554,407.2,369.0,2,2,35.6,36.7,62,Saccade: 21626 ms,LEFT,30,1.29,43.05,150.17,"[ 11, 99]",21626,21655,459.2,371.1,413.7,364.8,63,Saccade: 21898 ms,RIGHT,62,9.23,148.79,403.92,"[ 14, 99]",21898,21959,406.9,370.6,732.9,350.6,3.12,RIGHT,1.36,A17,D7.wav,D7_FAM_She_is_washing_the_dishes.png,14,19058877
p7,Trial: 25,p7.edf,.,55,Fixation: 21960 ms,385,21960,22344,"[ 14, 99]",6,1043,385,739.7,354.0,1,1,35.3,36.5,63,Saccade: 21898 ms,RIGHT,62,9.23,148.79,403.92,"[ 11, 99]",21898,21959,406.9,370.6,732.9,350.6,64,Saccade: 22345 ms,RIGHT,60,5.91,98.43,281.49,[ 99],22345,22404,742.3,354.6,951.4,379.9,-177.5,LEFT,9.39,A17,D7.wav,D7_FAM_She_is_washing_the_dishes.png,14,19058877
p7,Trial: 25,p7.edf,.,56,Fixation: 22405 ms,241,22405,22645,[ 99],60,1062,17410,949.2,385.2,52,59,36.0,36.9,64,Saccade: 22345 ms,RIGHT,60,5.91,98.43,281.49,"[ 14, 99]",22345,22404,742.3,354.6,951.4,379.9,65,Saccade: 22646 ms,LEFT,46,5.04,109.53,378.18,"[ 13, 14, 99]",22646,22691,949.6,385.5,771.8,359.3,171.77,LEFT,5.94,A17,D7.wav,D7_FAM_She_is_washing_the_dishes.png,14,19058877
p7,Trial: 25,p7.edf,.,57,Fixation: 22692 ms,697,22692,23388,"[ 14, 99]",6,1108,697,749.8,354.4,1,1,35.3,36.5,65,Saccade: 22646 ms,LEFT,46,5.04,109.53,378.18,[ 99],22646,22691,949.6,385.5,771.8,359.3,66,Saccade: 23389 ms,UP,43,4.44,103.26,193.01,"[ 16, 99]",23389,23431,745.1,355.8,769.1,195.2,-8.53,RIGHT,5.66,A17,D7.wav,D7_FAM_She_is_washing_the_dishes.png,14,19058877
p7,Trial: 25,p7.edf,.,58,Fixation: 23432 ms,299,23432,23730,"[ 15, 16, 99]",2,1109,299,771.5,200.1,1,1,35.4,36.7,66,Saccade: 23389 ms,UP,43,4.44,103.26,193.01,"[ 14, 99]",23389,23431,745.1,355.8,769.1,195.2,67,Saccade: 23731 ms,DOWN,255,3.68,14.45,779.15,"[ 14, 99]",23731,23985,769.2,217.9,747.6,350.9,-98.28,DOWN,4.26,A17,D7.wav,D7_FAM_She_is_washing_the_dishes.png,14,19058877
p7,Trial: 25,p7.edf,.,59,Fixation: 24484 ms,166,24484,24649,"[ 13, 14, 99]",4,1041,166,790.1,349.8,1,1,35.4,36.6,68,Saccade: 24459 ms,RIGHT,25,2.2,88.08,165.06,"[ 14, 99]",24459,24483,732.3,310.3,798.1,353.3,69,Saccade: 24650 ms,RIGHT,50,4.96,99.18,303.84,[ 99],24650,24699,787.2,351.4,963.9,366.2,97.33,UP,4.12,A17,D7.wav,D7_FAM_She_is_washing_the_dishes.png,14,19058877
p7,Trial: 25,p7.edf,.,60,Fixation: 24700 ms,419,24700,25118,"[ 7, 8, 99]",9,1018,419,979.6,365.8,1,1,36.15,36.95,69,Saccade: 24650 ms,RIGHT,50,4.96,99.18,303.84,"[ 13, 14, 99]",24650,24699,787.2,351.4,963.9,366.2,70,Saccade: 25119 ms,LEFT,49,5.38,109.75,360.45,"[ 13, 14, 99]",25119,25167,979.4,372.2,788.5,346.6,175.31,LEFT,5.31,A17,D7.wav,D7_FAM_She_is_washing_the_dishes.png,14,19058877
p7,Trial: 25,p7.edf,.,61,Fixation: 25168 ms,905,25168,26072,"[ 13, 14, 99]",4,1037,905,769.1,352.1,1,1,35.35,36.55,70,Saccade: 25119 ms,LEFT,49,5.38,109.75,360.45,"[ 7, 8, 99]",25119,25167,979.4,372.2,788.5,346.6,71,Saccade: 26073 ms,LEFT,57,8.57,150.41,399.56,"[ 11, 99]",26073,26129,771.6,354.6,469.6,380.9,-3.62,RIGHT,5.9,A17,D7.wav,D7_FAM_She_is_washing_the_dishes.png,14,19058877
p7,Trial: 25,p7.edf,.,62,Fixation: 26130 ms,193,26130,26322,"[ 4, 11, 99]",3,1057,193,450.6,385.1,1,1,35.45,36.6,71,Saccade: 26073 ms,LEFT,57,8.57,150.41,399.56,"[ 13, 14, 99]",26073,26129,771.6,354.6,469.6,380.9,72,Saccade: 26323 ms,RIGHT,54,8.01,148.41,379.63,"[ 14, 99]",26323,26376,448.1,384.3,730.9,366.9,5.73,RIGHT,9.04,A17,D7.wav,D7_FAM_She_is_washing_the_dishes.png,14,19058877
p7,Trial: 25,p7.edf,.,63,Fixation: 26377 ms,503,26377,26879,"[ 13, 14, 99]",4,1033,503,752.7,365.5,1,1,35.3,36.5,72,Saccade: 26323 ms,RIGHT,54,8.01,148.41,379.63,"[ 4, 11, 99]",26323,26376,448.1,384.3,730.9,366.9,73,Saccade: 26880 ms,DOWN,231,1.27,5.49,680.71,"[ 13, 14, 99]",26880,27110,751.8,371.7,761,417.1,-176.41,LEFT,8.56,A17,D7.wav,D7_FAM_She_is_washing_the_dishes.png,14,19058877
