RECORDING_SESSION_LABEL,TRIAL_LABEL,DATA_FILE,CURRENT_FIX_MSG_TIME_1,CURRENT_FIX_INDEX,CURRENT_FIX_LABEL,CURRENT_FIX_DURATION,CURRENT_FIX_START,CURRENT_FIX_END,CURRENT_FIX_INTEREST_AREAS,CURRENT_FIX_INTEREST_AREA_FIX_COUNT,CURRENT_FIX_PUPIL,CURRENT_FIX_RUN_DWELL_TIME,CURRENT_FIX_X,CURRENT_FIX_Y,CURRENT_FIX_RUN_INDEX,CURRENT_FIX_RUN_SIZE,CURRENT_FIX_X_RESOLUTION,CURRENT_FIX_Y_RESOLUTION,PREVIOUS_SAC_INDEX,PREVIOUS_SAC_LABEL,PREVIOUS_SAC_DIRECTION,PREVIOUS_SAC_DURATION,PREVIOUS_SAC_AMPLITUDE,PREVIOUS_SAC_AVG_VELOCITY,PREVIOUS_SAC_PEAK_VELOCITY,PREVIOUS_SAC_START_INTEREST_AREAS,PREVIOUS_SAC_START_TIME,PREVIOUS_SAC_END_TIME,PREVIOUS_SAC_START_X,PREVIOUS_SAC_START_Y,PREVIOUS_SAC_END_X,PREVIOUS_SAC_END_Y,NEXT_SAC_INDEX,NEXT_SAC_LABEL,NEXT_SAC_DIRECTION,NEXT_SAC_DURATION,NEXT_SAC_AMPLITUDE,NEXT_SAC_AVG_VELOCITY,NEXT_SAC_PEAK_VELOCITY,NEXT_SAC_END_INTEREST_AREAS,NEXT_SAC_START_TIME,NEXT_SAC_END_TIME,NEXT_SAC_START_X,NEXT_SAC_START_Y,NEXT_SAC_END_X,NEXT_SAC_END_Y,PREVIOUS_FIX_ANGLE,PREVIOUS_FIX_DIRECTION,PREVIOUS_FIX_DISTANCE,ItemNO,audiofilename,imagefilename,TRIAL_INDEX,TRIAL_START_TIME
p5,Trial: 34,p5.edf,63,1,Fixation: 7 ms,247,7,253,"[ 9, 17, 99]",14,733,247,655.1,355.9,1,1,35.2,36.5,.,.,.,.,.,.,.,.,.,.,.,.,.,.,1,Saccade: 254 ms,DOWN,68,11.1,163.25,410.99,"[ 1, 99]",254,321,647.7,353.5,605.7,764.1,.,.,.,A9,D7.wav,D7_FAM_She_is_washing_the_dishes.png,15,2965466
p5,Trial: 34,p5.edf,.,2,Fixation: 322 ms,83,322,404,"[ 1, 99]",2,707,83,611.0,788.0,1,1,35.9,38.0,1,Saccade: 254 ms,DOWN,68,11.1,163.25,410.99,"[ 9, 99]",254,321,647.7,353.5,605.7,764.1,2,Saccade: 405 ms,DOWN,45,3.64,80.88,339.67,[ ],405,449,612.8,791,664.7,920.3,83.9,UP,11.67,A9,D7.wav,D7_FAM_She_is_washing_the_dishes.png,15,2965466
p5,Trial: 34,p5.edf,3212,3,Fixation: 450 ms,2919,450,3368,[ ],.,615,.,673.0,951.5,.,.,36.55,39.3,2,Saccade: 405 ms,DOWN,45,3.64,80.88,339.67,"[ 1, 99]",405,449,612.8,791,664.7,920.3,3,Saccade: 3369 ms,UP,49,5.37,109.56,268.63,"[ 1, 99]",3369,3417,667.6,944.1,641,739.1,112.03,UP,4.56,A9,D7.wav,D7_FAM_She_is_washing_the_dishes.png,15,2965466
p5,Trial: 34,p5.edf,.,4,Fixation: 3418 ms,132,3418,3549,"[ 1, 99]",2,654,132,640.5,734.6,1,1,35.8,37.7,3,Saccade: 3369 ms,UP,49,5.37,109.56,268.63,[ ],3369,3417,667.6,944.1,641,739.1,4,Saccade: 3550 ms,UP,161,15.41,95.69,594.38,"[ 6, 7, 99]",3550,3710,645.4,734.6,398.3,221,-80.94,DOWN,5.7,A9,D7.wav,D7_FAM_She_is_washing_the_dishes.png,15,2965466
p5,Trial: 34,p5.edf,.,5,Fixation: 3985 ms,342,3985,4326,"[ 6, 7, 99]",8,707,1193,393.7,199.0,1,4,35.8,36.95,5,Saccade: 3963 ms,UP,22,1.46,66.48,96.77,"[ 6, 7, 99]",3963,3984,407.8,237,386.1,187.9,6,Saccade: 4327 ms,DOWN,22,1.18,53.48,70.6,"[ 6, 7, 99]",4327,4348,399.2,200.9,406.5,243.6,-64.34,DOWN,15.92,A9,D7.wav,D7_FAM_She_is_washing_the_dishes.png,15,2965466
p5,Trial: 34,p5.edf,.,6,Fixation: 4416 ms,289,4416,4704,"[ 6, 7, 99]",8,647,1193,421.7,292.4,2,4,35.6,36.7,7,Saccade: 4391 ms,DOWN,25,2.15,85.88,137.68,"[ 6, 7, 99]",4391,4415,406.1,235.7,428,311.3,8,Saccade: 4705 ms,DOWN,20,1.2,60.23,85.35,"[ 6, 7, 99]",4705,4724,423.6,289.3,430.1,333,107.18,UP,2.65,A9,D7.wav,D7_FAM_She_is_washing_the_dishes.png,15,2965466
p5,Trial: 34,p5.edf,.,7,Fixation: 4725 ms,275,4725,4999,"[ 6, 7, 99]",8,649,1193,429.6,323.1,3,4,35.55,36.7,8,Saccade: 4705 ms,DOWN,20,1.2,60.23,85.35,"[ 6, 7, 99]",4705,4724,423.6,289.3,430.1,333,9,Saccade: 5000 ms,UP,164,3.82,23.27,554.01,"[ 6, 7, 99]",5000,5163,439.5,332,418.1,193.3,104.87,UP,0.87,A9,D7.wav,D7_FAM_She_is_washing_the_dishes.png,15,2965466
p5,Trial: 34,p5.edf,.,8,Fixation: 5769 ms,287,5769,6055,"[ 6, 7, 99]",8,627,1193,367.8,228.7,4,4,35.9,36.9,10,Saccade: 5747 ms,LEFT,22,1.72,78.34,111.47,"[ 6, 7, 99]",5747,5768,412.4,200.7,358.8,232.2,11,Saccade: 6056 ms,RIGHT,89,21.58,242.49,495.82,"[ 5, 8, 99]",6056,6144,368.5,229.9,1153.7,335.3,-56.01,DOWN,3.09,A9,D7.wav,D7_FAM_She_is_washing_the_dishes.png,15,2965466
p5,Trial: 34,p5.edf,.,9,Fixation: 6145 ms,215,6145,6359,"[ 5, 8, 99]",5,619,459,1188.3,341.8,1,2,37.65,37.75,11,Saccade: 6056 ms,RIGHT,89,21.58,242.49,495.82,"[ 6, 7, 99]",6056,6144,368.5,229.9,1153.7,335.3,12,Saccade: 6360 ms,DOWN,26,1.73,66.45,123.2,"[ 5, 8, 99]",6360,6385,1193.3,341.6,1192.3,406.9,172.27,LEFT,22.52,A9,D7.wav,D7_FAM_She_is_washing_the_dishes.png,15,2965466
p5,Trial: 34,p5.edf,.,10,Fixation: 6386 ms,244,6386,6629,"[ 5, 8, 99]",5,637,459,1189.1,398.9,2,2,37.8,37.8,12,Saccade: 6360 ms,DOWN,26,1.73,66.45,123.2,"[ 5, 8, 99]",6360,6385,1193.3,341.6,1192.3,406.9,13,Saccade: 6630 ms,DOWN,60,6.19,103.19,285.74,"[ 8, 99]",6630,6689,1186.8,394.9,1076.2,600.6,90.8,UP,1.51,A9,D7.wav,D7_FAM_She_is_washing_the_dishes.png,15,2965466
p5,Trial: 34,p5.edf,.,11,Fixation: 6690 ms,196,6690,6885,"[ 8, 99]",13,618,655,1068.5,627.2,3,3,37.1,37.85,13,Saccade: 6630 ms,DOWN,60,6.19,103.19,285.74,"[ 5, 8, 99]",6630,6689,1186.8,394.9,1076.2,600.6,14,Saccade: 6886 ms,DOWN,24,1.56,64.83,120.63,"[ 20, 99]",6886,6909,1069.7,623.6,1048.3,678.5,61.92,UP,6.84,A9,D7.wav,D7_FAM_She_is_washing_the_dishes.png,15,2965466
p5,Trial: 34,p5.edf,.,12,Fixation: 6910 ms,137,6910,7046,"[ 20, 99]",2,607,137,1054.0,664.8,1,1,37.05,38.1,14,Saccade: 6886 ms,DOWN,24,1.56,64.83,120.63,"[ 8, 99]",6886,6909,1069.7,623.6,1048.3,678.5,15,Saccade: 7047 ms,UP,54,7.89,146.2,360.09,"[ 8, 99]",7047,7100,1056.9,669.3,1123.2,378.6,68.45,UP,1.06,A9,D7.wav,D7_FAM_She_is_washing_the_dishes.png,15,2965466
p5,Trial: 34,p5.edf,.,13,Fixation: 7101 ms,229,7101,7329,"[ 5, 8, 99]",5,654,229,1125.6,359.6,1,1,37.2,37.5,15,Saccade: 7047 ms,UP,54,7.89,146.2,360.09,"[ 20, 99]",7047,7100,1056.9,669.3,1123.2,378.6,16,Saccade: 7330 ms,UP,165,1.02,6.16,557.56,"[ 5, 8, 99]",7330,7494,1128.8,365,1152.9,335.5,-103.43,DOWN,8.3,A9,D7.wav,D7_FAM_She_is_washing_the_dishes.png,15,2965466
p5,Trial: 34,p5.edf,.,14,Fixation: 7751 ms,229,7751,7979,"[ 8, 99]",13,634,458,1125.4,293.7,2,2,37.2,37.5,17,Saccade: 7730 ms,UP,21,1.27,60.35,90.19,"[ 5, 8, 99]",7730,7750,1145.6,323.6,1118.8,284.4,18,Saccade: 7980 ms,DOWN,61,9.42,154.49,391.77,"[ 8, 99]",7980,8040,1127,299.6,1003.9,631,-89.83,DOWN,1.76,A9,D7.wav,D7_FAM_She_is_washing_the_dishes.png,15,2965466
p5,Trial: 34,p5.edf,.,15,Fixation: 8041 ms,163,8041,8203,[ 99],58,603,14661,1003.2,665.0,12,56,36.65,37.8,18,Saccade: 7980 ms,DOWN,61,9.42,154.49,391.77,"[ 8, 99]",7980,8040,1127,299.6,1003.9,631,19,Saccade: 8204 ms,LEFT,18,1.21,67.45,88.69,"[ 19, 99]",8204,8221,1004.2,667.6,961,657.1,71.45,UP,10.4,A9,D7.wav,D7_FAM_She_is_washing_the_dishes.png,15,2965466
p5,Trial: 34,p5.edf,.,16,Fixation: 8222 ms,145,8222,8366,"[ 19, 99]",2,630,145,969.2,654.2,1,1,36.45,37.7,19,Saccade: 8204 ms,LEFT,18,1.21,67.45,88.69,[ 99],8204,8221,1004.2,667.6,961,657.1,20,Saccade: 8367 ms,RIGHT,39,2.52,64.5,240.41,"[ 20, 99]",8367,8405,968.6,653.6,1059.7,670.5,-17.1,RIGHT,0.97,A9,D7.wav,D7_FAM_She_is_washing_the_dishes.png,15,2965466
p5,Trial: 34,p5.edf,.,17,Fixation: 8406 ms,168,8406,8573,"[ 5, 99]",5,627,168,1068.2,669.4,1,1,37.15,38.1,20,Saccade: 8367 ms,RIGHT,39,2.52,64.5,240.41,"[ 19, 99]",8367,8405,968.6,653.6,1059.7,670.5,21,Saccade: 8574 ms,UP,244,10.27,42.11,418.05,"[ 8, 99]",8574,8817,1073.2,665.4,1114.4,279.3,171.52,LEFT,2.72,A9,D7.wav,D7_FAM_She_is_washing_the_dishes.png,15,2965466
p5,Trial: 34,p5.edf,.,18,Fixation: 9185 ms,425,9185,9609,"[ 8, 99]",13,746,1107,1127.9,285.5,1,4,37.35,37.6,22,Saccade: 9160 ms,RIGHT,25,1.58,63.22,129.64,"[ 8, 99]",9160,9184,1090.3,288.1,1148.4,279,23,Saccade: 9610 ms,LEFT,31,1.04,33.44,142.44,"[ 8, 99]",9610,9640,1130.3,284.1,1091.9,287.1,-98.98,DOWN,10.27,A9,D7.wav,D7_FAM_She_is_washing_the_dishes.png,15,2965466
p5,Trial: 34,p5.edf,.,19,Fixation: 9641 ms,163,9641,9803,"[ 8, 99]",13,709,1107,1089.9,289.3,2,4,36.95,37.4,23,Saccade: 9610 ms,LEFT,31,1.04,33.44,142.44,"[ 8, 99]",9610,9640,1130.3,284.1,1091.9,287.1,24,Saccade: 9804 ms,LEFT,22,1.71,77.68,119.72,"[ 4, 8, 99]",9804,9825,1089.1,291,1033,319.5,5.66,RIGHT,1.03,A9,D7.wav,D7_FAM_She_is_washing_the_dishes.png,15,2965466
p5,Trial: 34,p5.edf,.,20,Fixation: 9826 ms,338,9826,10163,"[ 4, 8, 99]",4,705,519,1043.7,319.0,1,2,36.55,37.2,24,Saccade: 9804 ms,LEFT,22,1.71,77.68,119.72,"[ 8, 99]",9804,9825,1089.1,291,1033,319.5,25,Saccade: 10164 ms,.,9,0.48,52.96,46.32,"[ 4, 8, 99]",10164,10172,1047.3,321.7,1055.6,337.3,32.35,RIGHT,1.49,A9,D7.wav,D7_FAM_She_is_washing_the_dishes.png,15,2965466
p5,Trial: 34,p5.edf,.,21,Fixation: 10173 ms,181,10173,10353,"[ 4, 8, 99]",4,708,519,1051.8,330.8,2,2,36.7,37.2,25,Saccade: 10164 ms,.,9,0.48,52.96,46.32,"[ 4, 8, 99]",10164,10172,1047.3,321.7,1055.6,337.3,26,Saccade: 10354 ms,RIGHT,192,2.29,11.95,550.34,"[ 8, 99]",10354,10545,1056.9,332.6,1138.4,308.7,124.89,.,0.39,A9,D7.wav,D7_FAM_She_is_washing_the_dishes.png,15,2965466
p5,Trial: 34,p5.edf,.,22,Fixation: 11166 ms,241,11166,11406,"[ 9, 99]",14,758,2082,922.1,288.3,1,6,35.95,36.9,27,Saccade: 11115 ms,LEFT,51,5.21,102.18,312.52,"[ 8, 99]",11115,11165,1127.7,306.3,938,286.1,28,Saccade: 11407 ms,LEFT,23,1.04,45.02,98.92,"[ 9, 99]",11407,11429,921.5,290.4,884.8,295.8,-17.81,RIGHT,3.75,A9,D7.wav,D7_FAM_She_is_washing_the_dishes.png,15,2965466
p5,Trial: 34,p5.edf,.,23,Fixation: 11430 ms,140,11430,11569,"[ 9, 99]",14,751,2082,890.1,294.8,2,6,35.7,36.8,28,Saccade: 11407 ms,LEFT,23,1.04,45.02,98.92,"[ 9, 99]",11407,11429,921.5,290.4,884.8,295.8,29,Saccade: 11570 ms,DOWN,47,3.33,70.86,260.2,"[ 9, 18, 99]",11570,11616,888,292.9,857.9,411.3,11.17,RIGHT,0.91,A9,D7.wav,D7_FAM_She_is_washing_the_dishes.png,15,2965466
p5,Trial: 34,p5.edf,.,24,Fixation: 11617 ms,285,11617,11901,"[ 9, 18, 99]",14,756,2082,855.3,432.3,3,6,35.6,36.7,29,Saccade: 11570 ms,DOWN,47,3.33,70.86,260.2,"[ 9, 99]",11570,11616,888,292.9,857.9,411.3,30,Saccade: 11902 ms,LEFT,49,4.55,92.88,301.84,"[ 9, 17, 99]",11902,11950,856,438.9,703.3,385.8,75.38,UP,3.87,A9,D7.wav,D7_FAM_She_is_washing_the_dishes.png,15,2965466
p5,Trial: 34,p5.edf,.,25,Fixation: 11951 ms,270,11951,12220,"[ 9, 17, 99]",14,773,2082,688.1,387.3,4,6,35.2,36.5,30,Saccade: 11902 ms,LEFT,49,4.55,92.88,301.84,"[ 9, 18, 99]",11902,11950,856,438.9,703.3,385.8,31,Saccade: 12221 ms,UP,38,4.48,117.95,223.78,"[ 9, 15, 99]",12221,12258,686.1,388.2,708.3,226,-14.59,RIGHT,4.88,A9,D7.wav,D7_FAM_She_is_washing_the_dishes.png,15,2965466
p5,Trial: 34,p5.edf,.,26,Fixation: 12259 ms,813,12259,13071,"[ 9, 15, 99]",14,753,2082,707.4,232.2,5,6,35.3,36.6,31,Saccade: 12221 ms,UP,38,4.48,117.95,223.78,"[ 9, 17, 99]",12221,12258,686.1,388.2,708.3,226,32,Saccade: 13072 ms,DOWN,46,4.13,89.83,270.18,"[ 9, 16, 99]",13072,13117,701.8,226.5,620.2,351.6,-97.35,DOWN,4.28,A9,D7.wav,D7_FAM_She_is_washing_the_dishes.png,15,2965466
p5,Trial: 34,p5.edf,13188,27,Fixation: 13118 ms,333,13118,13450,"[ 9, 16, 99]",14,738,2082,614.6,366.6,6,6,35.2,36.5,32,Saccade: 13072 ms,DOWN,46,4.13,89.83,270.18,"[ 9, 15, 99]",13072,13117,701.8,226.5,620.2,351.6,33,Saccade: 13451 ms,LEFT,49,6.85,139.82,391.22,"[ 6, 7, 99]",13451,13499,616.6,370.5,427.1,213.8,54.4,UP,4.52,A9,D7.wav,D7_FAM_She_is_washing_the_dishes.png,15,2965466
p5,Trial: 34,p5.edf,.,28,Fixation: 13500 ms,133,13500,13632,"[ 6, 7, 99]",8,727,133,414.3,210.4,1,1,35.65,36.8,33,Saccade: 13451 ms,LEFT,49,6.85,139.82,391.22,"[ 9, 16, 99]",13451,13499,616.6,370.5,427.1,213.8,34,Saccade: 13633 ms,LEFT,163,3.31,20.31,507.21,"[ 7, 99]",13633,13795,417.2,214,298,215.1,-37.01,RIGHT,7.08,A9,D7.wav,D7_FAM_She_is_washing_the_dishes.png,15,2965466
p5,Trial: 34,p5.edf,.,29,Fixation: 13986 ms,163,13986,14148,"[ 2, 7, 99]",5,826,163,255.8,287.4,1,1,36.45,37.1,35,Saccade: 13960 ms,DOWN,26,2.02,77.63,146.41,"[ 7, 99]",13960,13985,294,236.9,253.7,299.6,36,Saccade: 14149 ms,DOWN,52,5.71,109.85,388.03,"[ 3, 10, 99]",14149,14200,258.1,296.2,244,508.5,25.36,RIGHT,4.87,A9,D7.wav,D7_FAM_She_is_washing_the_dishes.png,15,2965466
p5,Trial: 34,p5.edf,.,30,Fixation: 14201 ms,236,14201,14436,"[ 3, 10, 99]",2,851,236,244.4,538.3,1,1,36.6,37.4,36,Saccade: 14149 ms,DOWN,52,5.71,109.85,388.03,"[ 2, 7, 99]",14149,14200,258.1,296.2,244,508.5,37,Saccade: 14437 ms,LEFT,27,2.54,94.19,168.86,"[ 10, 11, 99]",14437,14463,248.5,539.7,178.3,476.6,87.35,UP,6.74,A9,D7.wav,D7_FAM_She_is_washing_the_dishes.png,15,2965466
p5,Trial: 34,p5.edf,.,31,Fixation: 14464 ms,396,14464,14859,"[ 10, 11, 99]",5,856,1122,189.1,487.3,2,4,37.0,37.5,37,Saccade: 14437 ms,LEFT,27,2.54,94.19,168.86,"[ 3, 10, 99]",14437,14463,248.5,539.7,178.3,476.6,38,Saccade: 14860 ms,UP,203,2.15,10.59,304.2,"[ 10, 22, 99]",14860,15062,196.5,491.4,175.2,413.7,-42.18,RIGHT,2.03,A9,D7.wav,D7_FAM_She_is_washing_the_dishes.png,15,2965466
p5,Trial: 34,p5.edf,15170,32,Fixation: 15106 ms,86,15106,15191,"[ 10, 99]",5,855,1122,207.6,452.9,3,4,36.85,37.4,39,Saccade: 15093 ms,DOWN,13,0.7,53.66,57.8,"[ 10, 22, 99]",15093,15105,193.3,419.8,201.3,444.6,40,Saccade: 15192 ms,LEFT,20,1.46,73.12,98.36,"[ 10, 11, 99]",15192,15211,208.2,459.8,167.3,495.7,-118.61,DOWN,1.05,A9,D7.wav,D7_FAM_She_is_washing_the_dishes.png,15,2965466
p5,Trial: 34,p5.edf,.,33,Fixation: 15212 ms,404,15212,15615,"[ 10, 11, 99]",5,869,1122,171.0,490.0,4,4,37.2,37.6,40,Saccade: 15192 ms,LEFT,20,1.46,73.12,98.36,"[ 10, 99]",15192,15211,208.2,459.8,167.3,495.7,41,Saccade: 15616 ms,UP,53,8.21,154.84,377.4,"[ 7, 99]",15616,15668,168.5,490.7,304.1,217,45.02,UP,1.4,A9,D7.wav,D7_FAM_She_is_washing_the_dishes.png,15,2965466
p5,Trial: 34,p5.edf,.,34,Fixation: 15669 ms,196,15669,15864,"[ 7, 99]",17,824,585,312.3,200.9,1,3,36.2,37.1,41,Saccade: 15616 ms,UP,53,8.21,154.84,377.4,"[ 10, 11, 99]",15616,15668,168.5,490.7,304.1,217,42,Saccade: 15865 ms,DOWN,36,2.95,82.06,153.78,"[ 2, 7, 99]",15865,15900,311.8,199.4,238.5,279.7,-116.45,DOWN,8.64,A9,D7.wav,D7_FAM_She_is_washing_the_dishes.png,15,2965466
p5,Trial: 34,p5.edf,.,35,Fixation: 15901 ms,198,15901,16098,"[ 2, 7, 99]",5,802,389,252.4,277.6,1,2,36.55,37.2,42,Saccade: 15865 ms,DOWN,36,2.95,82.06,153.78,"[ 7, 99]",15865,15900,311.8,199.4,238.5,279.7,43,Saccade: 16099 ms,DOWN,16,0.86,53.74,68.82,"[ 2, 7, 99]",16099,16114,252.9,279,257.5,310.6,51.42,UP,2.64,A9,D7.wav,D7_FAM_She_is_washing_the_dishes.png,15,2965466
p5,Trial: 34,p5.edf,.,36,Fixation: 16115 ms,191,16115,16305,"[ 2, 7, 99]",5,811,389,254.0,296.5,2,2,36.4,37.1,43,Saccade: 16099 ms,DOWN,16,0.86,53.74,68.82,"[ 2, 7, 99]",16099,16114,252.9,279,257.5,310.6,44,Saccade: 16306 ms,.,156,0.33,2.1,293.93,"[ 2, 7, 99]",16306,16461,260,298.4,259.1,286.3,94.93,UP,0.51,A9,D7.wav,D7_FAM_She_is_washing_the_dishes.png,15,2965466
p5,Trial: 34,p5.edf,.,37,Fixation: 17007 ms,169,17007,17175,"[ 8, 99]",13,715,767,1098.1,361.3,1,4,37.0,37.4,45,Saccade: 16919 ms,RIGHT,88,22.69,257.84,555.89,"[ 2, 7, 99]",16919,17006,265.4,281.4,1094.6,359,46,Saccade: 17176 ms,LEFT,24,2.1,87.44,161.64,"[ 4, 8, 99]",17176,17199,1099.4,364.8,1029.7,331.3,175.68,LEFT,23.07,A9,D7.wav,D7_FAM_She_is_washing_the_dishes.png,15,2965466
p5,Trial: 34,p5.edf,17245,38,Fixation: 17200 ms,283,17200,17482,"[ 4, 8, 99]",4,736,463,1041.4,338.5,1,2,36.55,37.2,46,Saccade: 17176 ms,LEFT,24,2.1,87.44,161.64,"[ 8, 99]",17176,17199,1099.4,364.8,1029.7,331.3,47,Saccade: 17483 ms,UP,14,0.55,39.64,45.66,"[ 4, 8, 99]",17483,17496,1039.1,338.8,1042.8,318.5,-21.63,RIGHT,1.66,A9,D7.wav,D7_FAM_She_is_washing_the_dishes.png,15,2965466
p5,Trial: 34,p5.edf,.,39,Fixation: 17497 ms,180,17497,17676,"[ 4, 8, 99]",4,806,463,1037.9,322.1,2,2,36.55,37.2,47,Saccade: 17483 ms,UP,14,0.55,39.64,45.66,"[ 4, 8, 99]",17483,17496,1039.1,338.8,1042.8,318.5,48,Saccade: 17677 ms,RIGHT,37,1.94,52.48,216.73,"[ 5, 8, 99]",17677,17713,1034.4,320.6,1100.7,347.4,-77.75,.,0.45,A9,D7.wav,D7_FAM_She_is_washing_the_dishes.png,15,2965466
p5,Trial: 34,p5.edf,.,40,Fixation: 17714 ms,135,17714,17848,"[ 5, 8, 99]",5,800,135,1106.5,346.4,1,1,37.05,37.4,48,Saccade: 17677 ms,RIGHT,37,1.94,52.48,216.73,"[ 4, 8, 99]",17677,17713,1034.4,320.6,1100.7,347.4,49,Saccade: 17849 ms,LEFT,78,21.95,281.38,634.55,"[ 7, 99]",17849,17926,1108.1,349,310.8,249.6,160.74,LEFT,1.97,A9,D7.wav,D7_FAM_She_is_washing_the_dishes.png,15,2965466
p5,Trial: 34,p5.edf,.,41,Fixation: 17927 ms,276,17927,18202,"[ 7, 99]",17,847,2629,312.9,261.6,1,7,36.1,37.0,49,Saccade: 17849 ms,LEFT,78,21.95,281.38,634.55,"[ 5, 8, 99]",17849,17926,1108.1,349,310.8,249.6,50,Saccade: 18203 ms,LEFT,27,2.17,80.46,182.3,"[ 2, 7, 99]",18203,18229,310.7,267.1,240.1,303.2,-6,RIGHT,21.82,A9,D7.wav,D7_FAM_She_is_washing_the_dishes.png,15,2965466
p5,Trial: 34,p5.edf,.,42,Fixation: 18230 ms,104,18230,18333,"[ 2, 7, 99]",5,855,104,249.1,295.4,1,1,36.5,37.2,50,Saccade: 18203 ms,LEFT,27,2.17,80.46,182.3,"[ 7, 99]",18203,18229,310.7,267.1,240.1,303.2,51,Saccade: 18334 ms,UP,155,0.68,4.36,323.06,"[ 2, 7, 99]",18334,18488,251.9,298.9,246.9,274.3,27.4,RIGHT,1.98,A9,D7.wav,D7_FAM_She_is_washing_the_dishes.png,15,2965466
p5,Trial: 34,p5.edf,.,43,Fixation: 20054 ms,484,20054,20537,"[ 7, 14, 99]",17,855,2629,354.7,256.7,3,7,35.9,36.9,52,Saccade: 20025 ms,RIGHT,29,3.12,107.66,191.34,"[ 2, 7, 99]",20025,20053,257.3,285.5,366.2,255.1,53,Saccade: 20538 ms,UP,208,1.2,5.76,465.97,"[ 6, 7, 99]",20538,20745,352.8,264,359.5,220.3,-160.3,LEFT,3.1,A9,D7.wav,D7_FAM_She_is_washing_the_dishes.png,15,2965466
p5,Trial: 34,p5.edf,.,44,Fixation: 21025 ms,409,21025,21433,"[ 6, 7, 99]",8,812,658,392.8,218.1,1,2,35.8,36.9,54,Saccade: 21011 ms,RIGHT,14,0.75,53.87,58.8,"[ 6, 7, 99]",21011,21024,374.6,222.4,398.1,208.7,55,Saccade: 21434 ms,.,17,0.26,15.17,41.55,"[ 6, 7, 99]",21434,21450,392.7,211,383.6,209.4,-135.45,LEFT,1.49,A9,D7.wav,D7_FAM_She_is_washing_the_dishes.png,15,2965466
p5,Trial: 34,p5.edf,.,45,Fixation: 21451 ms,249,21451,21699,"[ 6, 7, 99]",8,778,658,390.1,207.8,2,2,35.8,36.9,55,Saccade: 21434 ms,.,17,0.26,15.17,41.55,"[ 6, 7, 99]",21434,21450,392.7,211,383.6,209.4,56,Saccade: 21700 ms,LEFT,180,1.62,8.99,716.17,"[ 7, 99]",21700,21879,395.7,211.7,337.9,205.8,-74.88,.,0.29,A9,D7.wav,D7_FAM_She_is_washing_the_dishes.png,15,2965466
p5,Trial: 34,p5.edf,.,46,Fixation: 22031 ms,347,22031,22377,"[ 7, 13, 99]",17,858,2629,330.5,169.4,6,7,36.15,37.2,57,Saccade: 22016 ms,UP,15,0.91,60.76,67.88,"[ 7, 99]",22016,22030,346.4,188,325.8,161.6,58,Saccade: 22378 ms,DOWN,32,3.76,117.6,247.78,"[ 2, 7, 99]",22378,22409,332.2,169.8,267,292.6,-32.03,RIGHT,1.95,A9,D7.wav,D7_FAM_She_is_washing_the_dishes.png,15,2965466
p5,Trial: 34,p5.edf,.,47,Fixation: 22410 ms,760,22410,23169,"[ 2, 7, 99]",5,806,760,270.1,279.3,1,1,36.35,37.1,58,Saccade: 22378 ms,DOWN,32,3.76,117.6,247.78,"[ 7, 13, 99]",22378,22409,332.2,169.8,267,292.6,59,Saccade: 23170 ms,RIGHT,158,1.76,11.12,363.95,"[ 7, 14, 99]",23170,23327,279.4,280.9,342.8,283.3,60.61,UP,3.4,A9,D7.wav,D7_FAM_She_is_washing_the_dishes.png,15,2965466
p5,Trial: 34,p5.edf,.,48,Fixation: 23862 ms,99,23862,23960,"[ 3, 10, 99]",2,785,99,255.1,519.9,1,1,36.55,37.35,60,Saccade: 23806 ms,DOWN,56,7.41,132.41,382.41,"[ 7, 99]",23806,23861,354.1,239,253.9,494.2,61,Saccade: 23961 ms,RIGHT,69,14.52,210.46,584.7,[ 99],23961,24029,255.8,520.3,743.5,723.8,86.36,UP,6.48,A9,D7.wav,D7_FAM_She_is_washing_the_dishes.png,15,2965466
p5,Trial: 34,p5.edf,.,49,Fixation: 24030 ms,135,24030,24164,[ 99],58,702,14661,742.9,723.1,46,56,35.8,37.7,61,Saccade: 23961 ms,RIGHT,69,14.52,210.46,584.7,"[ 3, 10, 99]",23961,24029,255.8,520.3,743.5,723.8,62,Saccade: 24165 ms,RIGHT,49,5.84,119.16,340.12,"[ 19, 99]",24165,24213,746,727.5,948.9,667.9,158.12,LEFT,14.53,A9,D7.wav,D7_FAM_She_is_washing_the_dishes.png,15,2965466
p5,Trial: 34,p5.edf,.,50,Fixation: 24214 ms,139,24214,24352,"[ 19, 99]",2,703,139,965.5,671.5,1,1,36.45,37.75,62,Saccade: 24165 ms,RIGHT,49,5.84,119.16,340.12,[ 99],24165,24213,746,727.5,948.9,667.9,63,Saccade: 24353 ms,RIGHT,38,2.07,54.4,207.84,"[ 20, 99]",24353,24390,966.3,672.5,1042.1,677.7,-167.49,LEFT,6.31,A9,D7.wav,D7_FAM_She_is_washing_the_dishes.png,15,2965466
p5,Trial: 34,p5.edf,.,51,Fixation: 24391 ms,118,24391,24508,"[ 20, 99]",2,691,118,1048.4,684.6,1,1,37.05,38.1,63,Saccade: 24353 ms,RIGHT,38,2.07,54.4,207.84,"[ 19, 99]",24353,24390,966.3,672.5,1042.1,677.7,64,Saccade: 24509 ms,LEFT,55,8.66,157.48,433.96,"[ 9, 18, 99]",24509,24563,1052.2,685.4,826,460.4,171.29,LEFT,2.28,A9,D7.wav,D7_FAM_She_is_washing_the_dishes.png,15,2965466
p5,Trial: 34,p5.edf,.,52,Fixation: 24564 ms,231,24564,24794,"[ 9, 18, 99]",14,739,1020,803.3,445.5,1,3,35.45,36.7,64,Saccade: 24509 ms,LEFT,55,8.66,157.48,433.96,"[ 20, 99]",24509,24563,1052.2,685.4,826,460.4,65,Saccade: 24795 ms,RIGHT,25,2.12,84.75,154.87,"[ 9, 18, 99]",24795,24819,798.8,442.1,873.9,448.1,-43.4,RIGHT,9.31,A9,D7.wav,D7_FAM_She_is_washing_the_dishes.png,15,2965466
p5,Trial: 34,p5.edf,.,53,Fixation: 24820 ms,176,24820,24995,"[ 9, 18, 99]",14,741,1020,857.4,443.3,2,3,35.65,36.75,65,Saccade: 24795 ms,RIGHT,25,2.12,84.75,154.87,"[ 9, 99]",24795,24819,798.8,442.1,873.9,448.1,66,Saccade: 24996 ms,LEFT,47,4.63,98.49,318.08,"[ 9, 17, 99]",24996,25042,855.9,437.7,700.9,382.7,-177.75,LEFT,1.52,A9,D7.wav,D7_FAM_She_is_washing_the_dishes.png,15,2965466
p5,Trial: 34,p5.edf,.,54,Fixation: 25043 ms,613,25043,25655,"[ 9, 17, 99]",14,755,1020,682.2,383.5,3,3,35.2,36.5,66,Saccade: 24996 ms,LEFT,47,4.63,98.49,318.08,"[ 9, 18, 99]",24996,25042,855.9,437.7,700.9,382.7,67,Saccade: 25656 ms,LEFT,48,6.26,130.32,390.82,"[ 7, 99]",25656,25703,684.5,385.4,478.2,467.8,-18.27,RIGHT,5.21,A9,D7.wav,D7_FAM_She_is_washing_the_dishes.png,15,2965466
p5,Trial: 34,p5.edf,.,55,Fixation: 25704 ms,220,25704,25923,"[ 6, 7, 99]",8,761,220,463.6,482.8,1,1,35.5,36.75,67,Saccade: 25656 ms,LEFT,48,6.26,130.32,390.82,"[ 9, 17, 99]",25656,25703,684.5,385.4,478.2,467.8,68,Saccade: 25924 ms,RIGHT,55,9.03,164.25,381.47,"[ 9, 99]",25924,25978,460.2,481.8,743.6,328.4,23.67,RIGHT,6.75,A9,D7.wav,D7_FAM_She_is_washing_the_dishes.png,15,2965466
p5,Trial: 34,p5.edf,.,56,Fixation: 25979 ms,104,25979,26082,"[ 9, 99]",14,766,1291,761.0,318.4,1,4,35.3,36.5,68,Saccade: 25924 ms,RIGHT,55,9.03,164.25,381.47,"[ 6, 7, 99]",25924,25978,460.2,481.8,743.6,328.4,69,Saccade: 26083 ms,UP,167,3.15,18.87,632,"[ 9, 99]",26083,26249,765.6,318.7,836,228.9,-151.88,LEFT,9.53,A9,D7.wav,D7_FAM_She_is_washing_the_dishes.png,15,2965466
p5,Trial: 34,p5.edf,.,57,Fixation: 26493 ms,209,26493,26701,"[ 9, 99]",14,834,1291,871.3,268.0,2,4,35.7,36.8,70,Saccade: 26464 ms,DOWN,29,2.39,82.27,187.71,"[ 9, 99]",26464,26492,837.8,197.3,874.7,276.4,71,Saccade: 26702 ms,DOWN,49,3.25,66.3,227.72,"[ 9, 99]",26702,26750,873.4,273.3,847.2,389.6,-156.13,LEFT,3.4,A9,D7.wav,D7_FAM_She_is_washing_the_dishes.png,15,2965466
p5,Trial: 34,p5.edf,.,58,Fixation: 26751 ms,155,26751,26905,"[ 9, 18, 99]",14,841,1291,841.5,410.4,3,4,35.55,36.7,71,Saccade: 26702 ms,DOWN,49,3.25,66.3,227.72,"[ 9, 99]",26702,26750,873.4,273.3,847.2,389.6,72,Saccade: 26906 ms,DOWN,16,0.92,57.31,69.19,"[ 9, 18, 99]",26906,26921,838.5,415.9,826.3,447.1,77.82,UP,3.96,A9,D7.wav,D7_FAM_She_is_washing_the_dishes.png,15,2965466
p5,Trial: 34,p5.edf,.,59,Fixation: 26922 ms,823,26922,27744,"[ 9, 18, 99]",14,781,1291,847.8,440.2,4,4,35.6,36.75,72,Saccade: 26906 ms,DOWN,16,0.92,57.31,69.19,"[ 9, 18, 99]",26906,26921,838.5,415.9,826.3,447.1,73,Saccade: 27745 ms,LEFT,196,0.77,3.94,492.02,"[ 9, 18, 99]",27745,27940,869.5,439.3,848.5,420.9,102.31,UP,0.83,A9,D7.wav,D7_FAM_She_is_washing_the_dishes.png,15,2965466
