RECORDING_SESSION_LABEL,TRIAL_LABEL,DATA_FILE,CURRENT_FIX_MSG_TIME_1,CURRENT_FIX_INDEX,CURRENT_FIX_LABEL,CURRENT_FIX_DURATION,CURRENT_FIX_START,CURRENT_FIX_END,CURRENT_FIX_INTEREST_AREAS,CURRENT_FIX_INTEREST_AREA_FIX_COUNT,CURRENT_FIX_PUPIL,CURRENT_FIX_RUN_DWELL_TIME,CURRENT_FIX_X,CURRENT_FIX_Y,CURRENT_FIX_RUN_INDEX,CURRENT_FIX_RUN_SIZE,CURRENT_FIX_X_RESOLUTION,CURRENT_FIX_Y_RESOLUTION,PREVIOUS_SAC_INDEX,PREVIOUS_SAC_LABEL,PREVIOUS_SAC_DIRECTION,PREVIOUS_SAC_DURATION,PREVIOUS_SAC_AMPLITUDE,PREVIOUS_SAC_AVG_VELOCITY,PREVIOUS_SAC_PEAK_VELOCITY,PREVIOUS_SAC_START_INTEREST_AREAS,PREVIOUS_SAC_START_TIME,PREVIOUS_SAC_END_TIME,PREVIOUS_SAC_START_X,PREVIOUS_SAC_START_Y,PREVIOUS_SAC_END_X,PREVIOUS_SAC_END_Y,NEXT_SAC_INDEX,NEXT_SAC_LABEL,NEXT_SAC_DIRECTION,NEXT_SAC_DURATION,NEXT_SAC_AMPLITUDE,NEXT_SAC_AVG_VELOCITY,NEXT_SAC_PEAK_VELOCITY,NEXT_SAC_END_INTEREST_AREAS,NEXT_SAC_START_TIME,NEXT_SAC_END_TIME,NEXT_SAC_START_X,NEXT_SAC_START_Y,NEXT_SAC_END_X,NEXT_SAC_END_Y,PREVIOUS_FIX_ANGLE,PREVIOUS_FIX_DIRECTION,PREVIOUS_FIX_DISTANCE,ItemNO,audiofilename,imagefilename,TRIAL_INDEX,TRIAL_START_TIME
p9,Trial: 11,p9.edf,74,1,Fixation: 7 ms,213,7,219,"[ 5, 99]",9,1078,213,108.5,650.0,1,1,37.95,38.45,.,.,.,.,.,.,.,.,.,.,.,.,.,.,1,Saccade: 220 ms,RIGHT,70,13.71,195.85,399.52,"[ 15, 99]",220,289,111.1,647.1,583.6,474.1,.,.,.,A24,D7.wav,D7_FAM_She_is_washing_the_dishes.png,6,912945
p9,Trial: 11,p9.edf,.,2,Fixation: 290 ms,110,290,399,"[ 15, 99]",6,1009,110,589.5,456.0,1,1,35.25,36.6,1,Saccade: 220 ms,RIGHT,70,13.71,195.85,399.52,"[ 5, 99]",220,289,111.1,647.1,583.6,474.1,2,Saccade: 400 ms,DOWN,307,6.56,21.36,804.56,[ 99],400,706,592,457.5,663.6,688.3,-158.53,LEFT,14.12,A24,D7.wav,D7_FAM_She_is_washing_the_dishes.png,6,912945
p9,Trial: 11,p9.edf,.,3,Fixation: 786 ms,1987,786,2772,[ 99],54,1102,2310,638.8,700.7,3,3,35.65,37.45,3,Saccade: 778 ms,.,8,0.41,51.29,40.51,[ 99],778,785,663.4,715.4,662.9,700,4,Saccade: 2773 ms,RIGHT,53,9.59,181.02,333.56,[ ],2773,2825,616.9,691.8,916.6,878,101.88,UP,6.75,A24,D7.wav,D7_FAM_She_is_washing_the_dishes.png,6,912945
p9,Trial: 11,p9.edf,3223,4,Fixation: 2826 ms,571,2826,3396,[ ],.,1299,.,910.5,872.0,.,.,36.95,39.15,4,Saccade: 2773 ms,RIGHT,53,9.59,181.02,333.56,[ 99],2773,2825,616.9,691.8,916.6,878,5,Saccade: 3397 ms,LEFT,71,13.05,183.83,426.04,[ 99],3397,3467,927.8,880.3,573.9,551.7,149.14,LEFT,8.72,A24,D7.wav,D7_FAM_She_is_washing_the_dishes.png,6,912945
p9,Trial: 11,p9.edf,.,5,Fixation: 3468 ms,132,3468,3599,[ 99],54,1298,20345,581.7,550.9,1,51,35.4,36.8,5,Saccade: 3397 ms,LEFT,71,13.05,183.83,426.04,[ ],3397,3467,927.8,880.3,573.9,551.7,6,Saccade: 3600 ms,UP,56,5.36,95.75,240.04,"[ 9, 99]",3600,3655,580.3,549.6,627.9,359.4,-42.93,RIGHT,12.41,A24,D7.wav,D7_FAM_She_is_washing_the_dishes.png,6,912945
p9,Trial: 11,p9.edf,.,6,Fixation: 3656 ms,284,3656,3939,"[ 9, 99]",6,1367,284,628.2,349.4,1,1,35.2,36.5,6,Saccade: 3600 ms,UP,56,5.36,95.75,240.04,[ 99],3600,3655,580.3,549.6,627.9,359.4,7,Saccade: 3940 ms,LEFT,25,2.14,85.59,154.76,"[ 12, 15, 99]",3940,3964,625.6,350.7,550.3,352.6,-103.47,DOWN,5.65,A24,D7.wav,D7_FAM_She_is_washing_the_dishes.png,6,912945
p9,Trial: 11,p9.edf,.,7,Fixation: 3965 ms,99,3965,4063,"[ 12, 15, 99]",3,1304,99,560.9,352.8,1,1,35.2,36.5,7,Saccade: 3940 ms,LEFT,25,2.14,85.59,154.76,"[ 9, 99]",3940,3964,625.6,350.7,550.3,352.6,8,Saccade: 4064 ms,LEFT,293,15.7,53.57,1718.54,[ ],4064,4356,563.2,361.9,-9.6,463.5,2.79,RIGHT,1.91,A24,D7.wav,D7_FAM_She_is_washing_the_dishes.png,6,912945
p9,Trial: 11,p9.edf,.,8,Fixation: 4412 ms,492,4412,4903,"[ 5, 99]",9,1212,492,134.8,502.2,1,1,37.55,37.85,9,Saccade: 4383 ms,RIGHT,29,4.07,140.25,280.44,[ ],4383,4411,-16.9,518.5,137.9,505.2,10,Saccade: 4904 ms,RIGHT,63,14.87,235.98,517.56,"[ 4, 99]",4904,4966,121.3,516.2,600.2,788.1,18.94,RIGHT,12.38,A24,D7.wav,D7_FAM_She_is_washing_the_dishes.png,6,912945
p9,Trial: 11,p9.edf,.,9,Fixation: 4967 ms,377,4967,5343,"[ 4, 99]",6,1062,377,602.4,801.9,1,1,35.95,38.1,10,Saccade: 4904 ms,RIGHT,63,14.87,235.98,517.56,"[ 5, 99]",4904,4966,121.3,516.2,600.2,788.1,11,Saccade: 5344 ms,LEFT,66,12.66,191.8,485.54,"[ 10, 99]",5344,5409,596.8,796.6,180.8,585.1,148.19,LEFT,14.97,A24,D7.wav,D7_FAM_She_is_washing_the_dishes.png,6,912945
p9,Trial: 11,p9.edf,.,10,Fixation: 5410 ms,123,5410,5532,"[ 5, 99]",9,1179,881,174.0,584.1,1,3,37.25,37.85,11,Saccade: 5344 ms,LEFT,66,12.66,191.8,485.54,"[ 4, 99]",5344,5409,596.8,796.6,180.8,585.1,12,Saccade: 5533 ms,UP,22,1.93,87.79,137.28,"[ 5, 99]",5533,5554,172.5,583.4,130.7,523.7,-26.1,RIGHT,13.03,A24,D7.wav,D7_FAM_She_is_washing_the_dishes.png,6,912945
p9,Trial: 11,p9.edf,.,11,Fixation: 5555 ms,146,5555,5700,"[ 5, 99]",9,1216,881,129.7,521.9,2,3,37.55,37.9,12,Saccade: 5533 ms,UP,22,1.93,87.79,137.28,"[ 5, 99]",5533,5554,172.5,583.4,130.7,523.7,13,Saccade: 5701 ms,UP,12,0.64,53.28,58.8,"[ 5, 99]",5701,5712,124.4,516.4,124.7,492.2,-54.2,DOWN,2.02,A24,D7.wav,D7_FAM_She_is_washing_the_dishes.png,6,912945
p9,Trial: 11,p9.edf,.,12,Fixation: 5713 ms,612,5713,6324,"[ 5, 99]",9,1126,881,136.9,503.3,3,3,37.5,37.8,13,Saccade: 5701 ms,UP,12,0.64,53.28,58.8,"[ 5, 99]",5701,5712,124.4,516.4,124.7,492.2,14,Saccade: 6325 ms,RIGHT,30,3.94,131.36,252.69,"[ 10, 99]",6325,6354,133.9,508.7,274.3,548.7,-111.33,DOWN,0.53,A24,D7.wav,D7_FAM_She_is_washing_the_dishes.png,6,912945
p9,Trial: 11,p9.edf,.,13,Fixation: 6355 ms,160,6355,6514,"[ 10, 99]",5,1039,298,282.5,558.0,1,2,36.45,37.4,14,Saccade: 6325 ms,RIGHT,30,3.94,131.36,252.69,"[ 5, 99]",6325,6354,133.9,508.7,274.3,548.7,15,Saccade: 6515 ms,DOWN,20,1.43,71.71,101.5,"[ 10, 99]",6515,6534,282.2,556.5,248.5,597.7,159.72,LEFT,4.2,A24,D7.wav,D7_FAM_She_is_washing_the_dishes.png,6,912945
p9,Trial: 11,p9.edf,.,14,Fixation: 6535 ms,138,6535,6672,"[ 10, 99]",5,1029,298,256.9,589.3,2,2,36.65,37.6,15,Saccade: 6515 ms,DOWN,20,1.43,71.71,101.5,"[ 10, 99]",6515,6534,282.2,556.5,248.5,597.7,16,Saccade: 6673 ms,LEFT,26,3.41,131.11,222.59,"[ 5, 99]",6673,6698,259.5,587.4,143.1,537.9,50,UP,1.09,A24,D7.wav,D7_FAM_She_is_washing_the_dishes.png,6,912945
p9,Trial: 11,p9.edf,.,15,Fixation: 6699 ms,272,6699,6970,"[ 5, 99]",9,1032,272,136.4,525.0,1,1,37.45,37.8,16,Saccade: 6673 ms,LEFT,26,3.41,131.11,222.59,"[ 10, 99]",6673,6698,259.5,587.4,143.1,537.9,17,Saccade: 6971 ms,RIGHT,62,17.7,285.54,474.65,"[ 28, 99]",6971,7032,132.4,527.1,750.3,340.2,-27.67,RIGHT,3.67,A24,D7.wav,D7_FAM_She_is_washing_the_dishes.png,6,912945
p9,Trial: 11,p9.edf,.,16,Fixation: 7033 ms,2684,7033,9716,[ 99],54,1007,20345,736.8,314.9,12,51,35.3,36.5,17,Saccade: 6971 ms,RIGHT,62,17.7,285.54,474.65,"[ 5, 99]",6971,7032,132.4,527.1,750.3,340.2,18,Saccade: 9717 ms,DOWN,221,3.04,13.75,1519.75,"[ 28, 99]",9717,9937,734.5,293.6,761.7,401,-161.09,LEFT,17.45,A24,D7.wav,D7_FAM_She_is_washing_the_dishes.png,6,912945
p9,Trial: 11,p9.edf,13199,17,Fixation: 11857 ms,2063,11857,13919,"[ 28, 99]",6,1207,2063,769.1,530.9,1,1,35.45,36.8,19,Saccade: 11830 ms,DOWN,27,3.83,141.92,273.76,"[ 28, 99]",11830,11856,749.1,394.6,786.8,529.5,20,Saccade: 13920 ms,LEFT,47,5.63,119.86,222.99,[ 99],13920,13966,759.6,541.6,614.7,400.2,98.81,UP,5.96,A24,D7.wav,D7_FAM_She_is_washing_the_dishes.png,6,912945
p9,Trial: 11,p9.edf,.,18,Fixation: 13967 ms,178,13967,14144,"[ 9, 99]",6,1108,178,624.9,403.8,1,1,35.2,36.5,20,Saccade: 13920 ms,LEFT,47,5.63,119.86,222.99,"[ 28, 99]",13920,13966,759.6,541.6,614.7,400.2,21,Saccade: 14145 ms,LEFT,24,1.73,71.96,127.31,"[ 7, 15, 99]",14145,14168,626.3,405.4,573.2,374.7,-40.35,RIGHT,5.36,A24,D7.wav,D7_FAM_She_is_washing_the_dishes.png,6,912945
p9,Trial: 11,p9.edf,14790,19,Fixation: 14169 ms,1250,14169,15418,"[ 15, 99]",6,1015,1250,585.6,367.5,1,1,35.2,36.5,21,Saccade: 14145 ms,LEFT,24,1.73,71.96,127.31,"[ 9, 99]",14145,14168,626.3,405.4,573.2,374.7,22,Saccade: 15419 ms,RIGHT,52,8.3,159.52,354.19,"[ 27, 28, 99]",15419,15470,590.3,363.3,828.1,541.9,-41.69,RIGHT,1.5,A24,D7.wav,D7_FAM_She_is_washing_the_dishes.png,6,912945
p9,Trial: 11,p9.edf,.,20,Fixation: 15471 ms,323,15471,15793,"[ 28, 99]",6,1142,323,836.4,532.7,1,1,35.6,36.9,22,Saccade: 15419 ms,RIGHT,52,8.3,159.52,354.19,"[ 15, 99]",15419,15470,590.3,363.3,828.1,541.9,23,Saccade: 15794 ms,LEFT,52,7.98,153.56,379.77,[ 99],15794,15845,838.8,529.3,604.5,698,147.57,LEFT,8.39,A24,D7.wav,D7_FAM_She_is_washing_the_dishes.png,6,912945
p9,Trial: 11,p9.edf,16380,21,Fixation: 15846 ms,618,15846,16463,[ 99],54,1151,20345,591.6,707.3,17,51,35.7,37.5,23,Saccade: 15794 ms,LEFT,52,7.98,153.56,379.77,"[ 28, 99]",15794,15845,838.8,529.3,604.5,698,24,Saccade: 16464 ms,RIGHT,65,13.86,213.25,324.79,"[ 31, 99]",16464,16528,583.6,705.7,1085.4,644.6,34.35,RIGHT,8.32,A24,D7.wav,D7_FAM_She_is_washing_the_dishes.png,6,912945
p9,Trial: 11,p9.edf,.,22,Fixation: 16529 ms,241,16529,16769,"[ 8, 31, 99]",1,1139,241,1069.6,645.8,1,1,37.15,38.0,24,Saccade: 16464 ms,RIGHT,65,13.86,213.25,324.79,[ 99],16464,16528,583.6,705.7,1085.4,644.6,25,Saccade: 16770 ms,LEFT,59,10.68,181.04,507.46,[ 99],16770,16828,1070.3,643.2,682.6,648.2,-172.92,LEFT,13.22,A24,D7.wav,D7_FAM_She_is_washing_the_dishes.png,6,912945
p9,Trial: 11,p9.edf,.,23,Fixation: 16829 ms,123,16829,16951,[ 99],54,1188,20345,672.8,655.3,19,51,35.55,37.25,25,Saccade: 16770 ms,LEFT,59,10.68,181.04,507.46,"[ 8, 31, 99]",16770,16828,1070.3,643.2,682.6,648.2,26,Saccade: 16952 ms,UP,44,3.45,78.42,123.43,"[ 9, 99]",16952,16995,670.9,654.7,659.1,527.8,1.33,RIGHT,10.92,A24,D7.wav,D7_FAM_She_is_washing_the_dishes.png,6,912945
p9,Trial: 11,p9.edf,.,24,Fixation: 16996 ms,118,16996,17113,"[ 9, 99]",6,1198,118,659.8,538.2,1,1,35.3,36.75,26,Saccade: 16952 ms,UP,44,3.45,78.42,123.43,[ 99],16952,16995,670.9,654.7,659.1,527.8,27,Saccade: 17114 ms,RIGHT,37,4.88,131.88,364.85,"[ 3, 99]",17114,17150,654.1,539.2,776.6,667.2,-83.39,DOWN,3.19,A24,D7.wav,D7_FAM_She_is_washing_the_dishes.png,6,912945
p9,Trial: 11,p9.edf,.,25,Fixation: 17151 ms,182,17151,17332,"[ 3, 99]",4,1191,490,779.6,666.5,1,2,35.7,37.4,27,Saccade: 17114 ms,RIGHT,37,4.88,131.88,364.85,"[ 9, 99]",17114,17150,654.1,539.2,776.6,667.2,28,Saccade: 17333 ms,LEFT,18,1.25,69.24,91.09,"[ 3, 99]",17333,17350,782.2,664.8,741.4,683.4,134.28,UP,4.83,A24,D7.wav,D7_FAM_She_is_washing_the_dishes.png,6,912945
p9,Trial: 11,p9.edf,.,26,Fixation: 17351 ms,308,17351,17658,"[ 3, 99]",4,1144,490,748.9,675.3,2,2,35.7,37.4,28,Saccade: 17333 ms,LEFT,18,1.25,69.24,91.09,"[ 3, 99]",17333,17350,782.2,664.8,741.4,683.4,29,Saccade: 17659 ms,RIGHT,26,2.42,92.94,176.59,"[ 3, 99]",17659,17684,746.8,669.1,828.2,700.1,15.3,RIGHT,0.89,A24,D7.wav,D7_FAM_She_is_washing_the_dishes.png,6,912945
p9,Trial: 11,p9.edf,.,27,Fixation: 17817 ms,135,17817,17951,"[ 5, 99]",9,1143,135,157.9,611.0,1,1,37.45,38.1,30,Saccade: 17740 ms,LEFT,77,18.44,239.5,579.52,"[ 3, 99]",17740,17816,816,692.5,144.4,606.2,31,Saccade: 17952 ms,RIGHT,30,1.79,59.64,169.62,"[ 10, 99]",17952,17981,156.2,613.5,221.9,603.2,-6.02,RIGHT,16.25,A24,D7.wav,D7_FAM_She_is_washing_the_dishes.png,6,912945
p9,Trial: 11,p9.edf,.,28,Fixation: 17982 ms,392,17982,18373,"[ 10, 99]",5,1047,392,231.0,609.8,1,1,36.9,37.8,31,Saccade: 17952 ms,RIGHT,30,1.79,59.64,169.62,"[ 5, 99]",17952,17981,156.2,613.5,221.9,603.2,32,Saccade: 18374 ms,RIGHT,19,1.22,64.34,96.49,"[ 6, 99]",18374,18392,235.1,613,269.6,642.6,-179.08,LEFT,1.97,A24,D7.wav,D7_FAM_She_is_washing_the_dishes.png,6,912945
p9,Trial: 11,p9.edf,18560,29,Fixation: 18393 ms,183,18393,18575,"[ 6, 99]",1,885,183,261.5,642.3,1,1,36.75,37.8,32,Saccade: 18374 ms,RIGHT,19,1.22,64.34,96.49,"[ 10, 99]",18374,18392,235.1,613,269.6,642.6,33,Saccade: 18576 ms,UP,10,0.52,52.34,56.7,"[ 10, 99]",18576,18585,246.3,632.1,239.8,613.5,133.93,UP,1.19,A24,D7.wav,D7_FAM_She_is_washing_the_dishes.png,6,912945
p9,Trial: 11,p9.edf,19590,30,Fixation: 18586 ms,1203,18586,19788,"[ 10, 99]",5,834,1203,224.6,605.3,1,1,36.9,37.75,33,Saccade: 18576 ms,UP,10,0.52,52.34,56.7,"[ 6, 99]",18576,18585,246.3,632.1,239.8,613.5,34,Saccade: 19789 ms,LEFT,28,2.87,102.38,142.45,"[ 5, 99]",19789,19816,216.1,608.9,112.5,580.9,-44.35,RIGHT,1.4,A24,D7.wav,D7_FAM_She_is_washing_the_dishes.png,6,912945
p9,Trial: 11,p9.edf,.,31,Fixation: 19817 ms,113,19817,19929,"[ 5, 99]",9,795,286,113.2,563.8,1,2,37.8,38.1,34,Saccade: 19789 ms,LEFT,28,2.87,102.38,142.45,"[ 10, 99]",19789,19816,216.1,608.9,112.5,580.9,35,Saccade: 19930 ms,UP,18,1.26,70.04,85.7,"[ 5, 99]",19930,19947,108.7,566.9,107.7,519,-20.15,RIGHT,3.18,A24,D7.wav,D7_FAM_She_is_washing_the_dishes.png,6,912945
p9,Trial: 11,p9.edf,.,32,Fixation: 19948 ms,173,19948,20120,"[ 5, 99]",9,799,286,103.1,511.3,2,2,37.7,37.9,35,Saccade: 19930 ms,UP,18,1.26,70.04,85.7,"[ 5, 99]",19930,19947,108.7,566.9,107.7,519,36,Saccade: 20121 ms,RIGHT,62,15.92,256.71,479.25,"[ 9, 99]",20121,20182,103.3,512.4,659.8,345.1,-79.04,DOWN,1.41,A24,D7.wav,D7_FAM_She_is_washing_the_dishes.png,6,912945
p9,Trial: 11,p9.edf,.,33,Fixation: 20183 ms,347,20183,20529,"[ 9, 99]",6,743,347,648.9,338.4,1,1,35.2,36.5,36,Saccade: 20121 ms,RIGHT,62,15.92,256.71,479.25,"[ 5, 99]",20121,20182,103.3,512.4,659.8,345.1,37,Saccade: 20530 ms,DOWN,61,13.6,223,397.6,"[ 4, 99]",20530,20590,642.9,345.4,571.8,850.7,-162.76,LEFT,15.68,A24,D7.wav,D7_FAM_She_is_washing_the_dishes.png,6,912945
p9,Trial: 11,p9.edf,.,34,Fixation: 20591 ms,167,20591,20757,"[ 4, 99]",6,717,2227,568.4,849.5,1,5,36.2,38.6,37,Saccade: 20530 ms,DOWN,61,13.6,223,397.6,"[ 9, 99]",20530,20590,642.9,345.4,571.8,850.7,38,Saccade: 20758 ms,UP,9,0.58,63.89,54.9,"[ 4, 99]",20758,20766,572.6,848,566.7,826.8,80.59,UP,13.8,A24,D7.wav,D7_FAM_She_is_washing_the_dishes.png,6,912945
p9,Trial: 11,p9.edf,.,35,Fixation: 20767 ms,210,20767,20976,"[ 4, 99]",6,769,2227,572.4,827.1,2,5,36.1,38.4,38,Saccade: 20758 ms,UP,9,0.58,63.89,54.9,"[ 4, 99]",20758,20766,572.6,848,566.7,826.8,39,Saccade: 20977 ms,UP,17,1.12,65.81,87.34,"[ 4, 99]",20977,20993,573.5,834.2,586.8,793.8,-100.77,DOWN,0.59,A24,D7.wav,D7_FAM_She_is_washing_the_dishes.png,6,912945
p9,Trial: 11,p9.edf,.,36,Fixation: 20994 ms,381,20994,21374,"[ 4, 99]",6,819,2227,588.2,791.7,3,5,36.0,38.1,39,Saccade: 20977 ms,UP,17,1.12,65.81,87.34,"[ 4, 99]",20977,20993,573.5,834.2,586.8,793.8,40,Saccade: 21375 ms,.,6,0.31,51.86,39.69,"[ 4, 99]",21375,21380,586.7,789,575.5,789.2,-115.34,DOWN,1.02,A24,D7.wav,D7_FAM_She_is_washing_the_dishes.png,6,912945
p9,Trial: 11,p9.edf,.,37,Fixation: 21381 ms,571,21381,21951,"[ 4, 99]",6,889,2227,577.9,787.4,4,5,36.0,38.1,40,Saccade: 21375 ms,.,6,0.31,51.86,39.69,"[ 4, 99]",21375,21380,586.7,789,575.5,789.2,41,Saccade: 21952 ms,DOWN,22,1.41,63.87,111.28,"[ 4, 99]",21952,21973,577.6,789.7,586.4,842.7,-21.53,.,0.31,A24,D7.wav,D7_FAM_She_is_washing_the_dishes.png,6,912945
p9,Trial: 11,p9.edf,.,38,Fixation: 21974 ms,898,21974,22871,"[ 4, 99]",6,846,2227,577.3,841.3,5,5,36.1,38.45,41,Saccade: 21952 ms,DOWN,22,1.41,63.87,111.28,"[ 4, 99]",21952,21973,577.6,789.7,586.4,842.7,42,Saccade: 22872 ms,UP,80,15.37,192.15,314.81,"[ 9, 99]",22872,22951,568,831.1,648.8,261.7,89.32,UP,1.41,A24,D7.wav,D7_FAM_She_is_washing_the_dishes.png,6,912945
p9,Trial: 11,p9.edf,.,39,Fixation: 22952 ms,207,22952,23158,"[ 9, 99]",6,859,423,650.3,270.4,1,2,35.2,36.5,42,Saccade: 22872 ms,UP,80,15.37,192.15,314.81,"[ 4, 99]",22872,22951,568,831.1,648.8,261.7,43,Saccade: 23159 ms,DOWN,21,1.06,50.37,90.83,"[ 9, 99]",23159,23179,652.6,265.1,646,303.1,-97.66,DOWN,15.37,A24,D7.wav,D7_FAM_She_is_washing_the_dishes.png,6,912945
p9,Trial: 11,p9.edf,.,40,Fixation: 23180 ms,216,23180,23395,"[ 9, 99]",6,845,423,648.6,296.7,2,2,35.2,36.5,43,Saccade: 23159 ms,DOWN,21,1.06,50.37,90.83,"[ 9, 99]",23159,23179,652.6,265.1,646,303.1,44,Saccade: 23396 ms,LEFT,22,2.37,107.88,182.98,"[ 12, 15, 99]",23396,23417,652.1,301.2,588.2,357,86.17,UP,0.72,A24,D7.wav,D7_FAM_She_is_washing_the_dishes.png,6,912945
p9,Trial: 11,p9.edf,.,41,Fixation: 23418 ms,214,23418,23631,"[ 12, 15, 99]",3,810,404,583.0,358.1,1,2,35.2,36.5,44,Saccade: 23396 ms,LEFT,22,2.37,107.88,182.98,"[ 9, 99]",23396,23417,652.1,301.2,588.2,357,45,Saccade: 23632 ms,LEFT,16,1.1,68.7,82.89,"[ 12, 15, 99]",23632,23647,579.8,353.5,541.2,357,42.07,RIGHT,2.51,A24,D7.wav,D7_FAM_She_is_washing_the_dishes.png,6,912945
p9,Trial: 11,p9.edf,.,42,Fixation: 23648 ms,190,23648,23837,"[ 12, 15, 99]",3,810,404,543.3,357.1,2,2,35.3,36.5,45,Saccade: 23632 ms,LEFT,16,1.1,68.7,82.89,"[ 12, 15, 99]",23632,23647,579.8,353.5,541.2,357,46,Saccade: 23838 ms,DOWN,44,10.09,229.36,387.34,"[ 3, 99]",23838,23881,542.2,361,795.3,624.2,-1.39,RIGHT,1.13,A24,D7.wav,D7_FAM_She_is_washing_the_dishes.png,6,912945
p9,Trial: 11,p9.edf,.,43,Fixation: 23882 ms,139,23882,24020,"[ 3, 99]",4,785,364,792.9,630.7,1,2,35.7,37.2,46,Saccade: 23838 ms,DOWN,44,10.09,229.36,387.34,"[ 12, 15, 99]",23838,23881,542.2,361,795.3,624.2,47,Saccade: 24021 ms,DOWN,21,1.05,49.78,96.55,"[ 3, 99]",24021,24041,792.8,633.5,805.7,670.1,133.44,UP,10.23,A24,D7.wav,D7_FAM_She_is_washing_the_dishes.png,6,912945
p9,Trial: 11,p9.edf,.,44,Fixation: 24042 ms,225,24042,24266,"[ 3, 99]",4,808,364,801.9,672.0,2,2,35.8,37.45,47,Saccade: 24021 ms,DOWN,21,1.05,49.78,96.55,"[ 3, 99]",24021,24041,792.8,633.5,805.7,670.1,48,Saccade: 24267 ms,LEFT,40,4.63,115.86,225.62,[ 99],24267,24306,803.9,673,639.5,655.8,102.82,UP,1.13,A24,D7.wav,D7_FAM_She_is_washing_the_dishes.png,6,912945
p9,Trial: 11,p9.edf,.,45,Fixation: 24421 ms,229,24421,24649,"[ 10, 99]",5,938,229,232.5,598.3,1,1,36.8,37.7,49,Saccade: 24351 ms,LEFT,70,11.35,162.2,390.33,[ 99],24351,24420,652,655.6,245.6,600.3,50,Saccade: 24650 ms,RIGHT,78,24.36,312.25,642.82,"[ 30, 31, 99]",24650,24727,227.9,594.9,1127.1,504.4,-7.13,RIGHT,15.81,A24,D7.wav,D7_FAM_She_is_washing_the_dishes.png,6,912945
p9,Trial: 11,p9.edf,.,46,Fixation: 24728 ms,216,24728,24943,"[ 30, 31, 99]",3,856,216,1132.4,495.6,1,1,37.35,37.7,50,Saccade: 24650 ms,RIGHT,78,24.36,312.25,642.82,"[ 10, 99]",24650,24727,227.9,594.9,1127.1,504.4,51,Saccade: 24944 ms,DOWN,29,1.65,56.76,157.08,"[ 31, 99]",24944,24972,1133.2,494.6,1105,549.8,-173.6,LEFT,24.42,A24,D7.wav,D7_FAM_She_is_washing_the_dishes.png,6,912945
p9,Trial: 11,p9.edf,.,47,Fixation: 24973 ms,107,24973,25079,"[ 31, 99]",6,828,1092,1102.8,556.5,2,5,37.2,37.7,51,Saccade: 24944 ms,DOWN,29,1.65,56.76,157.08,"[ 30, 31, 99]",24944,24972,1133.2,494.6,1105,549.8,52,Saccade: 25080 ms,DOWN,23,1.56,67.83,119.53,"[ 29, 31, 99]",25080,25102,1101.9,552.8,1127.6,605.8,63.82,UP,1.8,A24,D7.wav,D7_FAM_She_is_washing_the_dishes.png,6,912945
p9,Trial: 11,p9.edf,.,48,Fixation: 25103 ms,287,25103,25389,"[ 29, 31, 99]",1,842,287,1115.4,608.5,1,1,37.45,38.0,52,Saccade: 25080 ms,DOWN,23,1.56,67.83,119.53,"[ 31, 99]",25080,25102,1101.9,552.8,1127.6,605.8,53,Saccade: 25390 ms,UP,24,2.3,96.03,123.94,"[ 30, 31, 99]",25390,25413,1117.3,608.9,1085,528.2,103.81,UP,1.41,A24,D7.wav,D7_FAM_She_is_washing_the_dishes.png,6,912945
p9,Trial: 11,p9.edf,.,49,Fixation: 25414 ms,170,25414,25583,"[ 30, 31, 99]",3,840,482,1084.9,520.1,1,2,37.0,37.6,53,Saccade: 25390 ms,UP,24,2.3,96.03,123.94,"[ 29, 31, 99]",25390,25413,1117.3,608.9,1085,528.2,54,Saccade: 25584 ms,UP,19,1.56,81.89,114.69,"[ 30, 31, 99]",25584,25602,1086.9,522.3,1104.3,466.6,-70.69,DOWN,2.48,A24,D7.wav,D7_FAM_She_is_washing_the_dishes.png,6,912945
p9,Trial: 11,p9.edf,.,50,Fixation: 25603 ms,312,25603,25914,"[ 30, 31, 99]",3,825,482,1102.9,468.3,2,2,37.1,37.55,54,Saccade: 25584 ms,UP,19,1.56,81.89,114.69,"[ 30, 31, 99]",25584,25602,1086.9,522.3,1104.3,466.6,55,Saccade: 25915 ms,LEFT,65,15.13,232.73,599.65,"[ 7, 15, 99]",25915,25979,1105.9,473.8,564.6,394.1,-109.41,DOWN,1.46,A24,D7.wav,D7_FAM_She_is_washing_the_dishes.png,6,912945
p9,Trial: 11,p9.edf,.,51,Fixation: 25980 ms,299,25980,26278,"[ 7, 15, 99]",1,833,299,570.0,382.2,1,1,35.2,36.5,55,Saccade: 25915 ms,LEFT,65,15.13,232.73,599.65,"[ 30, 31, 99]",25915,25979,1105.9,473.8,564.6,394.1,56,Saccade: 26279 ms,UP,39,3.8,97.41,130.15,"[ 9, 99]",26279,26317,568.2,381.6,622.1,254.7,-8.96,RIGHT,14.92,A24,D7.wav,D7_FAM_She_is_washing_the_dishes.png,6,912945
p9,Trial: 11,p9.edf,.,52,Fixation: 26442 ms,115,26442,26556,"[ 22, 28, 99]",1,886,115,911.9,259.3,1,1,35.8,36.85,57,Saccade: 26397 ms,RIGHT,45,7.79,173.09,400.66,"[ 9, 99]",26397,26441,622.8,247.2,898.9,262.9,58,Saccade: 26557 ms,UP,22,1.62,73.82,98.48,"[ 20, 28, 99]",26557,26578,912.9,262.3,927.5,204.2,-160.82,LEFT,10.2,A24,D7.wav,D7_FAM_She_is_washing_the_dishes.png,6,912945
p9,Trial: 11,p9.edf,.,53,Fixation: 26579 ms,225,26579,26803,"[ 20, 28, 99]",1,885,225,923.7,202.4,1,1,35.95,37.0,58,Saccade: 26557 ms,UP,22,1.62,73.82,98.48,"[ 22, 28, 99]",26557,26578,912.9,262.3,927.5,204.2,59,Saccade: 26804 ms,DOWN,30,4.83,161.03,336.78,"[ 28, 99]",26804,26833,918.6,211.7,869.9,382.5,-102.05,DOWN,1.58,A24,D7.wav,D7_FAM_She_is_washing_the_dishes.png,6,912945
p9,Trial: 11,p9.edf,.,54,Fixation: 26834 ms,141,26834,26974,"[ 28, 99]",6,869,1838,874.5,379.1,3,4,35.65,36.7,59,Saccade: 26804 ms,DOWN,30,4.83,161.03,336.78,"[ 28, 99]",26804,26833,918.6,211.7,869.9,382.5,60,Saccade: 26975 ms,RIGHT,13,0.67,51.89,57.45,"[ 21, 28, 99]",26975,26987,882.2,376.1,902.3,389.8,74.01,UP,4.99,A24,D7.wav,D7_FAM_She_is_washing_the_dishes.png,6,912945
p9,Trial: 11,p9.edf,28326,55,Fixation: 26988 ms,1357,26988,28344,"[ 21, 28, 99]",1,806,1357,910.9,379.3,1,1,35.8,36.8,60,Saccade: 26975 ms,RIGHT,13,0.67,51.89,57.45,"[ 28, 99]",26975,26987,882.2,376.1,902.3,389.8,.,.,.,.,.,.,.,.,.,.,.,.,.,.,179.69,LEFT,1.02,A24,D7.wav,D7_FAM_She_is_washing_the_dishes.png,6,912945
