RECORDING_SESSION_LABEL,TRIAL_LABEL,DATA_FILE,CURRENT_FIX_MSG_TIME_1,CURRENT_FIX_INDEX,CURRENT_FIX_LABEL,CURRENT_FIX_DURATION,CURRENT_FIX_START,CURRENT_FIX_END,CURRENT_FIX_INTEREST_AREAS,CURRENT_FIX_INTEREST_AREA_FIX_COUNT,CURRENT_FIX_PUPIL,CURRENT_FIX_RUN_DWELL_TIME,CURRENT_FIX_X,CURRENT_FIX_Y,CURRENT_FIX_RUN_INDEX,CURRENT_FIX_RUN_SIZE,CURRENT_FIX_X_RESOLUTION,CURRENT_FIX_Y_RESOLUTION,PREVIOUS_SAC_INDEX,PREVIOUS_SAC_LABEL,PREVIOUS_SAC_DIRECTION,PREVIOUS_SAC_DURATION,PREVIOUS_SAC_AMPLITUDE,PREVIOUS_SAC_AVG_VELOCITY,PREVIOUS_SAC_PEAK_VELOCITY,PREVIOUS_SAC_START_INTEREST_AREAS,PREVIOUS_SAC_START_TIME,PREVIOUS_SAC_END_TIME,PREVIOUS_SAC_START_X,PREVIOUS_SAC_START_Y,PREVIOUS_SAC_END_X,PREVIOUS_SAC_END_Y,NEXT_SAC_INDEX,NEXT_SAC_LABEL,NEXT_SAC_DIRECTION,NEXT_SAC_DURATION,NEXT_SAC_AMPLITUDE,NEXT_SAC_AVG_VELOCITY,NEXT_SAC_PEAK_VELOCITY,NEXT_SAC_END_INTEREST_AREAS,NEXT_SAC_START_TIME,NEXT_SAC_END_TIME,NEXT_SAC_START_X,NEXT_SAC_START_Y,NEXT_SAC_END_X,NEXT_SAC_END_Y,PREVIOUS_FIX_ANGLE,PREVIOUS_FIX_DIRECTION,PREVIOUS_FIX_DISTANCE,ItemNO,audiofilename,imagefilename,TRIAL_INDEX,TRIAL_START_TIME
p12,Trial: 43,p12.edf,342,1,Fixation: 7 ms,706,7,712,"[ 8, 12, 99]",16,1014,706,869.9,390.8,1,1,35.65,36.7,.,.,.,.,.,.,.,.,.,.,.,.,.,.,1,Saccade: 713 ms,DOWN,96,16.14,168.08,397.27,[ ],713,808,879.7,401.2,688,984.3,.,.,.,A8,D7.wav,D7_FAM_She_is_washing_the_dishes.png,21,16820368
p12,Trial: 43,p12.edf,.,2,Fixation: 809 ms,155,809,963,[ ],.,703,.,687.6,974.5,.,.,36.75,39.75,1,Saccade: 713 ms,DOWN,96,16.14,168.08,397.27,"[ 5, 8, 99]",713,808,879.7,401.2,688,984.3,2,Saccade: 964 ms,UP,15,1,66.77,77.42,[ ],964,978,689.3,972.7,664.2,943.8,71.75,UP,16.08,A8,D7.wav,D7_FAM_She_is_washing_the_dishes.png,21,16820368
p12,Trial: 43,p12.edf,3424,3,Fixation: 979 ms,2640,979,3618,[ ],.,809,.,657.3,926.8,.,.,36.55,39.35,2,Saccade: 964 ms,UP,15,1,66.77,77.42,[ ],964,978,689.3,972.7,664.2,943.8,3,Saccade: 3619 ms,UP,34,4.94,145.2,274.47,"[ 13, 99]",3619,3652,649,933.1,642.7,742.9,-55.57,DOWN,1.46,A8,D7.wav,D7_FAM_She_is_washing_the_dishes.png,21,16820368
p12,Trial: 43,p12.edf,.,4,Fixation: 3653 ms,172,3653,3824,"[ 13, 99]",7,898,172,645.0,730.0,1,1,35.75,37.7,3,Saccade: 3619 ms,UP,34,4.94,145.2,274.47,[ ],3619,3652,649,933.1,642.7,742.9,4,Saccade: 3825 ms,UP,53,10.95,206.59,424.05,"[ 6, 99]",3825,3877,642.9,731.7,538.2,340.5,-86.19,DOWN,5.12,A8,D7.wav,D7_FAM_She_is_washing_the_dishes.png,21,16820368
p12,Trial: 43,p12.edf,.,5,Fixation: 3878 ms,141,3878,4018,"[ 6, 99]",14,971,802,532.7,324.6,1,4,35.3,36.5,4,Saccade: 3825 ms,UP,53,10.95,206.59,424.05,"[ 13, 99]",3825,3877,642.9,731.7,538.2,340.5,5,Saccade: 4019 ms,UP,22,2.17,98.51,149.44,"[ 6, 14, 99]",4019,4040,538.8,326.7,529.3,248.1,-73.87,DOWN,11.38,A8,D7.wav,D7_FAM_She_is_washing_the_dishes.png,21,16820368
p12,Trial: 43,p12.edf,.,6,Fixation: 4041 ms,221,4041,4261,"[ 6, 14, 99]",14,987,802,550.8,254.2,2,4,35.3,36.6,5,Saccade: 4019 ms,UP,22,2.17,98.51,149.44,"[ 6, 99]",4019,4040,538.8,326.7,529.3,248.1,6,Saccade: 4262 ms,UP,13,0.73,55.83,58.62,"[ 6, 14, 99]",4262,4274,558.9,257.1,576.4,237.7,-104.91,DOWN,1.99,A8,D7.wav,D7_FAM_She_is_washing_the_dishes.png,21,16820368
p12,Trial: 43,p12.edf,.,7,Fixation: 4275 ms,215,4275,4489,"[ 6, 14, 99]",14,935,802,577.8,233.4,3,4,35.3,36.6,6,Saccade: 4262 ms,UP,13,0.73,55.83,58.62,"[ 6, 14, 99]",4262,4274,558.9,257.1,576.4,237.7,7,Saccade: 4490 ms,UP,11,0.58,53.07,49.83,"[ 6, 14, 99]",4490,4500,575.5,230.4,562.5,213.8,-143.39,LEFT,0.95,A8,D7.wav,D7_FAM_She_is_washing_the_dishes.png,21,16820368
p12,Trial: 43,p12.edf,.,8,Fixation: 4501 ms,225,4501,4725,"[ 6, 14, 99]",14,858,802,566.1,217.3,4,4,35.3,36.65,7,Saccade: 4490 ms,UP,11,0.58,53.07,49.83,"[ 6, 14, 99]",4490,4500,575.5,230.4,562.5,213.8,8,Saccade: 4726 ms,RIGHT,61,15.4,252.43,436.82,"[ 2, 99]",4726,4786,567.3,218.1,1121.8,283.5,-52.98,DOWN,0.55,A8,D7.wav,D7_FAM_She_is_washing_the_dishes.png,21,16820368
p12,Trial: 43,p12.edf,.,9,Fixation: 4787 ms,366,4787,5152,[ 99],52,837,21386,1111.7,272.0,6,51,37.15,37.5,8,Saccade: 4726 ms,RIGHT,61,15.4,252.43,436.82,"[ 6, 14, 99]",4726,4786,567.3,218.1,1121.8,283.5,9,Saccade: 5153 ms,RIGHT,28,2.82,100.58,173.53,"[ 2, 99]",5153,5180,1109.9,280.2,1207,238.1,174.41,LEFT,15.13,A8,D7.wav,D7_FAM_She_is_washing_the_dishes.png,21,16820368
p12,Trial: 43,p12.edf,.,10,Fixation: 5181 ms,233,5181,5413,"[ 2, 99]",1,928,233,1204.6,238.2,1,1,38.0,38.0,9,Saccade: 5153 ms,RIGHT,28,2.82,100.58,173.53,[ 99],5153,5180,1109.9,280.2,1207,238.1,10,Saccade: 5414 ms,LEFT,38,6.75,177.73,313.17,"[ 8, 99]",5414,5451,1208.1,244.1,966.6,310.4,-160.09,LEFT,2.63,A8,D7.wav,D7_FAM_She_is_washing_the_dishes.png,21,16820368
p12,Trial: 43,p12.edf,.,11,Fixation: 5452 ms,102,5452,5553,"[ 5, 8, 99]",15,1002,4279,963.7,312.3,1,11,36.1,36.95,10,Saccade: 5414 ms,LEFT,38,6.75,177.73,313.17,"[ 2, 99]",5414,5451,1208.1,244.1,966.6,310.4,11,Saccade: 5554 ms,DOWN,158,1.67,10.58,592.95,"[ 5, 8, 99]",5554,5711,956.6,307.5,973.9,366.7,16.92,RIGHT,6.8,A8,D7.wav,D7_FAM_She_is_washing_the_dishes.png,21,16820368
p12,Trial: 43,p12.edf,.,12,Fixation: 5969 ms,534,5969,6502,"[ 5, 8, 99]",15,1108,4279,968.9,334.7,2,11,36.1,37.0,12,Saccade: 5952 ms,RIGHT,17,0.92,53.93,72.4,"[ 5, 8, 99]",5952,5968,945.2,324.1,973.5,341.6,13,Saccade: 6503 ms,RIGHT,18,1.06,58.96,83.32,"[ 5, 8, 99]",6503,6520,971.8,333.1,1002,308.8,103.38,UP,0.62,A8,D7.wav,D7_FAM_She_is_washing_the_dishes.png,21,16820368
p12,Trial: 43,p12.edf,.,13,Fixation: 6521 ms,344,6521,6864,"[ 5, 8, 99]",15,1064,4279,1003.8,309.4,3,11,36.3,37.1,13,Saccade: 6503 ms,RIGHT,18,1.06,58.96,83.32,"[ 5, 8, 99]",6503,6520,971.8,333.1,1002,308.8,14,Saccade: 6865 ms,LEFT,14,0.84,59.87,63.46,"[ 5, 8, 99]",6865,6878,1003.6,305,975.3,316.3,-144.69,LEFT,1.18,A8,D7.wav,D7_FAM_She_is_washing_the_dishes.png,21,16820368
p12,Trial: 43,p12.edf,.,14,Fixation: 6879 ms,191,6879,7069,"[ 5, 8, 99]",15,1158,4279,980.6,318.1,4,11,36.2,37.0,14,Saccade: 6865 ms,LEFT,14,0.84,59.87,63.46,"[ 5, 8, 99]",6865,6878,1003.6,305,975.3,316.3,15,Saccade: 7070 ms,LEFT,20,1.26,63.21,95.3,"[ 5, 8, 99]",7070,7089,981.1,315.5,945.4,344.6,20.15,RIGHT,0.68,A8,D7.wav,D7_FAM_She_is_washing_the_dishes.png,21,16820368
p12,Trial: 43,p12.edf,.,15,Fixation: 7090 ms,736,7090,7825,"[ 5, 8, 99]",15,1275,4279,947.6,342.5,5,11,36.0,36.9,15,Saccade: 7070 ms,LEFT,20,1.26,63.21,95.3,"[ 5, 8, 99]",7070,7089,981.1,315.5,945.4,344.6,16,Saccade: 7826 ms,UP,17,1.03,60.45,74.46,"[ 8, 99]",7826,7842,950.4,341.4,968.9,308.5,35.84,RIGHT,1.13,A8,D7.wav,D7_FAM_She_is_washing_the_dishes.png,21,16820368
p12,Trial: 43,p12.edf,.,16,Fixation: 7843 ms,187,7843,8029,"[ 5, 8, 99]",15,1238,4279,970.0,318.3,6,11,36.1,37.0,16,Saccade: 7826 ms,UP,17,1.03,60.45,74.46,"[ 5, 8, 99]",7826,7842,950.4,341.4,968.9,308.5,17,Saccade: 8030 ms,RIGHT,13,0.77,59.18,59.25,"[ 5, 8, 99]",8030,8042,968.4,318.3,991.5,302.4,-133.49,DOWN,0.9,A8,D7.wav,D7_FAM_She_is_washing_the_dishes.png,21,16820368
p12,Trial: 43,p12.edf,.,17,Fixation: 8043 ms,338,8043,8380,"[ 5, 8, 99]",15,1265,4279,987.0,305.0,7,11,36.25,37.0,17,Saccade: 8030 ms,RIGHT,13,0.77,59.18,59.25,"[ 5, 8, 99]",8030,8042,968.4,318.3,991.5,302.4,18,Saccade: 8381 ms,LEFT,25,1.9,75.98,124.8,"[ 5, 8, 99]",8381,8405,986.7,307.7,935.5,354.3,-142.59,LEFT,0.59,A8,D7.wav,D7_FAM_She_is_washing_the_dishes.png,21,16820368
p12,Trial: 43,p12.edf,.,18,Fixation: 8406 ms,909,8406,9314,"[ 5, 8, 99]",15,1220,4279,945.8,351.6,8,11,35.95,36.9,18,Saccade: 8381 ms,LEFT,25,1.9,75.98,124.8,"[ 5, 8, 99]",8381,8405,986.7,307.7,935.5,354.3,19,Saccade: 9315 ms,RIGHT,19,1.35,71.23,92.83,"[ 5, 8, 99]",9315,9333,952,348.4,992,319.6,47.86,UP,1.7,A8,D7.wav,D7_FAM_She_is_washing_the_dishes.png,21,16820368
p12,Trial: 43,p12.edf,.,19,Fixation: 9334 ms,409,9334,9742,"[ 5, 8, 99]",15,1138,4279,996.2,316.0,9,11,36.3,37.05,19,Saccade: 9315 ms,RIGHT,19,1.35,71.23,92.83,"[ 5, 8, 99]",9315,9333,952,348.4,992,319.6,20,Saccade: 9743 ms,.,10,0.44,44.41,42.46,"[ 5, 8, 99]",9743,9752,998.1,316.2,1010.7,305.9,-145.39,LEFT,1.7,A8,D7.wav,D7_FAM_She_is_washing_the_dishes.png,21,16820368
p12,Trial: 43,p12.edf,.,20,Fixation: 9753 ms,358,9753,10110,"[ 5, 8, 99]",15,1085,4279,1008.3,308.7,10,11,36.4,37.1,20,Saccade: 9743 ms,.,10,0.44,44.41,42.46,"[ 5, 8, 99]",9743,9752,998.1,316.2,1010.7,305.9,21,Saccade: 10111 ms,.,9,0.45,50.48,44.83,"[ 5, 8, 99]",10111,10119,1008.7,308.3,1023,299.8,-149.4,.,0.39,A8,D7.wav,D7_FAM_She_is_washing_the_dishes.png,21,16820368
p12,Trial: 43,p12.edf,.,21,Fixation: 10120 ms,171,10120,10290,"[ 5, 8, 99]",15,1051,4279,1031.3,296.9,11,11,36.5,37.15,21,Saccade: 10111 ms,.,9,0.45,50.48,44.83,"[ 5, 8, 99]",10111,10119,1008.7,308.3,1023,299.8,22,Saccade: 10291 ms,RIGHT,11,0.52,46.92,48.23,"[ 8, 99]",10291,10301,1036.4,296.9,1053.9,289.6,-153.27,LEFT,0.71,A8,D7.wav,D7_FAM_She_is_washing_the_dishes.png,21,16820368
p12,Trial: 43,p12.edf,.,22,Fixation: 10302 ms,381,10302,10682,[ 99],52,1031,21386,1055.5,292.2,19,51,36.7,37.3,22,Saccade: 10291 ms,RIGHT,11,0.52,46.92,48.23,"[ 5, 8, 99]",10291,10301,1036.4,296.9,1053.9,289.6,23,Saccade: 10683 ms,LEFT,21,1.55,73.57,111.85,"[ 5, 8, 99]",10683,10703,1058.8,288.9,1004.9,305.8,-169.19,LEFT,0.67,A8,D7.wav,D7_FAM_She_is_washing_the_dishes.png,21,16820368
p12,Trial: 43,p12.edf,.,23,Fixation: 10704 ms,235,10704,10938,"[ 5, 8, 99]",15,1013,235,1002.3,299.6,1,1,36.3,37.1,23,Saccade: 10683 ms,LEFT,21,1.55,73.57,111.85,[ 99],10683,10703,1058.8,288.9,1004.9,305.8,24,Saccade: 10939 ms,LEFT,24,2.41,100.23,167.1,[ 99],10939,10962,1002.9,300,920.5,271.9,7.77,RIGHT,1.47,A8,D7.wav,D7_FAM_She_is_washing_the_dishes.png,21,16820368
p12,Trial: 43,p12.edf,.,24,Fixation: 10963 ms,229,10963,11191,"[ 23, 99]",1,1019,229,903.1,258.4,1,1,35.85,36.9,24,Saccade: 10939 ms,LEFT,24,2.41,100.23,167.1,"[ 5, 8, 99]",10939,10962,1002.9,300,920.5,271.9,25,Saccade: 11192 ms,LEFT,59,8.94,151.6,397.32,"[ 6, 14, 99]",11192,11250,903.8,256.6,586.3,251.9,-22.05,RIGHT,2.97,A8,D7.wav,D7_FAM_She_is_washing_the_dishes.png,21,16820368
p12,Trial: 43,p12.edf,.,25,Fixation: 11251 ms,339,11251,11589,"[ 6, 14, 99]",14,965,848,574.3,253.6,1,4,35.2,36.6,25,Saccade: 11192 ms,LEFT,59,8.94,151.6,397.32,"[ 23, 99]",11192,11250,903.8,256.6,586.3,251.9,26,Saccade: 11590 ms,DOWN,14,0.76,54.62,63.54,"[ 6, 14, 99]",11590,11603,571.7,254,576.5,281.5,-0.81,RIGHT,9.26,A8,D7.wav,D7_FAM_She_is_washing_the_dishes.png,21,16820368
p12,Trial: 43,p12.edf,.,26,Fixation: 11604 ms,113,11604,11716,"[ 6, 14, 99]",14,936,848,573.5,283.3,2,4,35.2,36.5,26,Saccade: 11590 ms,DOWN,14,0.76,54.62,63.54,"[ 6, 14, 99]",11590,11603,571.7,254,576.5,281.5,27,Saccade: 11717 ms,LEFT,29,3.92,135.17,250.66,"[ 3, 6, 99]",11717,11745,574.8,284.7,438.4,258.3,88.4,UP,0.81,A8,D7.wav,D7_FAM_She_is_washing_the_dishes.png,21,16820368
p12,Trial: 43,p12.edf,.,27,Fixation: 11746 ms,176,11746,11921,"[ 3, 6, 99]",5,966,396,448.7,262.5,1,2,35.55,36.7,27,Saccade: 11717 ms,LEFT,29,3.92,135.17,250.66,"[ 6, 14, 99]",11717,11745,574.8,284.7,438.4,258.3,28,Saccade: 11922 ms,.,6,0.2,32.61,33.61,"[ 3, 6, 99]",11922,11927,449.7,262.5,447.2,255.8,-9.15,RIGHT,3.57,A8,D7.wav,D7_FAM_She_is_washing_the_dishes.png,21,16820368
p12,Trial: 43,p12.edf,.,28,Fixation: 11928 ms,220,11928,12147,"[ 3, 6, 99]",5,1003,396,451.8,256.6,2,2,35.5,36.7,28,Saccade: 11922 ms,.,6,0.2,32.61,33.61,"[ 3, 6, 99]",11922,11927,449.7,262.5,447.2,255.8,29,Saccade: 12148 ms,RIGHT,50,7.55,151.07,398.06,"[ 4, 99]",12148,12197,452,256.1,717.1,289.2,-118.49,.,0.18,A8,D7.wav,D7_FAM_She_is_washing_the_dishes.png,21,16820368
p12,Trial: 43,p12.edf,.,29,Fixation: 12198 ms,339,12198,12536,[ 99],52,942,21386,740.2,286.8,26,51,35.25,36.5,29,Saccade: 12148 ms,RIGHT,50,7.55,151.07,398.06,"[ 3, 6, 99]",12148,12197,452,256.1,717.1,289.2,30,Saccade: 12537 ms,RIGHT,48,6.13,127.78,309.4,"[ 5, 8, 99]",12537,12584,739.1,288.8,954.9,325.1,174.22,LEFT,8.19,A8,D7.wav,D7_FAM_She_is_washing_the_dishes.png,21,16820368
p12,Trial: 43,p12.edf,.,30,Fixation: 12585 ms,427,12585,13011,"[ 5, 8, 99]",15,968,1170,968.8,328.7,1,3,36.05,36.9,30,Saccade: 12537 ms,RIGHT,48,6.13,127.78,309.4,[ 99],12537,12584,739.1,288.8,954.9,325.1,31,Saccade: 13012 ms,DOWN,13,0.72,55.42,55.9,"[ 5, 8, 99]",13012,13024,965.1,331,948.1,351.1,169.91,LEFT,6.51,A8,D7.wav,D7_FAM_She_is_washing_the_dishes.png,21,16820368
p12,Trial: 43,p12.edf,13200,31,Fixation: 13025 ms,590,13025,13614,"[ 5, 8, 99]",15,1012,1170,953.3,356.4,2,3,36.0,36.9,31,Saccade: 13012 ms,DOWN,13,0.72,55.42,55.9,"[ 5, 8, 99]",13012,13024,965.1,331,948.1,351.1,32,Saccade: 13615 ms,UP,20,1.45,72.42,103.08,"[ 5, 8, 99]",13615,13634,954,361.5,986.9,319.9,60.18,UP,0.87,A8,D7.wav,D7_FAM_She_is_washing_the_dishes.png,21,16820368
p12,Trial: 43,p12.edf,.,32,Fixation: 13635 ms,153,13635,13787,"[ 5, 8, 99]",15,986,1170,986.6,319.9,3,3,36.2,37.0,32,Saccade: 13615 ms,UP,20,1.45,72.42,103.08,"[ 5, 8, 99]",13615,13634,954,361.5,986.9,319.9,33,Saccade: 13788 ms,LEFT,77,15.89,206.3,530.91,"[ 18, 19, 20, 99]",13788,13864,990,319.6,447.9,501.6,-133.04,DOWN,1.35,A8,D7.wav,D7_FAM_She_is_washing_the_dishes.png,21,16820368
p12,Trial: 43,p12.edf,.,33,Fixation: 13865 ms,333,13865,14197,"[ 18, 19, 20, 99]",2,1162,481,442.5,499.1,1,2,35.6,36.8,33,Saccade: 13788 ms,LEFT,77,15.89,206.3,530.91,"[ 5, 8, 99]",13788,13864,990,319.6,447.9,501.6,34,Saccade: 14198 ms,UP,11,0.72,65.4,61.56,"[ 18, 19, 20, 99]",14198,14208,440,501.8,438.1,475.4,17.77,RIGHT,15.92,A8,D7.wav,D7_FAM_She_is_washing_the_dishes.png,21,16820368
p12,Trial: 43,p12.edf,.,34,Fixation: 14209 ms,148,14209,14356,"[ 18, 19, 20, 99]",2,1221,481,444.5,471.8,2,2,35.55,36.8,34,Saccade: 14198 ms,UP,11,0.72,65.4,61.56,"[ 18, 19, 20, 99]",14198,14208,440,501.8,438.1,475.4,35,Saccade: 14357 ms,LEFT,54,6.58,121.93,346.71,"[ 9, 16, 99]",14357,14410,448.4,469.8,211.9,497.4,-94.33,DOWN,0.74,A8,D7.wav,D7_FAM_She_is_washing_the_dishes.png,21,16820368
p12,Trial: 43,p12.edf,.,35,Fixation: 14411 ms,548,14411,14958,"[ 9, 16, 99]",4,1108,548,186.6,505.8,1,1,36.95,37.55,35,Saccade: 14357 ms,LEFT,54,6.58,121.93,346.71,"[ 18, 19, 20, 99]",14357,14410,448.4,469.8,211.9,497.4,36,Saccade: 14959 ms,UP,23,2.69,116.98,181.11,"[ 9, 99]",14959,14981,179.4,509.9,171.3,409.2,7.33,RIGHT,7.17,A8,D7.wav,D7_FAM_She_is_washing_the_dishes.png,21,16820368
p12,Trial: 43,p12.edf,14990,36,Fixation: 14982 ms,146,14982,15127,[ 99],52,1046,21386,170.1,396.0,33,51,37.1,37.5,36,Saccade: 14959 ms,UP,23,2.69,116.98,181.11,"[ 9, 16, 99]",14959,14981,179.4,509.9,171.3,409.2,37,Saccade: 15128 ms,RIGHT,57,16.52,289.79,550.3,"[ 13, 99]",15128,15184,168.9,393.1,645.2,775.4,-81.34,DOWN,2.96,A8,D7.wav,D7_FAM_She_is_washing_the_dishes.png,21,16820368
p12,Trial: 43,p12.edf,.,37,Fixation: 15185 ms,319,15185,15503,"[ 13, 99]",7,1091,319,646.8,779.5,1,1,35.9,38.0,37,Saccade: 15128 ms,RIGHT,57,16.52,289.79,550.3,"[ 24, 99]",15128,15184,168.9,393.1,645.2,775.4,38,Saccade: 15504 ms,UP,49,8.78,179.12,323.97,"[ 17, 19, 20, 99]",15504,15552,651.6,784.2,566.5,469.2,142.12,LEFT,16.55,A8,D7.wav,D7_FAM_She_is_washing_the_dishes.png,21,16820368
p12,Trial: 43,p12.edf,.,38,Fixation: 15553 ms,185,15553,15737,"[ 17, 19, 20, 99]",1,1075,185,563.4,462.9,1,1,35.3,36.6,38,Saccade: 15504 ms,UP,49,8.78,179.12,323.97,"[ 13, 99]",15504,15552,651.6,784.2,566.5,469.2,39,Saccade: 15738 ms,UP,16,1.23,76.81,89.16,"[ 6, 14, 99]",15738,15753,559.8,457.6,558.5,412.7,-74.57,DOWN,8.81,A8,D7.wav,D7_FAM_She_is_washing_the_dishes.png,21,16820368
p12,Trial: 43,p12.edf,.,39,Fixation: 15754 ms,165,15754,15918,"[ 6, 14, 99]",14,1079,561,561.3,410.1,1,3,35.2,36.5,39,Saccade: 15738 ms,UP,16,1.23,76.81,89.16,"[ 17, 19, 20, 99]",15738,15753,559.8,457.6,558.5,412.7,40,Saccade: 15919 ms,LEFT,31,3.59,115.8,206.9,"[ 6, 99]",15919,15949,562.6,407.9,436.3,420.7,-87.64,DOWN,1.45,A8,D7.wav,D7_FAM_She_is_washing_the_dishes.png,21,16820368
p12,Trial: 43,p12.edf,.,40,Fixation: 15950 ms,154,15950,16103,"[ 6, 99]",14,1152,561,439.8,414.1,2,3,35.5,36.7,40,Saccade: 15919 ms,LEFT,31,3.59,115.8,206.9,"[ 6, 14, 99]",15919,15949,562.6,407.9,436.3,420.7,41,Saccade: 16104 ms,UP,49,3.6,73.56,213.43,"[ 3, 6, 99]",16104,16152,436.9,416.2,452.4,284.9,1.82,RIGHT,3.44,A8,D7.wav,D7_FAM_She_is_washing_the_dishes.png,21,16820368
p12,Trial: 43,p12.edf,.,41,Fixation: 16153 ms,242,16153,16394,"[ 3, 6, 99]",5,1147,242,454.2,275.1,1,1,35.5,36.7,41,Saccade: 16104 ms,UP,49,3.6,73.56,213.43,"[ 6, 99]",16104,16152,436.9,416.2,452.4,284.9,42,Saccade: 16395 ms,RIGHT,45,5.43,120.65,361,[ 99],16395,16439,451.5,277.2,642.7,294.5,-96.11,DOWN,3.81,A8,D7.wav,D7_FAM_She_is_washing_the_dishes.png,21,16820368
p12,Trial: 43,p12.edf,16455,42,Fixation: 16440 ms,170,16440,16609,"[ 4, 99]",1,1061,170,660.5,295.0,1,1,35.2,36.5,42,Saccade: 16395 ms,RIGHT,45,5.43,120.65,361,"[ 3, 6, 99]",16395,16439,451.5,277.2,642.7,294.5,43,Saccade: 16610 ms,LEFT,34,6.17,181.6,323.98,"[ 3, 6, 99]",16610,16643,664.2,293.5,447.4,267.4,174.68,LEFT,5.86,A8,D7.wav,D7_FAM_She_is_washing_the_dishes.png,21,16820368
p12,Trial: 43,p12.edf,.,43,Fixation: 16644 ms,383,16644,17026,"[ 3, 6, 99]",5,946,720,441.7,261.8,1,2,35.5,36.7,43,Saccade: 16610 ms,LEFT,34,6.17,181.6,323.98,"[ 4, 99]",16610,16643,664.2,293.5,447.4,267.4,44,Saccade: 17027 ms,.,16,0.38,23.79,42.5,"[ 3, 6, 99]",17027,17042,439.4,258.1,427.4,251.6,-8.34,RIGHT,6.26,A8,D7.wav,D7_FAM_She_is_washing_the_dishes.png,21,16820368
p12,Trial: 43,p12.edf,.,44,Fixation: 17043 ms,337,17043,17379,"[ 3, 6, 99]",5,890,720,429.5,248.9,2,2,35.6,36.8,44,Saccade: 17027 ms,.,16,0.38,23.79,42.5,"[ 3, 6, 99]",17027,17042,439.4,258.1,427.4,251.6,45,Saccade: 17380 ms,RIGHT,189,1.89,9.98,737.98,"[ 6, 99]",17380,17568,427.3,242.5,493.9,249.9,-45.65,.,0.49,A8,D7.wav,D7_FAM_She_is_washing_the_dishes.png,21,16820368
p12,Trial: 43,p12.edf,18750,45,Fixation: 18376 ms,3682,18376,22057,"[ 6, 14, 99]",14,978,4402,581.1,219.8,3,3,35.3,36.6,46,Saccade: 18351 ms,RIGHT,25,3.49,139.79,241.28,"[ 3, 6, 99]",18351,18375,459,250.9,577.7,214.8,47,Saccade: 22058 ms,DOWN,82,15.16,184.93,464.74,"[ 13, 99]",22058,22139,586.4,220.2,659.7,780.6,-169.5,LEFT,4.35,A8,D7.wav,D7_FAM_She_is_washing_the_dishes.png,21,16820368
p12,Trial: 43,p12.edf,.,46,Fixation: 22140 ms,155,22140,22294,"[ 13, 99]",7,1175,3446,665.9,791.7,1,5,35.9,38.05,47,Saccade: 22058 ms,DOWN,82,15.16,184.93,464.74,"[ 6, 14, 99]",22058,22139,586.4,220.2,659.7,780.6,48,Saccade: 22295 ms,UP,17,1.13,66.53,83.64,"[ 13, 99]",22295,22311,669.3,791.3,675.6,748.9,98.84,UP,15.51,A8,D7.wav,D7_FAM_She_is_washing_the_dishes.png,21,16820368
p12,Trial: 43,p12.edf,.,47,Fixation: 22312 ms,834,22312,23145,"[ 13, 99]",7,1184,3446,669.6,753.2,2,5,35.8,37.8,48,Saccade: 22295 ms,UP,17,1.13,66.53,83.64,"[ 13, 99]",22295,22311,669.3,791.3,675.6,748.9,49,Saccade: 23146 ms,.,6,0.2,33.06,31.81,"[ 13, 99]",23146,23151,665.3,751.8,669,745.4,-95.81,DOWN,1.02,A8,D7.wav,D7_FAM_She_is_washing_the_dishes.png,21,16820368
p12,Trial: 43,p12.edf,.,48,Fixation: 23152 ms,414,23152,23565,"[ 13, 99]",7,1225,3446,670.3,734.6,3,5,35.8,37.75,49,Saccade: 23146 ms,.,6,0.2,33.06,31.81,"[ 13, 99]",23146,23151,665.3,751.8,669,745.4,50,Saccade: 23566 ms,DOWN,19,0.73,38.61,49.96,"[ 13, 99]",23566,23584,668.7,738.6,678.8,764.2,-92.27,.,0.49,A8,D7.wav,D7_FAM_She_is_washing_the_dishes.png,21,16820368
p12,Trial: 43,p12.edf,.,49,Fixation: 23685 ms,548,23685,24232,"[ 13, 99]",7,1195,3446,673.5,731.6,4,5,35.85,37.8,51,Saccade: 23615 ms,LEFT,70,0.71,10.17,137.64,"[ 20, 99]",23615,23684,689.6,763.1,665,770.4,52,Saccade: 24233 ms,.,6,0.19,30.91,31.1,[ 99],24233,24238,675.1,732.6,681.3,730.1,-138.36,.,0.12,A8,D7.wav,D7_FAM_She_is_washing_the_dishes.png,21,16820368
p12,Trial: 43,p12.edf,.,50,Fixation: 24239 ms,1495,24239,25733,"[ 13, 99]",7,1171,3446,670.0,724.0,5,5,35.75,37.65,52,Saccade: 24233 ms,.,6,0.19,30.91,31.1,"[ 13, 99]",24233,24238,675.1,732.6,681.3,730.1,53,Saccade: 25734 ms,UP,40,5.98,149.5,267.89,"[ 19, 20, 99]",25734,25773,669.4,724.6,557.9,535.2,-64.11,.,0.22,A8,D7.wav,D7_FAM_She_is_washing_the_dishes.png,21,16820368
p12,Trial: 43,p12.edf,.,51,Fixation: 25774 ms,247,25774,26020,"[ 19, 20, 99]",4,1179,247,561.8,539.2,1,1,35.4,36.8,53,Saccade: 25734 ms,UP,40,5.98,149.5,267.89,"[ 13, 99]",25734,25773,669.4,724.6,557.9,535.2,54,Saccade: 26021 ms,LEFT,55,9.12,165.91,414.17,"[ 9, 99]",26021,26075,559.8,534.6,232.3,502.8,-58.51,DOWN,5.82,A8,D7.wav,D7_FAM_She_is_washing_the_dishes.png,21,16820368
p12,Trial: 43,p12.edf,.,52,Fixation: 26076 ms,218,26076,26293,"[ 9, 16, 99]",4,1153,1827,213.9,505.2,1,3,36.8,37.45,54,Saccade: 26021 ms,LEFT,55,9.12,165.91,414.17,"[ 19, 20, 99]",26021,26075,559.8,534.6,232.3,502.8,55,Saccade: 26294 ms,LEFT,22,1.52,69.1,113.16,"[ 9, 99]",26294,26315,205.5,500.1,149.7,508.4,-5.43,RIGHT,9.68,A8,D7.wav,D7_FAM_She_is_washing_the_dishes.png,21,16820368
p12,Trial: 43,p12.edf,.,53,Fixation: 26316 ms,754,26316,27069,"[ 9, 99]",4,1003,1827,142.4,498.4,2,3,37.35,37.75,55,Saccade: 26294 ms,LEFT,22,1.52,69.1,113.16,"[ 9, 16, 99]",26294,26315,205.5,500.1,149.7,508.4,56,Saccade: 27070 ms,UP,220,2.17,9.89,295.36,"[ 9, 99]",27070,27289,138.6,497.4,178.2,426,-5.36,RIGHT,1.94,A8,D7.wav,D7_FAM_She_is_washing_the_dishes.png,21,16820368
p12,Trial: 43,p12.edf,28432,54,Fixation: 27596 ms,855,27596,28450,"[ 9, 99]",4,932,1827,162.4,484.3,3,3,37.2,37.6,57,Saccade: 27587 ms,.,9,0.42,46.75,42.8,"[ 9, 99]",27587,27595,172.5,466,159.2,474.3,.,.,.,.,.,.,.,.,.,.,.,.,.,.,-145.1,LEFT,0.65,A8,D7.wav,D7_FAM_She_is_washing_the_dishes.png,21,16820368
