RECORDING_SESSION_LABEL,TRIAL_LABEL,DATA_FILE,CURRENT_FIX_MSG_TIME_1,CURRENT_FIX_INDEX,CURRENT_FIX_LABEL,CURRENT_FIX_DURATION,CURRENT_FIX_START,CURRENT_FIX_END,CURRENT_FIX_INTEREST_AREAS,CURRENT_FIX_INTEREST_AREA_FIX_COUNT,CURRENT_FIX_PUPIL,CURRENT_FIX_RUN_DWELL_TIME,CURRENT_FIX_X,CURRENT_FIX_Y,CURRENT_FIX_RUN_INDEX,CURRENT_FIX_RUN_SIZE,CURRENT_FIX_X_RESOLUTION,CURRENT_FIX_Y_RESOLUTION,PREVIOUS_SAC_INDEX,PREVIOUS_SAC_LABEL,PREVIOUS_SAC_DIRECTION,PREVIOUS_SAC_DURATION,PREVIOUS_SAC_AMPLITUDE,PREVIOUS_SAC_AVG_VELOCITY,PREVIOUS_SAC_PEAK_VELOCITY,PREVIOUS_SAC_START_INTEREST_AREAS,PREVIOUS_SAC_START_TIME,PREVIOUS_SAC_END_TIME,PREVIOUS_SAC_START_X,PREVIOUS_SAC_START_Y,PREVIOUS_SAC_END_X,PREVIOUS_SAC_END_Y,NEXT_SAC_INDEX,NEXT_SAC_LABEL,NEXT_SAC_DIRECTION,NEXT_SAC_DURATION,NEXT_SAC_AMPLITUDE,NEXT_SAC_AVG_VELOCITY,NEXT_SAC_PEAK_VELOCITY,NEXT_SAC_END_INTEREST_AREAS,NEXT_SAC_START_TIME,NEXT_SAC_END_TIME,NEXT_SAC_START_X,NEXT_SAC_START_Y,NEXT_SAC_END_X,NEXT_SAC_END_Y,PREVIOUS_FIX_ANGLE,PREVIOUS_FIX_DIRECTION,PREVIOUS_FIX_DISTANCE,ItemNO,audiofilename,imagefilename,TRIAL_INDEX,TRIAL_START_TIME
p12,Trial: 29,p12.edf,59,1,Fixation: 7 ms,395,7,401,[ 99],45,864,395,1019.4,320.0,1,1,36.45,37.15,.,.,.,.,.,.,.,.,.,.,.,.,.,.,1,Saccade: 402 ms,DOWN,135,19.27,142.76,1031.81,[ ],402,536,1030.2,320.7,629.8,926,.,.,.,A2,D7.wav,D7_FAM_She_is_washing_the_dishes.png,15,16468647
p12,Trial: 29,p12.edf,3141,2,Fixation: 2068 ms,1375,2068,3442,[ ],.,903,.,661.1,922.9,.,.,36.45,39.2,2,Saccade: 2039 ms,RIGHT,29,0.68,23.37,90.75,[ ],2039,2067,635.5,919.7,660.2,919.3,3,Saccade: 3443 ms,UP,55,15.4,280.01,569.8,"[ 11, 99]",3443,3497,662.9,928.3,471.7,379.8,58.1,UP,18.6,A2,D7.wav,D7_FAM_She_is_washing_the_dishes.png,15,16468647
p12,Trial: 29,p12.edf,.,3,Fixation: 3498 ms,327,3498,3824,"[ 11, 99]",6,1143,327,470.6,370.7,1,1,35.4,36.6,3,Saccade: 3443 ms,UP,55,15.4,280.01,569.8,[ ],3443,3497,662.9,928.3,471.7,379.8,4,Saccade: 3825 ms,UP,27,3.02,111.97,211.37,"[ 11, 20, 99]",3825,3851,467.3,371.2,467.5,260.4,-70,DOWN,15.5,A2,D7.wav,D7_FAM_She_is_washing_the_dishes.png,15,16468647
p12,Trial: 29,p12.edf,.,4,Fixation: 4253 ms,264,4253,4516,"[ 4, 99]",7,1131,769,764.5,285.4,1,2,35.3,36.6,6,Saccade: 4223 ms,RIGHT,30,4.8,160.1,304.14,"[ 11, 99]",4223,4252,591.4,304.1,760.1,289.3,7,Saccade: 4517 ms,.,8,0.47,58.74,43.81,"[ 4, 99]",4517,4524,770,284.6,765,268.2,-164.34,LEFT,8.63,A2,D7.wav,D7_FAM_She_is_washing_the_dishes.png,15,16468647
p12,Trial: 29,p12.edf,.,5,Fixation: 4525 ms,505,4525,5029,"[ 4, 99]",7,1157,769,764.2,271.4,2,2,35.3,36.6,7,Saccade: 4517 ms,.,8,0.47,58.74,43.81,"[ 4, 99]",4517,4524,770,284.6,765,268.2,8,Saccade: 5030 ms,LEFT,71,12.85,180.92,445.67,"[ 28, 99]",5030,5100,770,269.9,311.6,283.5,-88.73,.,0.38,A2,D7.wav,D7_FAM_She_is_washing_the_dishes.png,15,16468647
p12,Trial: 29,p12.edf,.,6,Fixation: 5101 ms,245,5101,5345,"[ 3, 99]",5,1244,510,297.2,288.8,1,2,36.15,37.0,8,Saccade: 5030 ms,LEFT,71,12.85,180.92,445.67,[ 99],5030,5100,770,269.9,311.6,283.5,9,Saccade: 5346 ms,LEFT,29,3.77,130.02,242.7,[ 99],5346,5374,299.6,291.5,169,245.6,2.07,RIGHT,13.08,A2,D7.wav,D7_FAM_She_is_washing_the_dishes.png,15,16468647
p12,Trial: 29,p12.edf,.,7,Fixation: 5375 ms,265,5375,5639,"[ 3, 99]",5,1352,510,174.5,246.0,2,2,37.1,37.5,9,Saccade: 5346 ms,LEFT,29,3.77,130.02,242.7,"[ 3, 99]",5346,5374,299.6,291.5,169,245.6,10,Saccade: 5640 ms,LEFT,18,0.91,50.72,70.03,[ 99],5640,5657,168.7,245.4,144.1,221.7,-18.93,RIGHT,3.54,A2,D7.wav,D7_FAM_She_is_washing_the_dishes.png,15,16468647
p12,Trial: 29,p12.edf,.,8,Fixation: 5658 ms,701,5658,6358,[ 99],45,1444,21614,148.5,228.8,6,44,37.3,37.7,10,Saccade: 5640 ms,LEFT,18,0.91,50.72,70.03,[ 99],5640,5657,168.7,245.4,144.1,221.7,11,Saccade: 6359 ms,DOWN,162,3.26,20.11,528.19,"[ 27, 99]",6359,6520,149.2,223.9,134.7,345.7,-33.2,RIGHT,0.84,A2,D7.wav,D7_FAM_She_is_washing_the_dishes.png,15,16468647
p12,Trial: 29,p12.edf,.,9,Fixation: 7048 ms,299,7048,7346,"[ 27, 99]",7,1482,1070,103.1,317.2,1,2,37.7,37.8,13,Saccade: 7031 ms,UP,17,0.56,32.85,54.8,"[ 27, 99]",7031,7047,110.6,328.9,98.3,311.8,14,Saccade: 7347 ms,.,8,0.39,48.74,39.25,"[ 27, 99]",7347,7354,98.8,313.2,91.5,300.4,62.66,UP,2.64,A2,D7.wav,D7_FAM_She_is_washing_the_dishes.png,15,16468647
p12,Trial: 29,p12.edf,.,10,Fixation: 7355 ms,771,7355,8125,"[ 27, 99]",7,1403,1070,95.5,303.9,2,2,37.75,37.8,14,Saccade: 7347 ms,.,8,0.39,48.74,39.25,"[ 27, 99]",7347,7354,98.8,313.2,91.5,300.4,15,Saccade: 8126 ms,RIGHT,23,2.16,93.73,128.93,"[ 27, 99]",8126,8148,93.3,309.8,153,255,-60.21,.,0.41,A2,D7.wav,D7_FAM_She_is_washing_the_dishes.png,15,16468647
p12,Trial: 29,p12.edf,.,11,Fixation: 8149 ms,163,8149,8311,[ 99],45,1401,21614,161.3,252.6,9,44,37.2,37.6,15,Saccade: 8126 ms,RIGHT,23,2.16,93.73,128.93,"[ 27, 99]",8126,8148,93.3,309.8,153,255,16,Saccade: 8312 ms,UP,19,1.19,62.64,85.79,[ 99],8312,8330,160.1,254.8,151.7,210.8,-142.23,LEFT,2.22,A2,D7.wav,D7_FAM_She_is_washing_the_dishes.png,15,16468647
p12,Trial: 29,p12.edf,.,12,Fixation: 8331 ms,514,8331,8844,[ 99],45,1442,21614,160.2,221.2,10,44,37.25,37.65,16,Saccade: 8312 ms,UP,19,1.19,62.64,85.79,[ 99],8312,8330,160.1,254.8,151.7,210.8,17,Saccade: 8845 ms,DOWN,29,2.72,93.82,171.47,"[ 27, 99]",8845,8873,162.9,226.2,103.6,309.5,-87.97,DOWN,0.84,A2,D7.wav,D7_FAM_She_is_washing_the_dishes.png,15,16468647
p12,Trial: 29,p12.edf,.,13,Fixation: 8874 ms,383,8874,9256,"[ 27, 99]",7,1363,383,112.8,302.0,1,1,37.6,37.7,17,Saccade: 8845 ms,DOWN,29,2.72,93.82,171.47,[ 99],8845,8873,162.9,226.2,103.6,309.5,18,Saccade: 9257 ms,RIGHT,41,7.09,173.04,343.11,[ 99],9257,9297,114.2,306.1,374.5,300,59.44,UP,2.49,A2,D7.wav,D7_FAM_She_is_washing_the_dishes.png,15,16468647
p12,Trial: 29,p12.edf,.,14,Fixation: 9298 ms,168,9298,9465,"[ 11, 99]",6,1303,615,391.0,309.5,1,3,35.75,36.75,18,Saccade: 9257 ms,RIGHT,41,7.09,173.04,343.11,"[ 27, 99]",9257,9297,114.2,306.1,374.5,300,19,Saccade: 9466 ms,RIGHT,21,1.48,70.56,106.03,"[ 10, 11, 99]",9466,9486,398.1,314.2,439.5,280.5,178.48,LEFT,7.59,A2,D7.wav,D7_FAM_She_is_washing_the_dishes.png,15,16468647
p12,Trial: 29,p12.edf,.,15,Fixation: 9487 ms,308,9487,9794,"[ 10, 11, 99]",1,1240,308,437.6,289.0,1,1,35.55,36.7,19,Saccade: 9466 ms,RIGHT,21,1.48,70.56,106.03,"[ 11, 99]",9466,9486,398.1,314.2,439.5,280.5,20,Saccade: 9795 ms,RIGHT,23,1.61,70.2,115.96,"[ 11, 20, 99]",9795,9817,432.3,286.5,489.6,288.1,-156.88,LEFT,1.42,A2,D7.wav,D7_FAM_She_is_washing_the_dishes.png,15,16468647
p12,Trial: 29,p12.edf,.,16,Fixation: 9818 ms,139,9818,9956,"[ 11, 20, 99]",6,1144,615,482.4,287.2,3,3,35.4,36.6,20,Saccade: 9795 ms,RIGHT,23,1.61,70.2,115.96,"[ 10, 11, 99]",9795,9817,432.3,286.5,489.6,288.1,21,Saccade: 9957 ms,RIGHT,62,11.48,185.15,405.19,"[ 25, 26, 99]",9957,10018,487.1,286.9,842.8,492.5,-177.77,LEFT,1.26,A2,D7.wav,D7_FAM_She_is_washing_the_dishes.png,15,16468647
p12,Trial: 29,p12.edf,.,17,Fixation: 10019 ms,178,10019,10196,"[ 25, 26, 99]",2,1035,178,849.9,503.5,1,1,35.65,36.85,21,Saccade: 9957 ms,RIGHT,62,11.48,185.15,405.19,"[ 11, 20, 99]",9957,10018,487.1,286.9,842.8,492.5,22,Saccade: 10197 ms,UP,26,3.11,119.66,196.55,[ 99],10197,10222,850.4,504.3,873,392.2,150.35,LEFT,11.9,A2,D7.wav,D7_FAM_She_is_washing_the_dishes.png,15,16468647
p12,Trial: 29,p12.edf,.,18,Fixation: 10223 ms,497,10223,10719,[ 99],45,1098,21614,875.4,394.9,16,44,35.7,36.7,22,Saccade: 10197 ms,UP,26,3.11,119.66,196.55,"[ 25, 26, 99]",10197,10222,850.4,504.3,873,392.2,23,Saccade: 10720 ms,DOWN,36,5.35,148.63,279.05,"[ 26, 99]",10720,10755,872.8,393.7,874.1,591.4,-103.61,DOWN,3.04,A2,D7.wav,D7_FAM_She_is_washing_the_dishes.png,15,16468647
p12,Trial: 29,p12.edf,.,19,Fixation: 10756 ms,389,10756,11144,[ 99],45,1140,21614,876.9,601.1,17,44,35.9,37.25,23,Saccade: 10720 ms,DOWN,36,5.35,148.63,279.05,[ 99],10720,10755,872.8,393.7,874.1,591.4,24,Saccade: 11145 ms,UP,154,7.53,48.9,1043.09,"[ 6, 99]",11145,11298,880.9,612.6,752.3,368.8,90.43,UP,5.58,A2,D7.wav,D7_FAM_She_is_washing_the_dishes.png,15,16468647
p12,Trial: 29,p12.edf,.,20,Fixation: 11544 ms,221,11544,11764,"[ 4, 99]",7,1149,1444,762.3,279.1,1,5,35.3,36.6,25,Saccade: 11531 ms,UP,13,0.86,65.8,65.19,"[ 4, 99]",11531,11543,762.3,309.7,754,279.6,26,Saccade: 11765 ms,.,7,0.28,39.55,32.58,"[ 4, 99]",11765,11771,760.5,276.7,757.1,267.2,-69.74,DOWN,9.3,A2,D7.wav,D7_FAM_She_is_washing_the_dishes.png,15,16468647
p12,Trial: 29,p12.edf,.,21,Fixation: 11772 ms,678,11772,12449,"[ 4, 99]",7,1169,1444,758.4,264.1,2,5,35.3,36.6,26,Saccade: 11765 ms,.,7,0.28,39.55,32.58,"[ 4, 99]",11765,11771,760.5,276.7,757.1,267.2,27,Saccade: 12450 ms,DOWN,23,2.04,88.85,129.54,"[ 4, 99]",12450,12472,758.3,255.7,740.2,328,-74.91,.,0.42,A2,D7.wav,D7_FAM_She_is_washing_the_dishes.png,15,16468647
p12,Trial: 29,p12.edf,.,22,Fixation: 12473 ms,161,12473,12633,"[ 4, 99]",7,1205,1444,734.9,333.3,3,5,35.25,36.5,27,Saccade: 12450 ms,DOWN,23,2.04,88.85,129.54,"[ 4, 99]",12450,12472,758.3,255.7,740.2,328,28,Saccade: 12634 ms,.,9,0.43,47.92,41.82,"[ 4, 99]",12634,12642,731.6,335.7,732.7,351.4,70.61,UP,2.01,A2,D7.wav,D7_FAM_She_is_washing_the_dishes.png,15,16468647
p12,Trial: 29,p12.edf,.,23,Fixation: 12643 ms,220,12643,12862,"[ 4, 99]",7,1248,1444,729.5,345.7,4,5,35.2,36.5,28,Saccade: 12634 ms,.,9,0.43,47.92,41.82,"[ 4, 99]",12634,12642,731.6,335.7,732.7,351.4,29,Saccade: 12863 ms,UP,11,0.58,52.66,50.44,"[ 4, 99]",12863,12873,728.7,345.7,733.7,325.2,65.71,.,0.37,A2,D7.wav,D7_FAM_She_is_washing_the_dishes.png,15,16468647
p12,Trial: 29,p12.edf,.,24,Fixation: 12874 ms,164,12874,13037,"[ 4, 99]",7,1255,1444,735.2,327.4,5,5,35.3,36.5,29,Saccade: 12863 ms,UP,11,0.58,52.66,50.44,"[ 4, 99]",12863,12873,728.7,345.7,733.7,325.2,30,Saccade: 13038 ms,LEFT,52,7.04,135.37,424.57,"[ 11, 20, 99]",13038,13089,736.2,326.1,490.8,283.5,-107.88,DOWN,0.53,A2,D7.wav,D7_FAM_She_is_washing_the_dishes.png,15,16468647
p12,Trial: 29,p12.edf,13117,25,Fixation: 13090 ms,301,13090,13390,"[ 11, 20, 99]",6,1205,421,471.5,281.7,1,2,35.4,36.6,30,Saccade: 13038 ms,LEFT,52,7.04,135.37,424.57,"[ 4, 99]",13038,13089,736.2,326.1,490.8,283.5,31,Saccade: 13391 ms,LEFT,19,1.33,69.89,86.78,"[ 10, 11, 99]",13391,13409,466.3,285.7,432.1,252.2,-9.52,RIGHT,7.56,A2,D7.wav,D7_FAM_She_is_washing_the_dishes.png,15,16468647
p12,Trial: 29,p12.edf,.,26,Fixation: 13410 ms,120,13410,13529,"[ 11, 99]",6,1165,421,426.6,246.4,2,2,35.6,36.7,31,Saccade: 13391 ms,LEFT,19,1.33,69.89,86.78,"[ 11, 20, 99]",13391,13409,466.3,285.7,432.1,252.2,32,Saccade: 13530 ms,UP,23,1.48,64.16,96.93,"[ 24, 99]",13530,13552,429,253.2,428.1,198.9,-37.29,RIGHT,1.59,A2,D7.wav,D7_FAM_She_is_washing_the_dishes.png,15,16468647
p12,Trial: 29,p12.edf,.,27,Fixation: 13553 ms,171,13553,13723,[ 99],45,1158,21614,438.7,210.9,25,44,35.6,36.85,32,Saccade: 13530 ms,UP,23,1.48,64.16,96.93,"[ 10, 11, 99]",13530,13552,429,253.2,428.1,198.9,33,Saccade: 13724 ms,LEFT,19,0.56,29.46,59.82,"[ 24, 99]",13724,13742,437.5,212.1,421.2,200.2,-109.4,DOWN,1.02,A2,D7.wav,D7_FAM_She_is_washing_the_dishes.png,15,16468647
p12,Trial: 29,p12.edf,.,28,Fixation: 13743 ms,180,13743,13922,[ 99],45,1126,21614,424.2,203.3,26,44,35.7,36.9,33,Saccade: 13724 ms,LEFT,19,0.56,29.46,59.82,[ 99],13724,13742,437.5,212.1,421.2,200.2,34,Saccade: 13923 ms,LEFT,108,7.13,66,731.57,[ 99],13923,14030,416.5,202.4,159.4,240.6,-26.87,.,0.46,A2,D7.wav,D7_FAM_She_is_washing_the_dishes.png,15,16468647
p12,Trial: 29,p12.edf,.,29,Fixation: 14031 ms,282,14031,14312,[ 99],45,1090,21614,165.4,251.6,27,44,37.15,37.55,34,Saccade: 13923 ms,LEFT,108,7.13,66,731.57,[ 99],13923,14030,416.5,202.4,159.4,240.6,35,Saccade: 14313 ms,LEFT,26,2.79,107.5,223.01,"[ 27, 99]",14313,14338,169.8,250,87.1,314.5,10.35,RIGHT,7.22,A2,D7.wav,D7_FAM_She_is_washing_the_dishes.png,15,16468647
p12,Trial: 29,p12.edf,.,30,Fixation: 14339 ms,427,14339,14765,"[ 27, 99]",7,1161,663,97.0,313.8,1,2,37.75,37.8,35,Saccade: 14313 ms,LEFT,26,2.79,107.5,223.01,"[ 3, 99]",14313,14338,169.8,250,87.1,314.5,36,Saccade: 14766 ms,.,9,0.35,38.55,35.99,"[ 27, 99]",14766,14774,94.3,316.4,84,308.3,42.11,RIGHT,2.46,A2,D7.wav,D7_FAM_She_is_washing_the_dishes.png,15,16468647
p12,Trial: 29,p12.edf,14842,31,Fixation: 14775 ms,236,14775,15010,"[ 27, 99]",7,1150,663,90.2,309.8,2,2,37.8,37.8,36,Saccade: 14766 ms,.,9,0.35,38.55,35.99,"[ 27, 99]",14766,14774,94.3,316.4,84,308.3,37,Saccade: 15011 ms,DOWN,27,3.56,132.02,249.76,"[ 3, 99]",15011,15037,90.5,307.9,163.6,420.2,-30.45,.,0.21,A2,D7.wav,D7_FAM_She_is_washing_the_dishes.png,15,16468647
p12,Trial: 29,p12.edf,.,32,Fixation: 15038 ms,253,15038,15290,"[ 3, 99]",5,1132,253,161.9,417.4,1,1,37.2,37.5,37,Saccade: 15011 ms,DOWN,27,3.56,132.02,249.76,"[ 27, 99]",15011,15037,90.5,307.9,163.6,420.2,38,Saccade: 15291 ms,RIGHT,16,0.94,58.5,67.94,[ 99],15291,15306,162.8,419.4,190,441.1,123.78,UP,3.44,A2,D7.wav,D7_FAM_She_is_washing_the_dishes.png,15,16468647
p12,Trial: 29,p12.edf,.,33,Fixation: 15307 ms,162,15307,15468,[ 99],45,1176,21614,184.1,438.4,31,44,36.95,37.4,38,Saccade: 15291 ms,RIGHT,16,0.94,58.5,67.94,"[ 3, 99]",15291,15306,162.8,419.4,190,441.1,39,Saccade: 15469 ms,LEFT,28,2.97,106.22,176.75,"[ 27, 99]",15469,15496,186.7,440.3,80.8,405.6,136.88,LEFT,0.82,A2,D7.wav,D7_FAM_She_is_washing_the_dishes.png,15,16468647
p12,Trial: 29,p12.edf,.,34,Fixation: 15497 ms,238,15497,15734,"[ 27, 99]",7,1165,1234,82.5,406.6,1,2,37.9,37.9,39,Saccade: 15469 ms,LEFT,28,2.97,106.22,176.75,[ 99],15469,15496,186.7,440.3,80.8,405.6,40,Saccade: 15735 ms,LEFT,12,0.71,58.77,57.93,"[ 27, 99]",15735,15746,82.8,408.3,61.7,391.8,-17.28,RIGHT,2.84,A2,D7.wav,D7_FAM_She_is_washing_the_dishes.png,15,16468647
p12,Trial: 29,p12.edf,16120,35,Fixation: 15747 ms,996,15747,16742,"[ 27, 99]",7,1066,1234,69.5,384.2,2,2,38.0,37.95,40,Saccade: 15735 ms,LEFT,12,0.71,58.77,57.93,"[ 27, 99]",15735,15746,82.8,408.3,61.7,391.8,41,Saccade: 16743 ms,RIGHT,28,3.2,114.18,207.07,[ 99],16743,16770,80.7,384.1,191.4,429.6,-59.89,DOWN,0.68,A2,D7.wav,D7_FAM_She_is_washing_the_dishes.png,15,16468647
p12,Trial: 29,p12.edf,17672,36,Fixation: 16771 ms,1331,16771,18101,"[ 3, 99]",5,1064,1331,184.7,434.9,1,1,36.95,37.4,41,Saccade: 16743 ms,RIGHT,28,3.2,114.18,207.07,"[ 27, 99]",16743,16770,80.7,384.1,191.4,429.6,42,Saccade: 18102 ms,DOWN,28,3.51,125.21,222.88,"[ 5, 99]",18102,18129,186.1,437.9,258.1,546.7,156.36,LEFT,3.36,A2,D7.wav,D7_FAM_She_is_washing_the_dishes.png,15,16468647
p12,Trial: 29,p12.edf,18320,37,Fixation: 18130 ms,325,18130,18454,"[ 5, 99]",1,1157,325,256.0,544.3,1,1,36.6,37.4,42,Saccade: 18102 ms,DOWN,28,3.51,125.21,222.88,[ 99],18102,18129,186.1,437.9,258.1,546.7,43,Saccade: 18455 ms,UP,29,2.97,102.3,188.83,[ 99],18455,18483,259.2,546.2,203.2,451,123.54,UP,3.51,A2,D7.wav,D7_FAM_She_is_washing_the_dishes.png,15,16468647
p12,Trial: 29,p12.edf,19840,38,Fixation: 18484 ms,1491,18484,19974,[ 99],45,1129,21614,195.1,451.6,36,44,36.9,37.4,43,Saccade: 18455 ms,UP,29,2.97,102.3,188.83,"[ 5, 99]",18455,18483,259.2,546.2,203.2,451,44,Saccade: 19975 ms,UP,28,2.32,82.81,127.93,"[ 3, 99]",19975,20002,193.3,442.3,173.2,358,-56.23,DOWN,2.98,A2,D7.wav,D7_FAM_She_is_washing_the_dishes.png,15,16468647
p12,Trial: 29,p12.edf,.,39,Fixation: 20003 ms,198,20003,20200,"[ 3, 99]",5,1074,198,177.0,372.4,1,1,37.05,37.4,44,Saccade: 19975 ms,UP,28,2.32,82.81,127.93,[ 99],19975,20002,193.3,442.3,173.2,358,45,Saccade: 20201 ms,DOWN,20,1.36,67.97,96.7,[ 99],20201,20220,177.7,370.7,191.1,419.7,-76.98,DOWN,2.17,A2,D7.wav,D7_FAM_She_is_washing_the_dishes.png,15,16468647
p12,Trial: 29,p12.edf,.,40,Fixation: 20221 ms,903,20221,21123,[ 99],45,1014,21614,184.0,419.4,38,44,36.95,37.45,45,Saccade: 20201 ms,DOWN,20,1.36,67.97,96.7,"[ 3, 99]",20201,20220,177.7,370.7,191.1,419.7,46,Saccade: 21124 ms,RIGHT,181,12.66,69.93,760.79,"[ 9, 99]",21124,21304,178.3,430.3,536,730.2,98.57,UP,1.27,A2,D7.wav,D7_FAM_She_is_washing_the_dishes.png,15,16468647
p12,Trial: 29,p12.edf,.,41,Fixation: 21594 ms,2571,21594,24164,"[ 9, 99]",3,944,3003,513.7,751.9,1,3,35.9,37.85,47,Saccade: 21570 ms,LEFT,24,1.21,50.54,102.23,"[ 9, 99]",21570,21593,548.4,739.5,505.5,732,48,Saccade: 24165 ms,.,16,0.5,31.05,43.49,"[ 9, 99]",24165,24180,514.3,752.2,496.7,755.4,135.71,LEFT,12.65,A2,D7.wav,D7_FAM_She_is_washing_the_dishes.png,15,16468647
p12,Trial: 29,p12.edf,.,42,Fixation: 24181 ms,227,24181,24407,"[ 9, 99]",3,1136,3003,501.4,764.5,2,3,36.0,37.95,48,Saccade: 24165 ms,.,16,0.5,31.05,43.49,"[ 9, 99]",24165,24180,514.3,752.2,496.7,755.4,49,Saccade: 24408 ms,RIGHT,24,1.42,59.09,90.02,"[ 9, 99]",24408,24431,502.2,767.3,540.3,731.7,44.18,.,0.48,A2,D7.wav,D7_FAM_She_is_washing_the_dishes.png,15,16468647
p12,Trial: 29,p12.edf,.,43,Fixation: 24432 ms,205,24432,24636,"[ 9, 99]",3,1161,3003,535.4,733.7,3,3,35.8,37.7,49,Saccade: 24408 ms,RIGHT,24,1.42,59.09,90.02,"[ 9, 99]",24408,24431,502.2,767.3,540.3,731.7,50,Saccade: 24637 ms,RIGHT,62,10.9,175.85,412.71,"[ 25, 26, 99]",24637,24698,532.3,733.5,825.3,466.5,-139.31,LEFT,1.25,A2,D7.wav,D7_FAM_She_is_washing_the_dishes.png,15,16468647
p12,Trial: 29,p12.edf,.,44,Fixation: 24699 ms,180,24699,24878,"[ 25, 26, 99]",2,1048,180,838.9,457.2,1,1,35.55,36.7,50,Saccade: 24637 ms,RIGHT,62,10.9,175.85,412.71,"[ 9, 99]",24637,24698,532.3,733.5,825.3,466.5,51,Saccade: 24879 ms,UP,22,1.69,76.81,115.31,[ 99],24879,24900,841.9,456.4,872.7,403.1,-138.86,LEFT,11.3,A2,D7.wav,D7_FAM_She_is_washing_the_dishes.png,15,16468647
p12,Trial: 29,p12.edf,.,45,Fixation: 24901 ms,1862,24901,26762,[ 99],45,1011,21614,867.2,399.8,43,44,35.65,36.7,51,Saccade: 24879 ms,UP,22,1.69,76.81,115.31,"[ 25, 26, 99]",24879,24900,841.9,456.4,872.7,403.1,52,Saccade: 26763 ms,.,9,0.44,48.8,43.98,[ 99],26763,26771,870.5,404,884.7,397.2,-116.94,DOWN,1.75,A2,D7.wav,D7_FAM_She_is_washing_the_dishes.png,15,16468647
p12,Trial: 29,p12.edf,28148,46,Fixation: 26772 ms,1395,26772,28166,[ 99],45,1120,21614,882.6,397.1,44,44,35.7,36.8,52,Saccade: 26763 ms,.,9,0.44,48.8,43.98,[ 99],26763,26771,870.5,404,884.7,397.2,.,.,.,.,.,.,.,.,.,.,.,.,.,.,-170.34,.,0.44,A2,D7.wav,D7_FAM_She_is_washing_the_dishes.png,15,16468647
