RECORDING_SESSION_LABEL,TRIAL_LABEL,DATA_FILE,CURRENT_FIX_MSG_TIME_1,CURRENT_FIX_INDEX,CURRENT_FIX_LABEL,CURRENT_FIX_DURATION,CURRENT_FIX_START,CURRENT_FIX_END,CURRENT_FIX_INTEREST_AREAS,CURRENT_FIX_INTEREST_AREA_FIX_COUNT,CURRENT_FIX_PUPIL,CURRENT_FIX_RUN_DWELL_TIME,CURRENT_FIX_X,CURRENT_FIX_Y,CURRENT_FIX_RUN_INDEX,CURRENT_FIX_RUN_SIZE,CURRENT_FIX_X_RESOLUTION,CURRENT_FIX_Y_RESOLUTION,PREVIOUS_SAC_INDEX,PREVIOUS_SAC_LABEL,PREVIOUS_SAC_DIRECTION,PREVIOUS_SAC_DURATION,PREVIOUS_SAC_AMPLITUDE,PREVIOUS_SAC_AVG_VELOCITY,PREVIOUS_SAC_PEAK_VELOCITY,PREVIOUS_SAC_START_INTEREST_AREAS,PREVIOUS_SAC_START_TIME,PREVIOUS_SAC_END_TIME,PREVIOUS_SAC_START_X,PREVIOUS_SAC_START_Y,PREVIOUS_SAC_END_X,PREVIOUS_SAC_END_Y,NEXT_SAC_INDEX,NEXT_SAC_LABEL,NEXT_SAC_DIRECTION,NEXT_SAC_DURATION,NEXT_SAC_AMPLITUDE,NEXT_SAC_AVG_VELOCITY,NEXT_SAC_PEAK_VELOCITY,NEXT_SAC_END_INTEREST_AREAS,NEXT_SAC_START_TIME,NEXT_SAC_END_TIME,NEXT_SAC_START_X,NEXT_SAC_START_Y,NEXT_SAC_END_X,NEXT_SAC_END_Y,PREVIOUS_FIX_ANGLE,PREVIOUS_FIX_DIRECTION,PREVIOUS_FIX_DISTANCE,ItemNO,audiofilename,imagefilename,TRIAL_INDEX,TRIAL_START_TIME
p11,Trial: 36,p11.edf,77,1,Fixation: 58 ms,206,58,263,"[ 18, 99]",11,853,206,891.0,424.2,1,1,35.75,36.8,1,Saccade: 31 ms,RIGHT,27,2.83,104.84,177.98,"[ 6, 99]",31,57,800.2,430.9,899.9,415.8,2,Saccade: 264 ms,DOWN,71,14.5,204.2,640.47,[ ],264,334,890.3,427.3,627.9,902.5,.,.,.,A16,D7.wav,D7_FAM_She_is_washing_the_dishes.png,17,14400011
p11,Trial: 36,p11.edf,.,2,Fixation: 335 ms,150,335,484,[ ],.,857,.,633.2,903.9,.,.,36.4,39.0,2,Saccade: 264 ms,DOWN,71,14.5,204.2,640.47,"[ 18, 99]",264,334,890.3,427.3,627.9,902.5,3,Saccade: 485 ms,DOWN,12,0.56,46.6,46.4,[ ],485,496,630.3,907.5,619.7,926.2,60.55,UP,14.54,A16,D7.wav,D7_FAM_She_is_washing_the_dishes.png,17,14400011
p11,Trial: 36,p11.edf,3176,3,Fixation: 497 ms,2838,497,3334,[ ],.,765,.,626.5,918.9,.,.,36.45,39.15,3,Saccade: 485 ms,DOWN,12,0.56,46.6,46.4,[ ],485,496,630.3,907.5,619.7,926.2,4,Saccade: 3335 ms,UP,33,4.62,140,290.57,"[ 3, 99]",3335,3367,623.9,907.9,666.6,736.4,64.4,.,0.43,A16,D7.wav,D7_FAM_She_is_washing_the_dishes.png,17,14400011
p11,Trial: 36,p11.edf,.,4,Fixation: 3368 ms,201,3368,3568,"[ 3, 99]",6,882,201,673.3,763.2,1,1,35.85,37.8,4,Saccade: 3335 ms,UP,33,4.62,140,290.57,[ ],3335,3367,623.9,907.9,666.6,736.4,5,Saccade: 3569 ms,UP,29,2.77,95.54,186.69,[ 99],3569,3597,673.6,766.8,684.9,663.3,-107.74,DOWN,4.25,A16,D7.wav,D7_FAM_She_is_washing_the_dishes.png,17,14400011
p11,Trial: 36,p11.edf,.,5,Fixation: 3598 ms,183,3598,3780,[ 99],75,946,19261,690.1,683.0,2,74,35.6,37.35,5,Saccade: 3569 ms,UP,29,2.77,95.54,186.69,"[ 3, 99]",3569,3597,673.6,766.8,684.9,663.3,6,Saccade: 3781 ms,UP,75,11.51,153.41,401.97,"[ 6, 99]",3781,3855,693.3,681.9,735.7,258.5,-102.43,DOWN,2.19,A16,D7.wav,D7_FAM_She_is_washing_the_dishes.png,17,14400011
p11,Trial: 36,p11.edf,.,6,Fixation: 3856 ms,223,3856,4078,"[ 6, 99]",8,998,405,747.9,241.7,1,2,35.3,36.6,6,Saccade: 3781 ms,UP,75,11.51,153.41,401.97,[ 99],3781,3855,693.3,681.9,735.7,258.5,7,Saccade: 4079 ms,LEFT,22,2.05,93.23,131.97,"[ 6, 15, 99]",4079,4100,751.2,242.6,696.9,292.1,-97.78,DOWN,12.05,A16,D7.wav,D7_FAM_She_is_washing_the_dishes.png,17,14400011
p11,Trial: 36,p11.edf,.,7,Fixation: 4101 ms,182,4101,4282,"[ 6, 15, 99]",8,950,405,706.6,287.1,2,2,35.2,36.5,7,Saccade: 4079 ms,LEFT,22,2.05,93.23,131.97,"[ 6, 99]",4079,4100,751.2,242.6,696.9,292.1,8,Saccade: 4283 ms,LEFT,21,1.57,74.84,86.31,"[ 10, 99]",4283,4303,710.4,290.4,655.4,284.2,46.67,UP,1.71,A16,D7.wav,D7_FAM_She_is_washing_the_dishes.png,17,14400011
p11,Trial: 36,p11.edf,.,8,Fixation: 4304 ms,175,4304,4478,"[ 10, 99]",20,939,175,659.4,283.1,1,1,35.2,36.5,8,Saccade: 4283 ms,LEFT,21,1.57,74.84,86.31,"[ 6, 15, 99]",4283,4303,710.4,290.4,655.4,284.2,9,Saccade: 4479 ms,RIGHT,18,0.87,48.22,69.25,"[ 6, 15, 99]",4479,4496,659.8,286.9,689.7,280.4,-4.67,RIGHT,1.35,A16,D7.wav,D7_FAM_She_is_washing_the_dishes.png,17,14400011
p11,Trial: 36,p11.edf,.,9,Fixation: 4497 ms,369,4497,4865,"[ 6, 99]",8,894,369,679.3,276.7,1,1,35.2,36.5,9,Saccade: 4479 ms,RIGHT,18,0.87,48.22,69.25,"[ 10, 99]",4479,4496,659.8,286.9,689.7,280.4,10,Saccade: 4866 ms,LEFT,64,10.62,166.01,399.26,"[ 5, 99]",4866,4929,675.6,279.6,297.1,304.8,-162.77,LEFT,0.59,A16,D7.wav,D7_FAM_She_is_washing_the_dishes.png,17,14400011
p11,Trial: 36,p11.edf,.,10,Fixation: 4930 ms,144,4930,5073,"[ 5, 99]",8,872,144,275.5,301.1,1,1,36.25,37.05,10,Saccade: 4866 ms,LEFT,64,10.62,166.01,399.26,"[ 6, 99]",4866,4929,675.6,279.6,297.1,304.8,11,Saccade: 5074 ms,UP,22,0.84,38.23,70.05,[ 99],5074,5095,274.8,304.1,271.3,273.1,3.36,RIGHT,11.32,A16,D7.wav,D7_FAM_She_is_washing_the_dishes.png,17,14400011
p11,Trial: 36,p11.edf,.,11,Fixation: 5096 ms,251,5096,5346,[ 99],75,911,19261,279.9,283.8,8,74,36.35,37.1,11,Saccade: 5074 ms,UP,22,0.84,38.23,70.05,"[ 5, 99]",5074,5095,274.8,304.1,271.3,273.1,12,Saccade: 5347 ms,LEFT,46,5.67,123.31,262.26,"[ 9, 14, 99]",5347,5392,286.8,289.1,113.6,168.8,-104.56,.,0.48,A16,D7.wav,D7_FAM_She_is_washing_the_dishes.png,17,14400011
p11,Trial: 36,p11.edf,.,12,Fixation: 5393 ms,220,5393,5612,"[ 9, 14, 99]",11,946,693,121.1,181.6,1,2,37.65,37.95,12,Saccade: 5347 ms,LEFT,46,5.67,123.31,262.26,"[ 5, 99]",5347,5392,286.8,289.1,113.6,168.8,13,Saccade: 5613 ms,LEFT,23,1.93,83.7,126.9,"[ 9, 99]",5613,5635,123.9,178.8,59.2,144.9,-32.4,RIGHT,5.08,A16,D7.wav,D7_FAM_She_is_washing_the_dishes.png,17,14400011
p11,Trial: 36,p11.edf,.,13,Fixation: 5636 ms,473,5636,6108,"[ 9, 99]",11,946,693,77.0,152.9,2,2,38.1,38.2,13,Saccade: 5613 ms,LEFT,23,1.93,83.7,126.9,"[ 2, 9, 14, 99]",5613,5635,123.9,178.8,59.2,144.9,14,Saccade: 6109 ms,RIGHT,65,9.73,149.73,390.12,"[ 5, 99]",6109,6173,82.1,157.4,364.4,382.7,-32.92,RIGHT,1.39,A16,D7.wav,D7_FAM_She_is_washing_the_dishes.png,17,14400011
p11,Trial: 36,p11.edf,.,14,Fixation: 6174 ms,225,6174,6398,"[ 5, 99]",8,1043,225,371.9,395.9,1,1,35.8,36.8,14,Saccade: 6109 ms,RIGHT,65,9.73,149.73,390.12,"[ 9, 99]",6109,6173,82.1,157.4,364.4,382.7,15,Saccade: 6399 ms,RIGHT,57,7.46,130.89,394.61,"[ 10, 99]",6399,6455,373.2,395.2,617.1,288.6,140.93,LEFT,10.28,A16,D7.wav,D7_FAM_She_is_washing_the_dishes.png,17,14400011
p11,Trial: 36,p11.edf,.,15,Fixation: 6456 ms,251,6456,6706,"[ 10, 99]",20,1055,531,625.6,281.5,1,2,35.2,36.5,15,Saccade: 6399 ms,RIGHT,57,7.46,130.89,394.61,[ 99],6399,6455,373.2,395.2,617.1,288.6,16,Saccade: 6707 ms,UP,20,1.48,73.97,116.79,"[ 10, 99]",6707,6726,624.3,282,657.1,240,-156.41,LEFT,7.8,A16,D7.wav,D7_FAM_She_is_washing_the_dishes.png,17,14400011
p11,Trial: 36,p11.edf,.,16,Fixation: 6727 ms,280,6727,7006,"[ 10, 99]",20,1000,531,656.3,253.6,2,2,35.2,36.6,16,Saccade: 6707 ms,UP,20,1.48,73.97,116.79,"[ 10, 99]",6707,6726,624.3,282,657.1,240,17,Saccade: 7007 ms,DOWN,33,1.04,31.57,137.01,"[ 6, 15, 99]",7007,7039,663.9,249.7,680.4,283.7,-138.81,LEFT,1.16,A16,D7.wav,D7_FAM_She_is_washing_the_dishes.png,17,14400011
p11,Trial: 36,p11.edf,.,17,Fixation: 7040 ms,144,7040,7183,"[ 6, 99]",8,969,144,680.3,290.4,1,1,35.2,36.5,17,Saccade: 7007 ms,DOWN,33,1.04,31.57,137.01,"[ 10, 99]",7007,7039,663.9,249.7,680.4,283.7,18,Saccade: 7184 ms,DOWN,197,11.3,57.34,738.3,[ 99],7184,7380,683.3,289.1,883,651.9,124.11,UP,1.22,A16,D7.wav,D7_FAM_She_is_washing_the_dishes.png,17,14400011
p11,Trial: 36,p11.edf,.,18,Fixation: 7547 ms,260,7547,7806,"[ 19, 99]",1,1038,260,1010.1,657.2,1,1,36.7,37.85,19,Saccade: 7520 ms,RIGHT,27,3.61,133.56,245.85,[ 99],7520,7546,883.9,661.6,1014.6,649,20,Saccade: 7807 ms,UP,58,5.19,89.53,316.66,"[ 21, 22, 99]",7807,7864,1013.2,657.7,1108.9,487.8,132.92,UP,13.47,A16,D7.wav,D7_FAM_She_is_washing_the_dishes.png,17,14400011
p11,Trial: 36,p11.edf,.,19,Fixation: 7865 ms,484,7865,8348,"[ 21, 22, 99]",1,1104,484,1110.4,466.9,1,1,37.15,37.55,20,Saccade: 7807 ms,UP,58,5.19,89.53,316.66,"[ 19, 99]",7807,7864,1013.2,657.7,1108.9,487.8,21,Saccade: 8349 ms,LEFT,65,8.68,133.58,388.3,"[ 6, 99]",8349,8413,1107.4,463.1,793.9,496.3,-118.29,DOWN,5.73,A16,D7.wav,D7_FAM_She_is_washing_the_dishes.png,17,14400011
p11,Trial: 36,p11.edf,.,20,Fixation: 8414 ms,336,8414,8749,"[ 6, 99]",8,1224,336,773.6,504.4,1,1,35.45,36.7,21,Saccade: 8349 ms,LEFT,65,8.68,133.58,388.3,"[ 21, 22, 99]",8349,8413,1107.4,463.1,793.9,496.3,22,Saccade: 8750 ms,LEFT,56,4.91,87.71,315.27,[ 99],8750,8805,773,504.1,632.2,610.3,6.21,RIGHT,9.33,A16,D7.wav,D7_FAM_She_is_washing_the_dishes.png,17,14400011
p11,Trial: 36,p11.edf,.,21,Fixation: 8806 ms,141,8806,8946,[ 99],75,1317,19261,626.6,617.5,18,74,35.45,37.05,22,Saccade: 8750 ms,LEFT,56,4.91,87.71,315.27,"[ 6, 99]",8750,8805,773,504.1,632.2,610.3,23,Saccade: 8947 ms,UP,71,8.72,122.87,519.11,[ 99],8947,9017,625.7,625.2,444.1,364.8,36.49,RIGHT,5.16,A16,D7.wav,D7_FAM_She_is_washing_the_dishes.png,17,14400011
p11,Trial: 36,p11.edf,.,22,Fixation: 9277 ms,300,9277,9576,"[ 5, 99]",8,1363,300,298.5,339.6,1,1,36.25,37.0,24,Saccade: 9237 ms,LEFT,40,4.51,112.72,244.34,[ 99],9237,9276,441.6,361.8,281.8,335.4,25,Saccade: 9577 ms,UP,52,8.61,165.48,345.24,"[ 9, 14, 99]",9577,9628,293.4,343.2,84.8,97.7,-39.36,RIGHT,11.84,A16,D7.wav,D7_FAM_She_is_washing_the_dishes.png,17,14400011
p11,Trial: 36,p11.edf,.,23,Fixation: 9629 ms,196,9629,9824,"[ 9, 14, 99]",11,1276,938,97.4,118.1,1,3,38.0,38.25,25,Saccade: 9577 ms,UP,52,8.61,165.48,345.24,"[ 5, 99]",9577,9628,293.4,343.2,84.8,97.7,26,Saccade: 9825 ms,LEFT,23,1.35,58.54,98.04,"[ 9, 14, 99]",9825,9847,96.7,119.7,49.6,99.1,-47.38,DOWN,8,A16,D7.wav,D7_FAM_She_is_washing_the_dishes.png,17,14400011
p11,Trial: 36,p11.edf,.,24,Fixation: 9848 ms,384,9848,10231,"[ 9, 14, 99]",11,1233,938,60.2,122.1,2,3,38.3,38.4,26,Saccade: 9825 ms,LEFT,23,1.35,58.54,98.04,"[ 9, 14, 99]",9825,9847,96.7,119.7,49.6,99.1,27,Saccade: 10232 ms,LEFT,11,0.6,54.43,50.54,"[ 9, 99]",10232,10242,63.5,132.3,40.6,133.5,6.11,RIGHT,0.98,A16,D7.wav,D7_FAM_She_is_washing_the_dishes.png,17,14400011
p11,Trial: 36,p11.edf,.,25,Fixation: 10243 ms,358,10243,10600,"[ 9, 99]",11,1266,938,49.3,131.3,3,3,38.45,38.4,27,Saccade: 10232 ms,LEFT,11,0.6,54.43,50.54,"[ 9, 14, 99]",10232,10242,63.5,132.3,40.6,133.5,28,Saccade: 10601 ms,RIGHT,223,20.23,90.7,179.15,[ 99],10601,10823,47.9,119.7,589.2,646.8,40.15,.,0.37,A16,D7.wav,D7_FAM_She_is_washing_the_dishes.png,17,14400011
p11,Trial: 36,p11.edf,.,26,Fixation: 10944 ms,260,10944,11203,"[ 3, 99]",6,1401,260,666.0,745.4,1,1,35.8,37.75,29,Saccade: 10907 ms,RIGHT,37,2.75,74.25,273.21,[ 99],10907,10943,594.8,672.3,665.4,743.9,30,Saccade: 11204 ms,UP,65,8.73,134.33,673.42,"[ 18, 99]",11204,11268,666.3,747.7,872.2,502.6,135.85,LEFT,23.15,A16,D7.wav,D7_FAM_She_is_washing_the_dishes.png,17,14400011
p11,Trial: 36,p11.edf,.,27,Fixation: 11269 ms,644,11269,11912,"[ 18, 20, 99]",11,1378,644,877.9,478.5,1,1,35.7,36.9,30,Saccade: 11204 ms,UP,65,8.73,134.33,673.42,"[ 3, 99]",11204,11268,666.3,747.7,872.2,502.6,31,Saccade: 11913 ms,LEFT,73,14.34,196.48,490.71,"[ 5, 99]",11913,11985,878.7,481.7,366.2,514.5,-129.66,DOWN,9.29,A16,D7.wav,D7_FAM_She_is_washing_the_dishes.png,17,14400011
p11,Trial: 36,p11.edf,.,28,Fixation: 11986 ms,332,11986,12317,"[ 5, 99]",8,1435,332,346.2,524.0,1,1,36.0,37.05,31,Saccade: 11913 ms,LEFT,73,14.34,196.48,490.71,"[ 18, 20, 99]",11913,11985,878.7,481.7,366.2,514.5,32,Saccade: 12318 ms,UP,64,6.97,108.86,372.85,[ 99],12318,12381,337.7,526,215.5,298.9,4.74,RIGHT,14.88,A16,D7.wav,D7_FAM_She_is_washing_the_dishes.png,17,14400011
p11,Trial: 36,p11.edf,.,29,Fixation: 12602 ms,230,12602,12831,"[ 9, 14, 99]",11,1257,385,83.5,150.1,1,2,37.95,38.15,33,Saccade: 12552 ms,UP,50,4.74,94.88,372.45,[ 99],12552,12601,206.8,298.2,90.7,163.1,34,Saccade: 12832 ms,LEFT,13,0.7,53.55,59.67,"[ 9, 99]",12832,12844,77.9,149.6,51.5,146.7,-54.46,DOWN,12.22,A16,D7.wav,D7_FAM_She_is_washing_the_dishes.png,17,14400011
p11,Trial: 36,p11.edf,.,30,Fixation: 12845 ms,155,12845,12999,"[ 9, 99]",11,1158,385,54.6,145.7,2,2,38.3,38.3,34,Saccade: 12832 ms,LEFT,13,0.7,53.55,59.67,"[ 9, 99]",12832,12844,77.9,149.6,51.5,146.7,35,Saccade: 13000 ms,RIGHT,58,8.6,148.23,519.29,"[ 5, 99]",13000,13057,53.5,149.6,306.9,347.1,-8.63,RIGHT,0.77,A16,D7.wav,D7_FAM_She_is_washing_the_dishes.png,17,14400011
p11,Trial: 36,p11.edf,13153,31,Fixation: 13058 ms,345,13058,13402,"[ 5, 99]",8,1122,345,319.3,369.5,1,1,36.05,36.95,35,Saccade: 13000 ms,RIGHT,58,8.6,148.23,519.29,"[ 9, 99]",13000,13057,53.5,149.6,306.9,347.1,36,Saccade: 13403 ms,RIGHT,198,12.83,64.79,284.23,[ 99],13403,13600,322.6,369.2,708.6,625.5,140.13,LEFT,9.28,A16,D7.wav,D7_FAM_She_is_washing_the_dishes.png,17,14400011
p11,Trial: 36,p11.edf,.,32,Fixation: 13764 ms,395,13764,14158,"[ 3, 99]",6,1323,395,649.1,745.7,1,1,35.8,37.75,37,Saccade: 13725 ms,DOWN,39,2.78,71.27,316.27,[ 99],13725,13763,697.6,638.8,661.4,735.7,38,Saccade: 14159 ms,UP,70,10.26,146.63,376.37,"[ 18, 20, 99]",14159,14228,650,753.2,895,467.5,132.35,UP,13.63,A16,D7.wav,D7_FAM_She_is_washing_the_dishes.png,17,14400011
p11,Trial: 36,p11.edf,.,33,Fixation: 14229 ms,150,14229,14378,"[ 18, 99]",11,1386,436,900.2,444.0,1,2,35.8,36.85,38,Saccade: 14159 ms,UP,70,10.26,146.63,376.37,"[ 3, 99]",14159,14228,650,753.2,895,467.5,39,Saccade: 14379 ms,UP,36,1.65,45.83,179.12,"[ 18, 99]",14379,14414,898.2,440.3,914,381.8,-130.93,DOWN,10.71,A16,D7.wav,D7_FAM_She_is_washing_the_dishes.png,17,14400011
p11,Trial: 36,p11.edf,.,34,Fixation: 14415 ms,286,14415,14700,"[ 18, 99]",11,1313,436,908.8,378.9,2,2,35.8,36.8,39,Saccade: 14379 ms,UP,36,1.65,45.83,179.12,"[ 18, 99]",14379,14414,898.2,440.3,914,381.8,40,Saccade: 14701 ms,LEFT,56,6.26,111.82,349.35,"[ 6, 15, 99]",14701,14756,908.8,379,702.2,294.3,-97.74,DOWN,1.78,A16,D7.wav,D7_FAM_She_is_washing_the_dishes.png,17,14400011
p11,Trial: 36,p11.edf,14800,35,Fixation: 14757 ms,262,14757,15018,"[ 6, 15, 99]",8,1193,262,688.6,290.2,1,1,35.2,36.5,40,Saccade: 14701 ms,LEFT,56,6.26,111.82,349.35,"[ 18, 99]",14701,14756,908.8,379,702.2,294.3,41,Saccade: 15019 ms,LEFT,23,1.24,53.96,111.3,"[ 10, 99]",15019,15041,686.6,295,643.5,302.4,-21.31,RIGHT,6.66,A16,D7.wav,D7_FAM_She_is_washing_the_dishes.png,17,14400011
p11,Trial: 36,p11.edf,.,36,Fixation: 15042 ms,293,15042,15334,"[ 10, 99]",20,1225,840,645.6,298.7,1,3,35.2,36.5,41,Saccade: 15019 ms,LEFT,23,1.24,53.96,111.3,"[ 6, 15, 99]",15019,15041,686.6,295,643.5,302.4,42,Saccade: 15335 ms,LEFT,42,5.18,123.37,305.06,"[ 10, 11, 99]",15335,15376,646,294.7,516.2,160.9,10.79,RIGHT,1.24,A16,D7.wav,D7_FAM_She_is_washing_the_dishes.png,17,14400011
p11,Trial: 36,p11.edf,.,37,Fixation: 15377 ms,224,15377,15600,"[ 10, 11, 99]",20,1309,840,530.1,168.8,2,3,35.4,36.8,42,Saccade: 15335 ms,LEFT,42,5.18,123.37,305.06,"[ 10, 99]",15335,15376,646,294.7,516.2,160.9,43,Saccade: 15601 ms,UP,20,0.94,47.05,76.31,"[ 10, 11, 99]",15601,15620,535.1,169.4,526.5,135.9,-47.29,DOWN,4.82,A16,D7.wav,D7_FAM_She_is_washing_the_dishes.png,17,14400011
p11,Trial: 36,p11.edf,.,38,Fixation: 15621 ms,323,15621,15943,"[ 10, 11, 99]",20,1227,840,527.5,144.5,3,3,35.5,36.9,43,Saccade: 15601 ms,UP,20,0.94,47.05,76.31,"[ 10, 11, 99]",15601,15620,535.1,169.4,526.5,135.9,44,Saccade: 15944 ms,RIGHT,40,6.27,156.79,277.51,"[ 6, 99]",15944,15983,527.6,143.2,748.1,172.8,-83.65,DOWN,0.66,A16,D7.wav,D7_FAM_She_is_washing_the_dishes.png,17,14400011
p11,Trial: 36,p11.edf,16110,39,Fixation: 15984 ms,215,15984,16198,"[ 6, 99]",8,1043,215,749.2,165.7,1,1,35.4,36.8,44,Saccade: 15944 ms,RIGHT,40,6.27,156.79,277.51,"[ 10, 11, 99]",15944,15983,527.6,143.2,748.1,172.8,45,Saccade: 16199 ms,LEFT,71,18.14,255.52,626.69,"[ 9, 14, 99]",16199,16269,753.1,165.3,88.6,122.6,174.74,LEFT,6.28,A16,D7.wav,D7_FAM_She_is_washing_the_dishes.png,17,14400011
p11,Trial: 36,p11.edf,.,40,Fixation: 16270 ms,138,16270,16407,"[ 9, 14, 99]",11,1040,340,82.3,124.7,1,2,38.0,38.25,45,Saccade: 16199 ms,LEFT,71,18.14,255.52,626.69,"[ 6, 99]",16199,16269,753.1,165.3,88.6,122.6,46,Saccade: 16408 ms,LEFT,25,1.27,50.83,125.98,"[ 9, 99]",16408,16432,82.6,122.8,34.5,115.8,-3.44,RIGHT,18.2,A16,D7.wav,D7_FAM_She_is_washing_the_dishes.png,17,14400011
p11,Trial: 36,p11.edf,.,41,Fixation: 16433 ms,202,16433,16634,"[ 9, 14, 99]",11,1118,340,43.5,120.5,2,2,38.45,38.45,46,Saccade: 16408 ms,LEFT,25,1.27,50.83,125.98,"[ 9, 14, 99]",16408,16432,82.6,122.8,34.5,115.8,47,Saccade: 16635 ms,RIGHT,69,19.64,284.64,640.01,"[ 6, 99]",16635,16703,47.1,126.3,769.4,186.6,-6.16,RIGHT,1.02,A16,D7.wav,D7_FAM_She_is_washing_the_dishes.png,17,14400011
p11,Trial: 36,p11.edf,.,42,Fixation: 16799 ms,294,16799,17092,[ 99],75,1216,19261,931.8,194.6,39,74,35.95,37.05,48,Saccade: 16759 ms,RIGHT,40,3.17,79.36,336.36,[ 99],16759,16798,800.4,184.1,913,197.3,49,Saccade: 17093 ms,LEFT,25,2.39,95.72,165.89,[ 99],17093,17117,929.9,189.7,844.3,193.3,175.3,LEFT,23.96,A16,D7.wav,D7_FAM_She_is_washing_the_dishes.png,17,14400011
p11,Trial: 36,p11.edf,.,43,Fixation: 17118 ms,176,17118,17293,"[ 4, 99]",1,1317,176,860.1,190.1,1,1,35.65,36.9,49,Saccade: 17093 ms,LEFT,25,2.39,95.72,165.89,[ 99],17093,17117,929.9,189.7,844.3,193.3,50,Saccade: 17294 ms,LEFT,58,7.93,136.69,436.01,"[ 10, 11, 99]",17294,17351,859.1,187.8,580.6,142.9,-3.48,RIGHT,2.01,A16,D7.wav,D7_FAM_She_is_washing_the_dishes.png,17,14400011
p11,Trial: 36,p11.edf,.,44,Fixation: 17352 ms,258,17352,17609,"[ 10, 11, 99]",20,1393,1508,568.6,144.6,1,6,35.4,36.85,50,Saccade: 17294 ms,LEFT,58,7.93,136.69,436.01,"[ 4, 99]",17294,17351,859.1,187.8,580.6,142.9,51,Saccade: 17610 ms,DOWN,26,1.92,73.7,133.54,"[ 10, 99]",17610,17635,570.2,142.3,596.7,207.2,-8.55,RIGHT,8.3,A16,D7.wav,D7_FAM_She_is_washing_the_dishes.png,17,14400011
p11,Trial: 36,p11.edf,.,45,Fixation: 17636 ms,199,17636,17834,"[ 10, 99]",20,1354,1508,591.5,189.5,2,6,35.3,36.7,51,Saccade: 17610 ms,DOWN,26,1.92,73.7,133.54,"[ 10, 11, 99]",17610,17635,570.2,142.3,596.7,207.2,52,Saccade: 17835 ms,DOWN,28,2.42,86.45,175.18,"[ 10, 99]",17835,17862,588.8,189.6,645.5,255.8,117.95,UP,1.38,A16,D7.wav,D7_FAM_She_is_washing_the_dishes.png,17,14400011
p11,Trial: 36,p11.edf,17870,46,Fixation: 17863 ms,279,17863,18141,"[ 10, 99]",20,1327,1508,636.1,240.7,3,6,35.2,36.55,52,Saccade: 17835 ms,DOWN,28,2.42,86.45,175.18,"[ 10, 99]",17835,17862,588.8,189.6,645.5,255.8,53,Saccade: 18142 ms,DOWN,20,1.1,55.17,78.42,"[ 10, 99]",18142,18161,634.3,234.9,656.9,267.7,132.15,UP,1.89,A16,D7.wav,D7_FAM_She_is_washing_the_dishes.png,17,14400011
p11,Trial: 36,p11.edf,.,47,Fixation: 18162 ms,163,18162,18324,"[ 10, 99]",20,1293,1508,650.4,262.6,4,6,35.2,36.5,53,Saccade: 18142 ms,DOWN,20,1.1,55.17,78.42,"[ 10, 99]",18142,18161,634.3,234.9,656.9,267.7,54,Saccade: 18325 ms,RIGHT,20,0.9,44.77,77.76,"[ 6, 99]",18325,18344,651,262,678.9,277.2,124.12,UP,0.72,A16,D7.wav,D7_FAM_She_is_washing_the_dishes.png,17,14400011
p11,Trial: 36,p11.edf,.,48,Fixation: 18345 ms,239,18345,18583,"[ 10, 99]",20,1283,1508,671.9,271.8,5,6,35.2,36.5,54,Saccade: 18325 ms,RIGHT,20,0.9,44.77,77.76,"[ 10, 99]",18325,18344,651,262,678.9,277.2,55,Saccade: 18584 ms,LEFT,11,0.59,53.67,50.13,"[ 10, 99]",18584,18594,668.8,272,648.4,267.9,157.58,LEFT,0.66,A16,D7.wav,D7_FAM_She_is_washing_the_dishes.png,17,14400011
p11,Trial: 36,p11.edf,.,49,Fixation: 18595 ms,370,18595,18964,"[ 10, 99]",20,1246,1508,658.2,267.2,6,6,35.2,36.5,55,Saccade: 18584 ms,LEFT,11,0.59,53.67,50.13,"[ 10, 99]",18584,18594,668.8,272,648.4,267.9,56,Saccade: 18965 ms,LEFT,57,8.88,155.74,418.89,"[ 5, 99]",18965,19021,662.2,266.9,367.7,382.7,-17.94,.,0.41,A16,D7.wav,D7_FAM_She_is_washing_the_dishes.png,17,14400011
p11,Trial: 36,p11.edf,19250,50,Fixation: 19022 ms,331,19022,19352,"[ 5, 99]",8,1173,439,359.6,393.2,1,2,35.8,36.8,56,Saccade: 18965 ms,LEFT,57,8.88,155.74,418.89,"[ 10, 99]",18965,19021,662.2,266.9,367.7,382.7,57,Saccade: 19353 ms,UP,38,4.1,107.95,270.75,"[ 5, 99]",19353,19390,364.7,396.2,309.1,256,22.23,RIGHT,9.09,A16,D7.wav,D7_FAM_She_is_washing_the_dishes.png,17,14400011
p11,Trial: 36,p11.edf,.,51,Fixation: 19391 ms,108,19391,19498,"[ 5, 99]",8,1195,439,316.6,265.7,2,2,36.1,37.0,57,Saccade: 19353 ms,UP,38,4.1,107.95,270.75,"[ 5, 99]",19353,19390,364.7,396.2,309.1,256,58,Saccade: 19499 ms,RIGHT,53,6.91,130.44,409.72,"[ 10, 11, 99]",19499,19551,316,263.1,546,169.7,-70.91,DOWN,3.66,A16,D7.wav,D7_FAM_She_is_washing_the_dishes.png,17,14400011
p11,Trial: 36,p11.edf,.,52,Fixation: 19552 ms,117,19552,19668,"[ 10, 11, 99]",20,1152,678,559.1,153.4,1,3,35.4,36.8,58,Saccade: 19499 ms,RIGHT,53,6.91,130.44,409.72,"[ 5, 99]",19499,19551,316,263.1,546,169.7,59,Saccade: 19669 ms,LEFT,20,0.6,30.13,62.42,"[ 10, 11, 99]",19669,19688,562.3,150.8,542.4,142.8,-155.84,LEFT,7.43,A16,D7.wav,D7_FAM_She_is_washing_the_dishes.png,17,14400011
p11,Trial: 36,p11.edf,.,53,Fixation: 19689 ms,175,19689,19863,"[ 10, 11, 99]",20,1107,678,545.6,143.6,2,3,35.4,36.85,59,Saccade: 19669 ms,LEFT,20,0.6,30.13,62.42,"[ 10, 11, 99]",19669,19688,562.3,150.8,542.4,142.8,60,Saccade: 19864 ms,UP,19,0.89,46.67,69.72,"[ 10, 11, 99]",19864,19882,545.5,149.1,531.9,119.6,-34.91,.,0.47,A16,D7.wav,D7_FAM_She_is_washing_the_dishes.png,17,14400011
p11,Trial: 36,p11.edf,.,54,Fixation: 19883 ms,386,19883,20268,"[ 10, 11, 99]",20,1039,678,535.3,129.1,3,3,35.5,36.95,60,Saccade: 19864 ms,UP,19,0.89,46.67,69.72,"[ 10, 11, 99]",19864,19882,545.5,149.1,531.9,119.6,61,Saccade: 20269 ms,LEFT,50,11.04,220.81,388.46,"[ 9, 99]",20269,20318,532.4,126.2,129.8,154.3,-53.52,.,0.49,A16,D7.wav,D7_FAM_She_is_washing_the_dishes.png,17,14400011
p11,Trial: 36,p11.edf,.,55,Fixation: 20319 ms,617,20319,20935,"[ 9, 99]",11,978,846,145.0,155.7,1,2,37.45,37.85,61,Saccade: 20269 ms,LEFT,50,11.04,220.81,388.46,"[ 10, 11, 99]",20269,20318,532.4,126.2,129.8,154.3,62,Saccade: 20936 ms,LEFT,18,1.19,66.38,85.87,"[ 9, 14, 99]",20936,20953,153.8,157.8,116,182,3.8,RIGHT,10.72,A16,D7.wav,D7_FAM_She_is_washing_the_dishes.png,17,14400011
p11,Trial: 36,p11.edf,.,56,Fixation: 20954 ms,229,20954,21182,"[ 2, 9, 14, 99]",1,1047,229,128.8,178.6,1,1,37.55,37.85,62,Saccade: 20936 ms,LEFT,18,1.19,66.38,85.87,"[ 2, 9, 99]",20936,20953,153.8,157.8,116,182,63,Saccade: 21183 ms,RIGHT,60,10.41,173.44,384.09,"[ 10, 11, 99]",21183,21242,131.8,178.1,509.6,137.9,54.47,UP,0.74,A16,D7.wav,D7_FAM_She_is_washing_the_dishes.png,17,14400011
p11,Trial: 36,p11.edf,.,57,Fixation: 21243 ms,280,21243,21522,"[ 10, 11, 99]",20,1136,497,536.1,139.8,1,2,35.45,36.9,63,Saccade: 21183 ms,RIGHT,60,10.41,173.44,384.09,"[ 2, 9, 99]",21183,21242,131.8,178.1,509.6,137.9,64,Saccade: 21523 ms,.,10,0.39,38.73,42.59,"[ 10, 11, 99]",21523,21532,544.7,140.9,558.2,138.4,-174.69,LEFT,11.21,A16,D7.wav,D7_FAM_She_is_washing_the_dishes.png,17,14400011
p11,Trial: 36,p11.edf,.,58,Fixation: 21533 ms,217,21533,21749,"[ 10, 11, 99]",20,1189,497,554.4,145.3,2,2,35.4,36.9,64,Saccade: 21523 ms,.,10,0.39,38.73,42.59,"[ 10, 11, 99]",21523,21532,544.7,140.9,558.2,138.4,65,Saccade: 21750 ms,DOWN,84,16.3,194.03,441.85,"[ 3, 99]",21750,21833,557.9,145,673.3,740.8,163.91,LEFT,0.54,A16,D7.wav,D7_FAM_She_is_washing_the_dishes.png,17,14400011
p11,Trial: 36,p11.edf,.,59,Fixation: 21834 ms,247,21834,22080,"[ 3, 99]",6,1161,247,675.7,745.0,1,1,35.8,37.8,65,Saccade: 21750 ms,DOWN,84,16.3,194.03,441.85,"[ 10, 11, 99]",21750,21833,557.9,145,673.3,740.8,66,Saccade: 22081 ms,UP,86,16.7,194.22,657.22,"[ 10, 11, 99]",22081,22166,676.6,743.9,570.8,130,101.98,UP,16.41,A16,D7.wav,D7_FAM_She_is_washing_the_dishes.png,17,14400011
p11,Trial: 36,p11.edf,.,60,Fixation: 22312 ms,344,22312,22655,"[ 10, 11, 99]",20,1149,344,554.6,125.1,1,1,35.4,36.9,67,Saccade: 22295 ms,LEFT,17,0.87,51.05,64.25,"[ 10, 11, 99]",22295,22311,575.4,124.9,545.1,130.2,68,Saccade: 22656 ms,DOWN,202,16.3,80.68,1076.12,"[ 3, 99]",22656,22857,555.8,123.3,679,716.5,-78.42,DOWN,16.94,A16,D7.wav,D7_FAM_She_is_washing_the_dishes.png,17,14400011
p11,Trial: 36,p11.edf,.,61,Fixation: 23502 ms,131,23502,23632,[ 99],75,1152,19261,351.6,580.9,58,74,36.1,37.25,69,Saccade: 23410 ms,LEFT,92,10.2,110.85,463.85,"[ 3, 99]",23410,23501,681.5,737.4,353.4,567,70,Saccade: 23633 ms,LEFT,23,1.73,75.41,130.91,[ 99],23633,23655,350.5,588.6,292.5,563.6,65.21,UP,13.54,A16,D7.wav,D7_FAM_She_is_washing_the_dishes.png,17,14400011
p11,Trial: 36,p11.edf,.,62,Fixation: 23656 ms,155,23656,23810,"[ 12, 99]",1,1176,155,303.0,575.4,1,1,36.35,37.35,70,Saccade: 23633 ms,LEFT,23,1.73,75.41,130.91,"[ 12, 99]",23633,23655,350.5,588.6,292.5,563.6,71,Saccade: 23811 ms,UP,26,2.39,91.82,124.74,"[ 5, 99]",23811,23836,300.1,560.8,294.1,472.2,-6.27,RIGHT,1.35,A16,D7.wav,D7_FAM_She_is_washing_the_dishes.png,17,14400011
p11,Trial: 36,p11.edf,.,63,Fixation: 23922 ms,203,23922,24124,[ 99],75,1204,19261,640.4,737.8,60,74,35.75,37.7,72,Saccade: 23865 ms,RIGHT,57,11.36,199.22,651.21,"[ 5, 99]",23865,23921,292.7,471.9,618.3,728.7,73,Saccade: 24125 ms,UP,38,1.92,50.65,168.77,[ 99],24125,24162,641.6,735.6,682.2,677.3,155.18,LEFT,10.31,A16,D7.wav,D7_FAM_She_is_washing_the_dishes.png,17,14400011
p11,Trial: 36,p11.edf,.,64,Fixation: 24163 ms,97,24163,24259,[ 99],75,1199,19261,692.3,685.6,61,74,35.6,37.4,73,Saccade: 24125 ms,UP,38,1.92,50.65,168.77,[ 99],24125,24162,641.6,735.6,682.2,677.3,74,Saccade: 24260 ms,UP,59,10.11,171.35,519.65,"[ 18, 99]",24260,24318,691.5,683.4,918.7,391.7,-136.3,LEFT,2.01,A16,D7.wav,D7_FAM_She_is_washing_the_dishes.png,17,14400011
p11,Trial: 36,p11.edf,.,65,Fixation: 24319 ms,162,24319,24480,"[ 18, 99]",11,1208,162,934.5,365.1,1,1,35.9,36.85,74,Saccade: 24260 ms,UP,59,10.11,171.35,519.65,[ 99],24260,24318,691.5,683.4,918.7,391.7,75,Saccade: 24481 ms,LEFT,62,9.69,156.23,463.23,"[ 10, 99]",24481,24542,932.8,362.8,623.7,205,-128.12,DOWN,10.97,A16,D7.wav,D7_FAM_She_is_washing_the_dishes.png,17,14400011
p11,Trial: 36,p11.edf,.,66,Fixation: 24543 ms,182,24543,24724,"[ 10, 99]",20,1287,182,606.6,191.9,1,1,35.3,36.7,75,Saccade: 24481 ms,LEFT,62,9.69,156.23,463.23,"[ 18, 99]",24481,24542,932.8,362.8,623.7,205,76,Saccade: 24725 ms,LEFT,56,8.16,145.8,517.16,"[ 5, 99]",24725,24780,607.1,190.8,364.6,355.7,-27.08,RIGHT,10.34,A16,D7.wav,D7_FAM_She_is_washing_the_dishes.png,17,14400011
p11,Trial: 36,p11.edf,.,67,Fixation: 24781 ms,167,24781,24947,"[ 5, 99]",8,1274,167,351.9,378.4,1,1,35.85,36.85,76,Saccade: 24725 ms,LEFT,56,8.16,145.8,517.16,"[ 10, 99]",24725,24780,607.1,190.8,364.6,355.7,77,Saccade: 24948 ms,RIGHT,86,13.88,161.43,444.64,"[ 3, 99]",24948,25033,345.9,389.5,729.9,718.5,35.31,RIGHT,8.77,A16,D7.wav,D7_FAM_She_is_washing_the_dishes.png,17,14400011
p11,Trial: 36,p11.edf,.,68,Fixation: 25034 ms,89,25034,25122,"[ 3, 99]",6,1259,192,739.6,726.8,1,2,35.8,37.65,77,Saccade: 24948 ms,RIGHT,86,13.88,161.43,444.64,"[ 5, 99]",24948,25033,345.9,389.5,729.9,718.5,78,Saccade: 25123 ms,LEFT,26,2.66,102.28,193.93,"[ 3, 99]",25123,25148,742.5,730,648.1,743,139.17,LEFT,14.3,A16,D7.wav,D7_FAM_She_is_washing_the_dishes.png,17,14400011
p11,Trial: 36,p11.edf,.,69,Fixation: 25149 ms,103,25149,25251,"[ 3, 99]",6,1280,192,665.2,739.6,2,2,35.8,37.7,78,Saccade: 25123 ms,LEFT,26,2.66,102.28,193.93,"[ 3, 99]",25123,25148,742.5,730,648.1,743,79,Saccade: 25252 ms,UP,72,11.42,158.57,533.28,"[ 18, 99]",25252,25323,664.8,742.4,913.7,404.6,9.28,RIGHT,2.11,A16,D7.wav,D7_FAM_She_is_washing_the_dishes.png,17,14400011
p11,Trial: 36,p11.edf,.,70,Fixation: 25324 ms,151,25324,25474,"[ 18, 99]",11,1238,2238,918.3,410.0,1,6,35.85,36.8,79,Saccade: 25252 ms,UP,72,11.42,158.57,533.28,"[ 3, 99]",25252,25323,664.8,742.4,913.7,404.6,80,Saccade: 25475 ms,UP,20,1.14,57.2,85.22,"[ 18, 99]",25475,25494,916.8,410.5,931.4,371.1,-128.61,DOWN,11.32,A16,D7.wav,D7_FAM_She_is_washing_the_dishes.png,17,14400011
p11,Trial: 36,p11.edf,.,71,Fixation: 25495 ms,387,25495,25881,"[ 18, 99]",11,1277,2238,926.0,384.2,2,6,35.9,36.85,80,Saccade: 25475 ms,UP,20,1.14,57.2,85.22,"[ 18, 99]",25475,25494,916.8,410.5,931.4,371.1,81,Saccade: 25882 ms,RIGHT,24,2.03,84.64,134.74,"[ 18, 99]",25882,25905,921,385.9,984.8,349.1,-107.03,DOWN,0.73,A16,D7.wav,D7_FAM_She_is_washing_the_dishes.png,17,14400011
p11,Trial: 36,p11.edf,.,72,Fixation: 25906 ms,380,25906,26285,"[ 18, 99]",11,1170,2238,982.0,352.9,3,6,36.2,37.0,81,Saccade: 25882 ms,RIGHT,24,2.03,84.64,134.74,"[ 18, 99]",25882,25905,921,385.9,984.8,349.1,82,Saccade: 26286 ms,LEFT,24,1.76,73.45,120.73,"[ 18, 99]",26286,26309,986.6,354.4,925.1,370.8,-151.38,LEFT,1.77,A16,D7.wav,D7_FAM_She_is_washing_the_dishes.png,17,14400011
p11,Trial: 36,p11.edf,.,73,Fixation: 26310 ms,700,26310,27009,"[ 18, 99]",11,1097,2238,938.6,368.1,4,6,35.95,36.85,82,Saccade: 26286 ms,LEFT,24,1.76,73.45,120.73,"[ 18, 99]",26286,26309,986.6,354.4,925.1,370.8,83,Saccade: 27010 ms,DOWN,20,1.11,55.68,84.81,"[ 18, 99]",27010,27029,940,372.8,937.3,413.8,18.89,RIGHT,1.27,A16,D7.wav,D7_FAM_She_is_washing_the_dishes.png,17,14400011
p11,Trial: 36,p11.edf,.,74,Fixation: 27030 ms,231,27030,27260,"[ 18, 99]",11,1024,2238,935.7,402.8,5,6,35.95,36.9,83,Saccade: 27010 ms,DOWN,20,1.11,55.68,84.81,"[ 18, 99]",27010,27029,940,372.8,937.3,413.8,84,Saccade: 27261 ms,LEFT,14,0.66,46.9,55.28,"[ 18, 99]",27261,27274,932.1,399.4,912.9,385.4,85.1,UP,0.94,A16,D7.wav,D7_FAM_She_is_washing_the_dishes.png,17,14400011
p11,Trial: 36,p11.edf,.,75,Fixation: 27275 ms,389,27275,27663,"[ 18, 99]",11,1033,2238,917.9,389.8,6,6,35.85,36.8,84,Saccade: 27261 ms,LEFT,14,0.66,46.9,55.28,"[ 18, 99]",27261,27274,932.1,399.4,912.9,385.4,85,Saccade: 27664 ms,LEFT,46,5.94,129.21,212.23,"[ 6, 15, 99]",27664,27709,922.2,390.3,728.9,301.7,-35.43,RIGHT,0.61,A16,D7.wav,D7_FAM_She_is_washing_the_dishes.png,17,14400011
p11,Trial: 36,p11.edf,.,76,Fixation: 27710 ms,151,27710,27860,"[ 6, 15, 99]",8,1072,151,738.3,304.5,1,1,35.3,36.5,85,Saccade: 27664 ms,LEFT,46,5.94,129.21,212.23,"[ 18, 99]",27664,27709,922.2,390.3,728.9,301.7,86,Saccade: 27861 ms,LEFT,24,2.33,97.22,154.44,"[ 10, 99]",27861,27884,736.2,304.6,660.3,271.8,-24.75,RIGHT,5.56,A16,D7.wav,D7_FAM_She_is_washing_the_dishes.png,17,14400011
p11,Trial: 36,p11.edf,28185,77,Fixation: 27885 ms,320,27885,28204,"[ 10, 99]",20,1118,320,658.4,269.2,1,1,35.2,36.5,86,Saccade: 27861 ms,LEFT,24,2.33,97.22,154.44,"[ 6, 15, 99]",27861,27884,736.2,304.6,660.3,271.8,.,.,.,.,.,.,.,.,.,.,.,.,.,.,-23.11,RIGHT,2.46,A16,D7.wav,D7_FAM_She_is_washing_the_dishes.png,17,14400011
