RECORDING_SESSION_LABEL,TRIAL_LABEL,DATA_FILE,CURRENT_FIX_MSG_TIME_1,CURRENT_FIX_INDEX,CURRENT_FIX_LABEL,CURRENT_FIX_DURATION,CURRENT_FIX_START,CURRENT_FIX_END,CURRENT_FIX_INTEREST_AREAS,CURRENT_FIX_INTEREST_AREA_FIX_COUNT,CURRENT_FIX_PUPIL,CURRENT_FIX_RUN_DWELL_TIME,CURRENT_FIX_X,CURRENT_FIX_Y,CURRENT_FIX_RUN_INDEX,CURRENT_FIX_RUN_SIZE,CURRENT_FIX_X_RESOLUTION,CURRENT_FIX_Y_RESOLUTION,PREVIOUS_SAC_INDEX,PREVIOUS_SAC_LABEL,PREVIOUS_SAC_DIRECTION,PREVIOUS_SAC_DURATION,PREVIOUS_SAC_AMPLITUDE,PREVIOUS_SAC_AVG_VELOCITY,PREVIOUS_SAC_PEAK_VELOCITY,PREVIOUS_SAC_START_INTEREST_AREAS,PREVIOUS_SAC_START_TIME,PREVIOUS_SAC_END_TIME,PREVIOUS_SAC_START_X,PREVIOUS_SAC_START_Y,PREVIOUS_SAC_END_X,PREVIOUS_SAC_END_Y,NEXT_SAC_INDEX,NEXT_SAC_LABEL,NEXT_SAC_DIRECTION,NEXT_SAC_DURATION,NEXT_SAC_AMPLITUDE,NEXT_SAC_AVG_VELOCITY,NEXT_SAC_PEAK_VELOCITY,NEXT_SAC_END_INTEREST_AREAS,NEXT_SAC_START_TIME,NEXT_SAC_END_TIME,NEXT_SAC_START_X,NEXT_SAC_START_Y,NEXT_SAC_END_X,NEXT_SAC_END_Y,PREVIOUS_FIX_ANGLE,PREVIOUS_FIX_DIRECTION,PREVIOUS_FIX_DISTANCE,ItemNO,audiofilename,imagefilename,TRIAL_INDEX,TRIAL_START_TIME
p10,Trial: 44,p10.edf,71,1,Fixation: 7 ms,418,7,424,"[ 5, 99]",10,912,418,514.7,277.1,1,1,35.3,36.6,.,.,.,.,.,.,.,.,.,.,.,.,.,.,1,Saccade: 425 ms,DOWN,232,16.59,71.51,845.19,[ ],425,656,520.2,289.5,626.7,906.5,.,.,.,A19,D7.wav,D7_FAM_She_is_washing_the_dishes.png,21,5202127
p10,Trial: 44,p10.edf,3153,2,Fixation: 786 ms,2733,786,3518,[ ],.,842,.,629.5,938.7,.,.,36.5,39.25,2,Saccade: 768 ms,RIGHT,18,1.06,58.81,82.77,[ ],768,785,609.6,926.5,643,947.5,3,Saccade: 3519 ms,UP,172,16.46,95.71,681.88,"[ 6, 99]",3519,3690,624.1,917.6,867.9,348.9,100.39,UP,17.74,A19,D7.wav,D7_FAM_She_is_washing_the_dishes.png,21,5202127
p10,Trial: 44,p10.edf,.,3,Fixation: 3959 ms,173,3959,4131,"[ 5, 99]",10,1015,296,510.8,287.5,1,2,35.3,36.6,5,Saccade: 3908 ms,LEFT,51,9.32,182.83,430.76,"[ 9, 99]",3908,3958,855.3,298.9,525.2,281.1,6,Saccade: 4132 ms,LEFT,21,0.92,43.96,83.73,[ 99],4132,4152,514.6,298,486.8,280.3,-79.1,DOWN,17.49,A19,D7.wav,D7_FAM_She_is_washing_the_dishes.png,21,5202127
p10,Trial: 44,p10.edf,.,4,Fixation: 4153 ms,123,4153,4275,"[ 5, 99]",10,961,296,489.9,285.4,2,2,35.4,36.6,6,Saccade: 4132 ms,LEFT,21,0.92,43.96,83.73,"[ 5, 99]",4132,4152,514.6,298,486.8,280.3,7,Saccade: 4276 ms,LEFT,31,3.74,120.53,231.75,"[ 4, 99]",4276,4306,491.1,288.3,358.8,272.3,-5.54,RIGHT,0.59,A19,D7.wav,D7_FAM_She_is_washing_the_dishes.png,21,5202127
p10,Trial: 44,p10.edf,.,5,Fixation: 4307 ms,163,4307,4469,"[ 4, 99]",12,937,163,363.8,276.4,1,1,35.85,36.9,7,Saccade: 4276 ms,LEFT,31,3.74,120.53,231.75,"[ 5, 99]",4276,4306,491.1,288.3,358.8,272.3,8,Saccade: 4470 ms,LEFT,12,0.65,54.15,52.29,[ 99],4470,4481,364.6,275.8,342.2,269.1,-3.96,RIGHT,3.55,A19,D7.wav,D7_FAM_She_is_washing_the_dishes.png,21,5202127
p10,Trial: 44,p10.edf,.,6,Fixation: 4482 ms,326,4482,4807,[ 99],76,914,19552,344.8,274.7,4,75,35.95,36.9,8,Saccade: 4470 ms,LEFT,12,0.65,54.15,52.29,"[ 4, 99]",4470,4481,364.6,275.8,342.2,269.1,9,Saccade: 4808 ms,LEFT,45,5.42,120.45,290.66,"[ 3, 99]",4808,4852,345.3,278.9,147.6,295.6,-4.97,RIGHT,0.53,A19,D7.wav,D7_FAM_She_is_washing_the_dishes.png,21,5202127
p10,Trial: 44,p10.edf,.,7,Fixation: 4853 ms,192,4853,5044,"[ 3, 99]",6,892,1185,136.4,297.5,1,3,37.35,37.6,9,Saccade: 4808 ms,LEFT,45,5.42,120.45,290.66,[ 99],4808,4852,345.3,278.9,147.6,295.6,10,Saccade: 5045 ms,RIGHT,19,0.88,46.42,71.32,"[ 3, 99]",5045,5063,135.3,301.3,165.6,314.1,6.14,RIGHT,5.72,A19,D7.wav,D7_FAM_She_is_washing_the_dishes.png,21,5202127
p10,Trial: 44,p10.edf,.,8,Fixation: 5064 ms,551,5064,5614,"[ 3, 99]",6,907,1185,161.9,310.2,2,3,37.1,37.5,10,Saccade: 5045 ms,RIGHT,19,0.88,46.42,71.32,"[ 3, 99]",5045,5063,135.3,301.3,165.6,314.1,11,Saccade: 5615 ms,LEFT,25,1.26,50.56,98.43,"[ 3, 99]",5615,5639,166.5,314.2,120.3,323.7,153.72,LEFT,0.76,A19,D7.wav,D7_FAM_She_is_washing_the_dishes.png,21,5202127
p10,Trial: 44,p10.edf,.,9,Fixation: 5640 ms,442,5640,6081,"[ 3, 99]",6,900,1185,131.6,323.2,3,3,37.45,37.65,11,Saccade: 5615 ms,LEFT,25,1.26,50.56,98.43,"[ 3, 99]",5615,5639,166.5,314.2,120.3,323.7,12,Saccade: 6082 ms,RIGHT,48,7.06,147.16,407.32,"[ 4, 99]",6082,6129,136.7,321.1,392.2,283.3,23.06,RIGHT,0.88,A19,D7.wav,D7_FAM_She_is_washing_the_dishes.png,21,5202127
p10,Trial: 44,p10.edf,.,10,Fixation: 6130 ms,133,6130,6262,"[ 4, 99]",12,895,581,398.4,288.0,1,2,35.7,36.8,12,Saccade: 6082 ms,RIGHT,48,7.06,147.16,407.32,"[ 3, 99]",6082,6129,136.7,321.1,392.2,283.3,13,Saccade: 6263 ms,LEFT,19,1.21,63.91,97.73,"[ 4, 99]",6263,6281,398.4,287.5,357.8,271.5,-172.61,LEFT,7.36,A19,D7.wav,D7_FAM_She_is_washing_the_dishes.png,21,5202127
p10,Trial: 44,p10.edf,.,11,Fixation: 6282 ms,448,6282,6729,"[ 4, 99]",12,884,581,357.8,271.6,2,2,35.9,36.9,13,Saccade: 6263 ms,LEFT,19,1.21,63.91,97.73,"[ 4, 99]",6263,6281,398.4,287.5,357.8,271.5,14,Saccade: 6730 ms,RIGHT,38,3.37,88.77,277.13,"[ 8, 99]",6730,6767,354.9,276.8,475.1,280.6,-21.43,RIGHT,1.22,A19,D7.wav,D7_FAM_She_is_washing_the_dishes.png,21,5202127
p10,Trial: 44,p10.edf,.,12,Fixation: 6768 ms,195,6768,6962,[ 99],76,861,19552,484.9,284.3,10,75,35.4,36.6,14,Saccade: 6730 ms,RIGHT,38,3.37,88.77,277.13,"[ 4, 99]",6730,6767,354.9,276.8,475.1,280.6,15,Saccade: 6963 ms,.,15,0.2,13.54,36.16,"[ 5, 99]",6963,6977,487.3,289.8,493.3,293.9,174.46,LEFT,3.58,A19,D7.wav,D7_FAM_She_is_washing_the_dishes.png,21,5202127
p10,Trial: 44,p10.edf,.,13,Fixation: 6978 ms,256,6978,7233,"[ 5, 99]",10,856,256,492.2,294.1,1,1,35.4,36.6,15,Saccade: 6963 ms,.,15,0.2,13.54,36.16,"[ 5, 99]",6963,6977,487.3,289.8,493.3,293.9,16,Saccade: 7234 ms,DOWN,48,6.1,126.98,300.42,[ 99],7234,7281,490.4,295.7,463.1,517.6,127.6,.,0.34,A19,D7.wav,D7_FAM_She_is_washing_the_dishes.png,21,5202127
p10,Trial: 44,p10.edf,.,14,Fixation: 7282 ms,179,7282,7460,"[ 14, 99]",19,861,916,457.1,535.6,1,4,35.6,36.85,16,Saccade: 7234 ms,DOWN,48,6.1,126.98,300.42,"[ 5, 99]",7234,7281,490.4,295.7,463.1,517.6,17,Saccade: 7461 ms,LEFT,24,2.77,115.37,181.19,"[ 13, 14, 99]",7461,7484,456.3,534.2,367.7,580.2,81.45,UP,6.65,A19,D7.wav,D7_FAM_She_is_washing_the_dishes.png,21,5202127
p10,Trial: 44,p10.edf,.,15,Fixation: 7485 ms,304,7485,7788,"[ 13, 14, 99]",8,864,526,357.8,584.3,1,2,36.05,37.25,17,Saccade: 7461 ms,LEFT,24,2.77,115.37,181.19,"[ 14, 99]",7461,7484,456.3,534.2,367.7,580.2,18,Saccade: 7789 ms,DOWN,23,1.61,69.85,114.91,"[ 13, 14, 99]",7789,7811,357.8,586.1,337.3,642.4,25.37,RIGHT,3.07,A19,D7.wav,D7_FAM_She_is_washing_the_dishes.png,21,5202127
p10,Trial: 44,p10.edf,.,16,Fixation: 7812 ms,222,7812,8033,"[ 13, 14, 99]",8,852,526,335.5,638.7,2,2,36.3,37.6,18,Saccade: 7789 ms,DOWN,23,1.61,69.85,114.91,"[ 13, 14, 99]",7789,7811,357.8,586.1,337.3,642.4,19,Saccade: 8034 ms,RIGHT,29,4.14,142.74,271.23,"[ 12, 14, 99]",8034,8062,332.2,638,469.8,579.2,67.02,UP,1.58,A19,D7.wav,D7_FAM_She_is_washing_the_dishes.png,21,5202127
p10,Trial: 44,p10.edf,.,17,Fixation: 8063 ms,211,8063,8273,"[ 12, 14, 99]",8,841,211,465.8,581.5,1,1,35.65,37.05,19,Saccade: 8034 ms,RIGHT,29,4.14,142.74,271.23,"[ 13, 14, 99]",8034,8062,332.2,638,469.8,579.2,20,Saccade: 8274 ms,RIGHT,52,9.35,179.88,399.91,"[ 9, 99]",8274,8325,462.1,583.4,719.9,366.9,-157.07,LEFT,3.93,A19,D7.wav,D7_FAM_She_is_washing_the_dishes.png,21,5202127
p10,Trial: 44,p10.edf,.,18,Fixation: 8326 ms,191,8326,8516,"[ 9, 24, 99]",3,842,191,720.9,378.2,1,1,35.2,36.5,20,Saccade: 8274 ms,RIGHT,52,9.35,179.88,399.91,"[ 12, 14, 99]",8274,8325,462.1,583.4,719.9,366.9,21,Saccade: 8517 ms,LEFT,35,6.48,185.21,377.49,[ 99],8517,8551,721.4,379.5,499.3,323.8,-142.49,LEFT,9.08,A19,D7.wav,D7_FAM_She_is_washing_the_dishes.png,21,5202127
p10,Trial: 44,p10.edf,.,19,Fixation: 8552 ms,238,8552,8789,[ 99],76,845,19552,492.7,318.9,17,75,35.35,36.6,21,Saccade: 8517 ms,LEFT,35,6.48,185.21,377.49,"[ 9, 24, 99]",8517,8551,721.4,379.5,499.3,323.8,22,Saccade: 8790 ms,LEFT,31,3.43,110.8,224.59,"[ 4, 99]",8790,8820,490.6,323.2,378.6,272.6,-14.08,RIGHT,6.67,A19,D7.wav,D7_FAM_She_is_washing_the_dishes.png,21,5202127
p10,Trial: 44,p10.edf,.,20,Fixation: 8821 ms,195,8821,9015,"[ 4, 99]",12,831,195,382.6,269.2,1,1,35.8,36.8,22,Saccade: 8790 ms,LEFT,31,3.43,110.8,224.59,[ 99],8790,8820,490.6,323.2,378.6,272.6,23,Saccade: 9016 ms,RIGHT,54,11.91,220.57,482.3,"[ 9, 21, 99]",9016,9069,383.3,266.8,801.4,190.3,-23.63,RIGHT,3.38,A19,D7.wav,D7_FAM_She_is_washing_the_dishes.png,21,5202127
p10,Trial: 44,p10.edf,.,21,Fixation: 9070 ms,247,9070,9316,"[ 9, 21, 99]",3,791,459,803.0,208.1,1,2,35.5,36.8,23,Saccade: 9016 ms,RIGHT,54,11.91,220.57,482.3,"[ 4, 99]",9016,9069,383.3,266.8,801.4,190.3,24,Saccade: 9317 ms,LEFT,20,1.48,73.9,116.61,"[ 9, 21, 99]",9317,9336,804.2,209.2,751.9,205.9,-171.99,LEFT,11.91,A19,D7.wav,D7_FAM_She_is_washing_the_dishes.png,21,5202127
p10,Trial: 44,p10.edf,.,22,Fixation: 9337 ms,212,9337,9548,"[ 9, 21, 99]",3,809,459,755.4,205.9,2,2,35.4,36.7,24,Saccade: 9317 ms,LEFT,20,1.48,73.9,116.61,"[ 9, 21, 99]",9317,9336,804.2,209.2,751.9,205.9,25,Saccade: 9549 ms,RIGHT,54,9.55,176.85,421.52,"[ 7, 99]",9549,9602,754.8,205.8,1077,331.5,-2.55,RIGHT,1.34,A19,D7.wav,D7_FAM_She_is_washing_the_dishes.png,21,5202127
p10,Trial: 44,p10.edf,.,23,Fixation: 9603 ms,208,9603,9810,"[ 2, 99]",7,813,598,1082.0,342.1,1,3,36.9,37.3,25,Saccade: 9549 ms,RIGHT,54,9.55,176.85,421.52,"[ 9, 21, 99]",9549,9602,754.8,205.8,1077,331.5,26,Saccade: 9811 ms,RIGHT,19,0.54,28.37,68.52,"[ 2, 99]",9811,9829,1082.2,345.5,1101.7,349.6,157.83,LEFT,9.76,A19,D7.wav,D7_FAM_She_is_washing_the_dishes.png,21,5202127
p10,Trial: 44,p10.edf,.,24,Fixation: 9830 ms,165,9830,9994,"[ 2, 99]",7,814,598,1101.1,347.4,2,3,37.0,37.4,26,Saccade: 9811 ms,RIGHT,19,0.54,28.37,68.52,"[ 2, 99]",9811,9829,1082.2,345.5,1101.7,349.6,27,Saccade: 9995 ms,.,6,0.32,52.78,32.03,"[ 2, 99]",9995,10000,1100.1,346,1109.1,338.4,164.65,LEFT,0.54,A19,D7.wav,D7_FAM_She_is_washing_the_dishes.png,21,5202127
p10,Trial: 44,p10.edf,.,25,Fixation: 10001 ms,225,10001,10225,"[ 2, 99]",7,829,598,1107.8,341.1,3,3,37.1,37.4,27,Saccade: 9995 ms,.,6,0.32,52.78,32.03,"[ 2, 99]",9995,10000,1100.1,346,1109.1,338.4,28,Saccade: 10226 ms,DOWN,43,4.84,112.57,277.11,"[ 7, 28, 99]",10226,10268,1106,346.7,1110.4,528.4,-137.03,.,0.25,A19,D7.wav,D7_FAM_She_is_washing_the_dishes.png,21,5202127
p10,Trial: 44,p10.edf,.,26,Fixation: 10269 ms,155,10269,10423,"[ 7, 99]",5,837,285,1107.1,543.2,1,2,37.2,37.75,28,Saccade: 10226 ms,DOWN,43,4.84,112.57,277.11,"[ 2, 99]",10226,10268,1106,346.7,1110.4,528.4,29,Saccade: 10424 ms,LEFT,19,0.74,38.7,71.23,"[ 7, 99]",10424,10442,1108.5,545.3,1081.3,543.2,89.8,UP,5.38,A19,D7.wav,D7_FAM_She_is_washing_the_dishes.png,21,5202127
p10,Trial: 44,p10.edf,.,27,Fixation: 10443 ms,130,10443,10572,"[ 7, 32, 99]",5,840,285,1082.4,544.1,2,2,37.0,37.6,29,Saccade: 10424 ms,LEFT,19,0.74,38.7,71.23,"[ 7, 99]",10424,10442,1108.5,545.3,1081.3,543.2,30,Saccade: 10573 ms,LEFT,45,5.23,116.27,328.39,"[ 7, 99]",10573,10617,1084.3,544.3,940.3,416.1,2.05,RIGHT,0.67,A19,D7.wav,D7_FAM_She_is_washing_the_dishes.png,21,5202127
p10,Trial: 44,p10.edf,.,28,Fixation: 10618 ms,315,10618,10932,[ 99],76,863,19552,928.4,420.7,26,75,35.95,36.9,30,Saccade: 10573 ms,LEFT,45,5.23,116.27,328.39,"[ 7, 32, 99]",10573,10617,1084.3,544.3,940.3,416.1,31,Saccade: 10933 ms,UP,51,4.65,91.11,284.11,"[ 6, 99]",10933,10983,931.2,422.1,917.7,251.2,-38.12,RIGHT,5.37,A19,D7.wav,D7_FAM_She_is_washing_the_dishes.png,21,5202127
p10,Trial: 44,p10.edf,.,29,Fixation: 10984 ms,184,10984,11167,"[ 6, 99]",2,877,184,915.4,259.1,1,1,35.9,36.9,31,Saccade: 10933 ms,UP,51,4.65,91.11,284.11,[ 99],10933,10983,931.2,422.1,917.7,251.2,32,Saccade: 11168 ms,RIGHT,44,5.52,125.36,359.02,"[ 7, 99]",11168,11211,913.3,257.7,1109.2,305,-85.28,DOWN,4.39,A19,D7.wav,D7_FAM_She_is_washing_the_dishes.png,21,5202127
p10,Trial: 44,p10.edf,.,30,Fixation: 11212 ms,197,11212,11408,"[ 2, 99]",7,877,340,1116.5,316.5,1,2,37.1,37.5,32,Saccade: 11168 ms,RIGHT,44,5.52,125.36,359.02,"[ 6, 99]",11168,11211,913.3,257.7,1109.2,305,33,Saccade: 11409 ms,DOWN,13,0.76,58.72,60.54,"[ 2, 99]",11409,11421,1112.9,316.1,1098,340.4,164.36,LEFT,5.72,A19,D7.wav,D7_FAM_She_is_washing_the_dishes.png,21,5202127
p10,Trial: 44,p10.edf,.,31,Fixation: 11422 ms,143,11422,11564,"[ 2, 99]",7,889,340,1101.0,337.5,2,2,37.0,37.4,33,Saccade: 11409 ms,DOWN,13,0.76,58.72,60.54,"[ 2, 99]",11409,11421,1112.9,316.1,1098,340.4,34,Saccade: 11565 ms,DOWN,54,7.54,139.58,327.03,"[ 7, 99]",11565,11618,1098.1,337,1029.2,611.2,53.27,UP,0.7,A19,D7.wav,D7_FAM_She_is_washing_the_dishes.png,21,5202127
p10,Trial: 44,p10.edf,.,32,Fixation: 11619 ms,132,11619,11750,[ 99],76,900,19552,1017.0,630.7,30,75,36.7,37.75,34,Saccade: 11565 ms,DOWN,54,7.54,139.58,327.03,"[ 2, 99]",11565,11618,1098.1,337,1029.2,611.2,35,Saccade: 11751 ms,LEFT,53,10.61,200.23,447.73,"[ 11, 99]",11751,11803,1018.8,630.8,645.9,727.1,73.72,UP,8.13,A19,D7.wav,D7_FAM_She_is_washing_the_dishes.png,21,5202127
p10,Trial: 44,p10.edf,.,33,Fixation: 11804 ms,272,11804,12075,"[ 11, 99]",2,920,450,625.6,732.9,1,2,35.75,37.7,35,Saccade: 11751 ms,LEFT,53,10.61,200.23,447.73,[ 99],11751,11803,1018.8,630.8,645.9,727.1,36,Saccade: 12076 ms,LEFT,19,0.71,37.32,67.05,"[ 11, 99]",12076,12094,626.2,731.6,601.7,738.6,14.08,RIGHT,11.14,A19,D7.wav,D7_FAM_She_is_washing_the_dishes.png,21,5202127
p10,Trial: 44,p10.edf,.,34,Fixation: 12095 ms,178,12095,12272,"[ 11, 99]",2,935,450,604.5,740.1,2,2,35.8,37.75,36,Saccade: 12076 ms,LEFT,19,0.71,37.32,67.05,"[ 11, 99]",12076,12094,626.2,731.6,601.7,738.6,37,Saccade: 12273 ms,LEFT,37,6.01,162.53,344.31,"[ 12, 14, 99]",12273,12309,607,742.8,452.5,586.2,17.93,RIGHT,0.62,A19,D7.wav,D7_FAM_She_is_washing_the_dishes.png,21,5202127
p10,Trial: 44,p10.edf,.,35,Fixation: 12310 ms,214,12310,12523,"[ 12, 14, 99]",8,912,697,453.0,589.8,1,2,35.7,37.1,37,Saccade: 12273 ms,LEFT,37,6.01,162.53,344.31,"[ 11, 99]",12273,12309,607,742.8,452.5,586.2,38,Saccade: 12524 ms,UP,20,1.29,64.73,97.12,"[ 12, 14, 99]",12524,12543,453.6,590.3,454.1,542.4,-43.46,RIGHT,5.84,A19,D7.wav,D7_FAM_She_is_washing_the_dishes.png,21,5202127
p10,Trial: 44,p10.edf,.,36,Fixation: 12544 ms,483,12544,13026,"[ 12, 14, 99]",8,889,697,453.3,554.3,2,2,35.6,36.95,38,Saccade: 12524 ms,UP,20,1.29,64.73,97.12,"[ 12, 14, 99]",12524,12543,453.6,590.3,454.1,542.4,39,Saccade: 13027 ms,LEFT,30,3.53,117.59,194.63,"[ 13, 14, 99]",13027,13056,453.2,549.9,329.4,577.5,-90.5,DOWN,0.96,A19,D7.wav,D7_FAM_She_is_washing_the_dishes.png,21,5202127
p10,Trial: 44,p10.edf,13130,37,Fixation: 13057 ms,241,13057,13297,"[ 13, 14, 99]",8,868,241,334.3,576.6,1,1,36.2,37.3,39,Saccade: 13027 ms,LEFT,30,3.53,117.59,194.63,"[ 12, 14, 99]",13027,13056,453.2,549.9,329.4,577.5,40,Saccade: 13298 ms,RIGHT,37,3.01,81.37,253.29,"[ 12, 14, 99]",13298,13334,334.7,574.1,442.1,560.2,10.27,RIGHT,3.37,A19,D7.wav,D7_FAM_She_is_washing_the_dishes.png,21,5202127
p10,Trial: 44,p10.edf,.,38,Fixation: 13335 ms,98,13335,13432,"[ 12, 14, 99]",8,877,453,450.4,562.8,1,2,35.7,37.0,40,Saccade: 13298 ms,RIGHT,37,3.01,81.37,253.29,"[ 13, 14, 99]",13298,13334,334.7,574.1,442.1,560.2,41,Saccade: 13433 ms,RIGHT,201,1.04,5.16,740.32,[ 99],13433,13633,453.7,569.6,483.7,547.2,-173.44,LEFT,3.25,A19,D7.wav,D7_FAM_She_is_washing_the_dishes.png,21,5202127
p10,Trial: 44,p10.edf,.,39,Fixation: 14098 ms,355,14098,14452,"[ 12, 14, 99]",8,883,453,463.6,555.2,2,2,35.6,37.0,43,Saccade: 14089 ms,.,9,0.41,45.69,40.42,"[ 12, 14, 99]",14089,14097,460.1,572.8,458.3,557.7,44,Saccade: 14453 ms,UP,37,6.39,172.7,325.27,"[ 8, 99]",14453,14489,463.7,565.9,442.3,331.8,-150.98,.,0.42,A19,D7.wav,D7_FAM_She_is_washing_the_dishes.png,21,5202127
p10,Trial: 44,p10.edf,.,40,Fixation: 14490 ms,176,14490,14665,"[ 8, 99]",2,848,176,441.2,333.5,1,1,35.5,36.6,44,Saccade: 14453 ms,UP,37,6.39,172.7,325.27,"[ 12, 14, 99]",14453,14489,463.7,565.9,442.3,331.8,45,Saccade: 14666 ms,LEFT,22,1.97,89.41,144.54,"[ 4, 99]",14666,14687,443.2,336.3,385.9,294.8,-84.03,DOWN,6.06,A19,D7.wav,D7_FAM_She_is_washing_the_dishes.png,21,5202127
p10,Trial: 44,p10.edf,14730,41,Fixation: 14688 ms,164,14688,14851,"[ 4, 99]",12,851,310,384.9,290.4,1,2,35.7,36.8,45,Saccade: 14666 ms,LEFT,22,1.97,89.41,144.54,"[ 8, 99]",14666,14687,443.2,336.3,385.9,294.8,46,Saccade: 14852 ms,LEFT,15,0.88,58.33,64.63,"[ 4, 99]",14852,14866,385.3,289.9,354.7,283,-36.6,RIGHT,1.97,A19,D7.wav,D7_FAM_She_is_washing_the_dishes.png,21,5202127
p10,Trial: 44,p10.edf,.,42,Fixation: 14867 ms,146,14867,15012,"[ 4, 99]",12,859,310,360.4,288.4,2,2,35.9,36.9,46,Saccade: 14852 ms,LEFT,15,0.88,58.33,64.63,"[ 4, 99]",14852,14866,385.3,289.9,354.7,283,47,Saccade: 15013 ms,RIGHT,28,4.34,155.08,291.95,"[ 5, 99]",15013,15040,357.3,288.7,511.6,298.3,-4.53,RIGHT,0.69,A19,D7.wav,D7_FAM_She_is_washing_the_dishes.png,21,5202127
p10,Trial: 44,p10.edf,.,43,Fixation: 15041 ms,160,15041,15200,"[ 5, 99]",10,856,160,504.0,298.0,1,1,35.3,36.6,47,Saccade: 15013 ms,RIGHT,28,4.34,155.08,291.95,"[ 4, 99]",15013,15040,357.3,288.7,511.6,298.3,48,Saccade: 15201 ms,LEFT,61,10.71,175.55,394.57,"[ 3, 99]",15201,15261,506.1,299.1,116.4,290.4,176.3,LEFT,4.04,A19,D7.wav,D7_FAM_She_is_washing_the_dishes.png,21,5202127
p10,Trial: 44,p10.edf,.,44,Fixation: 15262 ms,153,15262,15414,"[ 3, 99]",6,889,875,117.6,291.5,1,3,37.55,37.7,48,Saccade: 15201 ms,LEFT,61,10.71,175.55,394.57,"[ 5, 99]",15201,15261,506.1,299.1,116.4,290.4,49,Saccade: 15415 ms,DOWN,18,0.72,39.83,66.99,"[ 3, 99]",15415,15432,115.4,291.2,134.2,310.5,-0.94,RIGHT,10.61,A19,D7.wav,D7_FAM_She_is_washing_the_dishes.png,21,5202127
p10,Trial: 44,p10.edf,.,45,Fixation: 15433 ms,151,15433,15583,"[ 3, 99]",6,928,875,130.5,301.1,2,3,37.4,37.6,49,Saccade: 15415 ms,DOWN,18,0.72,39.83,66.99,"[ 3, 99]",15415,15432,115.4,291.2,134.2,310.5,50,Saccade: 15584 ms,RIGHT,13,0.63,48.35,49.48,"[ 3, 99]",15584,15596,129.9,301.9,153.1,305.3,143.47,.,0.43,A19,D7.wav,D7_FAM_She_is_washing_the_dishes.png,21,5202127
p10,Trial: 44,p10.edf,.,46,Fixation: 15597 ms,571,15597,16167,"[ 3, 99]",6,939,875,150.7,304.2,3,3,37.2,37.5,50,Saccade: 15584 ms,RIGHT,13,0.63,48.35,49.48,"[ 3, 99]",15584,15596,129.9,301.9,153.1,305.3,51,Saccade: 16168 ms,RIGHT,48,6.16,128.33,354.96,"[ 4, 99]",16168,16215,153,304.8,374.4,265,171.33,LEFT,0.55,A19,D7.wav,D7_FAM_She_is_washing_the_dishes.png,21,5202127
p10,Trial: 44,p10.edf,16280,47,Fixation: 16216 ms,148,16216,16363,"[ 4, 99]",12,918,426,382.3,270.3,1,2,35.8,36.8,51,Saccade: 16168 ms,RIGHT,48,6.16,128.33,354.96,"[ 3, 99]",16168,16215,153,304.8,374.4,265,52,Saccade: 16364 ms,LEFT,20,0.97,48.39,81.23,"[ 4, 99]",16364,16383,384,269.1,349.4,266.5,-171.82,LEFT,6.41,A19,D7.wav,D7_FAM_She_is_washing_the_dishes.png,21,5202127
p10,Trial: 44,p10.edf,.,48,Fixation: 16384 ms,278,16384,16661,"[ 4, 99]",12,931,426,355.2,268.9,2,2,35.9,36.9,52,Saccade: 16364 ms,LEFT,20,0.97,48.39,81.23,"[ 4, 99]",16364,16383,384,269.1,349.4,266.5,53,Saccade: 16662 ms,RIGHT,28,3.67,130.96,252.24,[ 99],16662,16689,355.7,269.5,486.3,275.4,-2.88,RIGHT,0.76,A19,D7.wav,D7_FAM_She_is_washing_the_dishes.png,21,5202127
p10,Trial: 44,p10.edf,.,49,Fixation: 16690 ms,148,16690,16837,"[ 8, 99]",2,926,148,480.7,274.6,1,1,35.4,36.6,53,Saccade: 16662 ms,RIGHT,28,3.67,130.96,252.24,"[ 4, 99]",16662,16689,355.7,269.5,486.3,275.4,54,Saccade: 16838 ms,RIGHT,59,14.6,247.46,535.25,"[ 7, 27, 99]",16838,16896,482.1,276.5,1003.5,323.7,177.48,LEFT,3.52,A19,D7.wav,D7_FAM_She_is_washing_the_dishes.png,21,5202127
p10,Trial: 44,p10.edf,.,50,Fixation: 16897 ms,142,16897,17038,"[ 7, 27, 99]",5,898,142,1014.3,332.5,1,1,36.35,37.1,54,Saccade: 16838 ms,RIGHT,59,14.6,247.46,535.25,"[ 8, 99]",16838,16896,482.1,276.5,1003.5,323.7,55,Saccade: 17039 ms,RIGHT,25,1.99,79.54,168.28,"[ 2, 99]",17039,17063,1011.6,336.1,1082.5,353.2,173.97,LEFT,14.96,A19,D7.wav,D7_FAM_She_is_washing_the_dishes.png,21,5202127
p10,Trial: 44,p10.edf,.,51,Fixation: 17064 ms,141,17064,17204,"[ 2, 99]",7,892,340,1077.0,352.7,1,2,36.8,37.3,55,Saccade: 17039 ms,RIGHT,25,1.99,79.54,168.28,"[ 7, 27, 99]",17039,17063,1011.6,336.1,1082.5,353.2,56,Saccade: 17205 ms,RIGHT,21,0.85,40.46,82.7,"[ 2, 99]",17205,17225,1078.9,354,1105.6,337.3,162.42,LEFT,1.8,A19,D7.wav,D7_FAM_She_is_washing_the_dishes.png,21,5202127
p10,Trial: 44,p10.edf,.,52,Fixation: 17226 ms,199,17226,17424,"[ 2, 99]",7,907,340,1100.6,341.0,2,2,37.05,37.4,56,Saccade: 17205 ms,RIGHT,21,0.85,40.46,82.7,"[ 2, 99]",17205,17225,1078.9,354,1105.6,337.3,57,Saccade: 17425 ms,LEFT,28,3.53,126,231.22,"[ 7, 27, 99]",17425,17452,1102.2,340,975.6,314.2,-153.89,LEFT,0.71,A19,D7.wav,D7_FAM_She_is_washing_the_dishes.png,21,5202127
p10,Trial: 44,p10.edf,17595,53,Fixation: 17453 ms,269,17453,17721,"[ 7, 99]",5,911,269,977.0,322.1,1,1,36.2,37.0,57,Saccade: 17425 ms,LEFT,28,3.53,126,231.22,"[ 2, 99]",17425,17452,1102.2,340,975.6,314.2,58,Saccade: 17722 ms,LEFT,23,1.76,76.42,139.79,"[ 6, 99]",17722,17744,976.2,332.3,922.7,297.5,-8.56,RIGHT,3.41,A19,D7.wav,D7_FAM_She_is_washing_the_dishes.png,21,5202127
p10,Trial: 44,p10.edf,.,54,Fixation: 17745 ms,195,17745,17939,"[ 6, 99]",2,915,195,929.4,302.1,1,1,35.9,36.9,58,Saccade: 17722 ms,LEFT,23,1.76,76.42,139.79,"[ 6, 99]",17722,17744,976.2,332.3,922.7,297.5,59,Saccade: 17940 ms,RIGHT,21,0.99,47.37,90.62,[ 99],17940,17960,931.8,302.7,958.2,327.5,-22.29,RIGHT,1.43,A19,D7.wav,D7_FAM_She_is_washing_the_dishes.png,21,5202127
p10,Trial: 44,p10.edf,.,55,Fixation: 17961 ms,197,17961,18157,[ 99],76,915,19552,957.2,325.1,53,75,36.05,36.9,59,Saccade: 17940 ms,RIGHT,21,0.99,47.37,90.62,"[ 6, 99]",17940,17960,931.8,302.7,958.2,327.5,60,Saccade: 18158 ms,LEFT,54,11.86,219.54,453.24,"[ 5, 99]",18158,18211,957.7,327,535.5,296.7,141.11,LEFT,0.99,A19,D7.wav,D7_FAM_She_is_washing_the_dishes.png,21,5202127
p10,Trial: 44,p10.edf,18370,56,Fixation: 18212 ms,169,18212,18380,"[ 5, 99]",10,943,169,518.3,294.2,1,1,35.3,36.55,60,Saccade: 18158 ms,LEFT,54,11.86,219.54,453.24,[ 99],18158,18211,957.7,327,535.5,296.7,61,Saccade: 18381 ms,LEFT,29,0.94,32.54,123.23,"[ 5, 99]",18381,18409,519,298.1,488.1,285.1,-3.91,RIGHT,12.33,A19,D7.wav,D7_FAM_She_is_washing_the_dishes.png,21,5202127
p10,Trial: 44,p10.edf,.,57,Fixation: 18410 ms,335,18410,18744,[ 99],76,931,19552,482.7,288.6,55,75,35.4,36.6,61,Saccade: 18381 ms,LEFT,29,0.94,32.54,123.23,"[ 5, 99]",18381,18409,519,298.1,488.1,285.1,62,Saccade: 18745 ms,LEFT,29,3.26,112.25,201.61,"[ 4, 99]",18745,18773,483.5,295.3,373.3,258.3,-8.64,RIGHT,1.02,A19,D7.wav,D7_FAM_She_is_washing_the_dishes.png,21,5202127
p10,Trial: 44,p10.edf,.,58,Fixation: 18774 ms,269,18774,19042,"[ 4, 99]",12,904,554,373.2,266.8,1,2,35.8,36.85,62,Saccade: 18745 ms,LEFT,29,3.26,112.25,201.61,[ 99],18745,18773,483.5,295.3,373.3,258.3,63,Saccade: 19043 ms,LEFT,12,0.74,61.28,58.97,[ 99],19043,19054,371.1,271.1,345,267.3,-10.92,RIGHT,3.13,A19,D7.wav,D7_FAM_She_is_washing_the_dishes.png,21,5202127
p10,Trial: 44,p10.edf,.,59,Fixation: 19055 ms,285,19055,19339,"[ 4, 99]",12,935,554,348.7,266.9,2,2,35.9,36.9,63,Saccade: 19043 ms,LEFT,12,0.74,61.28,58.97,"[ 4, 99]",19043,19054,371.1,271.1,345,267.3,64,Saccade: 19340 ms,RIGHT,40,3.92,98.02,332.03,[ 99],19340,19379,344.8,268.1,482.8,291,0.23,RIGHT,0.68,A19,D7.wav,D7_FAM_She_is_washing_the_dishes.png,21,5202127
p10,Trial: 44,p10.edf,.,60,Fixation: 19380 ms,258,19380,19637,"[ 5, 99]",10,931,258,492.9,298.9,1,1,35.4,36.6,64,Saccade: 19340 ms,RIGHT,40,3.92,98.02,332.03,[ 99],19340,19379,344.8,268.1,482.8,291,65,Saccade: 19638 ms,RIGHT,64,13.46,210.31,500.73,"[ 7, 27, 99]",19638,19701,493.6,299.6,975.2,316,167.85,LEFT,4.14,A19,D7.wav,D7_FAM_She_is_washing_the_dishes.png,21,5202127
p10,Trial: 44,p10.edf,.,61,Fixation: 19702 ms,362,19702,20063,"[ 7, 99]",5,925,362,973.1,323.1,1,1,36.2,37.0,65,Saccade: 19638 ms,RIGHT,64,13.46,210.31,500.73,"[ 5, 99]",19638,19701,493.6,299.6,975.2,316,66,Saccade: 20064 ms,LEFT,175,15.61,89.17,987.32,"[ 4, 99]",20064,20238,979.5,326.4,419.6,306.8,177.19,LEFT,13.43,A19,D7.wav,D7_FAM_She_is_washing_the_dishes.png,21,5202127
p10,Trial: 44,p10.edf,.,62,Fixation: 20416 ms,1999,20416,22414,"[ 4, 99]",12,933,1999,348.7,269.4,1,1,35.9,36.9,67,Saccade: 20392 ms,LEFT,24,2.14,89.2,176.68,"[ 4, 99]",20392,20415,419.9,284.1,345.9,264,68,Saccade: 22415 ms,RIGHT,38,3.72,97.99,300.84,[ 99],22415,22452,351.2,267,481.3,294.2,-4.8,RIGHT,17.38,A19,D7.wav,D7_FAM_She_is_washing_the_dishes.png,21,5202127
p10,Trial: 44,p10.edf,.,63,Fixation: 22453 ms,380,22453,22832,"[ 5, 99]",10,957,608,485.3,295.6,1,2,35.4,36.6,68,Saccade: 22415 ms,RIGHT,38,3.72,97.99,300.84,"[ 4, 99]",22415,22452,351.2,267,481.3,294.2,69,Saccade: 22833 ms,RIGHT,25,2.59,103.5,184.98,[ 99],22833,22857,483.1,294.7,572,316.4,169.46,LEFT,3.9,A19,D7.wav,D7_FAM_She_is_washing_the_dishes.png,21,5202127
p10,Trial: 44,p10.edf,.,64,Fixation: 22858 ms,228,22858,23085,"[ 5, 99]",10,910,608,572.9,323.5,2,2,35.2,36.5,69,Saccade: 22833 ms,RIGHT,25,2.59,103.5,184.98,[ 99],22833,22857,483.1,294.7,572,316.4,70,Saccade: 23086 ms,LEFT,33,4.9,148.36,290.25,"[ 4, 99]",23086,23118,573.5,325.8,407.1,274.8,162.9,LEFT,2.6,A19,D7.wav,D7_FAM_She_is_washing_the_dishes.png,21,5202127
p10,Trial: 44,p10.edf,.,65,Fixation: 23119 ms,293,23119,23411,"[ 4, 99]",12,896,293,409.9,269.5,1,1,35.65,36.75,70,Saccade: 23086 ms,LEFT,33,4.9,148.36,290.25,"[ 5, 99]",23086,23118,573.5,325.8,407.1,274.8,71,Saccade: 23412 ms,DOWN,204,12.87,63.1,923.35,[ 99],23412,23615,412.2,281.2,637.8,697.1,-17.77,RIGHT,4.83,A19,D7.wav,D7_FAM_She_is_washing_the_dishes.png,21,5202127
p10,Trial: 44,p10.edf,.,66,Fixation: 24457 ms,211,24457,24667,"[ 13, 14, 99]",8,920,211,345.5,594.7,1,1,36.1,37.35,73,Saccade: 24408 ms,LEFT,49,8.02,163.65,396.99,"[ 11, 99]",24408,24456,619.6,723.3,355.3,604.1,74,Saccade: 24668 ms,RIGHT,31,2.6,83.89,156.72,"[ 14, 99]",24668,24698,346,595.5,433.6,562.1,78.44,UP,8.96,A19,D7.wav,D7_FAM_She_is_washing_the_dishes.png,21,5202127
p10,Trial: 44,p10.edf,.,67,Fixation: 24699 ms,199,24699,24897,[ 99],76,908,19552,426.9,563.3,65,75,35.7,37.0,74,Saccade: 24668 ms,RIGHT,31,2.6,83.89,156.72,"[ 13, 14, 99]",24668,24698,346,595.5,433.6,562.1,75,Saccade: 24898 ms,LEFT,27,2.96,109.63,200.66,"[ 14, 99]",24898,24924,430.4,564.7,324,566.2,-159.57,LEFT,2.42,A19,D7.wav,D7_FAM_She_is_washing_the_dishes.png,21,5202127
p10,Trial: 44,p10.edf,.,68,Fixation: 24925 ms,270,24925,25194,"[ 14, 99]",19,900,1286,329.7,572.3,1,5,36.2,37.3,75,Saccade: 24898 ms,LEFT,27,2.96,109.63,200.66,[ 99],24898,24924,430.4,564.7,324,566.2,76,Saccade: 25195 ms,RIGHT,25,2.7,108.19,203.66,"[ 14, 99]",25195,25219,330.1,575.3,427.1,568.3,5.12,RIGHT,2.71,A19,D7.wav,D7_FAM_She_is_washing_the_dishes.png,21,5202127
p10,Trial: 44,p10.edf,.,69,Fixation: 25220 ms,236,25220,25455,"[ 14, 99]",19,911,1286,417.8,574.6,2,5,35.75,37.1,76,Saccade: 25195 ms,RIGHT,25,2.7,108.19,203.66,"[ 13, 14, 99]",25195,25219,330.1,575.3,427.1,568.3,77,Saccade: 25456 ms,LEFT,24,2.46,102.35,173.61,"[ 13, 14, 99]",25456,25479,416.6,580.5,328.2,578.2,178.55,LEFT,2.45,A19,D7.wav,D7_FAM_She_is_washing_the_dishes.png,21,5202127
p10,Trial: 44,p10.edf,.,70,Fixation: 25480 ms,256,25480,25735,"[ 13, 14, 99]",8,909,256,333.0,583.8,1,1,36.2,37.35,77,Saccade: 25456 ms,LEFT,24,2.46,102.35,173.61,"[ 14, 99]",25456,25479,416.6,580.5,328.2,578.2,78,Saccade: 25736 ms,RIGHT,26,3.45,132.87,250.15,"[ 12, 14, 99]",25736,25761,329.6,584.9,450.3,555.4,5.99,RIGHT,2.37,A19,D7.wav,D7_FAM_She_is_washing_the_dishes.png,21,5202127
p10,Trial: 44,p10.edf,.,71,Fixation: 25762 ms,299,25762,26060,"[ 12, 14, 99]",8,920,299,444.1,567.3,1,1,35.7,37.0,78,Saccade: 25736 ms,RIGHT,26,3.45,132.87,250.15,"[ 13, 14, 99]",25736,25761,329.6,584.9,450.3,555.4,79,Saccade: 26061 ms,LEFT,27,2.7,100.12,168.66,"[ 13, 14, 99]",26061,26087,444.5,571.9,348.9,589.2,-171.83,LEFT,3.12,A19,D7.wav,D7_FAM_She_is_washing_the_dishes.png,21,5202127
p10,Trial: 44,p10.edf,.,72,Fixation: 26088 ms,225,26088,26312,"[ 13, 14, 99]",8,930,225,349.9,590.1,1,1,36.1,37.3,79,Saccade: 26061 ms,LEFT,27,2.7,100.12,168.66,"[ 14, 99]",26061,26087,444.5,571.9,348.9,589.2,80,Saccade: 26313 ms,RIGHT,53,6.69,126.16,359.91,"[ 5, 99]",26313,26365,349.9,588.9,538.9,438,13.16,RIGHT,2.69,A19,D7.wav,D7_FAM_She_is_washing_the_dishes.png,21,5202127
p10,Trial: 44,p10.edf,.,73,Fixation: 26366 ms,251,26366,26616,"[ 5, 99]",10,948,251,544.1,445.8,1,1,35.3,36.6,80,Saccade: 26313 ms,RIGHT,53,6.69,126.16,359.91,"[ 13, 14, 99]",26313,26365,349.9,588.9,538.9,438,81,Saccade: 26617 ms,LEFT,37,6.4,173.03,335.56,"[ 13, 14, 99]",26617,26653,544.8,448.5,380.6,612.8,-144.33,LEFT,6.7,A19,D7.wav,D7_FAM_She_is_washing_the_dishes.png,21,5202127
p10,Trial: 44,p10.edf,.,74,Fixation: 26654 ms,105,26654,26758,"[ 13, 14, 99]",8,973,384,374.5,609.9,1,2,36.0,37.3,81,Saccade: 26617 ms,LEFT,37,6.4,173.03,335.56,"[ 5, 99]",26617,26653,544.8,448.5,380.6,612.8,82,Saccade: 26759 ms,RIGHT,210,2.25,10.69,698.37,"[ 14, 99]",26759,26968,372.4,609.6,441.5,566.8,43.03,RIGHT,6.51,A19,D7.wav,D7_FAM_She_is_washing_the_dishes.png,21,5202127
p10,Trial: 44,p10.edf,.,75,Fixation: 27154 ms,279,27154,27432,"[ 13, 14, 99]",8,997,384,324.3,578.5,2,2,36.25,37.3,83,Saccade: 27125 ms,LEFT,29,3.47,119.53,224.53,"[ 12, 14, 99]",27125,27153,441.7,561.6,317.4,573,84,Saccade: 27433 ms,RIGHT,26,3.5,134.55,246.02,"[ 12, 14, 99]",27433,27458,323.7,576.9,449,565.8,-31.21,RIGHT,1.62,A19,D7.wav,D7_FAM_She_is_washing_the_dishes.png,21,5202127
p10,Trial: 44,p10.edf,.,76,Fixation: 27459 ms,459,27459,27917,"[ 12, 14, 99]",8,972,709,446.3,569.0,1,2,35.7,37.0,84,Saccade: 27433 ms,RIGHT,26,3.5,134.55,246.02,"[ 13, 14, 99]",27433,27458,323.7,576.9,449,565.8,85,Saccade: 27918 ms,RIGHT,16,0.6,37.7,56.95,"[ 12, 14, 99]",27918,27933,448.1,570.4,469.6,570,-175.69,LEFT,3.4,A19,D7.wav,D7_FAM_She_is_washing_the_dishes.png,21,5202127
p10,Trial: 44,p10.edf,28164,77,Fixation: 27934 ms,250,27934,28183,"[ 12, 14, 99]",8,941,709,461.5,568.3,2,2,35.6,37.0,85,Saccade: 27918 ms,RIGHT,16,0.6,37.7,56.95,"[ 12, 14, 99]",27918,27933,448.1,570.4,469.6,570,.,.,.,.,.,.,.,.,.,.,.,.,.,.,-177.46,.,0.43,A19,D7.wav,D7_FAM_She_is_washing_the_dishes.png,21,5202127
