RECORDING_SESSION_LABEL,TRIAL_LABEL,DATA_FILE,CURRENT_FIX_MSG_TIME_1,CURRENT_FIX_INDEX,CURRENT_FIX_LABEL,CURRENT_FIX_DURATION,CURRENT_FIX_START,CURRENT_FIX_END,CURRENT_FIX_INTEREST_AREAS,CURRENT_FIX_INTEREST_AREA_FIX_COUNT,CURRENT_FIX_PUPIL,CURRENT_FIX_RUN_DWELL_TIME,CURRENT_FIX_X,CURRENT_FIX_Y,CURRENT_FIX_RUN_INDEX,CURRENT_FIX_RUN_SIZE,CURRENT_FIX_X_RESOLUTION,CURRENT_FIX_Y_RESOLUTION,PREVIOUS_SAC_INDEX,PREVIOUS_SAC_LABEL,PREVIOUS_SAC_DIRECTION,PREVIOUS_SAC_DURATION,PREVIOUS_SAC_AMPLITUDE,PREVIOUS_SAC_AVG_VELOCITY,PREVIOUS_SAC_PEAK_VELOCITY,PREVIOUS_SAC_START_INTEREST_AREAS,PREVIOUS_SAC_START_TIME,PREVIOUS_SAC_END_TIME,PREVIOUS_SAC_START_X,PREVIOUS_SAC_START_Y,PREVIOUS_SAC_END_X,PREVIOUS_SAC_END_Y,NEXT_SAC_INDEX,NEXT_SAC_LABEL,NEXT_SAC_DIRECTION,NEXT_SAC_DURATION,NEXT_SAC_AMPLITUDE,NEXT_SAC_AVG_VELOCITY,NEXT_SAC_PEAK_VELOCITY,NEXT_SAC_END_INTEREST_AREAS,NEXT_SAC_START_TIME,NEXT_SAC_END_TIME,NEXT_SAC_START_X,NEXT_SAC_START_Y,NEXT_SAC_END_X,NEXT_SAC_END_Y,PREVIOUS_FIX_ANGLE,PREVIOUS_FIX_DIRECTION,PREVIOUS_FIX_DISTANCE,ItemNO,audiofilename,imagefilename,TRIAL_INDEX,TRIAL_START_TIME
p12,Trial: 19,p12.edf,62,1,Fixation: 7 ms,433,7,439,"[ 6, 99]",2,928,433,304.7,529.1,1,1,36.25,37.2,.,.,.,.,.,.,.,.,.,.,.,.,.,.,1,Saccade: 440 ms,DOWN,50,13.24,264.88,504.64,[ ],440,489,309.3,529.6,631.4,904.2,.,.,.,A18,D7.wav,D7_FAM_She_is_washing_the_dishes.png,10,16215892
p12,Trial: 19,p12.edf,.,2,Fixation: 490 ms,167,490,656,[ ],.,652,.,632.7,899.5,.,.,36.4,39.0,1,Saccade: 440 ms,DOWN,50,13.24,264.88,504.64,"[ 6, 99]",440,489,309.3,529.6,631.4,904.2,2,Saccade: 657 ms,RIGHT,11,0.65,58.98,57.4,[ ],657,667,635.7,900.9,655,915.5,132.89,UP,13.27,A18,D7.wav,D7_FAM_She_is_washing_the_dishes.png,10,16215892
p12,Trial: 19,p12.edf,3144,3,Fixation: 668 ms,2716,668,3383,[ ],.,710,.,655.8,913.6,.,.,36.4,39.1,2,Saccade: 657 ms,RIGHT,11,0.65,58.98,57.4,[ ],657,667,635.7,900.9,655,915.5,3,Saccade: 3384 ms,UP,122,16.58,135.89,751.72,"[ 9, 99]",3384,3505,652.8,916,403.6,344.9,150.36,LEFT,0.73,A18,D7.wav,D7_FAM_She_is_washing_the_dishes.png,10,16215892
p12,Trial: 19,p12.edf,.,4,Fixation: 3805 ms,188,3805,3992,"[ 2, 99]",1,1022,188,139.1,194.4,1,1,37.3,37.75,4,Saccade: 3750 ms,LEFT,55,8.91,162,424.21,[ 99],3750,3804,445.8,356.3,161.3,198.1,5,Saccade: 3993 ms,UP,21,1.29,61.47,101.45,[ 99],3993,4013,138.5,195.9,118.8,151.2,-53.16,DOWN,23.39,A18,D7.wav,D7_FAM_She_is_washing_the_dishes.png,10,16215892
p12,Trial: 19,p12.edf,.,5,Fixation: 4014 ms,387,4014,4400,[ 99],54,968,20311,124.9,167.4,2,53,37.65,37.95,5,Saccade: 3993 ms,UP,21,1.29,61.47,101.45,"[ 2, 99]",3993,4013,138.5,195.9,118.8,151.2,6,Saccade: 4401 ms,RIGHT,79,24.12,305.37,802.56,[ 99],4401,4479,128.5,167.6,1010.6,305.9,-62.02,DOWN,0.81,A18,D7.wav,D7_FAM_She_is_washing_the_dishes.png,10,16215892
p12,Trial: 19,p12.edf,.,6,Fixation: 4480 ms,196,4480,4675,[ 99],54,906,20311,1018.7,312.3,3,53,36.4,37.1,6,Saccade: 4401 ms,RIGHT,79,24.12,305.37,802.56,[ 99],4401,4479,128.5,167.6,1010.6,305.9,7,Saccade: 4676 ms,DOWN,20,0.52,25.84,64.64,[ 99],4676,4695,1021.7,308.3,1033.7,323.1,170.91,LEFT,24.45,A18,D7.wav,D7_FAM_She_is_washing_the_dishes.png,10,16215892
p12,Trial: 19,p12.edf,.,7,Fixation: 4696 ms,205,4696,4900,[ 99],54,916,20311,1031.6,321.8,4,53,36.5,37.2,7,Saccade: 4676 ms,DOWN,20,0.52,25.84,64.64,[ 99],4676,4695,1021.7,308.3,1033.7,323.1,8,Saccade: 4901 ms,LEFT,37,1.87,50.41,182.03,"[ 3, 99]",4901,4937,1031.8,322.6,969.3,349.2,144.15,.,0.44,A18,D7.wav,D7_FAM_She_is_washing_the_dishes.png,10,16215892
p12,Trial: 19,p12.edf,.,8,Fixation: 4938 ms,521,4938,5458,"[ 3, 99]",7,947,521,961.7,358.8,1,1,36.1,36.95,8,Saccade: 4901 ms,LEFT,37,1.87,50.41,182.03,[ 99],4901,4937,1031.8,322.6,969.3,349.2,9,Saccade: 5459 ms,DOWN,45,5.68,126.13,323.35,"[ 11, 99]",5459,5503,962.2,360.4,1107.5,511.7,27.4,RIGHT,2.17,A18,D7.wav,D7_FAM_She_is_washing_the_dishes.png,10,16215892
p12,Trial: 19,p12.edf,.,9,Fixation: 5504 ms,243,5504,5746,[ 99],54,943,20311,1115.5,517.1,6,53,37.2,37.65,9,Saccade: 5459 ms,DOWN,45,5.68,126.13,323.35,"[ 3, 99]",5459,5503,962.2,360.4,1107.5,511.7,10,Saccade: 5747 ms,UP,18,1.19,66.33,88.04,[ 99],5747,5764,1114.8,520.2,1123.4,476.1,134.68,UP,5.97,A18,D7.wav,D7_FAM_She_is_washing_the_dishes.png,10,16215892
p12,Trial: 19,p12.edf,.,10,Fixation: 5765 ms,232,5765,5996,[ 99],54,955,20311,1125.4,475.8,7,53,37.3,37.65,10,Saccade: 5747 ms,UP,18,1.19,66.33,88.04,"[ 11, 99]",5747,5764,1114.8,520.2,1123.4,476.1,11,Saccade: 5997 ms,LEFT,28,4.28,152.93,292.41,"[ 11, 99]",5997,6024,1128.2,475.7,1003.9,575.1,-103.62,DOWN,1.13,A18,D7.wav,D7_FAM_She_is_washing_the_dishes.png,10,16215892
p12,Trial: 19,p12.edf,.,11,Fixation: 6025 ms,437,6025,6461,"[ 11, 99]",7,969,2775,1004.4,585.9,1,6,36.5,37.5,11,Saccade: 5997 ms,LEFT,28,4.28,152.93,292.41,[ 99],5997,6024,1128.2,475.7,1003.9,575.1,12,Saccade: 6462 ms,LEFT,19,1.17,61.45,88.01,"[ 11, 99]",6462,6480,1002.1,590.2,962,604.7,41.78,RIGHT,4.4,A18,D7.wav,D7_FAM_She_is_washing_the_dishes.png,10,16215892
p12,Trial: 19,p12.edf,.,12,Fixation: 6481 ms,251,6481,6731,"[ 11, 99]",7,1013,2775,970.9,605.9,2,6,36.35,37.5,12,Saccade: 6462 ms,LEFT,19,1.17,61.45,88.01,"[ 11, 99]",6462,6480,1002.1,590.2,962,604.7,13,Saccade: 6732 ms,RIGHT,13,0.71,54.98,58.32,"[ 11, 99]",6732,6744,971.6,608.6,997.5,611.5,30.11,RIGHT,1.06,A18,D7.wav,D7_FAM_She_is_washing_the_dishes.png,10,16215892
p12,Trial: 19,p12.edf,.,13,Fixation: 6745 ms,707,6745,7451,"[ 11, 99]",7,998,2775,993.5,617.8,3,6,36.6,37.65,13,Saccade: 6732 ms,RIGHT,13,0.71,54.98,58.32,"[ 11, 99]",6732,6744,971.6,608.6,997.5,611.5,14,Saccade: 7452 ms,LEFT,15,0.86,57.23,67.84,"[ 11, 17, 99]",7452,7466,992.6,626.3,963.6,614.2,152.93,LEFT,0.7,A18,D7.wav,D7_FAM_She_is_washing_the_dishes.png,10,16215892
p12,Trial: 19,p12.edf,.,14,Fixation: 7467 ms,568,7467,8034,"[ 11, 17, 99]",7,1004,2775,971.8,615.6,4,6,36.4,37.5,14,Saccade: 7452 ms,LEFT,15,0.86,57.23,67.84,"[ 11, 17, 99]",7452,7466,992.6,626.3,963.6,614.2,15,Saccade: 8035 ms,.,18,0.36,19.89,39.74,"[ 11, 99]",8035,8052,969.1,617.8,960.2,608,-5.62,RIGHT,0.6,A18,D7.wav,D7_FAM_She_is_washing_the_dishes.png,10,16215892
p12,Trial: 19,p12.edf,.,15,Fixation: 8053 ms,500,8053,8552,"[ 11, 99]",7,1000,2775,968.0,605.3,5,6,36.35,37.5,15,Saccade: 8035 ms,.,18,0.36,19.89,39.74,"[ 11, 17, 99]",8035,8052,969.1,617.8,960.2,608,16,Saccade: 8553 ms,RIGHT,14,0.72,51.78,58.72,"[ 11, 99]",8553,8566,971,604.2,997.4,605.4,-69.18,.,0.29,A18,D7.wav,D7_FAM_She_is_washing_the_dishes.png,10,16215892
p12,Trial: 19,p12.edf,.,16,Fixation: 8567 ms,312,8567,8878,"[ 11, 99]",7,1002,2775,989.3,609.1,6,6,36.5,37.6,16,Saccade: 8553 ms,RIGHT,14,0.72,51.78,58.72,"[ 11, 99]",8553,8566,971,604.2,997.4,605.4,17,Saccade: 8879 ms,LEFT,175,12.36,70.63,875.88,[ 99],8879,9053,991.6,607.8,647,319.9,170.18,LEFT,0.59,A18,D7.wav,D7_FAM_She_is_washing_the_dishes.png,10,16215892
p12,Trial: 19,p12.edf,.,17,Fixation: 9279 ms,234,9279,9512,"[ 25, 99]",6,1039,234,614.7,247.3,1,1,35.2,36.6,18,Saccade: 9253 ms,LEFT,26,2.28,87.84,147.88,"[ 25, 99]",9253,9278,672.5,283.2,602.1,242.9,19,Saccade: 9513 ms,LEFT,73,14.76,202.19,488.82,"[ 16, 20, 99]",9513,9585,619.1,248.7,156.2,523.7,-43.02,RIGHT,14.29,A18,D7.wav,D7_FAM_She_is_washing_the_dishes.png,10,16215892
p12,Trial: 19,p12.edf,.,18,Fixation: 9586 ms,289,9586,9874,"[ 16, 20, 99]",2,1000,514,151.1,532.6,1,2,37.3,37.8,19,Saccade: 9513 ms,LEFT,73,14.76,202.19,488.82,"[ 25, 99]",9513,9585,619.1,248.7,156.2,523.7,20,Saccade: 9875 ms,LEFT,21,1.51,71.82,112.62,"[ 16, 20, 99]",9875,9895,153.4,535.1,97.6,544.9,30.95,RIGHT,14.91,A18,D7.wav,D7_FAM_She_is_washing_the_dishes.png,10,16215892
p12,Trial: 19,p12.edf,.,19,Fixation: 9896 ms,225,9896,10120,"[ 16, 20, 99]",2,1016,514,105.1,543.6,2,2,37.8,38.1,20,Saccade: 9875 ms,LEFT,21,1.51,71.82,112.62,"[ 16, 20, 99]",9875,9895,153.4,535.1,97.6,544.9,21,Saccade: 10121 ms,UP,31,3.14,101.41,170.28,"[ 13, 99]",10121,10151,101.3,546.8,126.1,430.3,13.31,RIGHT,1.26,A18,D7.wav,D7_FAM_She_is_washing_the_dishes.png,10,16215892
p12,Trial: 19,p12.edf,.,20,Fixation: 10152 ms,152,10152,10303,"[ 13, 99]",4,987,803,125.9,437.6,1,3,37.5,37.7,21,Saccade: 10121 ms,UP,31,3.14,101.41,170.28,"[ 16, 20, 99]",10121,10151,101.3,546.8,126.1,430.3,22,Saccade: 10304 ms,UP,21,1.28,61.02,103.2,"[ 13, 99]",10304,10324,128.4,439.3,120.2,391.7,-101.17,DOWN,2.85,A18,D7.wav,D7_FAM_She_is_washing_the_dishes.png,10,16215892
p12,Trial: 19,p12.edf,.,21,Fixation: 10325 ms,500,10325,10824,"[ 13, 99]",4,994,803,126.8,402.7,2,3,37.45,37.65,22,Saccade: 10304 ms,UP,21,1.28,61.02,103.2,"[ 13, 99]",10304,10324,128.4,439.3,120.2,391.7,23,Saccade: 10825 ms,LEFT,20,1.12,56.14,84.89,"[ 13, 99]",10825,10844,131,407.2,88.9,404,-91.49,DOWN,0.93,A18,D7.wav,D7_FAM_She_is_washing_the_dishes.png,10,16215892
p12,Trial: 19,p12.edf,.,22,Fixation: 10845 ms,151,10845,10995,"[ 13, 99]",4,1007,803,101.9,407.9,3,3,37.75,37.8,23,Saccade: 10825 ms,LEFT,20,1.12,56.14,84.89,"[ 13, 99]",10825,10844,131,407.2,88.9,404,24,Saccade: 10996 ms,RIGHT,41,8.21,200.35,360.4,"[ 6, 99]",10996,11036,103.5,411.3,399.7,468.3,11.76,RIGHT,0.68,A18,D7.wav,D7_FAM_She_is_washing_the_dishes.png,10,16215892
p12,Trial: 19,p12.edf,.,23,Fixation: 11037 ms,305,11037,11341,"[ 6, 99]",2,1054,305,403.2,467.8,1,1,35.7,36.8,24,Saccade: 10996 ms,RIGHT,41,8.21,200.35,360.4,"[ 13, 99]",10996,11036,103.5,411.3,399.7,468.3,25,Saccade: 11342 ms,RIGHT,58,9.53,164.29,349.66,[ 99],11342,11399,401.7,473,721.4,360.2,168.93,LEFT,8.36,A18,D7.wav,D7_FAM_She_is_washing_the_dishes.png,10,16215892
p12,Trial: 19,p12.edf,.,24,Fixation: 11400 ms,210,11400,11609,"[ 4, 99]",4,1056,412,753.2,359.0,1,2,35.25,36.5,25,Saccade: 11342 ms,RIGHT,58,9.53,164.29,349.66,"[ 6, 99]",11342,11399,401.7,473,721.4,360.2,26,Saccade: 11610 ms,UP,24,1.43,59.59,103.09,"[ 4, 99]",11610,11633,763.5,359.7,775,308.8,-163.25,LEFT,10.3,A18,D7.wav,D7_FAM_She_is_washing_the_dishes.png,10,16215892
p12,Trial: 19,p12.edf,.,25,Fixation: 11634 ms,202,11634,11835,"[ 4, 99]",4,1034,412,753.9,306.5,2,2,35.3,36.55,26,Saccade: 11610 ms,UP,24,1.43,59.59,103.09,"[ 4, 99]",11610,11633,763.5,359.7,775,308.8,27,Saccade: 11836 ms,UP,22,1.69,76.87,114.06,"[ 25, 99]",11836,11857,752.4,308.1,714.2,260.6,-90.79,DOWN,1.44,A18,D7.wav,D7_FAM_She_is_washing_the_dishes.png,10,16215892
p12,Trial: 19,p12.edf,.,26,Fixation: 11858 ms,178,11858,12035,"[ 25, 99]",6,998,1002,710.1,269.1,1,5,35.25,36.55,27,Saccade: 11836 ms,UP,22,1.69,76.87,114.06,"[ 4, 99]",11836,11857,752.4,308.1,714.2,260.6,28,Saccade: 12036 ms,UP,27,2.12,78.4,136.87,"[ 21, 25, 99]",12036,12062,710.2,271.1,698.4,194.6,-39.49,RIGHT,1.61,A18,D7.wav,D7_FAM_She_is_washing_the_dishes.png,10,16215892
p12,Trial: 19,p12.edf,.,27,Fixation: 12063 ms,190,12063,12252,"[ 21, 25, 99]",1,961,190,703.6,201.6,1,1,35.3,36.7,28,Saccade: 12036 ms,UP,27,2.12,78.4,136.87,"[ 25, 99]",12036,12062,710.2,271.1,698.4,194.6,29,Saccade: 12253 ms,LEFT,33,7.59,230.08,429.82,"[ 25, 99]",12253,12285,708.4,201,442.5,244.2,-84.29,DOWN,1.85,A18,D7.wav,D7_FAM_She_is_washing_the_dishes.png,10,16215892
p12,Trial: 19,p12.edf,.,28,Fixation: 12286 ms,167,12286,12452,"[ 25, 99]",6,944,1002,439.0,248.4,3,5,35.6,36.7,29,Saccade: 12253 ms,LEFT,33,7.59,230.08,429.82,"[ 21, 25, 99]",12253,12285,708.4,201,442.5,244.2,30,Saccade: 12453 ms,LEFT,25,2.56,102.59,183.71,"[ 25, 99]",12453,12477,438.6,245.6,357.5,201.5,9.7,RIGHT,7.57,A18,D7.wav,D7_FAM_She_is_washing_the_dishes.png,10,16215892
p12,Trial: 19,p12.edf,.,29,Fixation: 12478 ms,290,12478,12767,"[ 25, 99]",6,879,1002,356.2,204.5,4,5,35.9,37.0,30,Saccade: 12453 ms,LEFT,25,2.56,102.59,183.71,"[ 25, 99]",12453,12477,438.6,245.6,357.5,201.5,31,Saccade: 12768 ms,RIGHT,28,3.44,122.91,229.13,"[ 25, 99]",12768,12795,355.4,207.9,471.5,249.4,-27.22,RIGHT,2.6,A18,D7.wav,D7_FAM_She_is_washing_the_dishes.png,10,16215892
p12,Trial: 19,p12.edf,.,30,Fixation: 12796 ms,177,12796,12972,"[ 25, 99]",6,875,1002,461.4,245.9,5,5,35.5,36.7,31,Saccade: 12768 ms,RIGHT,28,3.44,122.91,229.13,"[ 25, 99]",12768,12795,355.4,207.9,471.5,249.4,32,Saccade: 12973 ms,DOWN,151,0.78,5.18,681.74,"[ 25, 99]",12973,13123,454.9,245.9,457.5,274.5,159.13,LEFT,3.15,A18,D7.wav,D7_FAM_She_is_washing_the_dishes.png,10,16215892
p12,Trial: 19,p12.edf,.,31,Fixation: 13494 ms,127,13494,13620,"[ 5, 99]",1,1019,127,762.6,591.2,1,1,35.5,37.0,33,Saccade: 13433 ms,DOWN,61,11.28,184.99,429.23,"[ 25, 99]",13433,13493,483.5,274.5,760.5,574.1,34,Saccade: 13621 ms,DOWN,37,3.1,83.84,263.75,"[ 12, 99]",13621,13657,761.8,592.4,727.7,702.3,132.16,UP,12.64,A18,D7.wav,D7_FAM_She_is_washing_the_dishes.png,10,16215892
p12,Trial: 19,p12.edf,.,32,Fixation: 13658 ms,442,13658,14099,"[ 12, 99]",4,1080,442,716.6,716.0,1,1,35.75,37.55,34,Saccade: 13621 ms,DOWN,37,3.1,83.84,263.75,"[ 5, 99]",13621,13657,761.8,592.4,727.7,702.3,35,Saccade: 14100 ms,UP,36,4.99,138.73,262.44,[ 99],14100,14135,716.3,720.3,838.1,583.9,68.91,UP,3.59,A18,D7.wav,D7_FAM_She_is_washing_the_dishes.png,10,16215892
p12,Trial: 19,p12.edf,.,33,Fixation: 14136 ms,239,14136,14374,"[ 11, 99]",7,995,239,854.8,578.7,1,1,35.75,37.1,35,Saccade: 14100 ms,UP,36,4.99,138.73,262.44,"[ 12, 99]",14100,14135,716.3,720.3,838.1,583.9,36,Saccade: 14375 ms,UP,41,4.34,105.93,217.03,"[ 3, 24, 99]",14375,14415,855.2,579.4,904.8,427.3,-136.42,LEFT,5.34,A18,D7.wav,D7_FAM_She_is_washing_the_dishes.png,10,16215892
p12,Trial: 19,p12.edf,.,34,Fixation: 14416 ms,282,14416,14697,"[ 3, 24, 99]",7,996,811,903.3,430.6,1,3,35.8,36.8,36,Saccade: 14375 ms,UP,41,4.34,105.93,217.03,"[ 11, 99]",14375,14415,855.2,579.4,904.8,427.3,37,Saccade: 14698 ms,UP,22,1.72,78.17,117.83,"[ 3, 99]",14698,14719,901.7,431.1,941.2,382.4,-108.69,DOWN,4.23,A18,D7.wav,D7_FAM_She_is_washing_the_dishes.png,10,16215892
p12,Trial: 19,p12.edf,14730,35,Fixation: 14720 ms,226,14720,14945,"[ 3, 99]",7,1015,811,945.2,383.7,2,3,36.0,36.9,37,Saccade: 14698 ms,UP,22,1.72,78.17,117.83,"[ 3, 24, 99]",14698,14719,901.7,431.1,941.2,382.4,38,Saccade: 14946 ms,UP,11,0.74,66.89,60.54,"[ 3, 99]",14946,14956,946.9,390,963.1,368.5,-132.52,DOWN,1.73,A18,D7.wav,D7_FAM_She_is_washing_the_dishes.png,10,16215892
p12,Trial: 19,p12.edf,.,36,Fixation: 14957 ms,303,14957,15259,"[ 3, 99]",7,1036,811,958.6,370.9,3,3,36.05,36.9,38,Saccade: 14946 ms,UP,11,0.74,66.89,60.54,"[ 3, 99]",14946,14956,946.9,390,963.1,368.5,39,Saccade: 15260 ms,LEFT,64,12.84,200.67,476.82,[ 99],15260,15323,957.4,373.9,499.3,354.5,-137,LEFT,0.51,A18,D7.wav,D7_FAM_She_is_washing_the_dishes.png,10,16215892
p12,Trial: 19,p12.edf,.,37,Fixation: 15324 ms,275,15324,15598,[ 99],54,1171,20311,492.5,358.6,34,53,35.35,36.6,39,Saccade: 15260 ms,LEFT,64,12.84,200.67,476.82,"[ 3, 99]",15260,15323,957.4,373.9,499.3,354.5,40,Saccade: 15599 ms,LEFT,28,3.51,125.53,228.41,"[ 9, 99]",15599,15626,496.6,358.5,378.9,315.2,-1.47,RIGHT,13.06,A18,D7.wav,D7_FAM_She_is_washing_the_dishes.png,10,16215892
p12,Trial: 19,p12.edf,.,38,Fixation: 15627 ms,551,15627,16177,"[ 9, 99]",2,1218,1118,362.6,313.6,1,2,35.8,36.8,40,Saccade: 15599 ms,LEFT,28,3.51,125.53,228.41,[ 99],15599,15626,496.6,358.5,378.9,315.2,41,Saccade: 16178 ms,LEFT,21,1.39,66.27,96.57,"[ 9, 99]",16178,16198,366.8,316.2,319.7,298.9,-18.56,RIGHT,3.85,A18,D7.wav,D7_FAM_She_is_washing_the_dishes.png,10,16215892
p12,Trial: 19,p12.edf,16280,39,Fixation: 16199 ms,567,16199,16765,"[ 9, 99]",2,1097,1118,334.0,299.2,2,2,36.05,36.9,41,Saccade: 16178 ms,LEFT,21,1.39,66.27,96.57,"[ 9, 99]",16178,16198,366.8,316.2,319.7,298.9,42,Saccade: 16766 ms,RIGHT,70,13.21,188.71,395.23,"[ 4, 99]",16766,16835,335.5,300.9,805.3,343,-26.14,RIGHT,0.89,A18,D7.wav,D7_FAM_She_is_washing_the_dishes.png,10,16215892
p12,Trial: 19,p12.edf,.,40,Fixation: 16836 ms,366,16836,17201,"[ 4, 99]",4,1048,1224,818.1,345.8,1,2,35.4,36.6,42,Saccade: 16766 ms,RIGHT,70,13.21,188.71,395.23,"[ 9, 99]",16766,16835,335.5,300.9,805.3,343,43,Saccade: 17202 ms,RIGHT,17,1.17,69.05,85.32,"[ 4, 99]",17202,17218,817.3,347.4,847.9,318.2,174.65,LEFT,13.61,A18,D7.wav,D7_FAM_She_is_washing_the_dishes.png,10,16215892
p12,Trial: 19,p12.edf,17595,41,Fixation: 17219 ms,858,17219,18076,"[ 4, 99]",4,1109,1224,859.8,321.2,2,2,35.6,36.7,43,Saccade: 17202 ms,RIGHT,17,1.17,69.05,85.32,"[ 4, 99]",17202,17218,817.3,347.4,847.9,318.2,44,Saccade: 18077 ms,RIGHT,27,3.11,115.09,235.57,"[ 3, 99]",18077,18103,858.7,315.4,954.8,373,-150.26,LEFT,1.35,A18,D7.wav,D7_FAM_She_is_washing_the_dishes.png,10,16215892
p12,Trial: 19,p12.edf,.,42,Fixation: 18104 ms,259,18104,18362,"[ 3, 99]",7,1232,748,948.8,364.0,1,2,36.0,36.9,44,Saccade: 18077 ms,RIGHT,27,3.11,115.09,235.57,"[ 4, 99]",18077,18103,858.7,315.4,954.8,373,45,Saccade: 18363 ms,RIGHT,22,2.22,101.05,166.53,"[ 3, 99]",18363,18384,950.3,368.8,1015.3,320.3,154.93,LEFT,2.74,A18,D7.wav,D7_FAM_She_is_washing_the_dishes.png,10,16215892
p12,Trial: 19,p12.edf,.,43,Fixation: 18385 ms,489,18385,18873,"[ 3, 99]",7,1161,748,1022.1,326.0,2,2,36.45,37.1,45,Saccade: 18363 ms,RIGHT,22,2.22,101.05,166.53,"[ 3, 99]",18363,18384,950.3,368.8,1015.3,320.3,46,Saccade: 18874 ms,.,6,0.28,46.39,34.87,[ 99],18874,18879,1027.8,328.4,1037.8,326.5,-153.09,LEFT,2.27,A18,D7.wav,D7_FAM_She_is_washing_the_dishes.png,10,16215892
p12,Trial: 19,p12.edf,.,44,Fixation: 18880 ms,602,18880,19481,[ 99],54,1031,20311,1032.1,326.9,41,53,36.55,37.2,46,Saccade: 18874 ms,.,6,0.28,46.39,34.87,"[ 3, 99]",18874,18879,1027.8,328.4,1037.8,326.5,47,Saccade: 19482 ms,DOWN,23,1.86,81.04,126,"[ 3, 99]",19482,19504,1031,326.7,986.9,379.2,174.95,.,0.28,A18,D7.wav,D7_FAM_She_is_washing_the_dishes.png,10,16215892
p12,Trial: 19,p12.edf,19530,45,Fixation: 19505 ms,1614,19505,21118,"[ 3, 99]",7,1034,1614,995.6,378.4,1,1,36.25,37.0,47,Saccade: 19482 ms,DOWN,23,1.86,81.04,126,[ 99],19482,19504,1031,326.7,986.9,379.2,48,Saccade: 21119 ms,DOWN,62,11.45,184.66,494.69,[ 99],21119,21180,995.3,382.1,736.3,714.6,54.16,UP,1.71,A18,D7.wav,D7_FAM_She_is_washing_the_dishes.png,10,16215892
p12,Trial: 19,p12.edf,.,46,Fixation: 21181 ms,254,21181,21434,"[ 12, 99]",4,1166,642,727.9,729.0,1,2,35.8,37.65,48,Saccade: 21119 ms,DOWN,62,11.45,184.66,494.69,"[ 3, 99]",21119,21180,995.3,382.1,736.3,714.6,49,Saccade: 21435 ms,LEFT,184,1.13,6.16,1047.6,"[ 12, 99]",21435,21618,736.3,735.8,697.3,723.9,51.65,UP,11.98,A18,D7.wav,D7_FAM_She_is_washing_the_dishes.png,10,16215892
p12,Trial: 19,p12.edf,.,47,Fixation: 23078 ms,388,23078,23465,"[ 12, 99]",4,991,642,718.9,722.3,2,2,35.8,37.7,50,Saccade: 23069 ms,.,9,0.43,48.29,40.53,"[ 12, 99]",23069,23077,716.2,743.8,722.5,728.8,51,Saccade: 23466 ms,RIGHT,36,3.7,102.78,168.56,"[ 8, 99]",23466,23501,718.5,725.9,842.1,675.4,-35.28,.,0.31,A18,D7.wav,D7_FAM_She_is_washing_the_dishes.png,10,16215892
p12,Trial: 19,p12.edf,.,48,Fixation: 23502 ms,376,23502,23877,"[ 8, 99]",1,1005,376,840.4,682.7,1,1,36.0,37.55,51,Saccade: 23466 ms,RIGHT,36,3.7,102.78,168.56,"[ 12, 99]",23466,23501,718.5,725.9,842.1,675.4,52,Saccade: 23878 ms,LEFT,36,3.16,87.86,252.09,[ 99],23878,23913,843.6,685.1,733.8,715.4,-162.73,LEFT,3.54,A18,D7.wav,D7_FAM_She_is_washing_the_dishes.png,10,16215892
p12,Trial: 19,p12.edf,.,49,Fixation: 23914 ms,515,23914,24428,"[ 12, 99]",4,1146,515,731.4,724.4,1,1,35.8,37.65,52,Saccade: 23878 ms,LEFT,36,3.16,87.86,252.09,"[ 8, 99]",23878,23913,843.6,685.1,733.8,715.4,53,Saccade: 24429 ms,LEFT,70,16,228.61,467.34,"[ 15, 20, 99]",24429,24498,734.1,725.8,160.9,601.3,20.07,RIGHT,3.23,A18,D7.wav,D7_FAM_She_is_washing_the_dishes.png,10,16215892
p12,Trial: 19,p12.edf,.,50,Fixation: 24499 ms,242,24499,24740,"[ 15, 20, 99]",2,1243,426,141.6,603.0,1,2,37.5,38.05,53,Saccade: 24429 ms,LEFT,70,16,228.61,467.34,"[ 12, 99]",24429,24498,734.1,725.8,160.9,601.3,54,Saccade: 24741 ms,UP,14,0.6,42.78,47.44,"[ 15, 20, 99]",24741,24754,140.2,603.5,132.2,582.2,-11.27,RIGHT,16.41,A18,D7.wav,D7_FAM_She_is_washing_the_dishes.png,10,16215892
p12,Trial: 19,p12.edf,.,51,Fixation: 24755 ms,184,24755,24938,"[ 15, 20, 99]",2,1189,426,134.9,582.9,2,2,37.6,38.05,54,Saccade: 24741 ms,UP,14,0.6,42.78,47.44,"[ 15, 20, 99]",24741,24754,140.2,603.5,132.2,582.2,55,Saccade: 24939 ms,UP,31,3.01,97.05,162.54,"[ 20, 99]",24939,24969,133.7,588.6,140.7,474.8,-71.34,DOWN,0.56,A18,D7.wav,D7_FAM_She_is_washing_the_dishes.png,10,16215892
p12,Trial: 19,p12.edf,.,52,Fixation: 24970 ms,164,24970,25133,"[ 20, 99]",8,1047,590,134.4,473.0,3,3,37.4,37.7,55,Saccade: 24939 ms,UP,31,3.01,97.05,162.54,"[ 15, 20, 99]",24939,24969,133.7,588.6,140.7,474.8,56,Saccade: 25134 ms,UP,18,1.03,57.35,82.35,"[ 13, 99]",25134,25151,133.9,474.6,124.7,436.8,-89.74,DOWN,2.9,A18,D7.wav,D7_FAM_She_is_washing_the_dishes.png,10,16215892
p12,Trial: 19,p12.edf,.,53,Fixation: 25152 ms,265,25152,25416,"[ 13, 99]",4,1009,265,123.3,438.5,1,1,37.5,37.7,56,Saccade: 25134 ms,UP,18,1.03,57.35,82.35,"[ 20, 99]",25134,25151,133.9,474.6,124.7,436.8,57,Saccade: 25417 ms,DOWN,28,3.89,138.89,263.51,"[ 15, 20, 99]",25417,25444,122.4,442.4,109.4,589.4,-72.05,DOWN,0.96,A18,D7.wav,D7_FAM_She_is_washing_the_dishes.png,10,16215892
p12,Trial: 19,p12.edf,.,54,Fixation: 25445 ms,799,25445,26243,"[ 20, 99]",8,1020,2706,108.7,581.4,1,3,37.8,38.15,57,Saccade: 25417 ms,DOWN,28,3.89,138.89,263.51,"[ 13, 99]",25417,25444,122.4,442.4,109.4,589.4,58,Saccade: 26244 ms,RIGHT,13,0.66,50.41,56.08,"[ 20, 99]",26244,26256,110.4,576.8,134.9,573.6,84.12,UP,3.79,A18,D7.wav,D7_FAM_She_is_washing_the_dishes.png,10,16215892
p12,Trial: 19,p12.edf,.,55,Fixation: 26257 ms,706,26257,26962,"[ 20, 99]",8,986,2706,130.9,574.6,2,3,37.6,38.0,58,Saccade: 26244 ms,RIGHT,13,0.66,50.41,56.08,"[ 20, 99]",26244,26256,110.4,576.8,134.9,573.6,59,Saccade: 26963 ms,.,7,0.3,43.15,33.05,"[ 15, 20, 99]",26963,26969,133.8,579,122.6,581,-163.13,LEFT,0.62,A18,D7.wav,D7_FAM_She_is_washing_the_dishes.png,10,16215892
p12,Trial: 19,p12.edf,28151,56,Fixation: 26970 ms,1201,26970,28170,"[ 20, 99]",8,1053,2706,123.6,578.0,3,3,37.7,38.1,59,Saccade: 26963 ms,.,7,0.3,43.15,33.05,"[ 20, 99]",26963,26969,133.8,579,122.6,581,.,.,.,.,.,.,.,.,.,.,.,.,.,.,24.74,.,0.21,A18,D7.wav,D7_FAM_She_is_washing_the_dishes.png,10,16215892
