RECORDING_SESSION_LABEL,TRIAL_LABEL,DATA_FILE,CURRENT_FIX_MSG_TIME_1,CURRENT_FIX_INDEX,CURRENT_FIX_LABEL,CURRENT_FIX_DURATION,CURRENT_FIX_START,CURRENT_FIX_END,CURRENT_FIX_INTEREST_AREAS,CURRENT_FIX_INTEREST_AREA_FIX_COUNT,CURRENT_FIX_PUPIL,CURRENT_FIX_RUN_DWELL_TIME,CURRENT_FIX_X,CURRENT_FIX_Y,CURRENT_FIX_RUN_INDEX,CURRENT_FIX_RUN_SIZE,CURRENT_FIX_X_RESOLUTION,CURRENT_FIX_Y_RESOLUTION,PREVIOUS_SAC_INDEX,PREVIOUS_SAC_LABEL,PREVIOUS_SAC_DIRECTION,PREVIOUS_SAC_DURATION,PREVIOUS_SAC_AMPLITUDE,PREVIOUS_SAC_AVG_VELOCITY,PREVIOUS_SAC_PEAK_VELOCITY,PREVIOUS_SAC_START_INTEREST_AREAS,PREVIOUS_SAC_START_TIME,PREVIOUS_SAC_END_TIME,PREVIOUS_SAC_START_X,PREVIOUS_SAC_START_Y,PREVIOUS_SAC_END_X,PREVIOUS_SAC_END_Y,NEXT_SAC_INDEX,NEXT_SAC_LABEL,NEXT_SAC_DIRECTION,NEXT_SAC_DURATION,NEXT_SAC_AMPLITUDE,NEXT_SAC_AVG_VELOCITY,NEXT_SAC_PEAK_VELOCITY,NEXT_SAC_END_INTEREST_AREAS,NEXT_SAC_START_TIME,NEXT_SAC_END_TIME,NEXT_SAC_START_X,NEXT_SAC_START_Y,NEXT_SAC_END_X,NEXT_SAC_END_Y,PREVIOUS_FIX_ANGLE,PREVIOUS_FIX_DIRECTION,PREVIOUS_FIX_DISTANCE,ItemNO,audiofilename,imagefilename,TRIAL_INDEX,TRIAL_START_TIME
p4,Trial: 35,p4.edf,.,1,Fixation: 3309 ms,150,3309,3458,[ 99],68,1135,861,644.1,557.5,1,5,35.35,36.85,7,Saccade: 3252 ms,UP,57,13.65,239.39,501.09,[ ],3252,3308,672.1,1098.8,643.9,567.5,8,Saccade: 3459 ms,UP,49,5.14,104.93,260.47,"[ 3, 99]",3459,3507,646.3,556,554.7,393.4,.,.,.,A30,D7.wav,D7_FAM_She_is_washing_the_dishes.png,15,6464898
p4,Trial: 35,p4.edf,.,2,Fixation: 3508 ms,203,3508,3710,"[ 3, 99]",12,1107,203,553.1,382.3,1,1,35.2,36.5,8,Saccade: 3459 ms,UP,49,5.14,104.93,260.47,[ 99],3459,3507,646.3,556,554.7,393.4,9,Saccade: 3711 ms,RIGHT,59,12.73,215.78,562.8,"[ 2, 99]",3711,3769,554.1,381.4,951.3,611.4,-61.63,DOWN,5.43,A30,D7.wav,D7_FAM_She_is_washing_the_dishes.png,15,6464898
p4,Trial: 35,p4.edf,.,3,Fixation: 3770 ms,171,3770,3940,"[ 2, 99]",6,1056,380,936.2,603.6,1,2,36.25,37.45,9,Saccade: 3711 ms,RIGHT,59,12.73,215.78,562.8,"[ 3, 99]",3711,3769,554.1,381.4,951.3,611.4,10,Saccade: 3941 ms,UP,49,4.15,84.68,225.05,"[ 2, 99]",3941,3989,935.4,603.8,1026,479.9,150.83,LEFT,12.28,A30,D7.wav,D7_FAM_She_is_washing_the_dishes.png,15,6464898
p4,Trial: 35,p4.edf,.,4,Fixation: 3990 ms,209,3990,4198,"[ 2, 99]",6,1118,380,1028.1,471.9,2,2,36.55,37.3,10,Saccade: 3941 ms,UP,49,4.15,84.68,225.05,"[ 2, 99]",3941,3989,935.4,603.8,1026,479.9,11,Saccade: 4199 ms,DOWN,67,13.77,205.52,632.57,[ 99],4199,4265,1030.6,470.8,682.8,846.6,-125.62,DOWN,4.33,A30,D7.wav,D7_FAM_She_is_washing_the_dishes.png,15,6464898
p4,Trial: 35,p4.edf,.,5,Fixation: 4266 ms,128,4266,4393,[ 99],68,1149,861,689.4,844.6,5,5,36.2,38.5,11,Saccade: 4199 ms,DOWN,67,13.77,205.52,632.57,"[ 2, 99]",4199,4265,1030.6,470.8,682.8,846.6,12,Saccade: 4394 ms,LEFT,38,4.07,107.08,294.53,[ ],4394,4431,693.3,843.9,546.4,858.1,46.56,UP,13.54,A30,D7.wav,D7_FAM_She_is_washing_the_dishes.png,15,6464898
p4,Trial: 35,p4.edf,.,6,Fixation: 4432 ms,115,4432,4546,[ ],.,1153,.,539.3,863.9,.,.,36.3,38.65,12,Saccade: 4394 ms,LEFT,38,4.07,107.08,294.53,[ 99],4394,4431,693.3,843.9,546.4,858.1,13,Saccade: 4547 ms,RIGHT,50,6.47,129.41,320.56,"[ 8, 99]",4547,4596,542.9,864.5,762.6,779.2,6.89,RIGHT,4.17,A30,D7.wav,D7_FAM_She_is_washing_the_dishes.png,15,6464898
p4,Trial: 35,p4.edf,.,7,Fixation: 4597 ms,326,4597,4922,"[ 8, 99]",20,1152,326,769.0,782.4,1,1,36.05,38.1,13,Saccade: 4547 ms,RIGHT,50,6.47,129.41,320.56,[ ],4547,4596,542.9,864.5,762.6,779.2,14,Saccade: 4923 ms,UP,61,10.65,174.62,342.55,[ 99],4923,4983,772.2,788.8,626.7,421.8,-161.51,LEFT,6.7,A30,D7.wav,D7_FAM_She_is_washing_the_dishes.png,15,6464898
p4,Trial: 35,p4.edf,.,8,Fixation: 4984 ms,175,4984,5158,[ 99],68,1191,3628,624.9,404.2,2,17,35.2,36.5,14,Saccade: 4923 ms,UP,61,10.65,174.62,342.55,"[ 8, 99]",4923,4983,772.2,788.8,626.7,421.8,15,Saccade: 5159 ms,LEFT,34,2.67,78.67,238.8,"[ 3, 99]",5159,5192,621.8,403,532.3,372.3,-68.25,DOWN,10.92,A30,D7.wav,D7_FAM_She_is_washing_the_dishes.png,15,6464898
p4,Trial: 35,p4.edf,.,9,Fixation: 5193 ms,173,5193,5365,"[ 3, 99]",12,1207,173,527.6,375.1,1,1,35.3,36.5,15,Saccade: 5159 ms,LEFT,34,2.67,78.67,238.8,[ 99],5159,5192,621.8,403,532.3,372.3,16,Saccade: 5366 ms,DOWN,53,11.63,219.34,679.85,"[ 8, 99]",5366,5418,529.7,377.4,711.3,766,-16.11,RIGHT,2.87,A30,D7.wav,D7_FAM_She_is_washing_the_dishes.png,15,6464898
p4,Trial: 35,p4.edf,.,10,Fixation: 5419 ms,132,5419,5550,"[ 8, 99]",20,1203,1053,698.8,769.5,1,4,35.9,37.9,16,Saccade: 5366 ms,DOWN,53,11.63,219.34,679.85,"[ 3, 99]",5366,5418,529.7,377.4,711.3,766,17,Saccade: 5551 ms,RIGHT,31,2.14,69.02,249.58,"[ 8, 99]",5551,5581,695.9,767.7,764.8,804.1,114.4,UP,11.64,A30,D7.wav,D7_FAM_She_is_washing_the_dishes.png,15,6464898
p4,Trial: 35,p4.edf,.,11,Fixation: 5582 ms,294,5582,5875,"[ 8, 99]",20,1225,1053,768.2,803.4,2,4,36.1,38.3,17,Saccade: 5551 ms,RIGHT,31,2.14,69.02,249.58,"[ 8, 99]",5551,5581,695.9,767.7,764.8,804.1,18,Saccade: 5876 ms,UP,40,3.45,86.13,247.54,"[ 8, 99]",5876,5915,766.4,806.5,735.6,680.2,155.22,LEFT,2.12,A30,D7.wav,D7_FAM_She_is_washing_the_dishes.png,15,6464898
p4,Trial: 35,p4.edf,.,12,Fixation: 5916 ms,395,5916,6310,"[ 8, 99]",20,1291,1053,737.9,669.7,3,4,35.7,37.4,18,Saccade: 5876 ms,UP,40,3.45,86.13,247.54,"[ 8, 99]",5876,5915,766.4,806.5,735.6,680.2,19,Saccade: 6311 ms,DOWN,33,1.88,57.02,186.74,"[ 8, 99]",6311,6343,742.3,670.2,701.9,726.7,-76.56,DOWN,3.63,A30,D7.wav,D7_FAM_She_is_washing_the_dishes.png,15,6464898
p4,Trial: 35,p4.edf,.,13,Fixation: 6344 ms,232,6344,6575,"[ 8, 99]",20,1336,1053,696.6,729.3,4,4,35.8,37.7,19,Saccade: 6311 ms,DOWN,33,1.88,57.02,186.74,"[ 8, 99]",6311,6343,742.3,670.2,701.9,726.7,20,Saccade: 6576 ms,UP,65,9.43,145.09,349.88,"[ 3, 99]",6576,6640,696.4,729.4,576.8,402.6,53.95,UP,1.96,A30,D7.wav,D7_FAM_She_is_washing_the_dishes.png,15,6464898
p4,Trial: 35,p4.edf,.,14,Fixation: 6641 ms,167,6641,6807,"[ 3, 99]",12,1340,334,573.5,408.1,1,2,35.2,36.5,20,Saccade: 6576 ms,UP,65,9.43,145.09,349.88,"[ 8, 99]",6576,6640,696.4,729.4,576.8,402.6,21,Saccade: 6808 ms,UP,27,1.89,70.07,136.07,"[ 3, 99]",6808,6834,571.3,409.2,545.6,345.5,-68.17,DOWN,9.33,A30,D7.wav,D7_FAM_She_is_washing_the_dishes.png,15,6464898
p4,Trial: 35,p4.edf,.,15,Fixation: 6835 ms,167,6835,7001,"[ 3, 99]",12,1319,334,537.2,345.6,2,2,35.3,36.5,21,Saccade: 6808 ms,UP,27,1.89,70.07,136.07,"[ 3, 99]",6808,6834,571.3,409.2,545.6,345.5,22,Saccade: 7002 ms,RIGHT,33,4.62,140,285.06,"[ 16, 99]",7002,7034,536.7,347.1,694.1,390.4,-58.98,DOWN,2,A30,D7.wav,D7_FAM_She_is_washing_the_dishes.png,15,6464898
p4,Trial: 35,p4.edf,.,16,Fixation: 7035 ms,215,7035,7249,"[ 16, 99]",3,1291,215,688.8,385.3,1,1,35.2,36.5,22,Saccade: 7002 ms,RIGHT,33,4.62,140,285.06,"[ 3, 99]",7002,7034,536.7,347.1,694.1,390.4,23,Saccade: 7250 ms,DOWN,55,6.71,121.96,409.1,"[ 8, 99]",7250,7304,687,387.6,747.6,626.6,165.81,LEFT,4.44,A30,D7.wav,D7_FAM_She_is_washing_the_dishes.png,15,6464898
p4,Trial: 35,p4.edf,.,17,Fixation: 7305 ms,129,7305,7433,"[ 8, 99]",20,1228,362,748.2,631.0,1,2,35.6,37.2,23,Saccade: 7250 ms,DOWN,55,6.71,121.96,409.1,"[ 16, 99]",7250,7304,687,387.6,747.6,626.6,24,Saccade: 7434 ms,DOWN,40,3.95,98.65,394.08,"[ 8, 99]",7434,7473,750.8,634.6,712.5,777.4,104.13,UP,6.88,A30,D7.wav,D7_FAM_She_is_washing_the_dishes.png,15,6464898
p4,Trial: 35,p4.edf,.,18,Fixation: 7474 ms,233,7474,7706,"[ 8, 99]",20,1190,362,708.2,804.6,2,2,35.95,38.1,24,Saccade: 7434 ms,DOWN,40,3.95,98.65,394.08,"[ 8, 99]",7434,7473,750.8,634.6,712.5,777.4,25,Saccade: 7707 ms,UP,58,11.02,189.94,370.91,"[ 2, 99]",7707,7764,710.1,806.9,986.7,508.1,76.37,UP,4.74,A30,D7.wav,D7_FAM_She_is_washing_the_dishes.png,15,6464898
p4,Trial: 35,p4.edf,.,19,Fixation: 7765 ms,108,7765,7872,"[ 2, 99]",6,1168,410,993.2,501.2,1,2,36.35,37.2,25,Saccade: 7707 ms,UP,58,11.02,189.94,370.91,[ 99],7707,7764,710.1,806.9,986.7,508.1,26,Saccade: 7873 ms,UP,30,1.8,60.12,165.03,"[ 2, 99]",7873,7902,994.5,501.4,1037.7,450.7,-134.37,DOWN,11.27,A30,D7.wav,D7_FAM_She_is_washing_the_dishes.png,15,6464898
p4,Trial: 35,p4.edf,.,20,Fixation: 7903 ms,302,7903,8204,"[ 2, 99]",6,1184,410,1045.3,451.7,2,2,36.65,37.3,26,Saccade: 7873 ms,UP,30,1.8,60.12,165.03,"[ 2, 99]",7873,7902,994.5,501.4,1037.7,450.7,27,Saccade: 8205 ms,LEFT,40,3.87,96.67,216.48,"[ 20, 99]",8205,8244,1049.1,451.1,919.2,396.8,-137.05,LEFT,1.95,A30,D7.wav,D7_FAM_She_is_washing_the_dishes.png,15,6464898
p4,Trial: 35,p4.edf,.,21,Fixation: 8245 ms,284,8245,8528,"[ 20, 99]",2,1181,284,925.1,402.1,1,1,35.9,36.85,27,Saccade: 8205 ms,LEFT,40,3.87,96.67,216.48,"[ 2, 99]",8205,8244,1049.1,451.1,919.2,396.8,28,Saccade: 8529 ms,DOWN,51,9.54,187.14,541.8,"[ 5, 8, 99]",8529,8579,924.4,407.6,811.6,744.7,-21.99,RIGHT,3.57,A30,D7.wav,D7_FAM_She_is_washing_the_dishes.png,15,6464898
p4,Trial: 35,p4.edf,.,22,Fixation: 8580 ms,143,8580,8722,"[ 8, 99]",20,1144,296,807.9,756.0,1,2,36.1,37.95,28,Saccade: 8529 ms,DOWN,51,9.54,187.14,541.8,"[ 20, 99]",8529,8579,924.4,407.6,811.6,744.7,29,Saccade: 8723 ms,DOWN,33,1.8,54.67,181.24,"[ 8, 99]",8723,8755,809.3,758.9,775.6,817.9,71.01,UP,10.01,A30,D7.wav,D7_FAM_She_is_washing_the_dishes.png,15,6464898
p4,Trial: 35,p4.edf,.,23,Fixation: 8756 ms,153,8756,8908,"[ 8, 99]",20,1128,296,767.5,820.4,2,2,36.2,38.4,29,Saccade: 8723 ms,DOWN,33,1.8,54.67,181.24,"[ 8, 99]",8723,8755,809.3,758.9,775.6,817.9,30,Saccade: 8909 ms,LEFT,51,6.75,132.39,376.6,[ ],8909,8959,764.1,818.8,526.2,881.6,56.48,UP,2.02,A30,D7.wav,D7_FAM_She_is_washing_the_dishes.png,15,6464898
p4,Trial: 35,p4.edf,.,24,Fixation: 8960 ms,219,8960,9178,[ ],.,1166,.,514.8,887.3,.,.,36.45,38.95,30,Saccade: 8909 ms,LEFT,51,6.75,132.39,376.6,"[ 8, 99]",8909,8959,764.1,818.8,526.2,881.6,31,Saccade: 9179 ms,UP,64,12.76,199.4,414.55,"[ 19, 99]",9179,9242,515.2,891.1,527.6,408.9,13.96,RIGHT,7.17,A30,D7.wav,D7_FAM_She_is_washing_the_dishes.png,15,6464898
p4,Trial: 35,p4.edf,.,25,Fixation: 9243 ms,205,9243,9447,"[ 3, 99]",12,1161,534,531.4,402.8,1,2,35.3,36.55,31,Saccade: 9179 ms,UP,64,12.76,199.4,414.55,[ ],9179,9242,515.2,891.1,527.6,408.9,32,Saccade: 9448 ms,UP,19,1.32,69.45,100.58,"[ 3, 99]",9448,9466,529.9,401.4,524.2,353.6,-92.07,DOWN,12.84,A30,D7.wav,D7_FAM_She_is_washing_the_dishes.png,15,6464898
p4,Trial: 35,p4.edf,.,26,Fixation: 9467 ms,329,9467,9795,"[ 3, 99]",12,1137,534,520.0,352.3,2,2,35.3,36.5,32,Saccade: 9448 ms,UP,19,1.32,69.45,100.58,"[ 19, 99]",9448,9466,529.9,401.4,524.2,353.6,33,Saccade: 9796 ms,RIGHT,35,4.41,125.89,225.08,[ 99],9796,9830,520.2,352.7,675.5,350.2,-76.85,DOWN,1.42,A30,D7.wav,D7_FAM_She_is_washing_the_dishes.png,15,6464898
p4,Trial: 35,p4.edf,.,27,Fixation: 9831 ms,325,9831,10155,[ 99],68,1103,1311,671.7,355.4,3,4,35.2,36.5,33,Saccade: 9796 ms,RIGHT,35,4.41,125.89,225.08,"[ 3, 99]",9796,9830,520.2,352.7,675.5,350.2,34,Saccade: 10156 ms,LEFT,84,12.53,149.22,452.05,"[ 7, 99]",10156,10239,673.6,360.4,231.5,446.6,178.87,LEFT,4.3,A30,D7.wav,D7_FAM_She_is_washing_the_dishes.png,15,6464898
p4,Trial: 35,p4.edf,.,28,Fixation: 10240 ms,452,10240,10691,"[ 7, 99]",8,1067,452,231.7,449.1,1,1,36.6,37.3,34,Saccade: 10156 ms,LEFT,84,12.53,149.22,452.05,[ 99],10156,10239,673.6,360.4,231.5,446.6,35,Saccade: 10692 ms,DOWN,60,13.87,231.25,578.19,[ ],10692,10751,233.8,443.9,548.6,856,11.71,RIGHT,12.52,A30,D7.wav,D7_FAM_She_is_washing_the_dishes.png,15,6464898
p4,Trial: 35,p4.edf,.,29,Fixation: 10752 ms,212,10752,10963,[ ],.,1005,.,541.6,858.4,.,.,36.3,38.65,35,Saccade: 10692 ms,DOWN,60,13.87,231.25,578.19,"[ 7, 99]",10692,10751,233.8,443.9,548.6,856,36,Saccade: 10964 ms,RIGHT,54,7.64,141.39,342.61,"[ 5, 8, 99]",10964,11017,544.4,854.8,786,714.6,128.27,UP,13.73,A30,D7.wav,D7_FAM_She_is_washing_the_dishes.png,15,6464898
p4,Trial: 35,p4.edf,.,30,Fixation: 11018 ms,215,11018,11232,"[ 5, 8, 99]",1,933,215,794.9,715.7,1,1,35.9,37.7,36,Saccade: 10964 ms,RIGHT,54,7.64,141.39,342.61,[ 1],10964,11017,544.4,854.8,786,714.6,37,Saccade: 11233 ms,UP,59,7.39,125.27,249.44,"[ 2, 99]",11233,11291,792.8,716.4,956.5,498.5,-151.95,LEFT,7.95,A30,D7.wav,D7_FAM_She_is_washing_the_dishes.png,15,6464898
p4,Trial: 35,p4.edf,.,31,Fixation: 11292 ms,209,11292,11500,"[ 2, 99]",6,966,209,960.8,487.8,1,1,36.1,37.1,37,Saccade: 11233 ms,UP,59,7.39,125.27,249.44,"[ 5, 8, 99]",11233,11291,792.8,716.4,956.5,498.5,38,Saccade: 11501 ms,LEFT,40,7.45,186.23,534.95,"[ 8, 99]",11501,11540,961.1,489.4,745.2,652.5,-127.1,DOWN,7.64,A30,D7.wav,D7_FAM_She_is_washing_the_dishes.png,15,6464898
p4,Trial: 35,p4.edf,.,32,Fixation: 11541 ms,387,11541,11927,"[ 8, 99]",20,980,1678,724.0,672.7,1,4,35.65,37.35,38,Saccade: 11501 ms,LEFT,40,7.45,186.23,534.95,"[ 2, 99]",11501,11540,961.1,489.4,745.2,652.5,39,Saccade: 11928 ms,DOWN,35,3.99,113.9,237.45,"[ 8, 99]",11928,11962,720.9,676.5,801.3,801.4,36.96,RIGHT,8.26,A30,D7.wav,D7_FAM_She_is_washing_the_dishes.png,15,6464898
p4,Trial: 35,p4.edf,.,33,Fixation: 11963 ms,294,11963,12256,"[ 8, 99]",20,1022,1678,793.5,804.7,2,4,36.2,38.3,39,Saccade: 11928 ms,DOWN,35,3.99,113.9,237.45,"[ 8, 99]",11928,11962,720.9,676.5,801.3,801.4,40,Saccade: 12257 ms,UP,30,3.59,119.56,208.33,"[ 8, 99]",12257,12286,792.8,807.4,757.6,676.8,119,UP,3.99,A30,D7.wav,D7_FAM_She_is_washing_the_dishes.png,15,6464898
p4,Trial: 35,p4.edf,.,34,Fixation: 12287 ms,665,12287,12951,"[ 8, 99]",20,1044,1678,742.7,688.9,3,4,35.7,37.45,40,Saccade: 12257 ms,UP,30,3.59,119.56,208.33,"[ 8, 99]",12257,12286,792.8,807.4,757.6,676.8,41,Saccade: 12952 ms,DOWN,26,2.83,108.89,190.42,"[ 8, 99]",12952,12977,740,702.3,722.7,807.9,-65.19,DOWN,3.37,A30,D7.wav,D7_FAM_She_is_washing_the_dishes.png,15,6464898
p4,Trial: 35,p4.edf,13121,35,Fixation: 12978 ms,332,12978,13309,"[ 8, 99]",20,1070,1678,724.2,800.0,4,4,36.05,38.2,41,Saccade: 12952 ms,DOWN,26,2.83,108.89,190.42,"[ 5, 8, 99]",12952,12977,740,702.3,722.7,807.9,42,Saccade: 13310 ms,LEFT,54,6.45,119.43,414.15,"[ 1, 99]",13310,13363,726.1,798,497.9,848.7,80.04,UP,2.98,A30,D7.wav,D7_FAM_She_is_washing_the_dishes.png,15,6464898
p4,Trial: 35,p4.edf,.,36,Fixation: 13364 ms,103,13364,13466,[ 1],1,1061,103,498.3,856.5,1,1,36.35,38.65,42,Saccade: 13310 ms,LEFT,54,6.45,119.43,414.15,"[ 8, 99]",13310,13363,726.1,798,497.9,848.7,43,Saccade: 13467 ms,UP,64,13.63,213.01,421.17,"[ 3, 99]",13467,13530,500.8,859.3,519.8,347.1,13.26,RIGHT,6.41,A30,D7.wav,D7_FAM_She_is_washing_the_dishes.png,15,6464898
p4,Trial: 35,p4.edf,.,37,Fixation: 13531 ms,391,13531,13921,"[ 3, 99]",12,1044,391,526.1,337.0,1,1,35.3,36.5,43,Saccade: 13467 ms,UP,64,13.63,213.01,421.17,[ ],13467,13530,500.8,859.3,519.8,347.1,44,Saccade: 13922 ms,RIGHT,37,4.43,119.84,268.52,[ 99],13922,13958,526.7,335.7,679.6,369.3,-93.21,DOWN,13.85,A30,D7.wav,D7_FAM_She_is_washing_the_dishes.png,15,6464898
p4,Trial: 35,p4.edf,.,38,Fixation: 13959 ms,125,13959,14083,[ 99],68,1005,6942,673.3,375.8,2,23,35.2,36.5,44,Saccade: 13922 ms,RIGHT,37,4.43,119.84,268.52,"[ 3, 99]",13922,13958,526.7,335.7,679.6,369.3,45,Saccade: 14084 ms,LEFT,65,11.85,182.25,487.69,"[ 7, 99]",14084,14148,674.8,374.8,256.2,448.5,165.72,LEFT,4.31,A30,D7.wav,D7_FAM_She_is_washing_the_dishes.png,15,6464898
p4,Trial: 35,p4.edf,.,39,Fixation: 14149 ms,387,14149,14535,"[ 7, 99]",8,975,387,255.6,454.8,1,1,36.5,37.2,45,Saccade: 14084 ms,LEFT,65,11.85,182.25,487.69,[ 99],14084,14148,674.8,374.8,256.2,448.5,46,Saccade: 14536 ms,RIGHT,65,16.07,247.28,551.07,"[ 8, 99]",14536,14600,255.9,454.9,751.3,773,10.43,RIGHT,11.85,A30,D7.wav,D7_FAM_She_is_washing_the_dishes.png,15,6464898
p4,Trial: 35,p4.edf,.,40,Fixation: 14601 ms,234,14601,14834,"[ 8, 99]",20,933,234,738.5,785.8,1,1,36.0,38.05,46,Saccade: 14536 ms,RIGHT,65,16.07,247.28,551.07,"[ 7, 99]",14536,14600,255.9,454.9,751.3,773,47,Saccade: 14835 ms,LEFT,42,4.21,100.18,231.98,[ 99],14835,14876,730.7,784.4,579.5,779.7,146.56,LEFT,15.96,A30,D7.wav,D7_FAM_She_is_washing_the_dishes.png,15,6464898
p4,Trial: 35,p4.edf,14960,41,Fixation: 14877 ms,121,14877,14997,[ 99],68,935,6942,568.7,787.1,5,23,35.95,38.05,47,Saccade: 14835 ms,LEFT,42,4.21,100.18,231.98,"[ 8, 99]",14835,14876,730.7,784.4,579.5,779.7,48,Saccade: 14998 ms,UP,179,11.82,66.02,950.92,"[ 7, 99]",14998,15176,567.9,795.7,303.1,447.3,0.41,RIGHT,4.72,A30,D7.wav,D7_FAM_She_is_washing_the_dishes.png,15,6464898
p4,Trial: 35,p4.edf,.,42,Fixation: 15466 ms,182,15466,15647,"[ 8, 99]",20,1109,182,767.2,767.2,1,1,36.0,38.0,49,Saccade: 15402 ms,RIGHT,64,15.41,240.84,531.09,[ 99],15402,15465,316,453,779.2,772.3,50,Saccade: 15648 ms,UP,62,14.59,235.36,473.19,"[ 19, 99]",15648,15709,762.6,770.3,427.6,352.1,-174.58,LEFT,5.54,A30,D7.wav,D7_FAM_She_is_washing_the_dishes.png,15,6464898
p4,Trial: 35,p4.edf,.,43,Fixation: 15710 ms,142,15710,15851,"[ 19, 99]",3,1169,142,428.3,343.9,1,1,35.6,36.7,50,Saccade: 15648 ms,UP,62,14.59,235.36,473.19,"[ 8, 99]",15648,15709,762.6,770.3,427.6,352.1,51,Saccade: 15852 ms,LEFT,32,5.18,161.92,339.32,[ 99],15852,15883,429.4,346.6,282.6,464.3,-50.13,DOWN,14.77,A30,D7.wav,D7_FAM_She_is_washing_the_dishes.png,15,6464898
p4,Trial: 35,p4.edf,.,44,Fixation: 15884 ms,205,15884,16088,[ 99],68,1177,6942,286.4,462.7,8,23,36.3,37.1,51,Saccade: 15852 ms,LEFT,32,5.18,161.92,339.32,"[ 19, 99]",15852,15883,429.4,346.6,282.6,464.3,52,Saccade: 16089 ms,UP,41,4.59,112,212.85,[ 99],16089,16129,285.7,463.6,192,321.6,39.2,RIGHT,5.09,A30,D7.wav,D7_FAM_She_is_washing_the_dishes.png,15,6464898
p4,Trial: 35,p4.edf,.,45,Fixation: 16130 ms,127,16130,16256,[ 99],68,1154,6942,190.6,331.4,9,23,36.9,37.4,52,Saccade: 16089 ms,UP,41,4.59,112,212.85,[ 99],16089,16129,285.7,463.6,192,321.6,53,Saccade: 16257 ms,UP,22,1.29,58.59,90.36,[ 99],16257,16278,191.5,335,181.8,287.8,-53.4,DOWN,4.39,A30,D7.wav,D7_FAM_She_is_washing_the_dishes.png,15,6464898
p4,Trial: 35,p4.edf,16531,46,Fixation: 16279 ms,866,16279,17144,[ 99],68,1201,6942,173.9,302.8,10,23,37.05,37.45,53,Saccade: 16257 ms,UP,22,1.29,58.59,90.36,[ 99],16257,16278,191.5,335,181.8,287.8,54,Saccade: 17145 ms,RIGHT,44,8.38,190.54,355.82,"[ 19, 99]",17145,17188,169.4,314.6,467.7,374,-59.42,DOWN,0.89,A30,D7.wav,D7_FAM_She_is_washing_the_dishes.png,15,6464898
p4,Trial: 35,p4.edf,.,47,Fixation: 17189 ms,163,17189,17351,"[ 19, 99]",3,1264,163,458.2,377.2,1,1,35.45,36.6,54,Saccade: 17145 ms,RIGHT,44,8.38,190.54,355.82,[ 99],17145,17188,169.4,314.6,467.7,374,55,Saccade: 17352 ms,LEFT,47,7.27,154.78,406.12,"[ 7, 99]",17352,17398,460.3,377.7,214.2,472.6,165.63,LEFT,8.1,A30,D7.wav,D7_FAM_She_is_washing_the_dishes.png,15,6464898
p4,Trial: 35,p4.edf,.,48,Fixation: 17399 ms,223,17399,17621,"[ 7, 99]",8,1267,223,200.3,477.7,1,1,36.85,37.45,55,Saccade: 17352 ms,LEFT,47,7.27,154.78,406.12,"[ 19, 99]",17352,17398,460.3,377.7,214.2,472.6,56,Saccade: 17622 ms,RIGHT,58,10.58,182.48,347.69,"[ 3, 99]",17622,17679,201,480.1,571.6,387,20.83,RIGHT,7.63,A30,D7.wav,D7_FAM_She_is_washing_the_dishes.png,15,6464898
p4,Trial: 35,p4.edf,.,49,Fixation: 17680 ms,120,17680,17799,"[ 3, 99]",12,1270,120,578.6,383.8,1,1,35.2,36.5,56,Saccade: 17622 ms,RIGHT,58,10.58,182.48,347.69,"[ 7, 99]",17622,17679,201,480.1,571.6,387,57,Saccade: 17800 ms,RIGHT,26,2.56,98.31,195.57,[ 99],17800,17825,582.7,387.3,672.2,377.7,-166.41,LEFT,10.8,A30,D7.wav,D7_FAM_She_is_washing_the_dishes.png,15,6464898
p4,Trial: 35,p4.edf,18012,50,Fixation: 17826 ms,602,17826,18427,"[ 16, 99]",3,1206,602,667.4,386.8,1,1,35.2,36.5,57,Saccade: 17800 ms,RIGHT,26,2.56,98.31,195.57,"[ 3, 99]",17800,17825,582.7,387.3,672.2,377.7,58,Saccade: 18428 ms,LEFT,211,3.56,16.88,538.54,"[ 3, 99]",18428,18638,678,393.7,554.5,417.3,178.13,LEFT,2.52,A30,D7.wav,D7_FAM_She_is_washing_the_dishes.png,15,6464898
p4,Trial: 35,p4.edf,.,51,Fixation: 18902 ms,499,18902,19400,[ 99],68,1205,6942,677.3,379.5,15,23,35.2,36.5,59,Saccade: 18877 ms,RIGHT,25,3.07,122.88,215.97,[ 99],18877,18901,582.9,430.8,682.4,386.9,60,Saccade: 19401 ms,LEFT,28,3.51,125.46,241.15,"[ 3, 99]",19401,19428,678.6,376.5,557.4,401.9,-144.58,.,0.35,A30,D7.wav,D7_FAM_She_is_washing_the_dishes.png,15,6464898
p4,Trial: 35,p4.edf,19640,52,Fixation: 19429 ms,240,19429,19668,"[ 3, 99]",12,1192,240,563.7,402.3,1,1,35.2,36.5,60,Saccade: 19401 ms,LEFT,28,3.51,125.46,241.15,[ 99],19401,19428,678.6,376.5,557.4,401.9,61,Saccade: 19669 ms,RIGHT,28,3.95,141.16,260.66,[ 99],19669,19696,560.3,401,696.7,372.6,10.95,RIGHT,3.29,A30,D7.wav,D7_FAM_She_is_washing_the_dishes.png,15,6464898
p4,Trial: 35,p4.edf,.,53,Fixation: 19697 ms,538,19697,20234,[ 99],68,1128,6942,688.5,365.8,17,23,35.2,36.5,61,Saccade: 19669 ms,RIGHT,28,3.95,141.16,260.66,"[ 3, 99]",19669,19696,560.3,401,696.7,372.6,62,Saccade: 20235 ms,LEFT,45,4.46,99.15,289.6,"[ 3, 99]",20235,20279,693,360.9,539.9,398.2,-164.25,LEFT,3.68,A30,D7.wav,D7_FAM_She_is_washing_the_dishes.png,15,6464898
p4,Trial: 35,p4.edf,.,54,Fixation: 20280 ms,131,20280,20410,"[ 3, 99]",12,1088,517,530.8,398.8,1,2,35.3,36.5,62,Saccade: 20235 ms,LEFT,45,4.46,99.15,289.6,[ 99],20235,20279,693,360.9,539.9,398.2,63,Saccade: 20411 ms,UP,18,1.47,81.89,104.37,"[ 3, 99]",20411,20428,529.5,401.6,528.8,347.8,11.43,RIGHT,4.56,A30,D7.wav,D7_FAM_She_is_washing_the_dishes.png,15,6464898
p4,Trial: 35,p4.edf,.,55,Fixation: 20429 ms,386,20429,20814,"[ 3, 99]",12,1029,517,530.3,344.4,2,2,35.3,36.5,63,Saccade: 20411 ms,UP,18,1.47,81.89,104.37,"[ 19, 99]",20411,20428,529.5,401.6,528.8,347.8,64,Saccade: 20815 ms,RIGHT,28,3.8,135.83,255.25,"[ 10, 99]",20815,20842,530,346.3,664,341.9,-89.46,DOWN,1.49,A30,D7.wav,D7_FAM_She_is_washing_the_dishes.png,15,6464898
p4,Trial: 35,p4.edf,.,56,Fixation: 20843 ms,720,20843,21562,[ 99],68,1015,6942,657.8,353.9,20,23,35.2,36.5,64,Saccade: 20815 ms,RIGHT,28,3.8,135.83,255.25,"[ 3, 99]",20815,20842,530,346.3,664,341.9,65,Saccade: 21563 ms,RIGHT,40,8.48,212.03,365.09,"[ 20, 99]",21563,21602,648.3,357.4,944.8,416.2,175.88,LEFT,3.63,A30,D7.wav,D7_FAM_She_is_washing_the_dishes.png,15,6464898
p4,Trial: 35,p4.edf,.,57,Fixation: 21603 ms,323,21603,21925,"[ 20, 99]",2,968,323,944.1,424.4,1,1,36.0,36.9,65,Saccade: 21563 ms,RIGHT,40,8.48,212.03,365.09,[ 99],21563,21602,648.3,357.4,944.8,416.2,66,Saccade: 21926 ms,RIGHT,35,3.47,99.05,277.94,"[ 2, 99]",21926,21960,942.7,424.6,1035.4,511.7,166.57,LEFT,8.27,A30,D7.wav,D7_FAM_She_is_washing_the_dishes.png,15,6464898
p4,Trial: 35,p4.edf,.,58,Fixation: 21961 ms,112,21961,22072,"[ 2, 99]",6,944,112,1042.2,522.1,1,1,36.65,37.4,66,Saccade: 21926 ms,RIGHT,35,3.47,99.05,277.94,"[ 20, 99]",21926,21960,942.7,424.6,1035.4,511.7,67,Saccade: 22073 ms,LEFT,61,10.45,171.23,636.12,"[ 8, 99]",22073,22133,1044.7,524.7,755.6,780.3,135.76,LEFT,3.77,A30,D7.wav,D7_FAM_She_is_washing_the_dishes.png,15,6464898
p4,Trial: 35,p4.edf,.,59,Fixation: 22134 ms,105,22134,22238,"[ 8, 99]",20,959,105,759.6,782.4,1,1,36.05,38.1,67,Saccade: 22073 ms,LEFT,61,10.45,171.23,636.12,"[ 2, 99]",22073,22133,1044.7,524.7,755.6,780.3,68,Saccade: 22239 ms,LEFT,44,5.52,125.56,405.39,"[ 1, 99]",22239,22282,761.1,784.4,571.7,850.8,41.57,RIGHT,10.39,A30,D7.wav,D7_FAM_She_is_washing_the_dishes.png,15,6464898
p4,Trial: 35,p4.edf,.,60,Fixation: 22283 ms,238,22283,22520,[ ],.,1020,.,554.2,857.6,.,.,36.25,38.65,68,Saccade: 22239 ms,LEFT,44,5.52,125.56,405.39,"[ 8, 99]",22239,22282,761.1,784.4,571.7,850.8,69,Saccade: 22521 ms,LEFT,29,1.18,40.86,139.9,[ ],22521,22549,556.9,862,516,876.4,19.03,RIGHT,6.01,A30,D7.wav,D7_FAM_She_is_washing_the_dishes.png,15,6464898
p4,Trial: 35,p4.edf,.,61,Fixation: 22550 ms,282,22550,22831,[ ],.,1050,.,515.1,884.9,.,.,36.4,38.85,69,Saccade: 22521 ms,LEFT,29,1.18,40.86,139.9,[ ],22521,22549,556.9,862,516,876.4,70,Saccade: 22832 ms,RIGHT,50,6.8,135.9,311.07,"[ 8, 99]",22832,22881,514.8,888.2,753.4,821.6,33.21,RIGHT,1.29,A30,D7.wav,D7_FAM_She_is_washing_the_dishes.png,15,6464898
p4,Trial: 35,p4.edf,.,62,Fixation: 22882 ms,402,22882,23283,"[ 8, 99]",20,973,2270,758.0,814.8,1,3,36.15,38.35,70,Saccade: 22832 ms,RIGHT,50,6.8,135.9,311.07,[ ],22832,22881,514.8,888.2,753.4,821.6,71,Saccade: 23284 ms,RIGHT,23,0.8,34.94,87.52,"[ 8, 99]",23284,23306,756.5,809.3,785.5,807.5,-164.83,LEFT,6.94,A30,D7.wav,D7_FAM_She_is_washing_the_dishes.png,15,6464898
p4,Trial: 35,p4.edf,.,63,Fixation: 23307 ms,1750,23307,25056,"[ 8, 99]",20,952,2270,781.1,790.6,2,3,36.15,38.2,71,Saccade: 23284 ms,RIGHT,23,0.8,34.94,87.52,"[ 8, 99]",23284,23306,756.5,809.3,785.5,807.5,72,Saccade: 25057 ms,UP,41,4.77,116.43,211.14,"[ 8, 99]",25057,25097,773.2,784.1,728.7,610.8,-135.3,LEFT,0.9,A30,D7.wav,D7_FAM_She_is_washing_the_dishes.png,15,6464898
p4,Trial: 35,p4.edf,.,64,Fixation: 25098 ms,118,25098,25215,"[ 8, 99]",20,992,2270,721.0,614.0,3,3,35.5,37.1,72,Saccade: 25057 ms,UP,41,4.77,116.43,211.14,"[ 8, 99]",25057,25097,773.2,784.1,728.7,610.8,73,Saccade: 25216 ms,LEFT,56,8.43,150.62,331.05,"[ 19, 99]",25216,25271,718,615.2,499.6,402.9,-70.32,DOWN,4.98,A30,D7.wav,D7_FAM_She_is_washing_the_dishes.png,15,6464898
p4,Trial: 35,p4.edf,.,65,Fixation: 25272 ms,82,25272,25353,"[ 19, 99]",3,1032,82,490.5,393.7,1,1,35.4,36.6,73,Saccade: 25216 ms,LEFT,56,8.43,150.62,331.05,"[ 8, 99]",25216,25271,718,615.2,499.6,402.9,74,Saccade: 25354 ms,LEFT,48,7.64,159.08,425.38,"[ 7, 99]",25354,25401,490.3,392.4,217.4,429.3,-42.6,RIGHT,8.83,A30,D7.wav,D7_FAM_She_is_washing_the_dishes.png,15,6464898
p4,Trial: 35,p4.edf,.,66,Fixation: 25402 ms,181,25402,25582,"[ 7, 99]",8,1020,891,200.5,428.6,1,3,36.8,37.35,74,Saccade: 25354 ms,LEFT,48,7.64,159.08,425.38,"[ 19, 99]",25354,25401,490.3,392.4,217.4,429.3,75,Saccade: 25583 ms,RIGHT,22,2.24,101.74,167.46,"[ 7, 99]",25583,25604,198.3,431.9,280.2,433.8,6.7,RIGHT,8.09,A30,D7.wav,D7_FAM_She_is_washing_the_dishes.png,15,6464898
p4,Trial: 35,p4.edf,.,67,Fixation: 25605 ms,176,25605,25780,"[ 7, 99]",8,1034,891,282.1,438.6,2,3,36.3,37.1,75,Saccade: 25583 ms,RIGHT,22,2.24,101.74,167.46,"[ 7, 99]",25583,25604,198.3,431.9,280.2,433.8,76,Saccade: 25781 ms,RIGHT,12,0.57,47.12,50.97,"[ 7, 99]",25781,25792,284.6,442.6,304.9,445.5,173.14,LEFT,2.25,A30,D7.wav,D7_FAM_She_is_washing_the_dishes.png,15,6464898
p4,Trial: 35,p4.edf,.,68,Fixation: 25793 ms,534,25793,26326,"[ 7, 99]",8,963,891,296.8,445.7,3,3,36.25,37.05,76,Saccade: 25781 ms,RIGHT,12,0.57,47.12,50.97,"[ 7, 99]",25781,25792,284.6,442.6,304.9,445.5,77,Saccade: 26327 ms,RIGHT,47,7.95,169.09,282.92,"[ 3, 99]",26327,26373,289.9,446.4,566.6,380,154.71,.,0.45,A30,D7.wav,D7_FAM_She_is_washing_the_dishes.png,15,6464898
p4,Trial: 35,p4.edf,.,69,Fixation: 26374 ms,201,26374,26574,"[ 3, 99]",12,873,201,563.5,383.1,1,1,35.2,36.5,77,Saccade: 26327 ms,RIGHT,47,7.95,169.09,282.92,"[ 7, 99]",26327,26373,289.9,446.4,566.6,380,78,Saccade: 26575 ms,LEFT,50,8.31,166.22,396.97,"[ 7, 99]",26575,26624,562.7,382.2,268.8,429.9,-167.16,LEFT,7.66,A30,D7.wav,D7_FAM_She_is_washing_the_dishes.png,15,6464898
p4,Trial: 35,p4.edf,.,70,Fixation: 26625 ms,186,26625,26810,"[ 7, 99]",8,834,340,255.9,432.2,1,2,36.45,37.15,78,Saccade: 26575 ms,LEFT,50,8.31,166.22,396.97,"[ 3, 99]",26575,26624,562.7,382.2,268.8,429.9,79,Saccade: 26811 ms,RIGHT,22,1.34,60.78,108.88,"[ 7, 99]",26811,26832,256.8,430.9,305.3,434.2,8.83,RIGHT,8.69,A30,D7.wav,D7_FAM_She_is_washing_the_dishes.png,15,6464898
p4,Trial: 35,p4.edf,.,71,Fixation: 26833 ms,154,26833,26986,"[ 7, 99]",8,866,340,301.4,435.4,2,2,36.2,37.0,79,Saccade: 26811 ms,RIGHT,22,1.34,60.78,108.88,"[ 7, 99]",26811,26832,256.8,430.9,305.3,434.2,80,Saccade: 26987 ms,RIGHT,55,9.81,178.4,387.09,[ 99],26987,27041,302.8,434.8,647.9,373,176.06,LEFT,1.26,A30,D7.wav,D7_FAM_She_is_washing_the_dishes.png,15,6464898
p4,Trial: 35,p4.edf,.,72,Fixation: 27042 ms,563,27042,27604,[ 99],68,923,4864,661.4,371.0,11,13,35.2,36.5,80,Saccade: 26987 ms,RIGHT,55,9.81,178.4,387.09,"[ 7, 99]",26987,27041,302.8,434.8,647.9,373,81,Saccade: 27605 ms,DOWN,24,1.94,80.68,158.14,"[ 16, 99]",27605,27628,659.1,366.7,692,428.6,-170.14,LEFT,10.24,A30,D7.wav,D7_FAM_She_is_washing_the_dishes.png,15,6464898
p4,Trial: 35,p4.edf,.,73,Fixation: 27629 ms,313,27629,27941,"[ 16, 99]",3,921,313,689.6,417.1,1,1,35.2,36.5,81,Saccade: 27605 ms,DOWN,24,1.94,80.68,158.14,[ 99],27605,27628,659.1,366.7,692,428.6,82,Saccade: 27942 ms,UP,27,1.78,65.77,109.98,[ 99],27942,27968,687.4,415.8,672.7,352.8,122.39,UP,1.5,A30,D7.wav,D7_FAM_She_is_washing_the_dishes.png,15,6464898
p4,Trial: 35,p4.edf,28154,74,Fixation: 27969 ms,204,27969,28172,[ 99],68,963,4864,663.4,352.0,13,13,35.2,36.5,82,Saccade: 27942 ms,UP,27,1.78,65.77,109.98,"[ 16, 99]",27942,27968,687.4,415.8,672.7,352.8,.,.,.,.,.,.,.,.,.,.,.,.,.,.,-67.35,DOWN,1.93,A30,D7.wav,D7_FAM_She_is_washing_the_dishes.png,15,6464898
