RECORDING_SESSION_LABEL,TRIAL_LABEL,DATA_FILE,CURRENT_FIX_MSG_TIME_1,CURRENT_FIX_INDEX,CURRENT_FIX_LABEL,CURRENT_FIX_DURATION,CURRENT_FIX_START,CURRENT_FIX_END,CURRENT_FIX_INTEREST_AREAS,CURRENT_FIX_INTEREST_AREA_FIX_COUNT,CURRENT_FIX_PUPIL,CURRENT_FIX_RUN_DWELL_TIME,CURRENT_FIX_X,CURRENT_FIX_Y,CURRENT_FIX_RUN_INDEX,CURRENT_FIX_RUN_SIZE,CURRENT_FIX_X_RESOLUTION,CURRENT_FIX_Y_RESOLUTION,PREVIOUS_SAC_INDEX,PREVIOUS_SAC_LABEL,PREVIOUS_SAC_DIRECTION,PREVIOUS_SAC_DURATION,PREVIOUS_SAC_AMPLITUDE,PREVIOUS_SAC_AVG_VELOCITY,PREVIOUS_SAC_PEAK_VELOCITY,PREVIOUS_SAC_START_INTEREST_AREAS,PREVIOUS_SAC_START_TIME,PREVIOUS_SAC_END_TIME,PREVIOUS_SAC_START_X,PREVIOUS_SAC_START_Y,PREVIOUS_SAC_END_X,PREVIOUS_SAC_END_Y,NEXT_SAC_INDEX,NEXT_SAC_LABEL,NEXT_SAC_DIRECTION,NEXT_SAC_DURATION,NEXT_SAC_AMPLITUDE,NEXT_SAC_AVG_VELOCITY,NEXT_SAC_PEAK_VELOCITY,NEXT_SAC_END_INTEREST_AREAS,NEXT_SAC_START_TIME,NEXT_SAC_END_TIME,NEXT_SAC_START_X,NEXT_SAC_START_Y,NEXT_SAC_END_X,NEXT_SAC_END_Y,PREVIOUS_FIX_ANGLE,PREVIOUS_FIX_DIRECTION,PREVIOUS_FIX_DISTANCE,ItemNO,audiofilename,imagefilename,TRIAL_INDEX,TRIAL_START_TIME
p10,Trial: 21,p10.edf,59,1,Fixation: 7 ms,493,7,499,"[ 7, 99]",9,831,493,953.3,394.1,1,1,36.05,36.9,.,.,.,.,.,.,.,.,.,.,.,.,.,.,1,Saccade: 500 ms,DOWN,206,16.09,78.12,728.64,[ ],500,705,960.1,398.6,685.7,940.8,.,.,.,A21,D7.wav,D7_FAM_She_is_washing_the_dishes.png,12,4655164
p10,Trial: 21,p10.edf,3141,2,Fixation: 871 ms,2741,871,3611,[ ],.,778,.,640.1,947.7,.,.,36.6,39.45,2,Saccade: 861 ms,LEFT,10,0.56,55.96,49.92,[ ],861,870,655.9,942.7,636.3,949.1,3,Saccade: 3612 ms,UP,40,3.94,98.39,306.28,"[ 4, 99]",3612,3651,635.3,942.9,560.6,812.5,59.27,UP,16.87,A21,D7.wav,D7_FAM_She_is_washing_the_dishes.png,12,4655164
p10,Trial: 21,p10.edf,.,3,Fixation: 3652 ms,123,3652,3774,"[ 4, 99]",5,925,123,552.3,802.6,1,1,36.1,38.25,3,Saccade: 3612 ms,UP,40,3.94,98.39,306.28,[ ],3612,3651,635.3,942.9,560.6,812.5,4,Saccade: 3775 ms,UP,130,14.03,107.89,831.22,[ 99],3775,3904,552.2,805.7,464.1,289.3,-57.11,DOWN,4.45,A21,D7.wav,D7_FAM_She_is_washing_the_dishes.png,12,4655164
p10,Trial: 21,p10.edf,.,4,Fixation: 4076 ms,155,4076,4230,"[ 3, 99]",17,909,1631,584.3,229.9,1,6,35.3,36.6,5,Saccade: 4050 ms,RIGHT,26,3.71,142.72,274.91,[ 99],4050,4075,462.7,273.2,587.7,231.4,6,Saccade: 4231 ms,UP,23,0.77,33.3,84.31,"[ 3, 99]",4231,4253,587.3,230.7,577.6,204.5,-93.35,DOWN,15.33,A21,D7.wav,D7_FAM_She_is_washing_the_dishes.png,12,4655164
p10,Trial: 21,p10.edf,.,5,Fixation: 4254 ms,213,4254,4466,"[ 3, 99]",17,894,1631,577.9,208.4,2,6,35.3,36.7,6,Saccade: 4231 ms,UP,23,0.77,33.3,84.31,"[ 3, 99]",4231,4253,587.3,230.7,577.6,204.5,7,Saccade: 4467 ms,RIGHT,15,0.81,53.84,65.63,"[ 3, 99]",4467,4481,578.4,210.2,606.5,215.2,-72.83,DOWN,0.61,A21,D7.wav,D7_FAM_She_is_washing_the_dishes.png,12,4655164
p10,Trial: 21,p10.edf,.,6,Fixation: 4482 ms,171,4482,4652,"[ 3, 99]",17,858,1631,602.7,212.3,3,6,35.3,36.6,7,Saccade: 4467 ms,RIGHT,15,0.81,53.84,65.63,"[ 3, 99]",4467,4481,578.4,210.2,606.5,215.2,8,Saccade: 4653 ms,LEFT,16,0.92,57.47,68.93,"[ 3, 99]",4653,4668,607,213.7,575.4,206,171.39,LEFT,0.71,A21,D7.wav,D7_FAM_She_is_washing_the_dishes.png,12,4655164
p10,Trial: 21,p10.edf,.,7,Fixation: 4669 ms,242,4669,4910,"[ 3, 99]",17,845,1631,584.5,210.1,4,6,35.3,36.7,8,Saccade: 4653 ms,LEFT,16,0.92,57.47,68.93,"[ 3, 99]",4653,4668,607,213.7,575.4,206,9,Saccade: 4911 ms,RIGHT,24,1.91,79.68,159.46,"[ 3, 22, 99]",4911,4934,585,208.4,650.3,225.8,-6.64,RIGHT,0.52,A21,D7.wav,D7_FAM_She_is_washing_the_dishes.png,12,4655164
p10,Trial: 21,p10.edf,.,8,Fixation: 4935 ms,675,4935,5609,"[ 3, 22, 99]",17,853,1631,646.3,227.7,5,6,35.2,36.6,9,Saccade: 4911 ms,RIGHT,24,1.91,79.68,159.46,"[ 3, 99]",4911,4934,585,208.4,650.3,225.8,10,Saccade: 5610 ms,LEFT,26,2.36,90.9,160.64,"[ 3, 99]",5610,5635,647,229.7,569.7,197.4,164.68,LEFT,1.82,A21,D7.wav,D7_FAM_She_is_washing_the_dishes.png,12,4655164
p10,Trial: 21,p10.edf,.,9,Fixation: 5636 ms,175,5636,5810,"[ 3, 99]",17,862,1631,576.3,205.9,6,6,35.3,36.7,10,Saccade: 5610 ms,LEFT,26,2.36,90.9,160.64,"[ 3, 22, 99]",5610,5635,647,229.7,569.7,197.4,11,Saccade: 5811 ms,LEFT,39,7.1,181.94,331.06,"[ 2, 99]",5811,5849,578,205.4,329.3,253.2,-16.67,RIGHT,2.07,A21,D7.wav,D7_FAM_She_is_washing_the_dishes.png,12,4655164
p10,Trial: 21,p10.edf,.,10,Fixation: 5850 ms,195,5850,6044,"[ 2, 99]",5,863,195,328.6,257.5,1,1,36.0,37.0,11,Saccade: 5811 ms,LEFT,39,7.1,181.94,331.06,"[ 3, 99]",5811,5849,578,205.4,329.3,253.2,12,Saccade: 6045 ms,LEFT,26,2.79,107.16,188.63,"[ 2, 23, 99]",6045,6070,327.1,257.5,240.8,311.2,11.39,RIGHT,7.09,A21,D7.wav,D7_FAM_She_is_washing_the_dishes.png,12,4655164
p10,Trial: 21,p10.edf,.,11,Fixation: 6071 ms,264,6071,6334,[ 99],66,866,19564,239.7,313.6,9,65,36.55,37.2,12,Saccade: 6045 ms,LEFT,26,2.79,107.16,188.63,"[ 2, 99]",6045,6070,327.1,257.5,240.8,311.2,13,Saccade: 6335 ms,DOWN,12,0.55,46.06,44.98,"[ 8, 11, 99]",6335,6346,241.6,317.2,253.2,334,31.68,RIGHT,2.88,A21,D7.wav,D7_FAM_She_is_washing_the_dishes.png,12,4655164
p10,Trial: 21,p10.edf,.,12,Fixation: 6347 ms,237,6347,6583,"[ 8, 11, 99]",4,876,382,247.7,330.3,1,2,36.5,37.1,13,Saccade: 6335 ms,DOWN,12,0.55,46.06,44.98,"[ 2, 23, 99]",6335,6346,241.6,317.2,253.2,334,14,Saccade: 6584 ms,LEFT,15,0.94,62.52,73.24,"[ 8, 11, 99]",6584,6598,249.4,332.7,218.9,348.7,115.98,UP,0.5,A21,D7.wav,D7_FAM_She_is_washing_the_dishes.png,12,4655164
p10,Trial: 21,p10.edf,.,13,Fixation: 6599 ms,145,6599,6743,"[ 8, 11, 99]",4,863,382,222.3,353.8,2,2,36.7,37.25,14,Saccade: 6584 ms,LEFT,15,0.94,62.52,73.24,"[ 8, 11, 99]",6584,6598,249.4,332.7,218.9,348.7,15,Saccade: 6744 ms,LEFT,27,3.07,113.82,198.86,"[ 11, 13, 99]",6744,6770,224.2,354.4,123,407.4,42.33,RIGHT,0.94,A21,D7.wav,D7_FAM_She_is_washing_the_dishes.png,12,4655164
p10,Trial: 21,p10.edf,.,14,Fixation: 6771 ms,249,6771,7019,"[ 11, 13, 99]",6,862,631,127.5,410.0,3,3,37.45,37.65,15,Saccade: 6744 ms,LEFT,27,3.07,113.82,198.86,"[ 8, 11, 99]",6744,6770,224.2,354.4,123,407.4,16,Saccade: 7020 ms,DOWN,26,2.05,78.79,130.48,"[ 24, 99]",7020,7045,130.9,413.9,87.9,478.1,30.41,RIGHT,2.96,A21,D7.wav,D7_FAM_She_is_washing_the_dishes.png,12,4655164
p10,Trial: 21,p10.edf,.,15,Fixation: 7046 ms,255,7046,7300,"[ 24, 99]",2,856,482,92.2,481.0,1,2,37.8,37.9,16,Saccade: 7020 ms,DOWN,26,2.05,78.79,130.48,"[ 11, 13, 99]",7020,7045,130.9,413.9,87.9,478.1,17,Saccade: 7301 ms,RIGHT,10,0.54,54.48,47.38,"[ 24, 99]",7301,7310,93.5,482,108.8,495.8,63.47,UP,2.1,A21,D7.wav,D7_FAM_She_is_washing_the_dishes.png,12,4655164
p10,Trial: 21,p10.edf,.,16,Fixation: 7311 ms,227,7311,7537,"[ 24, 99]",2,853,482,106.6,498.4,2,2,37.7,37.9,17,Saccade: 7301 ms,RIGHT,10,0.54,54.48,47.38,"[ 24, 99]",7301,7310,93.5,482,108.8,495.8,18,Saccade: 7538 ms,UP,48,7.43,154.87,372.58,"[ 2, 99]",7538,7585,106.1,498.7,294.6,296.2,129.72,UP,0.6,A21,D7.wav,D7_FAM_She_is_washing_the_dishes.png,12,4655164
p10,Trial: 21,p10.edf,.,17,Fixation: 7586 ms,273,7586,7858,"[ 2, 99]",5,829,273,289.8,290.3,1,1,36.25,37.0,18,Saccade: 7538 ms,UP,48,7.43,154.87,372.58,"[ 24, 99]",7538,7585,106.1,498.7,294.6,296.2,19,Saccade: 7859 ms,RIGHT,36,4.17,115.92,227.32,"[ 26, 99]",7859,7894,286.4,296,404.5,200.7,-131.72,DOWN,7.44,A21,D7.wav,D7_FAM_She_is_washing_the_dishes.png,12,4655164
p10,Trial: 21,p10.edf,.,18,Fixation: 7895 ms,217,7895,8111,"[ 26, 99]",2,837,407,399.4,201.1,1,2,35.75,36.9,19,Saccade: 7859 ms,RIGHT,36,4.17,115.92,227.32,"[ 2, 99]",7859,7894,286.4,296,404.5,200.7,20,Saccade: 8112 ms,UP,24,2.32,96.83,172.75,"[ 25, 26, 99]",8112,8135,400.3,202.7,361.1,126.7,-141.59,LEFT,3.89,A21,D7.wav,D7_FAM_She_is_washing_the_dishes.png,12,4655164
p10,Trial: 21,p10.edf,.,19,Fixation: 8136 ms,190,8136,8325,"[ 25, 26, 99]",1,832,190,358.2,132.3,1,1,36.0,37.2,20,Saccade: 8112 ms,UP,24,2.32,96.83,172.75,"[ 26, 99]",8112,8135,400.3,202.7,361.1,126.7,21,Saccade: 8326 ms,RIGHT,36,7.89,219.09,426.01,"[ 3, 99]",8326,8361,357.4,134.6,623.3,228.1,-58.27,DOWN,2.18,A21,D7.wav,D7_FAM_She_is_washing_the_dishes.png,12,4655164
p10,Trial: 21,p10.edf,.,20,Fixation: 8362 ms,216,8362,8577,"[ 3, 99]",17,832,408,619.5,230.3,1,2,35.2,36.6,21,Saccade: 8326 ms,RIGHT,36,7.89,219.09,426.01,"[ 25, 26, 99]",8326,8361,357.4,134.6,623.3,228.1,22,Saccade: 8578 ms,RIGHT,18,0.6,33.11,61.74,"[ 3, 22, 99]",8578,8595,619.3,231.8,640.2,233.7,160.11,LEFT,7.81,A21,D7.wav,D7_FAM_She_is_washing_the_dishes.png,12,4655164
p10,Trial: 21,p10.edf,.,21,Fixation: 8596 ms,192,8596,8787,"[ 3, 22, 99]",17,823,408,639.1,232.3,2,2,35.2,36.6,22,Saccade: 8578 ms,RIGHT,18,0.6,33.11,61.74,"[ 3, 99]",8578,8595,619.3,231.8,640.2,233.7,23,Saccade: 8788 ms,RIGHT,46,5.69,123.63,324.82,"[ 7, 14, 99]",8788,8833,637.6,231,836.9,258.3,174.4,LEFT,0.56,A21,D7.wav,D7_FAM_She_is_washing_the_dishes.png,12,4655164
p10,Trial: 21,p10.edf,.,22,Fixation: 8834 ms,152,8834,8985,"[ 7, 14, 99]",9,816,432,843.0,263.1,1,2,35.6,36.7,23,Saccade: 8788 ms,RIGHT,46,5.69,123.63,324.82,"[ 3, 22, 99]",8788,8833,637.6,231,836.9,258.3,24,Saccade: 8986 ms,LEFT,16,0.93,58.02,70.76,"[ 7, 14, 99]",8986,9001,844.3,264.6,811.3,265.1,171.7,LEFT,5.82,A21,D7.wav,D7_FAM_She_is_washing_the_dishes.png,12,4655164
p10,Trial: 21,p10.edf,.,23,Fixation: 9002 ms,280,9002,9281,"[ 7, 14, 99]",9,830,432,817.3,264.6,2,2,35.5,36.7,24,Saccade: 8986 ms,LEFT,16,0.93,58.02,70.76,"[ 7, 14, 99]",8986,9001,844.3,264.6,811.3,265.1,25,Saccade: 9282 ms,DOWN,32,4.23,132.32,253.38,"[ 27, 99]",9282,9313,813.8,267.6,884.2,405.2,3.24,RIGHT,0.72,A21,D7.wav,D7_FAM_She_is_washing_the_dishes.png,12,4655164
p10,Trial: 21,p10.edf,.,24,Fixation: 9314 ms,220,9314,9533,"[ 27, 99]",3,827,220,882.4,409.9,1,1,35.7,36.8,25,Saccade: 9282 ms,DOWN,32,4.23,132.32,253.38,"[ 7, 14, 99]",9282,9313,813.8,267.6,884.2,405.2,26,Saccade: 9534 ms,RIGHT,41,5.75,140.14,335.81,"[ 10, 16, 99]",9534,9574,881.3,416,1045.6,547.2,114.82,UP,4.36,A21,D7.wav,D7_FAM_She_is_washing_the_dishes.png,12,4655164
p10,Trial: 21,p10.edf,.,25,Fixation: 9575 ms,178,9575,9752,"[ 10, 16, 99]",10,807,412,1048.1,545.1,1,2,36.75,37.5,26,Saccade: 9534 ms,RIGHT,41,5.75,140.14,335.81,"[ 27, 99]",9534,9574,881.3,416,1045.6,547.2,27,Saccade: 9753 ms,.,7,0.35,49.96,40.52,"[ 10, 99]",9753,9759,1046.2,544.1,1034.4,549.3,141.49,LEFT,5.85,A21,D7.wav,D7_FAM_She_is_washing_the_dishes.png,12,4655164
p10,Trial: 21,p10.edf,.,26,Fixation: 9760 ms,234,9760,9993,"[ 10, 20, 99]",10,821,412,1032.1,554.6,2,2,36.7,37.5,27,Saccade: 9753 ms,.,7,0.35,49.96,40.52,"[ 10, 16, 99]",9753,9759,1046.2,544.1,1034.4,549.3,28,Saccade: 9994 ms,UP,36,5.37,149.15,285.12,"[ 18, 99]",9994,10029,1031.7,557.2,1157.3,400.5,30.18,RIGHT,0.5,A21,D7.wav,D7_FAM_She_is_washing_the_dishes.png,12,4655164
p10,Trial: 21,p10.edf,.,27,Fixation: 10030 ms,252,10030,10281,"[ 18, 99]",2,795,252,1151.0,402.4,1,1,37.45,37.65,28,Saccade: 9994 ms,UP,36,5.37,149.15,285.12,"[ 10, 20, 99]",9994,10029,1031.7,557.2,1157.3,400.5,29,Saccade: 10282 ms,DOWN,32,4.43,138.43,246.34,"[ 10, 16, 99]",10282,10313,1149.5,403.6,1060.8,543.9,-128.37,DOWN,5.17,A21,D7.wav,D7_FAM_She_is_washing_the_dishes.png,12,4655164
p10,Trial: 21,p10.edf,.,28,Fixation: 10314 ms,295,10314,10608,"[ 10, 16, 99]",10,807,295,1048.4,545.5,1,1,36.85,37.55,29,Saccade: 10282 ms,DOWN,32,4.43,138.43,246.34,"[ 18, 99]",10282,10313,1149.5,403.6,1060.8,543.9,30,Saccade: 10609 ms,RIGHT,38,5.45,143.38,286,"[ 18, 99]",10609,10646,1046.5,545.5,1192.4,402.7,54.03,UP,4.7,A21,D7.wav,D7_FAM_She_is_washing_the_dishes.png,12,4655164
p10,Trial: 21,p10.edf,.,29,Fixation: 10647 ms,288,10647,10934,"[ 18, 99]",2,801,288,1183.7,414.8,1,1,37.8,37.8,30,Saccade: 10609 ms,RIGHT,38,5.45,143.38,286,"[ 10, 16, 99]",10609,10646,1046.5,545.5,1192.4,402.7,31,Saccade: 10935 ms,UP,45,3.56,79.05,198.87,"[ 7, 15, 99]",10935,10979,1184.2,418.9,1133.8,294.7,-136.26,LEFT,5.02,A21,D7.wav,D7_FAM_She_is_washing_the_dishes.png,12,4655164
p10,Trial: 21,p10.edf,.,30,Fixation: 10980 ms,169,10980,11148,"[ 7, 15, 99]",9,821,470,1125.2,288.9,1,2,37.25,37.55,31,Saccade: 10935 ms,UP,45,3.56,79.05,198.87,"[ 18, 99]",10935,10979,1184.2,418.9,1133.8,294.7,32,Saccade: 11149 ms,LEFT,24,1.26,52.45,120.84,"[ 7, 15, 99]",11149,11172,1125.3,288.9,1084.1,266.8,-64.99,DOWN,3.69,A21,D7.wav,D7_FAM_She_is_washing_the_dishes.png,12,4655164
p10,Trial: 21,p10.edf,.,31,Fixation: 11173 ms,301,11173,11473,"[ 7, 15, 99]",9,813,470,1085.9,271.4,2,2,36.9,37.4,32,Saccade: 11149 ms,LEFT,24,1.26,52.45,120.84,"[ 7, 15, 99]",11149,11172,1125.3,288.9,1084.1,266.8,33,Saccade: 11474 ms,LEFT,38,6.78,178.4,348.33,"[ 27, 99]",11474,11511,1086.4,273.8,881.5,413.1,-23.78,RIGHT,1.16,A21,D7.wav,D7_FAM_She_is_washing_the_dishes.png,12,4655164
p10,Trial: 21,p10.edf,.,32,Fixation: 11512 ms,345,11512,11856,"[ 27, 99]",3,817,345,876.8,421.7,1,1,35.7,36.75,33,Saccade: 11474 ms,LEFT,38,6.78,178.4,348.33,"[ 7, 15, 99]",11474,11511,1086.4,273.8,881.5,413.1,34,Saccade: 11857 ms,RIGHT,48,8.86,184.51,434.88,"[ 10, 99]",11857,11904,871,420.4,1163,565.9,35.14,RIGHT,7.04,A21,D7.wav,D7_FAM_She_is_washing_the_dishes.png,12,4655164
p10,Trial: 21,p10.edf,.,33,Fixation: 11905 ms,361,11905,12265,"[ 10, 99]",10,820,361,1163.8,574.1,1,1,37.7,38.1,34,Saccade: 11857 ms,RIGHT,48,8.86,184.51,434.88,"[ 27, 99]",11857,11904,871,420.4,1163,565.9,35,Saccade: 12266 ms,DOWN,30,3.79,126.42,232.58,[ 99],12266,12295,1160.1,574.3,1094,702.8,152.49,LEFT,8.82,A21,D7.wav,D7_FAM_She_is_washing_the_dishes.png,12,4655164
p10,Trial: 21,p10.edf,.,34,Fixation: 12296 ms,169,12296,12464,[ 99],66,827,19564,1091.9,701.3,32,65,37.4,38.4,35,Saccade: 12266 ms,DOWN,30,3.79,126.42,232.58,"[ 10, 99]",12266,12295,1160.1,574.3,1094,702.8,36,Saccade: 12465 ms,LEFT,58,13.71,236.31,462.03,"[ 4, 99]",12465,12522,1090.5,704.9,591.7,766.8,60.07,UP,3.84,A21,D7.wav,D7_FAM_She_is_washing_the_dishes.png,12,4655164
p10,Trial: 21,p10.edf,.,35,Fixation: 12523 ms,207,12523,12729,"[ 4, 99]",5,841,635,571.1,767.9,1,2,35.9,37.9,36,Saccade: 12465 ms,LEFT,58,13.71,236.31,462.03,[ 99],12465,12522,1090.5,704.9,591.7,766.8,37,Saccade: 12730 ms,UP,22,1.65,74.93,128.33,"[ 4, 99]",12730,12751,570.7,768.6,552.8,709.3,7,RIGHT,14.32,A21,D7.wav,D7_FAM_She_is_washing_the_dishes.png,12,4655164
p10,Trial: 21,p10.edf,13117,36,Fixation: 12752 ms,428,12752,13179,"[ 4, 99]",5,809,635,555.2,721.2,2,2,35.75,37.6,37,Saccade: 12730 ms,UP,22,1.65,74.93,128.33,"[ 4, 99]",12730,12751,570.7,768.6,552.8,709.3,38,Saccade: 13180 ms,RIGHT,191,0.66,3.48,459.86,"[ 4, 99]",13180,13370,559.1,722.3,576.4,705.2,-70.26,DOWN,1.31,A21,D7.wav,D7_FAM_She_is_washing_the_dishes.png,12,4655164
p10,Trial: 21,p10.edf,.,37,Fixation: 13488 ms,185,13488,13672,"[ 3, 99]",17,815,266,532.0,284.3,1,2,35.3,36.6,39,Saccade: 13438 ms,UP,50,11.3,225.95,502.75,[ 99],13438,13487,560.6,697,546.1,278.7,40,Saccade: 13673 ms,RIGHT,29,1.31,45.12,138.13,"[ 3, 99]",13673,13701,527.8,284.2,571.3,300.1,-86.83,DOWN,11.79,A21,D7.wav,D7_FAM_She_is_washing_the_dishes.png,12,4655164
p10,Trial: 21,p10.edf,.,38,Fixation: 13702 ms,81,13702,13782,"[ 3, 99]",17,829,266,575.9,301.3,2,2,35.2,36.5,40,Saccade: 13673 ms,RIGHT,29,1.31,45.12,138.13,"[ 3, 99]",13673,13701,527.8,284.2,571.3,300.1,41,Saccade: 13783 ms,LEFT,150,5.65,37.64,770.15,"[ 26, 99]",13783,13932,577.5,304.1,382.7,255.3,159.52,LEFT,1.33,A21,D7.wav,D7_FAM_She_is_washing_the_dishes.png,12,4655164
p10,Trial: 21,p10.edf,.,39,Fixation: 14680 ms,238,14680,14917,"[ 27, 99]",3,946,238,833.9,493.0,1,1,35.6,36.8,44,Saccade: 14624 ms,RIGHT,56,8.15,145.51,432.66,"[ 3, 99]",14624,14679,552.8,461.8,840.6,487.4,45,Saccade: 14918 ms,RIGHT,215,5.44,25.31,900.89,"[ 10, 99]",14918,15132,833.6,498.3,1025.3,542.5,144.33,LEFT,8.97,A21,D7.wav,D7_FAM_She_is_washing_the_dishes.png,12,4655164
p10,Trial: 21,p10.edf,.,40,Fixation: 15321 ms,129,15321,15449,"[ 10, 99]",10,950,129,1136.2,474.3,1,1,37.35,37.65,46,Saccade: 15277 ms,RIGHT,44,3.34,76.01,242.35,"[ 10, 99]",15277,15320,1021.6,540.6,1126.5,474.3,47,Saccade: 15450 ms,LEFT,50,8.64,172.86,434.94,"[ 7, 99]",15450,15499,1134.7,476,878.4,287.8,-176.53,LEFT,8.3,A21,D7.wav,D7_FAM_She_is_washing_the_dishes.png,12,4655164
p10,Trial: 21,p10.edf,.,41,Fixation: 15500 ms,120,15500,15619,"[ 7, 99]",9,956,277,864.0,281.5,1,2,35.65,36.75,47,Saccade: 15450 ms,LEFT,50,8.64,172.86,434.94,"[ 10, 99]",15450,15499,1134.7,476,878.4,287.8,48,Saccade: 15620 ms,RIGHT,45,5.48,121.77,341.32,"[ 7, 15, 99]",15620,15664,864.4,275.4,1062.7,270.6,-34.8,RIGHT,9.08,A21,D7.wav,D7_FAM_She_is_washing_the_dishes.png,12,4655164
p10,Trial: 21,p10.edf,.,42,Fixation: 15665 ms,157,15665,15821,"[ 7, 15, 99]",9,928,277,1072.9,275.5,2,2,36.8,37.35,48,Saccade: 15620 ms,RIGHT,45,5.48,121.77,341.32,"[ 7, 99]",15620,15664,864.4,275.4,1062.7,270.6,49,Saccade: 15822 ms,LEFT,65,12.94,199.1,481.05,"[ 3, 99]",15822,15886,1073.4,276.8,610.3,224.6,-178.39,LEFT,5.77,A21,D7.wav,D7_FAM_She_is_washing_the_dishes.png,12,4655164
p10,Trial: 21,p10.edf,16000,43,Fixation: 15887 ms,264,15887,16150,"[ 3, 99]",17,990,432,609.8,228.9,1,2,35.2,36.6,49,Saccade: 15822 ms,LEFT,65,12.94,199.1,481.05,"[ 7, 15, 99]",15822,15886,1073.4,276.8,610.3,224.6,50,Saccade: 16151 ms,RIGHT,22,1.1,50.15,105.84,"[ 3, 99]",16151,16172,606.8,231.7,642.2,248.3,-5.6,RIGHT,12.93,A21,D7.wav,D7_FAM_She_is_washing_the_dishes.png,12,4655164
p10,Trial: 21,p10.edf,.,44,Fixation: 16173 ms,168,16173,16340,"[ 3, 99]",17,989,432,638.1,243.0,2,2,35.2,36.6,50,Saccade: 16151 ms,RIGHT,22,1.1,50.15,105.84,"[ 3, 99]",16151,16172,606.8,231.7,642.2,248.3,51,Saccade: 16341 ms,RIGHT,49,7.71,157.35,413.64,"[ 6, 7, 99]",16341,16389,634.8,242.3,906.9,272.9,154.4,LEFT,0.89,A21,D7.wav,D7_FAM_She_is_washing_the_dishes.png,12,4655164
p10,Trial: 21,p10.edf,.,45,Fixation: 16390 ms,192,16390,16581,"[ 6, 7, 99]",1,979,192,923.5,278.6,1,1,35.85,36.85,51,Saccade: 16341 ms,RIGHT,49,7.71,157.35,413.64,"[ 3, 99]",16341,16389,634.8,242.3,906.9,272.9,52,Saccade: 16582 ms,LEFT,36,6.69,185.73,337.65,"[ 5, 12, 99]",16582,16617,925,280.4,687.3,279.9,173.12,LEFT,8.09,A21,D7.wav,D7_FAM_She_is_washing_the_dishes.png,12,4655164
p10,Trial: 21,p10.edf,.,46,Fixation: 16618 ms,111,16618,16728,"[ 5, 12, 99]",1,1006,111,686.4,280.9,1,1,35.2,36.5,52,Saccade: 16582 ms,LEFT,36,6.69,185.73,337.65,"[ 6, 7, 99]",16582,16617,925,280.4,687.3,279.9,53,Saccade: 16729 ms,LEFT,55,11.31,205.61,462.12,"[ 2, 99]",16729,16783,687.4,277.7,284.9,316.6,0.54,RIGHT,6.67,A21,D7.wav,D7_FAM_She_is_washing_the_dishes.png,12,4655164
p10,Trial: 21,p10.edf,.,47,Fixation: 16784 ms,240,16784,17023,"[ 2, 99]",5,1017,240,267.8,316.8,1,1,36.35,37.05,53,Saccade: 16729 ms,LEFT,55,11.31,205.61,462.12,"[ 5, 12, 99]",16729,16783,687.4,277.7,284.9,316.6,54,Saccade: 17024 ms,LEFT,21,0.94,44.98,92.85,"[ 8, 11, 99]",17024,17044,265.1,316.9,232.2,327.4,4.77,RIGHT,11.74,A21,D7.wav,D7_FAM_She_is_washing_the_dishes.png,12,4655164
p10,Trial: 21,p10.edf,.,48,Fixation: 17045 ms,338,17045,17382,"[ 8, 11, 99]",4,1031,338,234.0,327.4,1,1,36.6,37.2,54,Saccade: 17024 ms,LEFT,21,0.94,44.98,92.85,"[ 2, 99]",17024,17044,265.1,316.9,232.2,327.4,55,Saccade: 17383 ms,RIGHT,55,10.23,185.99,452.64,"[ 3, 99]",17383,17437,233.4,326.2,597.3,275.5,17.13,RIGHT,0.97,A21,D7.wav,D7_FAM_She_is_washing_the_dishes.png,12,4655164
p10,Trial: 21,p10.edf,17590,49,Fixation: 17438 ms,247,17438,17684,"[ 3, 99]",17,989,461,608.1,283.7,1,2,35.2,36.5,55,Saccade: 17383 ms,RIGHT,55,10.23,185.99,452.64,"[ 8, 11, 99]",17383,17437,233.4,326.2,597.3,275.5,56,Saccade: 17685 ms,UP,22,1.57,71.26,106.78,"[ 3, 99]",17685,17706,608.2,286.1,603.6,229,-173.51,LEFT,10.49,A21,D7.wav,D7_FAM_She_is_washing_the_dishes.png,12,4655164
p10,Trial: 21,p10.edf,.,50,Fixation: 17707 ms,214,17707,17920,"[ 3, 99]",17,998,461,603.1,238.7,2,2,35.2,36.6,56,Saccade: 17685 ms,UP,22,1.57,71.26,106.78,"[ 3, 99]",17685,17706,608.2,286.1,603.6,229,57,Saccade: 17921 ms,LEFT,51,9.28,182.01,431.17,"[ 2, 99]",17921,17971,602.7,241,277.3,308.1,-83.42,DOWN,1.24,A21,D7.wav,D7_FAM_She_is_washing_the_dishes.png,12,4655164
p10,Trial: 21,p10.edf,.,51,Fixation: 17972 ms,203,17972,18174,"[ 2, 99]",5,993,203,259.8,313.3,1,1,36.35,37.1,57,Saccade: 17921 ms,LEFT,51,9.28,182.01,431.17,"[ 3, 99]",17921,17971,602.7,241,277.3,308.1,58,Saccade: 18175 ms,LEFT,22,0.63,28.51,79.61,[ 99],18175,18196,260.1,316.4,237.5,312.7,11.91,RIGHT,9.81,A21,D7.wav,D7_FAM_She_is_washing_the_dishes.png,12,4655164
p10,Trial: 21,p10.edf,18530,52,Fixation: 18197 ms,336,18197,18532,[ 99],66,988,19564,239.6,317.8,50,65,36.55,37.2,58,Saccade: 18175 ms,LEFT,22,0.63,28.51,79.61,"[ 2, 99]",18175,18196,260.1,316.4,237.5,312.7,59,Saccade: 18533 ms,UP,11,0.62,56.03,51.03,"[ 2, 23, 99]",18533,18543,243.6,318.6,242.5,295.7,12.33,RIGHT,0.57,A21,D7.wav,D7_FAM_She_is_washing_the_dishes.png,12,4655164
p10,Trial: 21,p10.edf,.,53,Fixation: 18544 ms,214,18544,18757,"[ 2, 99]",5,990,214,242.5,293.8,1,1,36.5,37.2,59,Saccade: 18533 ms,UP,11,0.62,56.03,51.03,"[ 2, 23, 99]",18533,18543,243.6,318.6,242.5,295.7,60,Saccade: 18758 ms,.,6,0.23,39.15,32.24,"[ 11, 23, 99]",18758,18763,243.6,289.2,250.1,283.5,-97.02,DOWN,0.65,A21,D7.wav,D7_FAM_She_is_washing_the_dishes.png,12,4655164
p10,Trial: 21,p10.edf,.,54,Fixation: 18764 ms,388,18764,19151,"[ 11, 23, 99]",6,1006,3703,247.0,278.8,1,2,36.5,37.2,60,Saccade: 18758 ms,.,6,0.23,39.15,32.24,"[ 23, 99]",18758,18763,243.6,289.2,250.1,283.5,61,Saccade: 19152 ms,DOWN,18,1.15,63.64,84.94,"[ 8, 11, 99]",19152,19169,246.2,279.6,234.8,320.6,-107,.,0.42,A21,D7.wav,D7_FAM_She_is_washing_the_dishes.png,12,4655164
p10,Trial: 21,p10.edf,19680,55,Fixation: 19170 ms,3315,19170,22484,"[ 8, 11, 99]",4,996,3315,242.0,324.7,1,1,36.6,37.2,61,Saccade: 19152 ms,DOWN,18,1.15,63.64,84.94,"[ 11, 23, 99]",19152,19169,246.2,279.6,234.8,320.6,62,Saccade: 22485 ms,DOWN,62,11.43,184.3,403.92,[ 99],22485,22546,237.2,337.2,484,679.7,83.67,UP,1.24,A21,D7.wav,D7_FAM_She_is_washing_the_dishes.png,12,4655164
p10,Trial: 21,p10.edf,.,56,Fixation: 22547 ms,124,22547,22670,[ 99],66,993,19564,488.0,693.5,54,65,35.8,37.5,62,Saccade: 22485 ms,DOWN,62,11.43,184.3,403.92,"[ 8, 11, 99]",22485,22546,237.2,337.2,484,679.7,63,Saccade: 22671 ms,RIGHT,31,2.16,69.72,201.16,"[ 4, 99]",22671,22701,486.3,692.2,541.6,749.2,124.54,UP,11.99,A21,D7.wav,D7_FAM_She_is_washing_the_dishes.png,12,4655164
p10,Trial: 21,p10.edf,.,57,Fixation: 22702 ms,241,22702,22942,"[ 4, 99]",5,1013,469,548.2,751.4,1,2,35.9,37.85,63,Saccade: 22671 ms,RIGHT,31,2.16,69.72,201.16,[ 99],22671,22701,486.3,692.2,541.6,749.2,64,Saccade: 22943 ms,RIGHT,137,1.05,7.68,478.24,"[ 4, 99]",22943,23079,549.3,756.1,581.4,777.1,137.54,LEFT,2.28,A21,D7.wav,D7_FAM_She_is_washing_the_dishes.png,12,4655164
p10,Trial: 21,p10.edf,.,58,Fixation: 23861 ms,228,23861,24088,"[ 4, 99]",5,912,469,551.8,784.0,2,2,36.0,38.05,66,Saccade: 23842 ms,LEFT,19,1.14,59.74,90.15,"[ 4, 99]",23842,23860,576.2,800.8,543.2,775.3,67,Saccade: 24089 ms,UP,192,14.15,73.7,581.56,"[ 3, 99]",24089,24280,553.4,787.3,589.1,260.1,96.65,UP,0.86,A21,D7.wav,D7_FAM_She_is_washing_the_dishes.png,12,4655164
p10,Trial: 21,p10.edf,.,59,Fixation: 24407 ms,140,24407,24546,"[ 3, 99]",17,911,917,579.0,212.0,1,3,35.3,36.65,68,Saccade: 24383 ms,UP,24,0.91,38.07,102.16,"[ 3, 99]",24383,24406,581.8,246.8,577.2,213.7,69,Saccade: 24547 ms,.,8,0.3,37.78,35.08,"[ 3, 99]",24547,24554,578.5,206.7,584.6,197.6,-92.85,DOWN,15.33,A21,D7.wav,D7_FAM_She_is_washing_the_dishes.png,12,4655164
p10,Trial: 21,p10.edf,.,60,Fixation: 24555 ms,533,24555,25087,"[ 3, 99]",17,906,917,585.0,206.3,2,3,35.3,36.65,69,Saccade: 24547 ms,.,8,0.3,37.78,35.08,"[ 3, 99]",24547,24554,578.5,206.7,584.6,197.6,70,Saccade: 25088 ms,DOWN,22,1.7,77.4,107.81,"[ 3, 99]",25088,25109,586.3,211.2,584.2,273.4,-137.54,.,0.23,A21,D7.wav,D7_FAM_She_is_washing_the_dishes.png,12,4655164
p10,Trial: 21,p10.edf,.,61,Fixation: 25110 ms,244,25110,25353,"[ 3, 99]",17,904,917,583.7,265.0,3,3,35.2,36.5,70,Saccade: 25088 ms,DOWN,22,1.7,77.4,107.81,"[ 3, 99]",25088,25109,586.3,211.2,584.2,273.4,71,Saccade: 25354 ms,RIGHT,49,7.24,147.77,394.79,"[ 7, 99]",25354,25402,583.3,265.5,839.2,270.8,88.68,UP,1.61,A21,D7.wav,D7_FAM_She_is_washing_the_dishes.png,12,4655164
p10,Trial: 21,p10.edf,.,62,Fixation: 25403 ms,194,25403,25596,"[ 7, 99]",9,910,194,846.9,278.9,1,1,35.6,36.7,71,Saccade: 25354 ms,RIGHT,49,7.24,147.77,394.79,"[ 3, 99]",25354,25402,583.3,265.5,839.2,270.8,72,Saccade: 25597 ms,RIGHT,50,8.12,162.34,436.26,"[ 10, 17, 99]",25597,25646,845.2,279.8,1093.7,441.6,177.08,LEFT,7.44,A21,D7.wav,D7_FAM_She_is_washing_the_dishes.png,12,4655164
p10,Trial: 21,p10.edf,.,63,Fixation: 25647 ms,121,25647,25767,"[ 10, 17, 99]",10,907,2427,1102.7,451.5,1,5,37.05,37.5,72,Saccade: 25597 ms,RIGHT,50,8.12,162.34,436.26,"[ 7, 99]",25597,25646,845.2,279.8,1093.7,441.6,73,Saccade: 25768 ms,DOWN,40,2.66,66.57,222.64,"[ 10, 99]",25768,25807,1107.2,447.5,1043,523,146.55,LEFT,8.44,A21,D7.wav,D7_FAM_She_is_washing_the_dishes.png,12,4655164
p10,Trial: 21,p10.edf,.,64,Fixation: 25808 ms,213,25808,26020,"[ 10, 99]",10,928,2427,1038.6,535.1,2,5,36.7,37.45,73,Saccade: 25768 ms,DOWN,40,2.66,66.57,222.64,"[ 10, 17, 99]",25768,25807,1107.2,447.5,1043,523,74,Saccade: 26021 ms,LEFT,12,0.68,56.38,55.77,"[ 10, 20, 99]",26021,26032,1038,535.3,1016.6,548.1,52.07,UP,2.83,A21,D7.wav,D7_FAM_She_is_washing_the_dishes.png,12,4655164
p10,Trial: 21,p10.edf,.,65,Fixation: 26033 ms,894,26033,26926,"[ 10, 20, 99]",10,928,2427,1027.6,548.5,3,5,36.6,37.45,74,Saccade: 26021 ms,LEFT,12,0.68,56.38,55.77,"[ 10, 99]",26021,26032,1038,535.3,1016.6,548.1,75,Saccade: 26927 ms,.,8,0.42,52.34,41.83,"[ 10, 16, 99]",26927,26934,1023.9,550.5,1038,544.3,50.01,.,0.47,A21,D7.wav,D7_FAM_She_is_washing_the_dishes.png,12,4655164
p10,Trial: 21,p10.edf,.,66,Fixation: 26935 ms,689,26935,27623,"[ 10, 99]",10,937,2427,1030.2,548.4,4,5,36.65,37.5,75,Saccade: 26927 ms,.,8,0.42,52.34,41.83,"[ 10, 20, 99]",26927,26934,1023.9,550.5,1038,544.3,76,Saccade: 27624 ms,RIGHT,34,4.1,120.62,227.93,"[ 10, 99]",27624,27657,1028.9,549.1,1181.6,544.6,-177.85,.,0.07,A21,D7.wav,D7_FAM_She_is_washing_the_dishes.png,12,4655164
p10,Trial: 21,p10.edf,28149,67,Fixation: 27658 ms,510,27658,28167,"[ 10, 99]",10,917,2427,1167.0,548.2,5,5,37.75,38.05,76,Saccade: 27624 ms,RIGHT,34,4.1,120.62,227.93,"[ 10, 20, 99]",27624,27657,1028.9,549.1,1181.6,544.6,.,.,.,.,.,.,.,.,.,.,.,.,.,.,-179.92,LEFT,3.68,A21,D7.wav,D7_FAM_She_is_washing_the_dishes.png,12,4655164
