RECORDING_SESSION_LABEL,TRIAL_LABEL,DATA_FILE,CURRENT_FIX_MSG_TIME_1,CURRENT_FIX_INDEX,CURRENT_FIX_LABEL,CURRENT_FIX_DURATION,CURRENT_FIX_START,CURRENT_FIX_END,CURRENT_FIX_INTEREST_AREAS,CURRENT_FIX_INTEREST_AREA_FIX_COUNT,CURRENT_FIX_PUPIL,CURRENT_FIX_RUN_DWELL_TIME,CURRENT_FIX_X,CURRENT_FIX_Y,CURRENT_FIX_RUN_INDEX,CURRENT_FIX_RUN_SIZE,CURRENT_FIX_X_RESOLUTION,CURRENT_FIX_Y_RESOLUTION,PREVIOUS_SAC_INDEX,PREVIOUS_SAC_LABEL,PREVIOUS_SAC_DIRECTION,PREVIOUS_SAC_DURATION,PREVIOUS_SAC_AMPLITUDE,PREVIOUS_SAC_AVG_VELOCITY,PREVIOUS_SAC_PEAK_VELOCITY,PREVIOUS_SAC_START_INTEREST_AREAS,PREVIOUS_SAC_START_TIME,PREVIOUS_SAC_END_TIME,PREVIOUS_SAC_START_X,PREVIOUS_SAC_START_Y,PREVIOUS_SAC_END_X,PREVIOUS_SAC_END_Y,NEXT_SAC_INDEX,NEXT_SAC_LABEL,NEXT_SAC_DIRECTION,NEXT_SAC_DURATION,NEXT_SAC_AMPLITUDE,NEXT_SAC_AVG_VELOCITY,NEXT_SAC_PEAK_VELOCITY,NEXT_SAC_END_INTEREST_AREAS,NEXT_SAC_START_TIME,NEXT_SAC_END_TIME,NEXT_SAC_START_X,NEXT_SAC_START_Y,NEXT_SAC_END_X,NEXT_SAC_END_Y,PREVIOUS_FIX_ANGLE,PREVIOUS_FIX_DIRECTION,PREVIOUS_FIX_DISTANCE,ItemNO,audiofilename,imagefilename,TRIAL_INDEX,TRIAL_START_TIME
p5,Trial: 18,p5.edf,64,1,Fixation: 7 ms,85,7,91,"[ 2, 99]",6,715,85,1006.7,475.7,1,1,36.4,37.2,.,.,.,.,.,.,.,.,.,.,.,.,.,.,1,Saccade: 92 ms,UP,179,0.72,4.05,472,[ 99],92,270,1008.6,481.4,1001.4,455.5,.,.,.,A22,D7.wav,D7_FAM_She_is_washing_the_dishes.png,6,2570558
p5,Trial: 18,p5.edf,.,2,Fixation: 456 ms,139,456,594,"[ 15, 99]",5,685,139,653.4,792.5,1,1,35.95,38.0,2,Saccade: 393 ms,LEFT,63,12.23,194.08,531.93,"[ 6, 99]",393,455,987,468,651.7,766.2,3,Saccade: 595 ms,DOWN,39,2.51,64.36,214.82,[ ],595,633,656.1,797.1,658.8,893.7,40.78,RIGHT,12.9,A22,D7.wav,D7_FAM_She_is_washing_the_dishes.png,6,2570558
p5,Trial: 18,p5.edf,.,3,Fixation: 634 ms,185,634,818,[ ],.,594,.,664.1,910.2,.,.,36.4,39.05,3,Saccade: 595 ms,DOWN,39,2.51,64.36,214.82,"[ 15, 99]",595,633,656.1,797.1,658.8,893.7,4,Saccade: 819 ms,DOWN,13,0.71,54.85,57.81,[ ],819,831,665.8,920,664.7,948,95.53,UP,3.07,A22,D7.wav,D7_FAM_She_is_washing_the_dishes.png,6,2570558
p5,Trial: 18,p5.edf,.,4,Fixation: 832 ms,1504,832,2335,[ ],.,581,.,663.7,950.0,.,.,36.6,39.45,4,Saccade: 819 ms,DOWN,13,0.71,54.85,57.81,[ ],819,831,665.8,920,664.7,948,5,Saccade: 2336 ms,UP,257,1.43,5.55,160.58,[ ],2336,2592,660.5,947.3,639.5,896.2,89.38,UP,1.01,A22,D7.wav,D7_FAM_She_is_washing_the_dishes.png,6,2570558
p5,Trial: 18,p5.edf,3213,5,Fixation: 2895 ms,542,2895,3436,[ ],.,679,.,665.6,955.2,.,.,36.6,39.55,6,Saccade: 2887 ms,.,8,0.38,48.12,38.34,[ ],2887,2894,653.7,944.4,661.7,956.9,7,Saccade: 3437 ms,UP,47,4.49,95.51,239.46,"[ 15, 99]",3437,3483,671.5,960,635.6,789.9,111.52,.,0.14,A22,D7.wav,D7_FAM_She_is_washing_the_dishes.png,6,2570558
p5,Trial: 18,p5.edf,.,6,Fixation: 3484 ms,120,3484,3603,"[ 15, 99]",5,706,120,629.1,780.3,1,1,35.9,38.05,7,Saccade: 3437 ms,UP,47,4.49,95.51,239.46,[ ],3437,3483,671.5,960,635.6,789.9,8,Saccade: 3604 ms,UP,71,12.92,181.96,457.08,"[ 5, 99]",3604,3674,629,773.5,518.2,305.8,-77.41,DOWN,4.62,A22,D7.wav,D7_FAM_She_is_washing_the_dishes.png,6,2570558
p5,Trial: 18,p5.edf,.,7,Fixation: 3758 ms,129,3758,3886,"[ 5, 14, 99]",3,810,129,478.0,225.0,1,1,35.45,36.7,9,Saccade: 3720 ms,UP,38,2.05,54.01,252.66,"[ 5, 99]",3720,3757,521.8,298.7,482.3,235.6,10,Saccade: 3887 ms,DOWN,49,4.47,91.24,320.37,"[ 8, 99]",3887,3935,480,225.1,400.1,367,-74.09,DOWN,15.45,A22,D7.wav,D7_FAM_She_is_washing_the_dishes.png,6,2570558
p5,Trial: 18,p5.edf,.,8,Fixation: 3936 ms,156,3936,4091,"[ 8, 99]",9,861,156,400.0,384.1,1,1,35.7,36.7,10,Saccade: 3887 ms,DOWN,49,4.47,91.24,320.37,"[ 5, 14, 99]",3887,3935,480,225.1,400.1,367,11,Saccade: 4092 ms,LEFT,51,7.13,139.75,396.63,"[ 3, 9, 99]",4092,4142,401.5,384.9,141.4,390,63.17,UP,4.86,A22,D7.wav,D7_FAM_She_is_washing_the_dishes.png,6,2570558
p5,Trial: 18,p5.edf,.,9,Fixation: 4143 ms,337,4143,4479,"[ 3, 9, 99]",6,843,337,119.9,393.9,1,1,37.4,37.65,11,Saccade: 4092 ms,LEFT,51,7.13,139.75,396.63,"[ 8, 99]",4092,4142,401.5,384.9,141.4,390,12,Saccade: 4480 ms,RIGHT,49,6.74,137.48,388.99,"[ 8, 99]",4480,4528,122,397.7,368.9,397.8,1.97,RIGHT,7.67,A22,D7.wav,D7_FAM_She_is_washing_the_dishes.png,6,2570558
p5,Trial: 18,p5.edf,.,10,Fixation: 4529 ms,311,4529,4839,"[ 8, 99]",9,776,549,395.6,402.3,1,2,35.75,36.8,12,Saccade: 4480 ms,RIGHT,49,6.74,137.48,388.99,"[ 3, 9, 99]",4480,4528,122,397.7,368.9,397.8,13,Saccade: 4840 ms,LEFT,11,0.55,50.43,47.05,"[ 8, 99]",4840,4850,395.2,400.1,376.5,393.3,178.29,LEFT,7.54,A22,D7.wav,D7_FAM_She_is_washing_the_dishes.png,6,2570558
p5,Trial: 18,p5.edf,.,11,Fixation: 4851 ms,238,4851,5088,"[ 8, 99]",9,716,549,384.2,396.3,2,2,35.75,36.8,13,Saccade: 4840 ms,LEFT,11,0.55,50.43,47.05,"[ 8, 99]",4840,4850,395.2,400.1,376.5,393.3,14,Saccade: 5089 ms,RIGHT,74,17.06,230.57,521.16,[ 99],5089,5162,384.5,396.6,988.4,286.3,-27.08,.,0.36,A22,D7.wav,D7_FAM_She_is_washing_the_dishes.png,6,2570558
p5,Trial: 18,p5.edf,.,12,Fixation: 5163 ms,113,5163,5275,[ 99],69,644,18963,993.4,284.1,7,67,36.3,37.1,14,Saccade: 5089 ms,RIGHT,74,17.06,230.57,521.16,"[ 8, 99]",5089,5162,384.5,396.6,988.4,286.3,15,Saccade: 5276 ms,RIGHT,26,2.79,107.49,224.72,"[ 2, 99]",5276,5301,993.8,282.9,1096.2,280.4,-169.82,LEFT,17.18,A22,D7.wav,D7_FAM_She_is_washing_the_dishes.png,6,2570558
p5,Trial: 18,p5.edf,.,13,Fixation: 5302 ms,138,5302,5439,"[ 2, 99]",6,616,138,1081.3,274.9,1,1,36.95,37.4,15,Saccade: 5276 ms,RIGHT,26,2.79,107.49,224.72,[ 99],5276,5301,993.8,282.9,1096.2,280.4,16,Saccade: 5440 ms,LEFT,45,4.12,91.59,319.07,"[ 2, 13, 99]",5440,5484,1083.2,274.6,944.7,333.9,-174.13,LEFT,2.41,A22,D7.wav,D7_FAM_She_is_washing_the_dishes.png,6,2570558
p5,Trial: 18,p5.edf,.,14,Fixation: 5485 ms,198,5485,5682,"[ 6, 13, 99]",5,610,198,931.4,347.5,1,1,35.95,36.85,16,Saccade: 5440 ms,LEFT,45,4.12,91.59,319.07,"[ 2, 99]",5440,5484,1083.2,274.6,944.7,333.9,17,Saccade: 5683 ms,DOWN,53,5.77,108.79,387.41,"[ 2, 99]",5683,5735,930.4,350.7,1067.7,512.7,25.43,RIGHT,4.55,A22,D7.wav,D7_FAM_She_is_washing_the_dishes.png,6,2570558
p5,Trial: 18,p5.edf,.,15,Fixation: 5736 ms,229,5736,5964,"[ 2, 99]",6,586,229,1071.1,530.8,1,1,36.9,37.5,17,Saccade: 5683 ms,DOWN,53,5.77,108.79,387.41,"[ 6, 13, 99]",5683,5735,930.4,350.7,1067.7,512.7,18,Saccade: 5965 ms,RIGHT,45,3.38,75.22,264.35,"[ 19, 99]",5965,6009,1066.9,529.9,1186.8,571,127.88,UP,6.25,A22,D7.wav,D7_FAM_She_is_washing_the_dishes.png,6,2570558
p5,Trial: 18,p5.edf,.,16,Fixation: 6010 ms,204,6010,6213,"[ 19, 99]",9,596,322,1197.7,579.2,1,2,38.0,38.2,18,Saccade: 5965 ms,RIGHT,45,3.38,75.22,264.35,"[ 2, 99]",5965,6009,1066.9,529.9,1186.8,571,19,Saccade: 6214 ms,LEFT,25,2.46,98.52,163.39,"[ 19, 99]",6214,6238,1196.1,574.7,1105.7,554.4,159.28,LEFT,3.61,A22,D7.wav,D7_FAM_She_is_washing_the_dishes.png,6,2570558
p5,Trial: 18,p5.edf,.,17,Fixation: 6239 ms,118,6239,6356,"[ 19, 99]",9,613,322,1116.0,554.3,2,2,37.25,37.8,19,Saccade: 6214 ms,LEFT,25,2.46,98.52,163.39,"[ 19, 99]",6214,6238,1196.1,574.7,1105.7,554.4,20,Saccade: 6357 ms,LEFT,181,6.68,36.92,290.86,"[ 21, 99]",6357,6537,1117.5,559.7,874.1,538.6,-16.79,RIGHT,2.27,A22,D7.wav,D7_FAM_She_is_washing_the_dishes.png,6,2570558
p5,Trial: 18,p5.edf,.,18,Fixation: 6769 ms,155,6769,6923,"[ 6, 99]",5,728,155,843.6,498.7,1,1,35.6,36.8,21,Saccade: 6743 ms,UP,26,2.02,77.51,131.53,"[ 21, 99]",6743,6768,877.8,545.3,843.2,480.1,22,Saccade: 6924 ms,LEFT,40,3.61,90.16,299.02,"[ 7, 99]",6924,6963,844,496.5,726.6,444.1,-11.27,RIGHT,7.63,A22,D7.wav,D7_FAM_She_is_washing_the_dishes.png,6,2570558
p5,Trial: 18,p5.edf,.,19,Fixation: 6964 ms,220,6964,7183,"[ 7, 99]",7,743,500,721.7,442.9,1,2,35.3,36.6,22,Saccade: 6924 ms,LEFT,40,3.61,90.16,299.02,"[ 6, 99]",6924,6963,844,496.5,726.6,444.1,23,Saccade: 7184 ms,.,10,0.44,43.89,43.64,"[ 7, 99]",7184,7193,720.5,438.9,705.3,435.9,-23.85,RIGHT,3.76,A22,D7.wav,D7_FAM_She_is_washing_the_dishes.png,6,2570558
p5,Trial: 18,p5.edf,.,20,Fixation: 7194 ms,280,7194,7473,"[ 7, 99]",7,741,500,708.8,443.5,2,2,35.25,36.55,23,Saccade: 7184 ms,.,10,0.44,43.89,43.64,"[ 7, 99]",7184,7193,720.5,438.9,705.3,435.9,24,Saccade: 7474 ms,UP,57,8.52,149.51,355.71,"[ 16, 22, 99]",7474,7530,709.8,445.8,774.9,140,2.57,.,0.37,A22,D7.wav,D7_FAM_She_is_washing_the_dishes.png,6,2570558
p5,Trial: 18,p5.edf,.,21,Fixation: 7531 ms,254,7531,7784,"[ 16, 22, 99]",1,669,254,780.0,121.0,1,1,35.55,36.95,24,Saccade: 7474 ms,UP,57,8.52,149.51,355.71,"[ 7, 99]",7474,7530,709.8,445.8,774.9,140,25,Saccade: 7785 ms,DOWN,52,5.65,108.66,367.98,"[ 16, 99]",7785,7836,781.7,122.3,921.9,272.6,-102.91,DOWN,9,A22,D7.wav,D7_FAM_She_is_washing_the_dishes.png,6,2570558
p5,Trial: 18,p5.edf,.,22,Fixation: 7837 ms,280,7837,8116,[ 99],69,680,18963,925.9,299.4,17,67,35.9,36.9,25,Saccade: 7785 ms,DOWN,52,5.65,108.66,367.98,"[ 16, 22, 99]",7785,7836,781.7,122.3,921.9,272.6,26,Saccade: 8117 ms,RIGHT,44,3.75,85.16,200.94,"[ 2, 99]",8117,8160,928.8,304,1057.4,258.7,130.21,UP,6.33,A22,D7.wav,D7_FAM_She_is_washing_the_dishes.png,6,2570558
p5,Trial: 18,p5.edf,.,23,Fixation: 8161 ms,264,8161,8424,"[ 2, 99]",6,686,737,1063.1,257.1,1,3,36.75,37.3,26,Saccade: 8117 ms,RIGHT,44,3.75,85.16,200.94,[ 99],8117,8160,928.8,304,1057.4,258.7,27,Saccade: 8425 ms,DOWN,53,5.3,100,286.74,"[ 2, 99]",8425,8477,1062.8,258.8,1070.6,456.6,-163.2,LEFT,3.95,A22,D7.wav,D7_FAM_She_is_washing_the_dishes.png,6,2570558
p5,Trial: 18,p5.edf,.,24,Fixation: 8478 ms,223,8478,8700,"[ 2, 99]",6,652,737,1065.3,472.5,2,3,36.8,37.4,27,Saccade: 8425 ms,DOWN,53,5.3,100,286.74,"[ 2, 99]",8425,8477,1062.8,258.8,1070.6,456.6,28,Saccade: 8701 ms,DOWN,22,1.69,76.84,123.37,"[ 2, 99]",8701,8722,1062,471.7,1054.1,534.5,90.59,UP,5.77,A22,D7.wav,D7_FAM_She_is_washing_the_dishes.png,6,2570558
p5,Trial: 18,p5.edf,.,25,Fixation: 8723 ms,250,8723,8972,"[ 2, 99]",6,631,737,1050.2,518.4,3,3,36.75,37.45,28,Saccade: 8701 ms,DOWN,22,1.69,76.84,123.37,"[ 2, 99]",8701,8722,1062,471.7,1054.1,534.5,29,Saccade: 8973 ms,RIGHT,47,3.75,79.69,296.68,"[ 19, 99]",8973,9019,1048.4,511.6,1170.5,580,71.49,UP,1.29,A22,D7.wav,D7_FAM_She_is_washing_the_dishes.png,6,2570558
p5,Trial: 18,p5.edf,.,26,Fixation: 9020 ms,179,9020,9198,"[ 19, 99]",9,611,179,1189.2,582.1,1,1,37.9,38.2,29,Saccade: 8973 ms,RIGHT,47,3.75,79.69,296.68,"[ 2, 99]",8973,9019,1048.4,511.6,1170.5,580,30,Saccade: 9199 ms,RIGHT,187,0.93,4.95,846.79,"[ 19, 99]",9199,9385,1195.1,590.5,1230.5,591.4,155.67,LEFT,4.09,A22,D7.wav,D7_FAM_She_is_washing_the_dishes.png,6,2570558
p5,Trial: 18,p5.edf,.,27,Fixation: 9614 ms,554,9614,10167,"[ 13, 99]",3,621,554,919.3,334.5,1,1,35.95,36.85,31,Saccade: 9558 ms,LEFT,56,9.98,178.23,402.85,"[ 19, 99]",9558,9613,1223.6,590.2,948,338.8,32,Saccade: 10168 ms,LEFT,49,5.8,118.36,345.91,"[ 6, 10, 99]",10168,10216,922.1,335.6,718.4,302.8,-42.07,RIGHT,9.85,A22,D7.wav,D7_FAM_She_is_washing_the_dishes.png,6,2570558
p5,Trial: 18,p5.edf,.,28,Fixation: 10217 ms,267,10217,10483,"[ 6, 10, 99]",5,598,267,702.8,306.2,1,1,35.2,36.5,32,Saccade: 10168 ms,LEFT,49,5.8,118.36,345.91,"[ 2, 13, 99]",10168,10216,922.1,335.6,718.4,302.8,33,Saccade: 10484 ms,LEFT,51,8.11,158.95,380.7,"[ 8, 99]",10484,10534,703.4,310.8,422.8,373,-7.23,RIGHT,6.13,A22,D7.wav,D7_FAM_She_is_washing_the_dishes.png,6,2570558
p5,Trial: 18,p5.edf,.,29,Fixation: 10535 ms,191,10535,10725,"[ 8, 99]",9,623,356,401.1,379.2,1,2,35.65,36.7,33,Saccade: 10484 ms,LEFT,51,8.11,158.95,380.7,"[ 6, 10, 99]",10484,10534,703.4,310.8,422.8,373,34,Saccade: 10726 ms,LEFT,19,1.03,54.25,83.04,"[ 8, 99]",10726,10744,399.3,379.2,362.6,382.6,13.18,RIGHT,8.75,A22,D7.wav,D7_FAM_She_is_washing_the_dishes.png,6,2570558
p5,Trial: 18,p5.edf,.,30,Fixation: 10745 ms,165,10745,10909,"[ 8, 99]",9,616,356,368.0,378.0,2,2,35.8,36.8,34,Saccade: 10726 ms,LEFT,19,1.03,54.25,83.04,"[ 8, 99]",10726,10744,399.3,379.2,362.6,382.6,35,Saccade: 10910 ms,LEFT,48,6.15,128.2,338.99,"[ 3, 9, 99]",10910,10957,369.8,378.1,144.9,381.3,-2.02,RIGHT,0.93,A22,D7.wav,D7_FAM_She_is_washing_the_dishes.png,6,2570558
p5,Trial: 18,p5.edf,.,31,Fixation: 10958 ms,241,10958,11198,"[ 3, 9, 99]",6,628,439,133.7,386.0,1,2,37.35,37.6,35,Saccade: 10910 ms,LEFT,48,6.15,128.2,338.99,"[ 8, 99]",10910,10957,369.8,378.1,144.9,381.3,36,Saccade: 11199 ms,DOWN,27,2.6,96.22,164.96,"[ 3, 18, 99]",11199,11225,135.8,384.4,185.6,468,1.92,RIGHT,6.41,A22,D7.wav,D7_FAM_She_is_washing_the_dishes.png,6,2570558
p5,Trial: 18,p5.edf,.,32,Fixation: 11226 ms,198,11226,11423,"[ 3, 99]",6,627,439,180.5,460.8,2,2,37.0,37.5,36,Saccade: 11199 ms,DOWN,27,2.6,96.22,164.96,"[ 3, 9, 99]",11199,11225,135.8,384.4,185.6,468,37,Saccade: 11424 ms,DOWN,46,5.58,121.31,233.44,"[ 11, 99]",11424,11469,180.6,463.6,182.2,674.8,122.29,UP,2.36,A22,D7.wav,D7_FAM_She_is_washing_the_dishes.png,6,2570558
p5,Trial: 18,p5.edf,.,33,Fixation: 11470 ms,225,11470,11694,"[ 11, 99]",11,654,805,184.5,668.9,1,2,37.35,38.2,37,Saccade: 11424 ms,DOWN,46,5.58,121.31,233.44,"[ 3, 99]",11424,11469,180.6,463.6,182.2,674.8,38,Saccade: 11695 ms,RIGHT,24,1.26,52.59,93.3,"[ 11, 99]",11695,11718,187.7,674.6,222.9,706.6,91.12,UP,5.5,A22,D7.wav,D7_FAM_She_is_washing_the_dishes.png,6,2570558
p5,Trial: 18,p5.edf,.,34,Fixation: 11719 ms,580,11719,12298,"[ 11, 99]",11,685,805,212.2,690.9,2,2,37.2,38.25,38,Saccade: 11695 ms,RIGHT,24,1.26,52.59,93.3,"[ 11, 99]",11695,11718,187.7,674.6,222.9,706.6,39,Saccade: 12299 ms,UP,29,1.87,64.58,85.75,"[ 3, 99]",12299,12327,209.4,685.4,225.6,616.2,142.24,LEFT,0.94,A22,D7.wav,D7_FAM_She_is_washing_the_dishes.png,6,2570558
p5,Trial: 18,p5.edf,.,35,Fixation: 12728 ms,236,12728,12963,"[ 8, 99]",9,680,236,386.3,386.8,1,1,35.7,36.8,41,Saccade: 12713 ms,LEFT,15,0.81,53.84,62.97,"[ 8, 99]",12713,12727,407.1,400.8,383.3,384.1,42,Saccade: 12964 ms,RIGHT,54,9.07,167.93,457.29,"[ 7, 99]",12964,13017,381.3,380,698.8,432,-120.52,DOWN,9.41,A22,D7.wav,D7_FAM_She_is_washing_the_dishes.png,6,2570558
p5,Trial: 18,p5.edf,13189,36,Fixation: 13018 ms,427,13018,13444,"[ 7, 99]",7,654,606,726.4,447.0,1,2,35.25,36.55,42,Saccade: 12964 ms,RIGHT,54,9.07,167.93,457.29,"[ 8, 99]",12964,13017,381.3,380,698.8,432,43,Saccade: 13445 ms,LEFT,12,0.58,48.45,46.98,"[ 7, 99]",13445,13456,730.5,447.6,710.4,451.9,170.28,LEFT,9.73,A22,D7.wav,D7_FAM_She_is_washing_the_dishes.png,6,2570558
p5,Trial: 18,p5.edf,.,37,Fixation: 13457 ms,179,13457,13635,"[ 7, 99]",7,652,606,721.0,451.7,2,2,35.3,36.6,43,Saccade: 13445 ms,LEFT,12,0.58,48.45,46.98,"[ 7, 99]",13445,13456,730.5,447.6,710.4,451.9,44,Saccade: 13636 ms,RIGHT,48,4.91,102.23,410.65,"[ 21, 99]",13636,13683,723.1,451.7,885.2,518.4,40.01,.,0.2,A22,D7.wav,D7_FAM_She_is_washing_the_dishes.png,6,2570558
p5,Trial: 18,p5.edf,.,38,Fixation: 13684 ms,281,13684,13964,"[ 21, 99]",2,649,281,907.2,527.7,1,1,35.85,37.0,44,Saccade: 13636 ms,RIGHT,48,4.91,102.23,410.65,"[ 7, 99]",13636,13683,723.1,451.7,885.2,518.4,45,Saccade: 13965 ms,LEFT,58,9.49,163.68,488.28,"[ 15, 99]",13965,14022,909.8,522.3,637,734.3,158.47,LEFT,5.63,A22,D7.wav,D7_FAM_She_is_washing_the_dishes.png,6,2570558
p5,Trial: 18,p5.edf,.,39,Fixation: 14023 ms,337,14023,14359,"[ 15, 99]",5,682,337,632.7,754.2,1,1,35.8,37.75,45,Saccade: 13965 ms,LEFT,58,9.49,163.68,488.28,"[ 21, 99]",13965,14022,909.8,522.3,637,734.3,46,Saccade: 14360 ms,UP,61,10.49,172.04,360.76,"[ 8, 99]",14360,14420,628.4,749.9,443.6,410,38.34,RIGHT,9.77,A22,D7.wav,D7_FAM_She_is_washing_the_dishes.png,6,2570558
p5,Trial: 18,p5.edf,.,40,Fixation: 14421 ms,195,14421,14615,"[ 8, 99]",9,740,690,432.1,385.8,1,3,35.5,36.7,46,Saccade: 14360 ms,UP,61,10.49,172.04,360.76,"[ 15, 99]",14360,14420,628.4,749.9,443.6,410,47,Saccade: 14616 ms,LEFT,22,1.73,78.43,126.62,"[ 8, 99]",14616,14637,432.1,385.7,370.7,389.6,-60.38,DOWN,11.38,A22,D7.wav,D7_FAM_She_is_washing_the_dishes.png,6,2570558
p5,Trial: 18,p5.edf,14680,41,Fixation: 14638 ms,168,14638,14805,"[ 8, 99]",9,721,690,381.5,387.8,2,3,35.75,36.8,47,Saccade: 14616 ms,LEFT,22,1.73,78.43,126.62,"[ 8, 99]",14616,14637,432.1,385.7,370.7,389.6,48,Saccade: 14806 ms,UP,178,2.58,14.49,460.76,"[ 5, 99]",14806,14983,383.6,389.9,366.6,296.6,2.19,RIGHT,1.42,A22,D7.wav,D7_FAM_She_is_washing_the_dishes.png,6,2570558
p5,Trial: 18,p5.edf,.,42,Fixation: 15291 ms,327,15291,15617,"[ 8, 99]",9,815,690,396.3,370.8,3,3,35.7,36.7,49,Saccade: 15270 ms,DOWN,21,1.46,69.51,100.75,"[ 5, 99]",15270,15290,390.8,329.1,403.6,381.1,50,Saccade: 15618 ms,DOWN,58,8.01,138.04,369.26,"[ 3, 99]",15618,15675,395.6,376.6,216.9,612,-131.85,DOWN,0.62,A22,D7.wav,D7_FAM_She_is_washing_the_dishes.png,6,2570558
p5,Trial: 18,p5.edf,.,43,Fixation: 15676 ms,159,15676,15834,"[ 3, 99]",6,839,159,216.2,636.3,1,1,37.0,37.85,50,Saccade: 15618 ms,DOWN,58,8.01,138.04,369.26,"[ 8, 99]",15618,15675,395.6,376.6,216.9,612,51,Saccade: 15835 ms,DOWN,24,1.57,65.6,120.54,"[ 11, 99]",15835,15858,217.5,638.9,180.5,685.4,55.18,UP,8.68,A22,D7.wav,D7_FAM_She_is_washing_the_dishes.png,6,2570558
p5,Trial: 18,p5.edf,.,44,Fixation: 15859 ms,209,15859,16067,"[ 11, 99]",11,839,873,183.1,671.1,1,3,37.4,38.25,51,Saccade: 15835 ms,DOWN,24,1.57,65.6,120.54,"[ 3, 99]",15835,15858,217.5,638.9,180.5,685.4,52,Saccade: 16068 ms,RIGHT,21,1.15,54.93,93.89,"[ 11, 99]",16068,16088,179.1,668.9,220.6,680.3,45.79,UP,1.28,A22,D7.wav,D7_FAM_She_is_washing_the_dishes.png,6,2570558
p5,Trial: 18,p5.edf,16180,45,Fixation: 16089 ms,544,16089,16632,"[ 11, 99]",11,841,873,209.4,679.3,2,3,37.15,38.15,52,Saccade: 16068 ms,RIGHT,21,1.15,54.93,93.89,"[ 11, 99]",16068,16088,179.1,668.9,220.6,680.3,53,Saccade: 16633 ms,LEFT,19,0.62,32.37,60.03,"[ 11, 99]",16633,16651,206.3,686.8,183.6,683.4,163.08,LEFT,0.74,A22,D7.wav,D7_FAM_She_is_washing_the_dishes.png,6,2570558
p5,Trial: 18,p5.edf,.,46,Fixation: 16898 ms,120,16898,17017,"[ 11, 99]",11,792,873,202.5,651.3,3,3,37.15,38.0,55,Saccade: 16878 ms,DOWN,20,5.85,292.58,520.8,"[ 3, 9, 99]",16878,16897,50.6,446,193.5,615.4,56,Saccade: 17018 ms,UP,35,4.28,122.17,215.25,[ 99],17018,17052,203.9,658.6,301.1,532.1,-75.83,DOWN,0.76,A22,D7.wav,D7_FAM_She_is_washing_the_dishes.png,6,2570558
p5,Trial: 18,p5.edf,.,47,Fixation: 17053 ms,231,17053,17283,[ 99],69,833,18963,295.0,539.9,42,67,36.3,37.3,56,Saccade: 17018 ms,UP,35,4.28,122.17,215.25,"[ 11, 99]",17018,17052,203.9,658.6,301.1,532.1,57,Saccade: 17284 ms,DOWN,47,4.2,89.43,316.59,"[ 11, 99]",17284,17330,296.6,540.9,193.5,658.9,-130.41,DOWN,3.89,A22,D7.wav,D7_FAM_She_is_washing_the_dishes.png,6,2570558
p5,Trial: 18,p5.edf,.,48,Fixation: 17331 ms,159,17331,17489,"[ 11, 99]",11,852,159,186.8,675.6,1,1,37.35,38.15,57,Saccade: 17284 ms,DOWN,47,4.2,89.43,316.59,[ 99],17284,17330,296.6,540.9,193.5,658.9,58,Saccade: 17490 ms,RIGHT,71,16.99,239.24,577.56,"[ 6, 99]",17490,17560,183.6,674.2,741,401.3,50.76,UP,4.64,A22,D7.wav,D7_FAM_She_is_washing_the_dishes.png,6,2570558
p5,Trial: 18,p5.edf,.,49,Fixation: 17561 ms,145,17561,17705,"[ 6, 99]",5,844,145,749.4,397.8,1,1,35.3,36.5,58,Saccade: 17490 ms,RIGHT,71,16.99,239.24,577.56,"[ 11, 99]",17490,17560,183.6,674.2,741,401.3,59,Saccade: 17706 ms,LEFT,23,1.88,81.66,145.43,"[ 7, 99]",17706,17728,751.6,391,692.7,422.3,-154.33,LEFT,17.18,A22,D7.wav,D7_FAM_She_is_washing_the_dishes.png,6,2570558
p5,Trial: 18,p5.edf,17810,50,Fixation: 17729 ms,199,17729,17927,"[ 7, 99]",7,834,456,704.1,414.0,1,2,35.2,36.5,59,Saccade: 17706 ms,LEFT,23,1.88,81.66,145.43,"[ 6, 99]",17706,17728,751.6,391,692.7,422.3,60,Saccade: 17928 ms,LEFT,20,0.58,29.05,67.61,"[ 7, 99]",17928,17947,702.7,415.9,682.8,420.8,19.05,RIGHT,1.36,A22,D7.wav,D7_FAM_She_is_washing_the_dishes.png,6,2570558
p5,Trial: 18,p5.edf,.,51,Fixation: 17948 ms,257,17948,18204,"[ 7, 99]",7,819,456,685.5,423.7,2,2,35.2,36.5,60,Saccade: 17928 ms,LEFT,20,0.58,29.05,67.61,"[ 7, 99]",17928,17947,702.7,415.9,682.8,420.8,61,Saccade: 18205 ms,RIGHT,50,5.26,105.25,252.1,"[ 6, 13, 99]",18205,18254,683.5,424.4,852.6,343.6,26.7,RIGHT,0.59,A22,D7.wav,D7_FAM_She_is_washing_the_dishes.png,6,2570558
p5,Trial: 18,p5.edf,.,52,Fixation: 18255 ms,219,18255,18473,"[ 6, 13, 99]",5,796,219,863.7,342.2,1,1,35.6,36.7,61,Saccade: 18205 ms,RIGHT,50,5.26,105.25,252.1,"[ 7, 99]",18205,18254,683.5,424.4,852.6,343.6,62,Saccade: 18474 ms,LEFT,71,19.95,280.93,531.63,"[ 3, 9, 99]",18474,18544,865.2,344.9,142.1,421.8,-156.14,LEFT,5.5,A22,D7.wav,D7_FAM_She_is_washing_the_dishes.png,6,2570558
p5,Trial: 18,p5.edf,.,53,Fixation: 18545 ms,236,18545,18780,"[ 3, 9, 99]",6,776,467,120.9,429.0,1,2,37.45,37.65,62,Saccade: 18474 ms,LEFT,71,19.95,280.93,531.63,"[ 6, 13, 99]",18474,18544,865.2,344.9,142.1,421.8,63,Saccade: 18781 ms,UP,12,0.61,50.89,51.91,"[ 3, 9, 99]",18781,18792,119.6,428.2,114.3,405.8,6.55,RIGHT,20.47,A22,D7.wav,D7_FAM_She_is_washing_the_dishes.png,6,2570558
p5,Trial: 18,p5.edf,18865,54,Fixation: 18793 ms,231,18793,19023,"[ 3, 9, 99]",6,779,467,117.1,410.0,2,2,37.55,37.7,63,Saccade: 18781 ms,UP,12,0.61,50.89,51.91,"[ 3, 9, 99]",18781,18792,119.6,428.2,114.3,405.8,64,Saccade: 19024 ms,DOWN,53,6.74,127.26,351.47,"[ 11, 99]",19024,19076,117,413.6,188.3,658.8,-78.64,DOWN,0.51,A22,D7.wav,D7_FAM_She_is_washing_the_dishes.png,6,2570558
p5,Trial: 18,p5.edf,.,55,Fixation: 19077 ms,99,19077,19175,"[ 11, 99]",11,794,2554,195.2,685.0,1,5,37.3,38.25,64,Saccade: 19024 ms,DOWN,53,6.74,127.26,351.47,"[ 3, 9, 99]",19024,19076,117,413.6,188.3,658.8,65,Saccade: 19176 ms,LEFT,214,1.41,6.6,808.94,"[ 3, 11, 99]",19176,19389,202.6,690.2,165.1,652.1,106.08,UP,7.54,A22,D7.wav,D7_FAM_She_is_washing_the_dishes.png,6,2570558
p5,Trial: 18,p5.edf,19754,56,Fixation: 19632 ms,481,19632,20112,"[ 11, 99]",11,818,2554,190.8,690.2,2,5,37.35,38.3,66,Saccade: 19618 ms,RIGHT,14,0.69,49.09,55.67,"[ 11, 99]",19618,19631,177.4,686,202.6,691,67,Saccade: 20113 ms,.,6,0.26,42.96,32.56,"[ 11, 99]",20113,20118,190,694.1,180.4,693.2,49.05,.,0.18,A22,D7.wav,D7_FAM_She_is_washing_the_dishes.png,6,2570558
p5,Trial: 18,p5.edf,.,57,Fixation: 20119 ms,464,20119,20582,"[ 11, 99]",11,779,2554,184.0,692.6,3,5,37.4,38.35,67,Saccade: 20113 ms,.,6,0.26,42.96,32.56,"[ 11, 99]",20113,20118,190,694.1,180.4,693.2,68,Saccade: 20583 ms,UP,193,5.28,27.34,184.25,"[ 3, 99]",20583,20775,190.4,693.8,65.5,536.6,18.99,.,0.19,A22,D7.wav,D7_FAM_She_is_washing_the_dishes.png,6,2570558
p5,Trial: 18,p5.edf,.,58,Fixation: 20813 ms,1087,20813,21899,"[ 11, 99]",11,768,2554,189.3,688.6,4,5,37.3,38.2,69,Saccade: 20792 ms,DOWN,21,5.11,243.21,471.42,"[ 3, 9, 99]",20792,20812,59.9,496,179.5,648.5,70,Saccade: 21900 ms,LEFT,16,0.8,50.3,58.83,"[ 11, 99]",21900,21915,190.7,689.9,161.3,683.1,-143.63,.,0.18,A22,D7.wav,D7_FAM_She_is_washing_the_dishes.png,6,2570558
p5,Trial: 18,p5.edf,.,59,Fixation: 21916 ms,423,21916,22338,"[ 11, 99]",11,779,2554,178.0,685.1,5,5,37.45,38.35,70,Saccade: 21900 ms,LEFT,16,0.8,50.3,58.83,"[ 11, 99]",21900,21915,190.7,689.9,161.3,683.1,71,Saccade: 22339 ms,RIGHT,201,10.48,52.12,1061.55,[ 99],22339,22539,194.3,687.4,576.5,699.5,-16.83,.,0.32,A22,D7.wav,D7_FAM_She_is_washing_the_dishes.png,6,2570558
p5,Trial: 18,p5.edf,.,60,Fixation: 22592 ms,491,22592,23082,"[ 15, 99]",5,749,1299,614.1,754.7,1,2,35.8,37.8,72,Saccade: 22581 ms,DOWN,11,0.54,48.92,55.09,"[ 15, 99]",22581,22591,601.3,729.2,612.8,745.5,73,Saccade: 23083 ms,UP,15,0.73,48.85,52.27,"[ 15, 99]",23083,23097,617.8,755.4,609.4,729.2,171.27,LEFT,12.05,A22,D7.wav,D7_FAM_She_is_washing_the_dishes.png,6,2570558
p5,Trial: 18,p5.edf,.,61,Fixation: 23098 ms,808,23098,23905,"[ 15, 99]",5,659,1299,624.4,734.3,2,2,35.75,37.7,73,Saccade: 23083 ms,UP,15,0.73,48.85,52.27,"[ 15, 99]",23083,23097,617.8,755.4,609.4,729.2,74,Saccade: 23906 ms,UP,67,13.22,197.35,404.24,"[ 5, 99]",23906,23972,627.2,738.3,497.8,266,-118.05,DOWN,0.61,A22,D7.wav,D7_FAM_She_is_washing_the_dishes.png,6,2570558
p5,Trial: 18,p5.edf,.,62,Fixation: 23973 ms,201,23973,24173,"[ 5, 99]",3,677,201,494.8,244.5,1,1,35.4,36.65,74,Saccade: 23906 ms,UP,67,13.22,197.35,404.24,"[ 15, 99]",23906,23972,627.2,738.3,497.8,266,75,Saccade: 24174 ms,DOWN,52,2.91,56.04,262.25,"[ 5, 99]",24174,24225,498.4,245.6,552.2,336.5,-74.54,DOWN,13.67,A22,D7.wav,D7_FAM_She_is_washing_the_dishes.png,6,2570558
p5,Trial: 18,p5.edf,.,63,Fixation: 24226 ms,92,24226,24317,[ 99],69,723,18963,556.2,350.8,58,67,35.2,36.5,75,Saccade: 24174 ms,DOWN,52,2.91,56.04,262.25,"[ 5, 99]",24174,24225,498.4,245.6,552.2,336.5,76,Saccade: 24318 ms,LEFT,47,5.41,115.2,366.96,"[ 5, 99]",24318,24364,558.7,353.7,378.1,285.8,120.9,UP,3.39,A22,D7.wav,D7_FAM_She_is_washing_the_dishes.png,6,2570558
p5,Trial: 18,p5.edf,.,64,Fixation: 24444 ms,213,24444,24656,"[ 5, 17, 99]",3,745,213,357.0,244.1,1,1,35.9,36.9,77,Saccade: 24422 ms,UP,22,1.56,70.74,111.54,"[ 5, 99]",24422,24443,365.5,286.9,360.3,229.8,78,Saccade: 24657 ms,RIGHT,64,11.93,186.42,589.22,"[ 7, 99]",24657,24720,356.6,244.2,738.6,435.9,-27.42,RIGHT,6.31,A22,D7.wav,D7_FAM_She_is_washing_the_dishes.png,6,2570558
p5,Trial: 18,p5.edf,.,65,Fixation: 24721 ms,192,24721,24912,"[ 7, 99]",7,747,192,741.6,439.3,1,1,35.3,36.6,78,Saccade: 24657 ms,RIGHT,64,11.93,186.42,589.22,"[ 5, 17, 99]",24657,24720,356.6,244.2,738.6,435.9,79,Saccade: 24913 ms,RIGHT,45,3.86,85.69,353.03,"[ 21, 99]",24913,24957,741.4,440.6,850.5,526.2,153.82,LEFT,12.04,A22,D7.wav,D7_FAM_She_is_washing_the_dishes.png,6,2570558
p5,Trial: 18,p5.edf,.,66,Fixation: 24958 ms,148,24958,25105,"[ 21, 99]",2,729,148,860.2,540.0,1,1,35.7,36.95,79,Saccade: 24913 ms,RIGHT,45,3.86,85.69,353.03,"[ 7, 99]",24913,24957,741.4,440.6,850.5,526.2,80,Saccade: 25106 ms,RIGHT,64,9.29,145.09,535.7,[ 99],25106,25169,858.8,539,1180.1,660.8,140.66,LEFT,4.32,A22,D7.wav,D7_FAM_She_is_washing_the_dishes.png,6,2570558
p5,Trial: 18,p5.edf,.,67,Fixation: 25263 ms,153,25263,25415,"[ 19, 99]",9,729,2588,1170.9,587.2,1,6,37.75,38.15,81,Saccade: 25239 ms,UP,24,1.93,80.6,147.26,[ 99],25239,25262,1173.1,659.7,1159,587,82,Saccade: 25416 ms,RIGHT,25,0.98,39.05,103.47,"[ 19, 99]",25416,25440,1173.3,586.7,1210.2,590.6,171.55,LEFT,8.55,A22,D7.wav,D7_FAM_She_is_washing_the_dishes.png,6,2570558
p5,Trial: 18,p5.edf,.,68,Fixation: 25441 ms,344,25441,25784,"[ 19, 99]",9,750,2588,1200.1,578.7,2,6,38.15,38.3,82,Saccade: 25416 ms,RIGHT,25,0.98,39.05,103.47,"[ 19, 99]",25416,25440,1173.3,586.7,1210.2,590.6,83,Saccade: 25785 ms,RIGHT,159,0.51,3.22,294.34,"[ 19, 99]",25785,25943,1201,584.3,1220.1,580,-163.88,LEFT,0.8,A22,D7.wav,D7_FAM_She_is_washing_the_dishes.png,6,2570558
p5,Trial: 18,p5.edf,.,69,Fixation: 26128 ms,523,26128,26650,"[ 19, 99]",9,694,2588,1170.6,558.3,3,6,37.75,38.05,84,Saccade: 26105 ms,LEFT,23,1.82,79.18,138.78,"[ 19, 99]",26105,26127,1221,581.5,1159.1,550.4,85,Saccade: 26651 ms,RIGHT,10,0.57,56.93,52.12,"[ 19, 99]",26651,26660,1172.9,557.7,1192,567.8,-34.51,RIGHT,0.94,A22,D7.wav,D7_FAM_She_is_washing_the_dishes.png,6,2570558
p5,Trial: 18,p5.edf,.,70,Fixation: 26661 ms,271,26661,26931,"[ 19, 99]",9,681,2588,1188.6,568.6,4,6,38.0,38.2,85,Saccade: 26651 ms,RIGHT,10,0.57,56.93,52.12,"[ 19, 99]",26651,26660,1172.9,557.7,1192,567.8,86,Saccade: 26932 ms,RIGHT,21,1.19,56.55,93.32,"[ 19, 99]",26932,26952,1187.9,564.9,1222.8,593.9,150.38,LEFT,0.55,A22,D7.wav,D7_FAM_She_is_washing_the_dishes.png,6,2570558
p5,Trial: 18,p5.edf,.,71,Fixation: 26953 ms,1065,26953,28017,"[ 19, 99]",9,651,2588,1210.6,588.1,5,6,38.25,38.35,86,Saccade: 26932 ms,RIGHT,21,1.19,56.55,93.32,"[ 19, 99]",26932,26952,1187.9,564.9,1222.8,593.9,87,Saccade: 28018 ms,LEFT,23,1.78,77.3,124.48,"[ 19, 99]",28018,28040,1212.8,583.7,1149.4,560.7,138.56,LEFT,0.77,A22,D7.wav,D7_FAM_She_is_washing_the_dishes.png,6,2570558
p5,Trial: 18,p5.edf,28254,72,Fixation: 28041 ms,232,28041,28272,"[ 19, 99]",9,627,2588,1165.2,562.3,6,6,37.65,38.0,87,Saccade: 28018 ms,LEFT,23,1.78,77.3,124.48,"[ 19, 99]",28018,28040,1212.8,583.7,1149.4,560.7,.,.,.,.,.,.,.,.,.,.,.,.,.,.,-29.46,RIGHT,1.37,A22,D7.wav,D7_FAM_She_is_washing_the_dishes.png,6,2570558
