RECORDING_SESSION_LABEL,TRIAL_LABEL,DATA_FILE,CURRENT_FIX_MSG_TIME_1,CURRENT_FIX_INDEX,CURRENT_FIX_LABEL,CURRENT_FIX_DURATION,CURRENT_FIX_START,CURRENT_FIX_END,CURRENT_FIX_INTEREST_AREAS,CURRENT_FIX_INTEREST_AREA_FIX_COUNT,CURRENT_FIX_PUPIL,CURRENT_FIX_RUN_DWELL_TIME,CURRENT_FIX_X,CURRENT_FIX_Y,CURRENT_FIX_RUN_INDEX,CURRENT_FIX_RUN_SIZE,CURRENT_FIX_X_RESOLUTION,CURRENT_FIX_Y_RESOLUTION,PREVIOUS_SAC_INDEX,PREVIOUS_SAC_LABEL,PREVIOUS_SAC_DIRECTION,PREVIOUS_SAC_DURATION,PREVIOUS_SAC_AMPLITUDE,PREVIOUS_SAC_AVG_VELOCITY,PREVIOUS_SAC_PEAK_VELOCITY,PREVIOUS_SAC_START_INTEREST_AREAS,PREVIOUS_SAC_START_TIME,PREVIOUS_SAC_END_TIME,PREVIOUS_SAC_START_X,PREVIOUS_SAC_START_Y,PREVIOUS_SAC_END_X,PREVIOUS_SAC_END_Y,NEXT_SAC_INDEX,NEXT_SAC_LABEL,NEXT_SAC_DIRECTION,NEXT_SAC_DURATION,NEXT_SAC_AMPLITUDE,NEXT_SAC_AVG_VELOCITY,NEXT_SAC_PEAK_VELOCITY,NEXT_SAC_END_INTEREST_AREAS,NEXT_SAC_START_TIME,NEXT_SAC_END_TIME,NEXT_SAC_START_X,NEXT_SAC_START_Y,NEXT_SAC_END_X,NEXT_SAC_END_Y,PREVIOUS_FIX_ANGLE,PREVIOUS_FIX_DIRECTION,PREVIOUS_FIX_DISTANCE,ItemNO,audiofilename,imagefilename,TRIAL_INDEX,TRIAL_START_TIME,viewtype,word_index,Label,word_onset,word_offset,word_duration,Continuation,wordDE,wordEN,REFWord,TargetObj,ObjectLabel,ObjectID,LemmaDE,LingIndex,DepS,pos_1,pos_2
p9,Trial: 23,p9.edf,.,1,Fixation: 3562 ms,143,3562,3704,"[ 6, 7, 99]",8,861,786,432.0,342.0,1,2,35.55,36.7,3,Saccade: 3455 ms,UP,107,18.5,172.9,364.99,[ ],3455,3561,667,994.8,435.1,330.2,4,Saccade: 3705 ms,UP,25,1.64,65.62,98.94,"[ 6, 7, 99]",3705,3729,428.2,339,418.1,279.7,-68.92,DOWN,18.26,A9,S9.wav,A9.png,12,1228638,preview,,,,,,,,,,,,,,,,,
p9,Trial: 23,p9.edf,.,2,Fixation: 3730 ms,643,3730,4372,"[ 6, 7, 99]",8,870,786,417.3,277.7,2,2,35.6,36.7,4,Saccade: 3705 ms,UP,25,1.64,65.62,98.94,"[ 6, 7, 99]",3705,3729,428.2,339,418.1,279.7,5,Saccade: 4373 ms,RIGHT,68,18.57,273.09,466.21,"[ 8, 99]",4373,4440,418.1,281.1,1074.9,427.7,-76.73,DOWN,1.8,A9,S9.wav,A9.png,12,1228638,preview,,,,,,,,,,,,,,,,,
p9,Trial: 23,p9.edf,.,3,Fixation: 4441 ms,134,4441,4574,"[ 8, 99]",13,878,2703,1064.3,418.1,1,3,36.8,37.35,5,Saccade: 4373 ms,RIGHT,68,18.57,273.09,466.21,"[ 6, 7, 99]",4373,4440,418.1,281.1,1074.9,427.7,6,Saccade: 4575 ms,RIGHT,23,2.13,92.4,161.61,"[ 5, 8, 99]",4575,4597,1066.5,412,1144.1,397.9,168.02,LEFT,18.27,A9,S9.wav,A9.png,12,1228638,preview,,,,,,,,,,,,,,,,,
p9,Trial: 23,p9.edf,.,4,Fixation: 4598 ms,414,4598,5011,"[ 5, 8, 99]",3,872,414,1143.1,392.8,1,1,37.4,37.6,6,Saccade: 4575 ms,RIGHT,23,2.13,92.4,161.61,"[ 8, 99]",4575,4597,1066.5,412,1144.1,397.9,7,Saccade: 5012 ms,LEFT,25,1.71,68.3,119.42,"[ 8, 99]",5012,5036,1144.2,380.5,1080.8,378.3,-162.37,LEFT,2.23,A9,S9.wav,A9.png,12,1228638,preview,,,,,,,,,,,,,,,,,
p9,Trial: 23,p9.edf,.,5,Fixation: 5037 ms,2155,5037,7191,"[ 8, 99]",13,977,2703,1087.9,358.1,3,3,36.95,37.35,7,Saccade: 5012 ms,LEFT,25,1.71,68.3,119.42,"[ 5, 8, 99]",5012,5036,1144.2,380.5,1080.8,378.3,8,Saccade: 7192 ms,LEFT,35,5.15,147.18,272.24,"[ 21, 99]",7192,7226,1096.1,362.5,917.2,420.6,-31.95,RIGHT,1.75,A9,S9.wav,A9.png,12,1228638,preview,,,,,,,,,,,,,,,,,
p9,Trial: 23,p9.edf,.,6,Fixation: 7227 ms,1511,7227,8737,"[ 21, 99]",2,1068,1511,922.0,418.9,1,1,35.85,36.85,8,Saccade: 7192 ms,LEFT,35,5.15,147.18,272.24,"[ 8, 99]",7192,7226,1096.1,362.5,917.2,420.6,9,Saccade: 8738 ms,LEFT,42,4.76,113.41,238.12,[ 99],8738,8779,908.4,400.5,781,516.4,19.78,RIGHT,4.84,A9,S9.wav,A9.png,12,1228638,preview,,,,,,,,,,,,,,,,,
p9,Trial: 23,p9.edf,.,7,Fixation: 8780 ms,3098,8780,11877,[ 99],52,1376,22242,768.4,502.2,7,51,35.45,36.75,9,Saccade: 8738 ms,LEFT,42,4.76,113.41,238.12,"[ 21, 99]",8738,8779,908.4,400.5,781,516.4,10,Saccade: 11878 ms,DOWN,58,7.87,135.63,384.55,"[ 1, 99]",11878,11935,771.2,488.9,655.2,755.6,27.72,RIGHT,4.87,A9,S9.wav,A9.png,12,1228638,preview,,,,,,,,,,,,,,,,,
p9,Trial: 23,p9.edf,.,8,Fixation: 11936 ms,137,11936,12072,"[ 1, 99]",4,1584,137,656.0,758.1,1,1,35.8,37.85,10,Saccade: 11878 ms,DOWN,58,7.87,135.63,384.55,[ 99],11878,11935,771.2,488.9,655.2,755.6,11,Saccade: 12073 ms,RIGHT,84,13.52,160.99,333.11,"[ 8, 99]",12073,12156,653.6,758.8,1030.8,435.8,65.3,UP,7.55,A9,S9.wav,A9.png,12,1228638,preview,,,,,,,,,,,,,,,,,
p9,Trial: 23,p9.edf,.,9,Fixation: 12157 ms,85,12157,12241,"[ 8, 99]",13,1523,859,1036.6,425.4,1,4,36.55,37.2,11,Saccade: 12073 ms,RIGHT,84,13.52,160.99,333.11,"[ 1, 99]",12073,12156,653.6,758.8,1030.8,435.8,12,Saccade: 12242 ms,RIGHT,27,3.24,120.05,210.14,"[ 5, 8, 99]",12242,12268,1040.4,421.9,1138.6,352.5,-139.88,LEFT,13.76,A9,S9.wav,A9.png,12,1228638,preview,,,,,,,,,,,,,,,,,
p9,Trial: 23,p9.edf,.,10,Fixation: 12269 ms,173,12269,12441,"[ 5, 8, 99]",3,1360,173,1146.9,342.1,1,1,37.4,37.6,12,Saccade: 12242 ms,RIGHT,27,3.24,120.05,210.14,"[ 8, 99]",12242,12268,1040.4,421.9,1138.6,352.5,13,Saccade: 12442 ms,LEFT,24,1.8,74.87,148.26,"[ 8, 99]",12442,12465,1149.7,346.9,1083.7,336.8,-143.25,LEFT,3.72,A9,S9.wav,A9.png,12,1228638,preview,,,,,,,,,,,,,,,,,
p9,Trial: 23,p9.edf,.,11,Fixation: 12466 ms,166,12466,12631,"[ 8, 99]",13,1259,859,1086.0,342.7,3,4,36.9,37.35,13,Saccade: 12442 ms,LEFT,24,1.8,74.87,148.26,"[ 5, 8, 99]",12442,12465,1149.7,346.9,1083.7,336.8,14,Saccade: 12632 ms,RIGHT,13,0.74,56.63,59.05,"[ 5, 8, 99]",12632,12644,1084.5,346.2,1111.6,343.4,0.56,RIGHT,1.64,A9,S9.wav,A9.png,12,1228638,preview,,,,,,,,,,,,,,,,,
p9,Trial: 23,p9.edf,.,12,Fixation: 12645 ms,435,12645,13079,"[ 5, 8, 99]",3,1196,435,1094.8,349.0,1,1,37.0,37.45,14,Saccade: 12632 ms,RIGHT,13,0.74,56.63,59.05,"[ 8, 99]",12632,12644,1084.5,346.2,1111.6,343.4,15,Saccade: 13080 ms,LEFT,79,21.18,268.09,603.03,"[ 7, 99]",13080,13158,1087.4,356.4,320,261.5,144.73,.,0.29,A9,S9.wav,A9.png,12,1228638,preview,,,,,,,,,,,,,,,,,
p9,Trial: 23,p9.edf,13189,13,Fixation: 13159 ms,123,13159,13281,"[ 7, 99]",17,1208,1223,318.8,258.1,1,4,36.1,37.0,15,Saccade: 13080 ms,LEFT,79,21.18,268.09,603.03,"[ 8, 99]",13080,13158,1087.4,356.4,320,261.5,16,Saccade: 13282 ms,RIGHT,26,3.03,116.56,231.09,"[ 6, 7, 99]",13282,13307,320.6,258.8,427.6,239.4,-6.56,RIGHT,21.37,A9,S9.wav,A9.png,12,1228638,preview,,,,,,,,,,,,,,,,,
p9,Trial: 23,p9.edf,.,14,Fixation: 13308 ms,229,13308,13536,"[ 6, 7, 99]",8,1163,229,410.0,239.2,1,1,35.65,36.8,16,Saccade: 13282 ms,RIGHT,26,3.03,116.56,231.09,"[ 7, 99]",13282,13307,320.6,258.8,427.6,239.4,17,Saccade: 13537 ms,LEFT,21,1.39,66.41,114.92,"[ 7, 14, 99]",13537,13557,405.8,241.5,356.5,249.6,-168.61,LEFT,2.59,A9,S9.wav,A9.png,12,1228638,taskpreview,,,,,,,,,,,,,,,,,
p9,Trial: 23,p9.edf,.,15,Fixation: 13558 ms,208,13558,13765,"[ 7, 14, 99]",17,1034,1223,364.3,255.4,3,4,35.9,36.9,17,Saccade: 13537 ms,LEFT,21,1.39,66.41,114.92,"[ 6, 7, 99]",13537,13557,405.8,241.5,356.5,249.6,18,Saccade: 13766 ms,RIGHT,21,1.71,81.19,119.16,"[ 6, 7, 99]",13766,13786,357.3,259.2,415.1,239,18.99,RIGHT,1.35,A9,S9.wav,A9.png,12,1228638,task,[1],[Adverb],[100],[260],[160],[0],[Da],[It],[0.0],[0.0],[nan],[nan],[da],[nan],[nan],[nan],[nan]
p9,Trial: 23,p9.edf,14170,16,Fixation: 13787 ms,663,13787,14449,"[ 6, 7, 99]",8,989,663,414.1,240.4,1,1,35.65,36.8,18,Saccade: 13766 ms,RIGHT,21,1.71,81.19,119.16,"[ 7, 14, 99]",13766,13786,357.3,259.2,415.1,239,19,Saccade: 14450 ms,RIGHT,41,7.92,193.08,365.27,"[ 9, 99]",14450,14490,424.9,233.7,687.9,333.9,-163.7,LEFT,1.45,A9,S9.wav,A9.png,12,1228638,task,"[2, 3]","[Verb, Determiner_1]","[300, 665]","[590, 850]","[290, 185]","[0, 0]","[ist, ein]","[is, a]","[0.0, 0.0]","[0.0, 0.0]","[nan, nan]","[nan, nan]","[sein, eine]","[nan, nan]","[nan, nan]","[nan, nan]","[nan, nan]"
p9,Trial: 23,p9.edf,.,17,Fixation: 14732 ms,222,14732,14953,"[ 8, 99]",13,1108,799,1090.2,412.1,1,3,36.95,37.4,21,Saccade: 14664 ms,RIGHT,68,22.98,337.92,638.38,"[ 10, 99]",14664,14731,254.9,443.5,1098.9,415,22,Saccade: 14954 ms,LEFT,30,1.99,66.31,187.15,"[ 8, 99]",14954,14983,1090.3,416.8,1032.7,371.1,166.05,LEFT,19.19,A9,S9.wav,A9.png,12,1228638,task,,break,,,,,,,,,,,,,,,
p9,Trial: 23,p9.edf,.,18,Fixation: 14984 ms,151,14984,15134,"[ 8, 99]",13,1143,799,1025.6,372.5,2,3,36.45,37.15,22,Saccade: 14954 ms,LEFT,30,1.99,66.31,187.15,"[ 8, 99]",14954,14983,1090.3,416.8,1032.7,371.1,23,Saccade: 15135 ms,RIGHT,19,1.12,58.92,83.64,"[ 8, 99]",15135,15153,1021.5,377.5,1058,358.7,-31.11,RIGHT,2.06,A9,S9.wav,A9.png,12,1228638,task,,break,,,,,,,,,,,,,,,
p9,Trial: 23,p9.edf,15170,19,Fixation: 15154 ms,426,15154,15579,"[ 8, 99]",13,1128,799,1050.0,359.5,3,3,36.7,37.2,23,Saccade: 15135 ms,RIGHT,19,1.12,58.92,83.64,"[ 8, 99]",15135,15153,1021.5,377.5,1058,358.7,24,Saccade: 15580 ms,DOWN,52,10.85,208.58,404.03,[ 99],15580,15631,1056.9,361.1,1055.6,772.7,-152.34,LEFT,0.75,A9,S9.wav,A9.png,12,1228638,task,"[6, 7]","[Determiner_2, Noun_2]","[1710, 1970]","[1940, 2520]","[230, 550]","[0, 0]","[einem, Schrank]","[a, closet]","[0.0, 0.0]","[0.0, 0.0]","[nan, closet_1]","[nan, S01_I009_E007]","[eine, Schrank]","[nan, nan]","[nan, nan]","[nan, nan]","[nan, nan]"
p9,Trial: 23,p9.edf,.,20,Fixation: 15632 ms,205,15632,15836,[ 99],52,1118,22242,1062.5,771.2,20,51,37.35,38.7,24,Saccade: 15580 ms,DOWN,52,10.85,208.58,404.03,"[ 8, 99]",15580,15631,1056.9,361.1,1055.6,772.7,25,Saccade: 15837 ms,LEFT,26,2.51,96.62,170.7,[ 99],15837,15862,1068.7,773.7,977.7,752.8,91.78,UP,10.85,A9,S9.wav,A9.png,12,1228638,task,[7],[Noun_2],[1970],[2520],[550],[0],[Schrank],[closet],[0.0],[0.0],[closet_1],[S01_I009_E007],[Schrank],[nan],[nan],[nan],[nan]
p9,Trial: 23,p9.edf,.,21,Fixation: 15863 ms,88,15863,15950,[ 99],52,1135,22242,984.3,751.0,21,51,36.8,38.3,25,Saccade: 15837 ms,LEFT,26,2.51,96.62,170.7,[ 99],15837,15862,1068.7,773.7,977.7,752.8,26,Saccade: 15951 ms,LEFT,73,24.1,330.08,675.78,"[ 2, 7, 99]",15951,16023,983.1,750.1,236.9,261.3,-13.97,RIGHT,2.17,A9,S9.wav,A9.png,12,1228638,task,[7],[Noun_2],[1970],[2520],[550],[0],[Schrank],[closet],[0.0],[0.0],[closet_1],[S01_I009_E007],[Schrank],[nan],[nan],[nan],[nan]
p9,Trial: 23,p9.edf,.,22,Fixation: 16024 ms,210,16024,16233,"[ 2, 7, 99]",1,1158,210,255.9,275.5,1,1,36.55,37.25,26,Saccade: 15951 ms,LEFT,73,24.1,330.08,675.78,[ 99],15951,16023,983.1,750.1,236.9,261.3,27,Saccade: 16234 ms,DOWN,33,1.93,58.39,176.8,"[ 7, 99]",16234,16266,254,276.4,282.1,341.9,-32.37,RIGHT,23.51,A9,S9.wav,A9.png,12,1228638,task,,break,,,,,,,,,,,,,,,
p9,Trial: 23,p9.edf,16405,23,Fixation: 16267 ms,215,16267,16481,"[ 7, 99]",17,1108,1025,281.0,339.3,2,5,36.3,37.0,27,Saccade: 16234 ms,DOWN,33,1.93,58.39,176.8,"[ 2, 7, 99]",16234,16266,254,276.4,282.1,341.9,28,Saccade: 16482 ms,RIGHT,15,0.98,65.2,74.8,"[ 7, 99]",16482,16496,283.2,332.8,318.6,332.5,111.85,UP,1.85,A9,S9.wav,A9.png,12,1228638,task,[8],[Relative Clause Pronoun],[2840],[3020],[180],[1],[den],[that],[0.0],[0.0],[nan],[nan],[die],[nan],[nan],[nan],[nan]
p9,Trial: 23,p9.edf,.,24,Fixation: 16497 ms,155,16497,16651,"[ 7, 99]",17,1042,1025,309.7,334.0,3,5,36.1,36.9,28,Saccade: 16482 ms,RIGHT,15,0.98,65.2,74.8,"[ 7, 99]",16482,16496,283.2,332.8,318.6,332.5,29,Saccade: 16652 ms,RIGHT,24,2.65,110.44,197.12,"[ 6, 7, 99]",16652,16675,312.2,330.1,403.3,301.9,-169.75,LEFT,0.81,A9,S9.wav,A9.png,12,1228638,task,[9],[Relative Clause Pers. Pronoun],[3030],[3180],[150],[0],[sie],[she],[0.0],[0.0],[woman_1],[S01_I009_E006],[sie],[nan],[nan],[nan],[nan]
p9,Trial: 23,p9.edf,.,25,Fixation: 16676 ms,228,16676,16903,"[ 6, 7, 99]",8,971,228,409.9,290.5,1,1,35.65,36.7,29,Saccade: 16652 ms,RIGHT,24,2.65,110.44,197.12,"[ 7, 99]",16652,16675,312.2,330.1,403.3,301.9,30,Saccade: 16904 ms,LEFT,19,1.17,61.6,95.12,"[ 7, 14, 99]",16904,16922,412.9,282,371.5,276.2,-157.06,LEFT,3.03,A9,S9.wav,A9.png,12,1228638,task,[10],[Relative Clause Adverb],[3205],[3820],[615],[0],[sorgsam],[carefully],[0.0],[0.0],[nan],[nan],[sorgsam],[nan],[nan],[nan],[nan]
p9,Trial: 23,p9.edf,.,26,Fixation: 16923 ms,217,16923,17139,"[ 7, 99]",17,967,1025,376.9,273.1,5,5,35.8,36.8,30,Saccade: 16904 ms,LEFT,19,1.17,61.6,95.12,"[ 6, 7, 99]",16904,16922,412.9,282,371.5,276.2,31,Saccade: 17140 ms,RIGHT,70,19.05,272.13,541.52,"[ 8, 99]",17140,17209,375.2,268.9,1056.2,385.8,-27.14,RIGHT,1.04,A9,S9.wav,A9.png,12,1228638,task,[10],[Relative Clause Adverb],[3205],[3820],[615],[0],[sorgsam],[carefully],[0.0],[0.0],[nan],[nan],[sorgsam],[nan],[nan],[nan],[nan]
p9,Trial: 23,p9.edf,17245,27,Fixation: 17210 ms,217,17210,17426,"[ 8, 99]",13,974,728,1057.3,384.2,1,3,36.7,37.2,31,Saccade: 17140 ms,RIGHT,70,19.05,272.13,541.52,"[ 7, 99]",17140,17209,375.2,268.9,1056.2,385.8,32,Saccade: 17427 ms,RIGHT,24,1.76,73.47,129.87,"[ 8, 99]",17427,17450,1053.3,387.1,1118.4,384.4,170.91,LEFT,19.01,A9,S9.wav,A9.png,12,1228638,task,[10],[Relative Clause Adverb],[3205],[3820],[615],[0],[sorgsam],[carefully],[0.0],[0.0],[nan],[nan],[sorgsam],[nan],[nan],[nan],[nan]
p9,Trial: 23,p9.edf,.,28,Fixation: 17451 ms,161,17451,17611,"[ 8, 99]",13,986,728,1107.7,378.5,2,3,37.15,37.45,32,Saccade: 17427 ms,RIGHT,24,1.76,73.47,129.87,"[ 8, 99]",17427,17450,1053.3,387.1,1118.4,384.4,33,Saccade: 17612 ms,.,9,0.42,46.62,44.94,"[ 8, 99]",17612,17620,1107.3,378,1093.7,370.4,-173.62,LEFT,1.37,A9,S9.wav,A9.png,12,1228638,task,,break,,,,,,,,,,,,,,,
p9,Trial: 23,p9.edf,.,29,Fixation: 17621 ms,350,17621,17970,"[ 8, 99]",13,1070,728,1098.9,370.0,3,3,37.05,37.4,33,Saccade: 17612 ms,.,9,0.42,46.62,44.94,"[ 8, 99]",17612,17620,1107.3,378,1093.7,370.4,34,Saccade: 17971 ms,LEFT,79,21.24,268.84,663.05,"[ 7, 99]",17971,18049,1105.2,374.8,334.2,283,-43.76,.,0.33,A9,S9.wav,A9.png,12,1228638,task,[11],[Relative Clause Verb],[4045],[4770],[725],[0],[aufräumt],[organizes],[1.0],[0.0],[nan],[nan],[aufräumen],[nan],[nan],[nan],[nan]
p9,Trial: 23,p9.edf,.,30,Fixation: 18050 ms,116,18050,18165,"[ 7, 14, 99]",17,1141,1349,335.8,278.9,1,5,36.0,36.9,34,Saccade: 17971 ms,LEFT,79,21.24,268.84,663.05,"[ 8, 99]",17971,18049,1105.2,374.8,334.2,283,35,Saccade: 18166 ms,RIGHT,33,2.47,74.83,223.54,"[ 6, 7, 99]",18166,18198,341.8,275.5,430.2,275.9,-6.69,RIGHT,21.04,A9,S9.wav,A9.png,12,1228638,task,[11],[Relative Clause Verb],[4045],[4770],[725],[0],[aufräumt],[organizes],[1.0],[0.0],[nan],[nan],[aufräumen],[nan],[nan],[nan],[nan]
p9,Trial: 23,p9.edf,.,31,Fixation: 18199 ms,190,18199,18388,"[ 6, 7, 99]",8,1165,1026,438.3,268.3,1,3,35.55,36.7,35,Saccade: 18166 ms,RIGHT,33,2.47,74.83,223.54,"[ 7, 14, 99]",18166,18198,341.8,275.5,430.2,275.9,36,Saccade: 18389 ms,LEFT,18,1.03,57.09,75.04,"[ 6, 7, 99]",18389,18406,439.4,270.1,408.8,249.4,-174.26,LEFT,2.88,A9,S9.wav,A9.png,12,1228638,task,,break,,,,,,,,,,,,,,,
p9,Trial: 23,p9.edf,.,32,Fixation: 18407 ms,217,18407,18623,"[ 6, 7, 99]",8,1068,1026,414.8,248.0,2,3,35.65,36.8,36,Saccade: 18389 ms,LEFT,18,1.03,57.09,75.04,"[ 6, 7, 99]",18389,18406,439.4,270.1,408.8,249.4,37,Saccade: 18624 ms,LEFT,16,0.94,58.44,74.27,"[ 6, 7, 99]",18624,18639,417,250,384,255.2,-39.92,RIGHT,0.86,A9,S9.wav,A9.png,12,1228638,post,,,,,,,,,,,,,,,,,
p9,Trial: 23,p9.edf,18660,33,Fixation: 18640 ms,619,18640,19258,"[ 6, 7, 99]",8,968,1026,399.6,252.2,3,3,35.75,36.8,37,Saccade: 18624 ms,LEFT,16,0.94,58.44,74.27,"[ 6, 7, 99]",18624,18639,417,250,384,255.2,38,Saccade: 19259 ms,LEFT,30,4.32,143.9,261.41,"[ 7, 99]",19259,19288,404.3,241.3,273.1,326.8,15.01,.,0.44,A9,S9.wav,A9.png,12,1228638,post,,,,,,,,,,,,,,,,,
