RECORDING_SESSION_LABEL,TRIAL_LABEL,DATA_FILE,CURRENT_FIX_MSG_TIME_1,CURRENT_FIX_INDEX,CURRENT_FIX_LABEL,CURRENT_FIX_DURATION,CURRENT_FIX_START,CURRENT_FIX_END,CURRENT_FIX_INTEREST_AREAS,CURRENT_FIX_INTEREST_AREA_FIX_COUNT,CURRENT_FIX_PUPIL,CURRENT_FIX_RUN_DWELL_TIME,CURRENT_FIX_X,CURRENT_FIX_Y,CURRENT_FIX_RUN_INDEX,CURRENT_FIX_RUN_SIZE,CURRENT_FIX_X_RESOLUTION,CURRENT_FIX_Y_RESOLUTION,PREVIOUS_SAC_INDEX,PREVIOUS_SAC_LABEL,PREVIOUS_SAC_DIRECTION,PREVIOUS_SAC_DURATION,PREVIOUS_SAC_AMPLITUDE,PREVIOUS_SAC_AVG_VELOCITY,PREVIOUS_SAC_PEAK_VELOCITY,PREVIOUS_SAC_START_INTEREST_AREAS,PREVIOUS_SAC_START_TIME,PREVIOUS_SAC_END_TIME,PREVIOUS_SAC_START_X,PREVIOUS_SAC_START_Y,PREVIOUS_SAC_END_X,PREVIOUS_SAC_END_Y,NEXT_SAC_INDEX,NEXT_SAC_LABEL,NEXT_SAC_DIRECTION,NEXT_SAC_DURATION,NEXT_SAC_AMPLITUDE,NEXT_SAC_AVG_VELOCITY,NEXT_SAC_PEAK_VELOCITY,NEXT_SAC_END_INTEREST_AREAS,NEXT_SAC_START_TIME,NEXT_SAC_END_TIME,NEXT_SAC_START_X,NEXT_SAC_START_Y,NEXT_SAC_END_X,NEXT_SAC_END_Y,PREVIOUS_FIX_ANGLE,PREVIOUS_FIX_DIRECTION,PREVIOUS_FIX_DISTANCE,ItemNO,audiofilename,imagefilename,TRIAL_INDEX,TRIAL_START_TIME,viewtype,word_index,Label,word_onset,word_offset,word_duration,Continuation,wordDE,wordEN,REFWord,TargetObj,ObjectLabel,ObjectID,LemmaDE,LingIndex,DepS,pos_1,pos_2
p5,Trial: 33,p5.edf,.,1,Fixation: 3387 ms,142,3387,3528,"[ 13, 99]",4,717,142,663.8,812.8,1,1,36.0,38.15,3,Saccade: 3355 ms,UP,32,4.02,125.5,237.44,[ ],3355,3386,673,951.6,660,796.4,4,Saccade: 3529 ms,UP,64,13.1,204.76,482.02,"[ 7, 10, 99]",3529,3592,663.1,808.6,529.1,339.7,64.68,UP,12.3,A15,S15.wav,A15.png,14,2937094,preview,,,,,,,,,,,,,,,,,
p5,Trial: 33,p5.edf,.,2,Fixation: 3593 ms,251,3593,3843,"[ 7, 10, 99]",15,831,251,519.4,312.8,1,1,35.3,36.5,4,Saccade: 3529 ms,UP,64,13.1,204.76,482.02,"[ 13, 99]",3529,3592,663.1,808.6,529.1,339.7,5,Saccade: 3844 ms,LEFT,41,4.1,99.96,306.03,"[ 2, 11, 99]",3844,3884,520.7,309.0,375.0,308.8,-73.18,DOWN,13.99,A15,S15.wav,A15.png,14,2937094,preview,,,,,,,,,,,,,,,,,
p5,Trial: 33,p5.edf,.,3,Fixation: 3885 ms,162,3885,4046,"[ 2, 11, 99]",9,835,337,366.1,312.0,1,2,35.8,36.8,5,Saccade: 3844 ms,LEFT,41,4.1,99.96,306.03,"[ 7, 10, 99]",3844,3884,520.7,309,375,308.8,6,Saccade: 4047 ms,LEFT,23,1.54,67.09,111.69,"[ 2, 11, 99]",4047,4069,364.9,309.9,315.4,284.2,-0.29,RIGHT,4.31,A15,S15.wav,A15.png,14,2937094,preview,,,,,,,,,,,,,,,,,
p5,Trial: 33,p5.edf,.,4,Fixation: 4070 ms,175,4070,4244,"[ 2, 11, 99]",9,767,337,322.2,285.8,2,2,36.1,37.0,6,Saccade: 4047 ms,LEFT,23,1.54,67.09,111.69,"[ 2, 11, 99]",4047,4069,364.9,309.9,315.4,284.2,7,Saccade: 4245 ms,DOWN,47,4.57,97.19,342.3,"[ 6, 11, 99]",4245,4291,319.6,280.4,418.2,414.8,-30.18,RIGHT,1.41,A15,S15.wav,A15.png,14,2937094,preview,,,,,,,,,,,,,,,,,
p5,Trial: 33,p5.edf,.,5,Fixation: 4292 ms,143,4292,4434,"[ 6, 11, 99]",10,739,143,426.9,430.5,1,1,35.6,36.7,7,Saccade: 4245 ms,DOWN,47,4.57,97.19,342.3,"[ 2, 11, 99]",4245,4291,319.6,280.4,418.2,414.8,8,Saccade: 4435 ms,UP,53,7.77,146.55,371.3,"[ 21, 99]",4435,4487,429.6,429.3,414.9,143.1,126.64,UP,4.89,A15,S15.wav,A15.png,14,2937094,preview,,,,,,,,,,,,,,,,,
p5,Trial: 33,p5.edf,.,6,Fixation: 4488 ms,242,4488,4729,"[ 21, 99]",5,687,367,415.4,125.9,1,2,35.8,37.1,8,Saccade: 4435 ms,UP,53,7.77,146.55,371.3,"[ 6, 11, 99]",4435,4487,429.6,429.3,414.9,143.1,9,Saccade: 4730 ms,UP,11,0.52,47.63,46.2,"[ 21, 99]",4730,4740,414.8,125.7,403.7,110.0,-87.77,DOWN,8.26,A15,S15.wav,A15.png,14,2937094,preview,,,,,,,,,,,,,,,,,
p5,Trial: 33,p5.edf,.,7,Fixation: 4741 ms,125,4741,4865,"[ 21, 99]",5,694,367,407.9,110.5,2,2,35.9,37.2,9,Saccade: 4730 ms,UP,11,0.52,47.63,46.2,"[ 21, 99]",4730,4740,414.8,125.7,403.7,110,10,Saccade: 4866 ms,RIGHT,74,18.03,243.69,635.21,"[ 3, 99]",4866,4939,409.3,111.2,1044.9,268.2,-63.22,.,0.46,A15,S15.wav,A15.png,14,2937094,preview,,,,,,,,,,,,,,,,,
p5,Trial: 33,p5.edf,.,8,Fixation: 4940 ms,132,4940,5071,"[ 3, 99]",7,666,1001,1044.8,266.6,1,4,36.6,37.3,10,Saccade: 4866 ms,RIGHT,74,18.03,243.69,635.21,"[ 21, 99]",4866,4939,409.3,111.2,1044.9,268.2,11,Saccade: 5072 ms,UP,32,3.01,93.91,191.19,"[ 3, 99]",5072,5103,1046.7,266.0,1115.1,177.3,166.59,LEFT,18.06,A15,S15.wav,A15.png,14,2937094,preview,,,,,,,,,,,,,,,,,
p5,Trial: 33,p5.edf,.,9,Fixation: 5104 ms,195,5104,5298,"[ 3, 99]",7,626,1001,1107.6,180.1,2,4,37.2,37.7,11,Saccade: 5072 ms,UP,32,3.01,93.91,191.19,"[ 3, 99]",5072,5103,1046.7,266,1115.1,177.3,12,Saccade: 5299 ms,DOWN,52,4.7,90.46,305.44,"[ 3, 99]",5299,5350,1105.1,177.6,1061.7,348.4,-126.42,DOWN,2.87,A15,S15.wav,A15.png,14,2937094,preview,,,,,,,,,,,,,,,,,
p5,Trial: 33,p5.edf,.,10,Fixation: 5351 ms,296,5351,5646,"[ 3, 99]",7,628,1001,1060.1,369.9,3,4,36.7,37.3,12,Saccade: 5299 ms,DOWN,52,4.7,90.46,305.44,"[ 3, 99]",5299,5350,1105.1,177.6,1061.7,348.4,13,Saccade: 5647 ms,UP,163,0.67,4.09,750.46,"[ 3, 99]",5647,5809,1063.5,385.0,1078.2,365.1,75.75,UP,5.22,A15,S15.wav,A15.png,14,2937094,preview,,,,,,,,,,,,,,,,,
p5,Trial: 33,p5.edf,.,11,Fixation: 6063 ms,378,6063,6440,"[ 3, 99]",7,670,1001,1081.3,253.7,4,4,36.9,37.45,14,Saccade: 6031 ms,UP,32,3.48,108.83,184.17,"[ 3, 99]",6031,6062,1071.9,362.8,1082.6,233,15,Saccade: 6441 ms,UP,27,2.54,94.22,162.21,"[ 3, 99]",6441,6467,1083.2,256.9,1114.0,166.6,-100.5,DOWN,3.16,A15,S15.wav,A15.png,14,2937094,preview,,,,,,,,,,,,,,,,,
p5,Trial: 33,p5.edf,.,12,Fixation: 6957 ms,181,6957,7137,"[ 4, 99]",5,710,181,942.4,420.9,1,1,36.0,36.9,17,Saccade: 6901 ms,DOWN,56,7.3,130.39,444.99,"[ 3, 99]",6901,6956,1118.1,183.4,948.4,394,18,Saccade: 7138 ms,LEFT,51,7.46,146.35,417.75,"[ 7, 8, 99]",7138,7188,951.5,419.3,694.9,348.2,49.73,UP,5.89,A15,S15.wav,A15.png,14,2937094,preview,,,,,,,,,,,,,,,,,
p5,Trial: 33,p5.edf,.,13,Fixation: 7189 ms,322,7189,7510,"[ 7, 8, 99]",15,705,322,677.6,353.8,1,1,35.2,36.5,18,Saccade: 7138 ms,LEFT,51,7.46,146.35,417.75,"[ 4, 99]",7138,7188,951.5,419.3,694.9,348.2,19,Saccade: 7511 ms,LEFT,49,6.28,128.25,386.6,"[ 6, 11, 99]",7511,7559,683.5,355.2,466.5,402.9,-13.81,RIGHT,7.66,A15,S15.wav,A15.png,14,2937094,preview,,,,,,,,,,,,,,,,,
p5,Trial: 33,p5.edf,.,14,Fixation: 7560 ms,240,7560,7799,"[ 6, 11, 99]",10,677,600,450.3,412.0,1,2,35.45,36.65,19,Saccade: 7511 ms,LEFT,49,6.28,128.25,386.6,"[ 7, 8, 99]",7511,7559,683.5,355.2,466.5,402.9,20,Saccade: 7800 ms,LEFT,18,1.0,55.36,76.36,"[ 6, 11, 99]",7800,7817,452.0,419.4,417.9,429.3,13.89,RIGHT,6.63,A15,S15.wav,A15.png,14,2937094,preview,,,,,,,,,,,,,,,,,
p5,Trial: 33,p5.edf,.,15,Fixation: 7818 ms,360,7818,8177,"[ 6, 11, 99]",10,686,600,424.8,423.2,2,2,35.6,36.7,20,Saccade: 7800 ms,LEFT,18,1,55.36,76.36,"[ 6, 11, 99]",7800,7817,452,419.4,417.9,429.3,21,Saccade: 8178 ms,LEFT,49,6.68,136.34,369.0,"[ 11, 99]",8178,8226,421.6,422.2,198.1,518.5,23.05,RIGHT,0.78,A15,S15.wav,A15.png,14,2937094,preview,,,,,,,,,,,,,,,,,
p5,Trial: 33,p5.edf,.,16,Fixation: 8227 ms,168,8227,8394,"[ 19, 99]",5,672,1681,180.3,525.3,1,5,37.05,37.6,21,Saccade: 8178 ms,LEFT,49,6.68,136.34,369,"[ 6, 11, 99]",8178,8226,421.6,422.2,198.1,518.5,22,Saccade: 8395 ms,UP,205,0.94,4.57,374.2,"[ 18, 19, 99]",8395,8599,184.1,526.2,171.2,493.5,22.21,RIGHT,7.27,A15,S15.wav,A15.png,14,2937094,preview,,,,,,,,,,,,,,,,,
p5,Trial: 33,p5.edf,.,17,Fixation: 8726 ms,226,8726,8951,"[ 17, 19, 99]",4,730,1513,218.7,561.2,1,4,36.9,37.6,23,Saccade: 8703 ms,RIGHT,23,1.32,57.51,109,"[ 17, 19, 99]",8703,8725,188.6,540.1,223.8,574.7,24,Saccade: 8952 ms,LEFT,16,0.95,59.27,75.24,"[ 17, 19, 99]",8952,8967,215.1,555.2,180.9,563.4,137.41,LEFT,1.41,A15,S15.wav,A15.png,14,2937094,preview,,,,,,,,,,,,,,,,,
p5,Trial: 33,p5.edf,.,18,Fixation: 8968 ms,477,8968,9444,"[ 17, 19, 99]",4,691,1513,181.7,566.5,2,4,37.15,37.8,24,Saccade: 8952 ms,LEFT,16,0.95,59.27,75.24,"[ 17, 19, 99]",8952,8967,215.1,555.2,180.9,563.4,25,Saccade: 9445 ms,.,238,0.44,1.86,374.64,"[ 17, 19, 99]",9445,9682,189.1,568.7,204.8,573.5,8.01,RIGHT,1.01,A15,S15.wav,A15.png,14,2937094,preview,,,,,,,,,,,,,,,,,
p5,Trial: 33,p5.edf,.,19,Fixation: 9873 ms,543,9873,10415,"[ 17, 19, 99]",4,679,1513,160.0,583.7,3,4,37.4,37.95,26,Saccade: 9856 ms,LEFT,17,0.96,56.51,76.25,"[ 17, 19, 99]",9856,9872,198.4,558.5,165.9,573.5,27,Saccade: 10416 ms,RIGHT,19,1.2,63.21,81.34,"[ 17, 19, 99]",10416,10434,148.0,589.9,188.0,569.4,37.96,RIGHT,0.74,A15,S15.wav,A15.png,14,2937094,preview,,,,,,,,,,,,,,,,,
p5,Trial: 33,p5.edf,.,20,Fixation: 10435 ms,267,10435,10701,"[ 17, 19, 99]",4,636,1513,181.6,566.1,4,4,37.1,37.75,27,Saccade: 10416 ms,RIGHT,19,1.2,63.21,81.34,"[ 17, 19, 99]",10416,10434,148,589.9,188,569.4,28,Saccade: 10702 ms,UP,180,3.13,17.38,346.88,"[ 18, 19, 99]",10702,10881,191.2,566.2,145.3,458.0,-141.27,LEFT,0.74,A15,S15.wav,A15.png,14,2937094,preview,,,,,,,,,,,,,,,,,
p5,Trial: 33,p5.edf,.,21,Fixation: 11035 ms,227,11035,11261,"[ 2, 11, 99]",9,684,227,319.2,270.4,1,1,36.1,37.0,29,Saccade: 10984 ms,UP,51,6.85,134.31,326.42,"[ 18, 19, 99]",10984,11034,156.1,484.7,311.8,284.1,30,Saccade: 11262 ms,UP,36,4.49,124.6,260.66,"[ 21, 99]",11262,11297,317.7,269.5,391.9,121.7,-115.42,DOWN,8.76,A15,S15.wav,A15.png,14,2937094,preview,,,,,,,,,,,,,,,,,
p5,Trial: 33,p5.edf,.,22,Fixation: 11298 ms,204,11298,11501,"[ 21, 99]",5,685,643,390.6,133.7,1,3,35.9,37.15,30,Saccade: 11262 ms,UP,36,4.49,124.6,260.66,"[ 2, 11, 99]",11262,11297,317.7,269.5,391.9,121.7,31,Saccade: 11502 ms,UP,11,0.57,51.76,50.35,"[ 21, 99]",11502,11512,392.8,133.3,398.2,112.9,-118.28,DOWN,4.19,A15,S15.wav,A15.png,14,2937094,preview,,,,,,,,,,,,,,,,,
p5,Trial: 33,p5.edf,.,23,Fixation: 11513 ms,314,11513,11826,"[ 21, 99]",5,675,643,401.0,113.7,2,3,35.9,37.2,31,Saccade: 11502 ms,UP,11,0.57,51.76,50.35,"[ 21, 99]",11502,11512,392.8,133.3,398.2,112.9,32,Saccade: 11827 ms,RIGHT,14,0.78,56.0,61.69,"[ 21, 99]",11827,11840,402.6,112.8,430.7,112.1,-118.3,DOWN,0.61,A15,S15.wav,A15.png,14,2937094,preview,,,,,,,,,,,,,,,,,
p5,Trial: 33,p5.edf,.,24,Fixation: 11841 ms,125,11841,11965,"[ 21, 99]",5,658,643,423.6,109.7,3,3,35.8,37.15,32,Saccade: 11827 ms,RIGHT,14,0.78,56,61.69,"[ 21, 99]",11827,11840,402.6,112.8,430.7,112.1,33,Saccade: 11966 ms,RIGHT,51,7.75,152.05,468.91,"[ 22, 99]",11966,12016,424.4,108.7,700.7,99.2,-170.31,LEFT,0.64,A15,S15.wav,A15.png,14,2937094,preview,,,,,,,,,,,,,,,,,
p5,Trial: 33,p5.edf,.,25,Fixation: 12017 ms,174,12017,12190,"[ 22, 99]",1,662,174,726.2,103.6,1,1,35.5,37.0,33,Saccade: 11966 ms,RIGHT,51,7.75,152.05,468.91,"[ 21, 99]",11966,12016,424.4,108.7,700.7,99.2,34,Saccade: 12191 ms,RIGHT,198,2.14,10.8,822.27,[ 99],12191,12388,729.9,111.9,799.4,143.9,-178.89,LEFT,8.49,A15,S15.wav,A15.png,14,2937094,preview,,,,,,,,,,,,,,,,,
p5,Trial: 33,p5.edf,.,26,Fixation: 12584 ms,256,12584,12839,"[ 7, 8, 99]",15,780,489,661.6,348.4,1,2,35.2,36.5,35,Saccade: 12533 ms,DOWN,51,6.18,121.24,445.87,[ 99],12533,12583,795.8,132.3,675.3,322,36,Saccade: 12840 ms,LEFT,48,4.32,90.06,316.38,"[ 7, 10, 99]",12840,12887,660.3,356.3,517.7,300.6,74.66,UP,6.91,A15,S15.wav,A15.png,14,2937094,preview,,,,,,,,,,,,,,,,,
p5,Trial: 33,p5.edf,.,27,Fixation: 12888 ms,233,12888,13120,"[ 7, 10, 99]",15,784,489,503.1,286.9,2,2,35.35,36.6,36,Saccade: 12840 ms,LEFT,48,4.32,90.06,316.38,"[ 7, 8, 99]",12840,12887,660.3,356.3,517.7,300.6,37,Saccade: 13121 ms,DOWN,53,4.5,84.98,312.11,"[ 6, 11, 99]",13121,13173,502.9,277.2,450.4,433.1,-20.53,RIGHT,4.8,A15,S15.wav,A15.png,14,2937094,preview,,,,,,,,,,,,,,,,,
p5,Trial: 33,p5.edf,13190,28,Fixation: 13174 ms,314,13174,13487,"[ 11, 99]",19,788,314,445.8,462.6,1,1,35.5,36.7,37,Saccade: 13121 ms,DOWN,53,4.5,84.98,312.11,"[ 7, 10, 99]",13121,13173,502.9,277.2,450.4,433.1,38,Saccade: 13488 ms,DOWN,47,3.2,68.11,269.81,"[ 2, 11, 99]",13488,13534,448.5,459.7,430.9,576.4,71.36,UP,5.06,A15,S15.wav,A15.png,14,2937094,preview,,,,,,,,,,,,,,,,,
p5,Trial: 33,p5.edf,.,29,Fixation: 13535 ms,222,13535,13756,"[ 2, 99]",9,798,586,427.2,599.0,1,2,35.8,37.15,38,Saccade: 13488 ms,DOWN,47,3.2,68.11,269.81,"[ 11, 99]",13488,13534,448.5,459.7,430.9,576.4,39,Saccade: 13757 ms,UP,25,2.34,93.63,160.34,"[ 2, 11, 99]",13757,13781,422.6,604.0,392.9,522.8,81.96,UP,3.73,A15,S15.wav,A15.png,14,2937094,task,[1],[Adverb],[75],[180],[105],[0],[Da],[It],[0.0],[0.0],[nan],[nan],[da],[nan],[nan],[nan],[nan]
p5,Trial: 33,p5.edf,14000,30,Fixation: 13782 ms,364,13782,14145,"[ 2, 11, 99]",9,811,586,398.8,528.4,2,2,35.8,37.0,39,Saccade: 13757 ms,UP,25,2.34,93.63,160.34,"[ 2, 99]",13757,13781,422.6,604,392.9,522.8,40,Saccade: 14146 ms,UP,169,3.53,20.89,326.31,"[ 2, 11, 99]",14146,14314,403.3,525.6,405.8,395.5,-67.38,DOWN,2.06,A15,S15.wav,A15.png,14,2937094,task,"[2, 3]","[Verb, Determiner_1]","[220, 490]","[390, 675]","[170, 185]","[1, 0]","[ist, eine]","[is, a]","[0.0, 0.0]","[0.0, 0.0]","[nan, nan]","[nan, nan]","[sein, eine]","[nan, nan]","[nan, nan]","[nan, nan]","[nan, nan]"
p5,Trial: 33,p5.edf,.,31,Fixation: 14854 ms,226,14854,15079,"[ 7, 10, 99]",15,808,417,531.1,324.1,1,2,35.3,36.5,42,Saccade: 14821 ms,RIGHT,33,3.46,104.75,186.02,"[ 6, 11, 99]",14821,14853,453.5,409.6,541.6,321.8,43,Saccade: 15080 ms,RIGHT,29,3.47,119.58,236.68,"[ 7, 8, 99]",15080,15108,534.3,319.4,650.4,359.0,-123.8,DOWN,6.69,A15,S15.wav,A15.png,14,2937094,task,,break,,,,,,,,,,,,,,,
p5,Trial: 33,p5.edf,15260,32,Fixation: 15109 ms,191,15109,15299,"[ 7, 8, 99]",15,780,417,640.0,353.8,2,2,35.2,36.5,43,Saccade: 15080 ms,RIGHT,29,3.47,119.58,236.68,"[ 7, 10, 99]",15080,15108,534.3,319.4,650.4,359,44,Saccade: 15300 ms,RIGHT,51,7.56,148.25,438.99,"[ 4, 99]",15300,15350,640.4,358.6,908.5,371.9,165.24,LEFT,3.19,A15,S15.wav,A15.png,14,2937094,task,[5],[Preposition_1],[1590],[1715],[125],[0],[auf],[on],[0.0],[0.0],[nan],[nan],[auf],[nan],[nan],[nan],[nan]
p5,Trial: 33,p5.edf,.,33,Fixation: 15351 ms,339,15351,15689,"[ 4, 99]",5,736,542,930.3,378.5,1,2,35.85,36.85,44,Saccade: 15300 ms,RIGHT,51,7.56,148.25,438.99,"[ 7, 8, 99]",15300,15350,640.4,358.6,908.5,371.9,45,Saccade: 15690 ms,RIGHT,21,1.42,67.65,107.41,[ 99],15690,15710,932.8,386.2,983.7,380.4,175.29,LEFT,8.2,A15,S15.wav,A15.png,14,2937094,task,"[6, 7]","[Determiner_2, Noun_2]","[1780, 2060]","[1980, 2600]","[200, 540]","[0, 0]","[einer, Couch]","[a, sofa]","[0.0, 0.0]","[0.0, 0.0]","[nan, couchpart_1]","[nan, S01_I015_E010]","[eine, Couch]","[nan, nan]","[nan, nan]","[nan, nan]","[nan, nan]"
p5,Trial: 33,p5.edf,.,34,Fixation: 15711 ms,203,15711,15913,"[ 4, 99]",5,716,542,976.1,380.8,2,2,36.2,37.0,45,Saccade: 15690 ms,RIGHT,21,1.42,67.65,107.41,"[ 4, 99]",15690,15710,932.8,386.2,983.7,380.4,46,Saccade: 15914 ms,UP,17,0.97,56.9,67.12,"[ 3, 99]",15914,15930,977.5,383.5,1001.0,356.9,177.2,LEFT,1.27,A15,S15.wav,A15.png,14,2937094,task,[7],[Noun_2],[2060],[2600],[540],[0],[Couch],[sofa],[0.0],[0.0],[couchpart_1],[S01_I015_E010],[Couch],[nan],[nan],[nan],[nan]
p5,Trial: 33,p5.edf,.,35,Fixation: 15931 ms,307,15931,16237,"[ 3, 99]",7,683,843,998.1,358.9,1,3,36.3,37.0,46,Saccade: 15914 ms,UP,17,0.97,56.9,67.12,[ 99],15914,15930,977.5,383.5,1001,356.9,47,Saccade: 16238 ms,UP,38,5.94,156.33,289.35,"[ 3, 99]",16238,16275,998.7,356.8,1119.7,172.0,-135.72,LEFT,0.85,A15,S15.wav,A15.png,14,2937094,task,[7],[Noun_2],[2060],[2600],[540],[0],[Couch],[sofa],[0.0],[0.0],[couchpart_1],[S01_I015_E010],[Couch],[nan],[nan],[nan],[nan]
p5,Trial: 33,p5.edf,16430,36,Fixation: 16276 ms,207,16276,16482,"[ 3, 99]",7,654,843,1114.9,176.9,2,3,37.25,37.7,47,Saccade: 16238 ms,UP,38,5.94,156.33,289.35,"[ 3, 99]",16238,16275,998.7,356.8,1119.7,172,48,Saccade: 16483 ms,.,12,0.47,39.32,41.88,"[ 3, 99]",16483,16494,1113.6,173.7,1097.1,167.7,-123.1,DOWN,5.82,A15,S15.wav,A15.png,14,2937094,task,,break,,,,,,,,,,,,,,,
p5,Trial: 33,p5.edf,.,37,Fixation: 16495 ms,329,16495,16823,"[ 3, 99]",7,677,843,1099.4,173.3,3,3,37.1,37.65,48,Saccade: 16483 ms,.,12,0.47,39.32,41.88,"[ 3, 99]",16483,16494,1113.6,173.7,1097.1,167.7,49,Saccade: 16824 ms,LEFT,60,6.98,116.37,393.77,"[ 4, 99]",16824,16883,1097.3,179.2,906.0,350.5,-12.91,.,0.43,A15,S15.wav,A15.png,14,2937094,task,"[9, 10]","[Relative Clause Pers. Pronoun, Relative Clause Adverb]","[3030, 3230]","[3220, 3670]","[190, 440]","[0, 0]","[sie, langsam]","[she, slowly]","[0.0, 0.0]","[0.0, 0.0]","[woman_1, nan]","[S01_I015_E001, nan]","[sie, langsam]","[nan, nan]","[nan, nan]","[nan, nan]","[nan, nan]"
p5,Trial: 33,p5.edf,.,38,Fixation: 16884 ms,115,16884,16998,"[ 4, 99]",5,727,115,903.6,364.1,1,1,35.8,36.8,49,Saccade: 16824 ms,LEFT,60,6.98,116.37,393.77,"[ 3, 99]",16824,16883,1097.3,179.2,906,350.5,50,Saccade: 16999 ms,LEFT,70,15.06,215.21,542.03,"[ 2, 11, 14, 99]",16999,17068,904.0,366.1,364.9,381.9,43.66,RIGHT,7.42,A15,S15.wav,A15.png,14,2937094,task,[10],[Relative Clause Adverb],[3230],[3670],[440],[0],[langsam],[slowly],[0.0],[0.0],[nan],[nan],[langsam],[nan],[nan],[nan],[nan]
p5,Trial: 33,p5.edf,.,39,Fixation: 17069 ms,177,17069,17245,"[ 2, 11, 99]",9,787,177,362.1,390.7,1,1,35.85,36.8,50,Saccade: 16999 ms,LEFT,70,15.06,215.21,542.03,"[ 4, 99]",16999,17068,904,366.1,364.9,381.9,51,Saccade: 17246 ms,RIGHT,25,2.38,95.2,178.1,"[ 6, 11, 99]",17246,17270,358.1,390.8,439.1,417.2,2.74,RIGHT,15.13,A15,S15.wav,A15.png,14,2937094,task,[11],[Relative Clause Verb],[3670],[4150],[480],[0],[stopft],[patches],[1.0],[0.0],[nan],[nan],[stopfen],[nan],[nan],[nan],[nan]
p5,Trial: 33,p5.edf,.,40,Fixation: 17271 ms,231,17271,17501,"[ 6, 11, 99]",10,867,231,423.9,414.0,1,1,35.55,36.7,51,Saccade: 17246 ms,RIGHT,25,2.38,95.2,178.1,"[ 2, 11, 99]",17246,17270,358.1,390.8,439.1,417.2,52,Saccade: 17502 ms,LEFT,21,0.86,41.14,79.43,"[ 2, 11, 99]",17502,17522,422.4,414.8,392.7,406.4,159.89,LEFT,1.84,A15,S15.wav,A15.png,14,2937094,task,[11],[Relative Clause Verb],[3670],[4150],[480],[0],[stopft],[patches],[1.0],[0.0],[nan],[nan],[stopfen],[nan],[nan],[nan],[nan]
p5,Trial: 33,p5.edf,.,41,Fixation: 17523 ms,215,17523,17737,"[ 2, 11, 99]",9,932,215,395.8,404.2,1,1,35.7,36.8,52,Saccade: 17502 ms,LEFT,21,0.86,41.14,79.43,"[ 6, 11, 99]",17502,17522,422.4,414.8,392.7,406.4,53,Saccade: 17738 ms,DOWN,17,1.02,60.03,72.19,"[ 6, 11, 14, 99]",17738,17754,389.7,398.3,387.7,435.8,-18.68,RIGHT,0.83,A15,S15.wav,A15.png,14,2937094,task,[11],[Relative Clause Verb],[3670],[4150],[480],[0],[stopft],[patches],[1.0],[0.0],[nan],[nan],[stopfen],[nan],[nan],[nan],[nan]
p5,Trial: 33,p5.edf,.,42,Fixation: 17755 ms,193,17755,17947,"[ 6, 11, 14, 99]",10,950,193,384.9,424.9,1,1,35.7,36.8,53,Saccade: 17738 ms,DOWN,17,1.02,60.03,72.19,"[ 2, 11, 99]",17738,17754,389.7,398.3,387.7,435.8,54,Saccade: 17948 ms,UP,178,1.02,5.71,415.14,"[ 2, 11, 99]",17948,18125,387.8,424.9,384.3,387.7,61.51,UP,0.64,A15,S15.wav,A15.png,14,2937094,post,,,,,,,,,,,,,,,,,
