RECORDING_SESSION_LABEL,TRIAL_LABEL,DATA_FILE,CURRENT_FIX_MSG_TIME_1,CURRENT_FIX_INDEX,CURRENT_FIX_LABEL,CURRENT_FIX_DURATION,CURRENT_FIX_START,CURRENT_FIX_END,CURRENT_FIX_INTEREST_AREAS,CURRENT_FIX_INTEREST_AREA_FIX_COUNT,CURRENT_FIX_PUPIL,CURRENT_FIX_RUN_DWELL_TIME,CURRENT_FIX_X,CURRENT_FIX_Y,CURRENT_FIX_RUN_INDEX,CURRENT_FIX_RUN_SIZE,CURRENT_FIX_X_RESOLUTION,CURRENT_FIX_Y_RESOLUTION,PREVIOUS_SAC_INDEX,PREVIOUS_SAC_LABEL,PREVIOUS_SAC_DIRECTION,PREVIOUS_SAC_DURATION,PREVIOUS_SAC_AMPLITUDE,PREVIOUS_SAC_AVG_VELOCITY,PREVIOUS_SAC_PEAK_VELOCITY,PREVIOUS_SAC_START_INTEREST_AREAS,PREVIOUS_SAC_START_TIME,PREVIOUS_SAC_END_TIME,PREVIOUS_SAC_START_X,PREVIOUS_SAC_START_Y,PREVIOUS_SAC_END_X,PREVIOUS_SAC_END_Y,NEXT_SAC_INDEX,NEXT_SAC_LABEL,NEXT_SAC_DIRECTION,NEXT_SAC_DURATION,NEXT_SAC_AMPLITUDE,NEXT_SAC_AVG_VELOCITY,NEXT_SAC_PEAK_VELOCITY,NEXT_SAC_END_INTEREST_AREAS,NEXT_SAC_START_TIME,NEXT_SAC_END_TIME,NEXT_SAC_START_X,NEXT_SAC_START_Y,NEXT_SAC_END_X,NEXT_SAC_END_Y,PREVIOUS_FIX_ANGLE,PREVIOUS_FIX_DIRECTION,PREVIOUS_FIX_DISTANCE,ItemNO,audiofilename,imagefilename,TRIAL_INDEX,TRIAL_START_TIME,viewtype,word_index,Label,word_onset,word_offset,word_duration,Continuation,wordDE,wordEN,REFWord,TargetObj,ObjectLabel,ObjectID,LemmaDE,LingIndex,DepS,pos_1,pos_2
p7,Trial: 18,p7.edf,.,1,Fixation: 3440 ms,195,3440,3634,"[ 26, 99]",4,774,195,739.4,550.6,1,1,35.4,36.85,4,Saccade: 3396 ms,UP,44,10.01,227.41,372.12,[ ],3396,3439,622.6,943.6,725.9,577.9,5,Saccade: 3635 ms,UP,64,8.38,130.92,395.52,"[ 4, 99]",3635,3698,739.0,544.0,682.3,242.2,-107.7,DOWN,10.91,A2,S2.wav,A2.png,9,18875971,preview,,,,,,,,,,,,,,,,,
p7,Trial: 18,p7.edf,.,2,Fixation: 3699 ms,236,3699,3934,"[ 4, 99]",7,838,1014,683.5,245.5,1,4,35.2,36.6,5,Saccade: 3635 ms,UP,64,8.38,130.92,395.52,"[ 26, 99]",3635,3698,739,544,682.3,242.2,6,Saccade: 3935 ms,DOWN,22,1.62,73.55,107.34,"[ 4, 99]",3935,3956,681.2,243.5,692.8,301.4,-79.21,DOWN,8.46,A2,S2.wav,A2.png,9,18875971,preview,,,,,,,,,,,,,,,,,
p7,Trial: 18,p7.edf,.,3,Fixation: 3957 ms,328,3957,4284,"[ 4, 99]",7,863,1014,688.8,301.1,2,4,35.2,36.5,6,Saccade: 3935 ms,DOWN,22,1.62,73.55,107.34,"[ 4, 99]",3935,3956,681.2,243.5,692.8,301.4,7,Saccade: 4285 ms,UP,23,2.14,92.93,147.43,"[ 4, 99]",4285,4307,688.0,305.3,673.7,228.6,95.65,UP,1.53,A2,S2.wav,A2.png,9,18875971,preview,,,,,,,,,,,,,,,,,
p7,Trial: 18,p7.edf,.,4,Fixation: 4308 ms,165,4308,4472,"[ 4, 99]",7,865,1014,676.2,219.5,3,4,35.25,36.6,7,Saccade: 4285 ms,UP,23,2.14,92.93,147.43,"[ 4, 99]",4285,4307,688,305.3,673.7,228.6,8,Saccade: 4473 ms,UP,15,0.69,46.08,51.11,"[ 4, 99]",4473,4487,677.6,219.0,684.5,194.7,-80.9,DOWN,2.26,A2,S2.wav,A2.png,9,18875971,preview,,,,,,,,,,,,,,,,,
p7,Trial: 18,p7.edf,.,5,Fixation: 4488 ms,285,4488,4772,"[ 4, 99]",7,861,1014,684.5,202.2,4,4,35.3,36.7,8,Saccade: 4473 ms,UP,15,0.69,46.08,51.11,"[ 4, 99]",4473,4487,677.6,219,684.5,194.7,9,Saccade: 4773 ms,LEFT,55,6.62,120.42,345.82,"[ 24, 99]",4773,4827,685.3,201.3,457.3,143.0,-116.5,DOWN,0.53,A2,S2.wav,A2.png,9,18875971,preview,,,,,,,,,,,,,,,,,
p7,Trial: 18,p7.edf,.,6,Fixation: 4828 ms,313,4828,5140,"[ 24, 99]",2,863,313,439.8,140.7,1,1,35.65,37.0,9,Saccade: 4773 ms,LEFT,55,6.62,120.42,345.82,"[ 4, 99]",4773,4827,685.3,201.3,457.3,143,10,Saccade: 5141 ms,DOWN,51,4.81,94.37,284.97,"[ 28, 99]",5141,5191,436.3,140.0,348.0,292.7,-13.6,RIGHT,7.1,A2,S2.wav,A2.png,9,18875971,preview,,,,,,,,,,,,,,,,,
p7,Trial: 18,p7.edf,.,7,Fixation: 5192 ms,134,5192,5325,"[ 28, 99]",1,878,134,345.5,307.4,1,1,35.9,36.9,10,Saccade: 5141 ms,DOWN,51,4.81,94.37,284.97,"[ 24, 99]",5141,5191,436.3,140,348,292.7,11,Saccade: 5326 ms,LEFT,47,6.2,131.93,401.45,"[ 5, 99]",5326,5372,344.8,312.4,178.8,469.2,59.7,UP,5.23,A2,S2.wav,A2.png,9,18875971,preview,,,,,,,,,,,,,,,,,
p7,Trial: 18,p7.edf,.,8,Fixation: 5373 ms,164,5373,5536,"[ 5, 99]",12,902,164,168.1,477.5,1,1,37.15,37.55,11,Saccade: 5326 ms,LEFT,47,6.2,131.93,401.45,"[ 28, 99]",5326,5372,344.8,312.4,178.8,469.2,12,Saccade: 5537 ms,UP,26,2.54,97.52,189.12,"[ 3, 99]",5537,5562,166.5,479.0,153.5,384.7,43.25,RIGHT,6.67,A2,S2.wav,A2.png,9,18875971,preview,,,,,,,,,,,,,,,,,
p7,Trial: 18,p7.edf,.,9,Fixation: 5563 ms,238,5563,5800,"[ 3, 99]",9,930,953,150.6,387.9,1,3,37.2,37.5,12,Saccade: 5537 ms,UP,26,2.54,97.52,189.12,"[ 5, 99]",5537,5562,166.5,479,153.5,384.7,13,Saccade: 5801 ms,RIGHT,199,1.38,6.95,705.79,[ 99],5801,5999,157.1,401.7,194.9,366.8,-78.85,DOWN,2.43,A2,S2.wav,A2.png,9,18875971,preview,,,,,,,,,,,,,,,,,
p7,Trial: 18,p7.edf,.,10,Fixation: 6161 ms,472,6161,6632,"[ 3, 99]",9,981,953,153.4,411.7,2,3,37.2,37.55,14,Saccade: 6128 ms,DOWN,33,1.92,58.26,200.1,"[ 3, 99]",6128,6160,204.7,350.5,159.6,406.1,15,Saccade: 6633 ms,LEFT,11,0.55,50.18,46.36,"[ 3, 99]",6633,6643,151.2,412.6,130.8,409.8,96.77,UP,0.64,A2,S2.wav,A2.png,9,18875971,preview,,,,,,,,,,,,,,,,,
p7,Trial: 18,p7.edf,.,11,Fixation: 6644 ms,243,6644,6886,"[ 3, 99]",9,1004,953,136.1,408.8,3,3,37.4,37.6,15,Saccade: 6633 ms,LEFT,11,0.55,50.18,46.36,"[ 3, 99]",6633,6643,151.2,412.6,130.8,409.8,16,Saccade: 6887 ms,RIGHT,74,13.21,178.52,377.43,[ 99],6887,6960,136.0,410.6,613.0,360.3,-9.45,.,0.47,A2,S2.wav,A2.png,9,18875971,preview,,,,,,,,,,,,,,,,,
p7,Trial: 18,p7.edf,.,12,Fixation: 6961 ms,118,6961,7078,[ 99],56,960,14409,615.4,362.4,12,55,35.2,36.5,16,Saccade: 6887 ms,RIGHT,74,13.21,178.52,377.43,"[ 3, 99]",6887,6960,136,410.6,613,360.3,17,Saccade: 7079 ms,RIGHT,30,1.56,51.97,167.82,[ 99],7079,7108,618.6,365.1,665.7,335.9,-174.58,LEFT,13.26,A2,S2.wav,A2.png,9,18875971,preview,,,,,,,,,,,,,,,,,
p7,Trial: 18,p7.edf,.,13,Fixation: 7109 ms,152,7109,7260,"[ 4, 99]",7,948,395,675.6,336.8,1,2,35.2,36.5,17,Saccade: 7079 ms,RIGHT,30,1.56,51.97,167.82,[ 99],7079,7108,618.6,365.1,665.7,335.9,18,Saccade: 7261 ms,UP,12,0.62,51.83,51.55,"[ 4, 99]",7261,7272,680.8,338.1,695.2,321.0,-157.7,LEFT,1.85,A2,S2.wav,A2.png,9,18875971,preview,,,,,,,,,,,,,,,,,
p7,Trial: 18,p7.edf,.,14,Fixation: 7273 ms,243,7273,7515,"[ 4, 99]",7,905,395,690.8,322.6,2,2,35.2,36.5,18,Saccade: 7261 ms,UP,12,0.62,51.83,51.55,"[ 4, 99]",7261,7272,680.8,338.1,695.2,321,19,Saccade: 7516 ms,DOWN,55,6.95,126.31,331.37,"[ 25, 26, 99]",7516,7570,693.1,326.0,845.7,526.1,-137.98,LEFT,0.58,A2,S2.wav,A2.png,9,18875971,preview,,,,,,,,,,,,,,,,,
p7,Trial: 18,p7.edf,.,15,Fixation: 7571 ms,219,7571,7789,"[ 25, 26, 99]",2,809,219,851.1,541.4,1,1,35.7,36.95,19,Saccade: 7516 ms,DOWN,55,6.95,126.31,331.37,"[ 4, 99]",7516,7570,693.1,326,845.7,526.1,20,Saccade: 7790 ms,DOWN,25,3.19,127.5,232.92,"[ 14, 19, 99]",7790,7814,851.5,546.8,827.4,662.7,127.2,UP,7.48,A2,S2.wav,A2.png,9,18875971,preview,,,,,,,,,,,,,,,,,
p7,Trial: 18,p7.edf,.,16,Fixation: 7815 ms,180,7815,7994,"[ 14, 19, 99]",3,795,180,832.8,662.9,1,1,35.9,37.45,20,Saccade: 7790 ms,DOWN,25,3.19,127.5,232.92,"[ 25, 26, 99]",7790,7814,851.5,546.8,827.4,662.7,21,Saccade: 7995 ms,LEFT,58,11.86,204.51,462.19,"[ 11, 99]",7995,8052,834.8,667.1,531.9,361.3,81.11,UP,3.31,A2,S2.wav,A2.png,9,18875971,preview,,,,,,,,,,,,,,,,,
p7,Trial: 18,p7.edf,.,17,Fixation: 8053 ms,144,8053,8196,"[ 11, 99]",4,843,415,518.0,354.2,1,2,35.3,36.5,21,Saccade: 7995 ms,LEFT,58,11.86,204.51,462.19,"[ 14, 19, 99]",7995,8052,834.8,667.1,531.9,361.3,22,Saccade: 8197 ms,UP,24,2.15,89.46,163.73,"[ 11, 20, 99]",8197,8220,516.9,353.8,474.8,288.5,-43.35,RIGHT,12.16,A2,S2.wav,A2.png,9,18875971,preview,,,,,,,,,,,,,,,,,
p7,Trial: 18,p7.edf,.,18,Fixation: 8221 ms,271,8221,8491,"[ 11, 20, 99]",4,842,415,471.4,293.4,2,2,35.4,36.6,22,Saccade: 8197 ms,UP,24,2.15,89.46,163.73,"[ 11, 99]",8197,8220,516.9,353.8,474.8,288.5,23,Saccade: 8492 ms,UP,28,4.01,143.26,260.64,"[ 24, 99]",8492,8519,471.5,293.6,441.0,149.4,-51.6,DOWN,2.12,A2,S2.wav,A2.png,9,18875971,preview,,,,,,,,,,,,,,,,,
p7,Trial: 18,p7.edf,.,19,Fixation: 8520 ms,271,8520,8790,"[ 21, 24, 99]",1,798,271,448.8,137.8,1,1,35.7,37.0,23,Saccade: 8492 ms,UP,28,4.01,143.26,260.64,"[ 11, 20, 99]",8492,8519,471.5,293.6,441,149.4,24,Saccade: 8791 ms,DOWN,65,13.32,204.86,533.1,"[ 5, 15, 99]",8791,8855,448.9,138.5,127.4,512.8,-81.45,DOWN,4.28,A2,S2.wav,A2.png,9,18875971,preview,,,,,,,,,,,,,,,,,
p7,Trial: 18,p7.edf,.,20,Fixation: 8856 ms,103,8856,8958,"[ 5, 15, 99]",12,822,333,133.8,528.9,1,2,37.5,37.85,24,Saccade: 8791 ms,DOWN,65,13.32,204.86,533.1,"[ 21, 24, 99]",8791,8855,448.9,138.5,127.4,512.8,25,Saccade: 8959 ms,UP,22,1.9,86.41,140.2,"[ 5, 99]",8959,8980,137.3,533.5,95.8,474.8,50.53,UP,13.54,A2,S2.wav,A2.png,9,18875971,preview,,,,,,,,,,,,,,,,,
p7,Trial: 18,p7.edf,.,21,Fixation: 8981 ms,230,8981,9210,"[ 5, 15, 99]",12,831,333,101.6,476.9,2,2,37.75,37.9,25,Saccade: 8959 ms,UP,22,1.9,86.41,140.2,"[ 5, 99]",8959,8980,137.3,533.5,95.8,474.8,26,Saccade: 9211 ms,UP,26,2.45,94.11,161.15,"[ 3, 99]",9211,9236,105.9,477.8,122.9,386.9,-58.06,DOWN,1.62,A2,S2.wav,A2.png,9,18875971,preview,,,,,,,,,,,,,,,,,
p7,Trial: 18,p7.edf,.,22,Fixation: 9237 ms,461,9237,9697,"[ 3, 99]",9,868,1717,130.7,396.7,1,4,37.45,37.65,26,Saccade: 9211 ms,UP,26,2.45,94.11,161.15,"[ 5, 15, 99]",9211,9236,105.9,477.8,122.9,386.9,27,Saccade: 9698 ms,.,16,0.1,6.2,35.01,"[ 3, 99]",9698,9713,130.4,399.5,126.7,399.2,-110.03,DOWN,2.26,A2,S2.wav,A2.png,9,18875971,preview,,,,,,,,,,,,,,,,,
p7,Trial: 18,p7.edf,.,23,Fixation: 9714 ms,565,9714,10278,"[ 3, 99]",9,903,1717,124.0,395.5,2,4,37.4,37.6,27,Saccade: 9698 ms,.,16,0.1,6.2,35.01,"[ 3, 99]",9698,9713,130.4,399.5,126.7,399.2,28,Saccade: 10279 ms,RIGHT,141,0.86,6.08,825.55,"[ 3, 99]",10279,10419,130.2,405.1,162.1,407.5,-10.1,.,0.18,A2,S2.wav,A2.png,9,18875971,preview,,,,,,,,,,,,,,,,,
p7,Trial: 18,p7.edf,.,24,Fixation: 10986 ms,409,10986,11394,"[ 3, 99]",9,913,1717,148.7,421.5,3,4,37.3,37.6,29,Saccade: 10968 ms,.,18,0.38,21.02,54.39,"[ 3, 99]",10968,10985,161.6,424.3,148.2,419.9,30,Saccade: 11395 ms,UP,34,4.14,121.77,220.61,"[ 3, 99]",11395,11428,150.3,421.6,222.6,284.9,133.72,UP,0.96,A2,S2.wav,A2.png,9,18875971,preview,,,,,,,,,,,,,,,,,
p7,Trial: 18,p7.edf,.,25,Fixation: 11429 ms,282,11429,11710,"[ 3, 99]",9,895,1717,222.6,284.8,4,4,36.7,37.3,30,Saccade: 11395 ms,UP,34,4.14,121.77,220.61,"[ 3, 99]",11395,11428,150.3,421.6,222.6,284.9,31,Saccade: 11711 ms,DOWN,68,13.37,196.55,380.71,[ 99],11711,11778,221.4,286.1,469.7,716.7,-118.69,DOWN,4.16,A2,S2.wav,A2.png,9,18875971,preview,,,,,,,,,,,,,,,,,
p7,Trial: 18,p7.edf,.,26,Fixation: 11779 ms,396,11779,12174,"[ 9, 99]",2,898,396,477.1,742.9,1,1,36.0,37.8,31,Saccade: 11711 ms,DOWN,68,13.37,196.55,380.71,"[ 3, 99]",11711,11778,221.4,286.1,469.7,716.7,32,Saccade: 12175 ms,UP,65,12.8,196.99,504.25,[ 99],12175,12239,478.3,748.9,656.3,310.4,119.85,UP,14.07,A2,S2.wav,A2.png,9,18875971,preview,,,,,,,,,,,,,,,,,
p7,Trial: 18,p7.edf,.,27,Fixation: 12240 ms,196,12240,12435,[ 99],56,881,14409,660.4,311.7,27,55,35.2,36.5,32,Saccade: 12175 ms,UP,65,12.8,196.99,504.25,"[ 9, 99]",12175,12239,478.3,748.9,656.3,310.4,33,Saccade: 12436 ms,UP,25,3.2,128.05,245.77,"[ 4, 99]",12436,12460,664.1,311.0,681.3,195.2,-113.92,DOWN,12.7,A2,S2.wav,A2.png,9,18875971,preview,,,,,,,,,,,,,,,,,
p7,Trial: 18,p7.edf,.,28,Fixation: 12461 ms,331,12461,12791,"[ 4, 99]",7,849,331,694.2,200.7,1,1,35.3,36.7,33,Saccade: 12436 ms,UP,25,3.2,128.05,245.77,"[ 4, 99]",12436,12460,664.1,311,681.3,195.2,34,Saccade: 12792 ms,DOWN,171,3.42,19.99,852.78,"[ 4, 99]",12792,12962,695.5,205.8,712.4,329.7,-107.55,DOWN,3.18,A2,S2.wav,A2.png,9,18875971,preview,,,,,,,,,,,,,,,,,
p7,Trial: 18,p7.edf,14842,29,Fixation: 14709 ms,169,14709,14877,"[ 6, 99]",5,926,348,742.4,393.5,1,2,35.3,36.5,36,Saccade: 14647 ms,RIGHT,62,7.82,126.18,403.6,"[ 11, 20, 99]",14647,14708,481.3,301.1,743.2,392.9,37,Saccade: 14878 ms,LEFT,23,1.7,73.98,133.16,"[ 6, 13, 99]",14878,14900,745.1,393.1,685.3,388.3,104.53,UP,5.44,A2,S2.wav,A2.png,9,18875971,task,[4],[Determiner_1],[1330],[1550],[220],[0],[ein],[a],[0.0],[0.0],[nan],[nan],[eine],[nan],[nan],[ART],[nan]
p7,Trial: 18,p7.edf,.,30,Fixation: 14901 ms,179,14901,15079,"[ 6, 13, 99]",5,933,348,691.5,394.4,2,2,35.2,36.5,37,Saccade: 14878 ms,LEFT,23,1.7,73.98,133.16,"[ 6, 99]",14878,14900,745.1,393.1,685.3,388.3,38,Saccade: 15080 ms,LEFT,75,14.23,189.74,494.17,"[ 5, 12, 99]",15080,15154,692.1,396.3,191.7,515.6,0.98,RIGHT,1.44,A2,S2.wav,A2.png,9,18875971,task,[5],[Noun_1],[1640],[2080],[440],[0],[Becher],[mug],[0.0],[0.0],[mug_1],[S01_I002_E009],[Becher],[nan],[nan],[NN],[nan]
p7,Trial: 18,p7.edf,.,31,Fixation: 15155 ms,291,15155,15445,"[ 5, 12, 99]",12,1018,291,196.1,522.8,1,1,37.0,37.6,38,Saccade: 15080 ms,LEFT,75,14.23,189.74,494.17,"[ 6, 13, 99]",15080,15154,692.1,396.3,191.7,515.6,39,Saccade: 15446 ms,RIGHT,78,17.85,228.89,511.54,"[ 14, 19, 99]",15446,15523,195.6,519.1,829.8,669.3,14.17,RIGHT,14.15,A2,S2.wav,A2.png,9,18875971,task,[5],[Noun_1],[1640],[2080],[440],[0],[Becher],[mug],[0.0],[0.0],[mug_1],[S01_I002_E009],[Becher],[nan],[nan],[NN],[nan]
p7,Trial: 18,p7.edf,.,32,Fixation: 15524 ms,223,15524,15746,"[ 14, 19, 99]",3,1034,223,831.3,671.0,1,1,35.9,37.5,39,Saccade: 15446 ms,RIGHT,78,17.85,228.89,511.54,"[ 5, 12, 99]",15446,15523,195.6,519.1,829.8,669.3,40,Saccade: 15747 ms,UP,54,8.96,165.96,480.84,"[ 6, 99]",15747,15800,832.4,670.2,644.4,402.5,167.24,LEFT,17.87,A2,S2.wav,A2.png,9,18875971,task,,break,,,,,,,,,,,,,,,
p7,Trial: 18,p7.edf,.,33,Fixation: 15801 ms,164,15801,15964,"[ 6, 99]",5,1014,357,640.4,386.0,1,2,35.2,36.5,40,Saccade: 15747 ms,UP,54,8.96,165.96,480.84,"[ 14, 19, 99]",15747,15800,832.4,670.2,644.4,402.5,41,Saccade: 15965 ms,RIGHT,28,0.96,34.34,125.53,"[ 6, 99]",15965,15992,640.4,385.1,672.9,375.3,-55.12,DOWN,9.39,A2,S2.wav,A2.png,9,18875971,task,[6],[Preposition_1],[2450],[2570],[120],[0],[auf],[on],[0.0],[0.0],[nan],[nan],[auf],[nan],[nan],[APPR],[nan]
p7,Trial: 18,p7.edf,16120,34,Fixation: 15993 ms,193,15993,16185,"[ 6, 99]",5,991,357,677.9,369.6,2,2,35.2,36.5,41,Saccade: 15965 ms,RIGHT,28,0.96,34.34,125.53,"[ 6, 99]",15965,15992,640.4,385.1,672.9,375.3,42,Saccade: 16186 ms,LEFT,52,5.19,99.79,338.52,"[ 11, 99]",16186,16237,678.9,370.0,506.3,307.2,-157.13,LEFT,1.16,A2,S2.wav,A2.png,9,18875971,task,[7],[Determiner_2],[2630],[2880],[250],[0],[einem],[a],[0.0],[0.0],[nan],[nan],[eine],[nan],[nan],[ART],[nan]
p7,Trial: 18,p7.edf,.,35,Fixation: 16238 ms,416,16238,16653,"[ 11, 20, 99]",4,1005,416,496.7,309.2,1,1,35.35,36.6,42,Saccade: 16186 ms,LEFT,52,5.19,99.79,338.52,"[ 6, 99]",16186,16237,678.9,370,506.3,307.2,43,Saccade: 16654 ms,LEFT,53,7.71,145.46,399.02,"[ 3, 99]",16654,16706,497.0,312.6,261.9,462.7,-17.83,RIGHT,5.4,A2,S2.wav,A2.png,9,18875971,task,[8],[Noun_2],[2930],[3740],[810],[0],[Kaffeetisch],[coffee table],[0.0],[1.0],[sidetable_1],[S01_I002_E004],[Kaffeetisch],[nan],[nan],[NN],[nan]
p7,Trial: 18,p7.edf,.,36,Fixation: 16707 ms,161,16707,16867,"[ 3, 99]",9,1014,161,247.7,475.8,1,1,36.55,37.25,43,Saccade: 16654 ms,LEFT,53,7.71,145.46,399.02,"[ 11, 20, 99]",16654,16706,497,312.6,261.9,462.7,44,Saccade: 16868 ms,LEFT,24,1.32,55.02,116.61,"[ 5, 12, 99]",16868,16891,245.6,478.3,204.9,505.2,33.08,RIGHT,8.27,A2,S2.wav,A2.png,9,18875971,task,[8],[Noun_2],[2930],[3740],[810],[0],[Kaffeetisch],[coffee table],[0.0],[1.0],[sidetable_1],[S01_I002_E004],[Kaffeetisch],[nan],[nan],[NN],[nan]
p7,Trial: 18,p7.edf,.,37,Fixation: 16892 ms,204,16892,17095,"[ 5, 12, 99]",12,1029,1064,208.0,510.2,1,3,36.9,37.5,44,Saccade: 16868 ms,LEFT,24,1.32,55.02,116.61,"[ 3, 99]",16868,16891,245.6,478.3,204.9,505.2,45,Saccade: 17096 ms,DOWN,29,1.35,46.44,135.78,"[ 5, 99]",17096,17124,207.8,513.6,237.8,553.8,40.41,RIGHT,1.42,A2,S2.wav,A2.png,9,18875971,task,[8],[Noun_2],[2930],[3740],[810],[0],[Kaffeetisch],[coffee table],[0.0],[1.0],[sidetable_1],[S01_I002_E004],[Kaffeetisch],[nan],[nan],[NN],[nan]
p7,Trial: 18,p7.edf,.,38,Fixation: 17125 ms,448,17125,17572,"[ 5, 99]",12,1058,1064,246.9,556.9,2,3,36.7,37.5,45,Saccade: 17096 ms,DOWN,29,1.35,46.44,135.78,"[ 5, 12, 99]",17096,17124,207.8,513.6,237.8,553.8,46,Saccade: 17573 ms,DOWN,25,0.6,23.88,82.99,"[ 5, 99]",17573,17597,244.5,557.8,240.8,579.9,130.33,UP,1.63,A2,S2.wav,A2.png,9,18875971,task,[9],[Relative Clause Pronoun],[4090],[4260],[170],[0],[den],[that],[0.0],[0.0],[nan],[nan],[die],[nan],[nan],[PRELS],[nan]
p7,Trial: 18,p7.edf,17672,39,Fixation: 17598 ms,412,17598,18009,"[ 5, 99]",12,1130,1064,233.1,587.7,3,3,36.8,37.65,46,Saccade: 17573 ms,DOWN,25,0.6,23.88,82.99,"[ 5, 99]",17573,17597,244.5,557.8,240.8,579.9,47,Saccade: 18010 ms,UP,195,1.38,7.08,598.77,"[ 5, 12, 99]",18010,18204,227.6,596.3,231.4,544.5,65.39,UP,0.9,A2,S2.wav,A2.png,9,18875971,task,"[10, 11]","[Relative Clause Pers. Pronoun, Relative Clause Adverb]","[4270, 4460]","[4410, 4990]","[140, 530]","[0, 0]","[sie, achtlos]","[she, carelessly]","[0.0, 0.0]","[0.0, 0.0]","[woman_1, nan]","[S01_I002_E002, nan]","[sie, achtlos]","[nan, nan]","[nan, nan]","[PPER, nan]","[nan, nan]"
p7,Trial: 18,p7.edf,.,40,Fixation: 18451 ms,212,18451,18662,[ 99],56,1198,14409,140.5,434.7,40,55,37.35,37.6,48,Saccade: 18424 ms,LEFT,27,3.41,126.18,263.64,"[ 5, 12, 99]",18424,18450,231.3,513.3,140.1,425.1,49,Saccade: 18663 ms,UP,22,0.74,33.48,81.64,"[ 3, 99]",18663,18684,139.4,433.3,123.7,410.5,-58.44,DOWN,4.77,A2,S2.wav,A2.png,9,18875971,task,[12],[Relative Clause Verb],[5110],[5710],[600],[0],[beschädigt],[damages],[1.0],[0.0],[nan],[nan],[beschädigen],[nan],[nan],[VVPP],[nan]
p7,Trial: 18,p7.edf,.,41,Fixation: 18685 ms,478,18685,19162,"[ 3, 99]",9,1244,478,125.7,413.3,1,1,37.45,37.65,49,Saccade: 18663 ms,UP,22,0.74,33.48,81.64,[ 99],18663,18684,139.4,433.3,123.7,410.5,50,Saccade: 19163 ms,DOWN,46,3.28,71.25,217.96,"[ 5, 99]",19163,19208,132.3,421.5,184.8,532.9,-55.17,DOWN,0.69,A2,S2.wav,A2.png,9,18875971,task,[12],[Relative Clause Verb],[5110],[5710],[600],[0],[beschädigt],[damages],[1.0],[0.0],[nan],[nan],[beschädigen],[nan],[nan],[VVPP],[nan]
