RECORDING_SESSION_LABEL,TRIAL_LABEL,DATA_FILE,CURRENT_FIX_MSG_TIME_1,CURRENT_FIX_INDEX,CURRENT_FIX_LABEL,CURRENT_FIX_DURATION,CURRENT_FIX_START,CURRENT_FIX_END,CURRENT_FIX_INTEREST_AREAS,CURRENT_FIX_INTEREST_AREA_FIX_COUNT,CURRENT_FIX_PUPIL,CURRENT_FIX_RUN_DWELL_TIME,CURRENT_FIX_X,CURRENT_FIX_Y,CURRENT_FIX_RUN_INDEX,CURRENT_FIX_RUN_SIZE,CURRENT_FIX_X_RESOLUTION,CURRENT_FIX_Y_RESOLUTION,PREVIOUS_SAC_INDEX,PREVIOUS_SAC_LABEL,PREVIOUS_SAC_DIRECTION,PREVIOUS_SAC_DURATION,PREVIOUS_SAC_AMPLITUDE,PREVIOUS_SAC_AVG_VELOCITY,PREVIOUS_SAC_PEAK_VELOCITY,PREVIOUS_SAC_START_INTEREST_AREAS,PREVIOUS_SAC_START_TIME,PREVIOUS_SAC_END_TIME,PREVIOUS_SAC_START_X,PREVIOUS_SAC_START_Y,PREVIOUS_SAC_END_X,PREVIOUS_SAC_END_Y,NEXT_SAC_INDEX,NEXT_SAC_LABEL,NEXT_SAC_DIRECTION,NEXT_SAC_DURATION,NEXT_SAC_AMPLITUDE,NEXT_SAC_AVG_VELOCITY,NEXT_SAC_PEAK_VELOCITY,NEXT_SAC_END_INTEREST_AREAS,NEXT_SAC_START_TIME,NEXT_SAC_END_TIME,NEXT_SAC_START_X,NEXT_SAC_START_Y,NEXT_SAC_END_X,NEXT_SAC_END_Y,PREVIOUS_FIX_ANGLE,PREVIOUS_FIX_DIRECTION,PREVIOUS_FIX_DISTANCE,ItemNO,audiofilename,imagefilename,TRIAL_INDEX,TRIAL_START_TIME,viewtype,word_index,Label,word_onset,word_offset,word_duration,Continuation,wordDE,wordEN,REFWord,TargetObj,ObjectLabel,ObjectID,LemmaDE,LingIndex,DepS,pos_1,pos_2
p8,Trial: 31,p8.edf,.,1,Fixation: 3583 ms,286,3583,3868,"[ 15, 99]",7,1075,286,646.0,743.4,1,1,35.8,37.7,6,Saccade: 3545 ms,UP,38,5.33,140.24,231.59,[ ],3545,3582,658.8,938.1,644.5,733.5,7,Saccade: 3869 ms,UP,53,9.82,185.21,301.59,[ 99],3869,3921,644.2,741.7,489.9,414.5,-86.45,DOWN,4.97,A22,S22.wav,A22.png,17,24941498,preview,,,,,,,,,,,,,,,,,
p8,Trial: 31,p8.edf,.,2,Fixation: 3922 ms,220,3922,4141,[ 99],69,1181,20271,487.5,420.5,2,67,35.4,36.6,7,Saccade: 3869 ms,UP,53,9.82,185.21,301.59,"[ 15, 99]",3869,3921,644.2,741.7,489.9,414.5,8,Saccade: 4142 ms,LEFT,25,2.83,113.11,192.67,"[ 8, 99]",4142,4166,489.8,422.6,394.7,389.0,-62.88,DOWN,9.77,A22,S22.wav,A22.png,17,24941498,preview,,,,,,,,,,,,,,,,,
p8,Trial: 31,p8.edf,.,3,Fixation: 4167 ms,299,4167,4465,"[ 8, 99]",8,1148,299,400.0,392.5,1,1,35.7,36.7,8,Saccade: 4142 ms,LEFT,25,2.83,113.11,192.67,[ 99],4142,4166,489.8,422.6,394.7,389,9,Saccade: 4466 ms,DOWN,38,9.3,244.8,485.83,"[ 11, 99]",4466,4503,398.4,396.3,202.7,680.8,-17.24,RIGHT,2.58,A22,S22.wav,A22.png,17,24941498,preview,,,,,,,,,,,,,,,,,
p8,Trial: 31,p8.edf,.,4,Fixation: 4504 ms,278,4504,4781,"[ 11, 99]",5,1130,278,216.9,671.1,1,1,37.15,38.15,9,Saccade: 4466 ms,DOWN,38,9.3,244.8,485.83,"[ 8, 99]",4466,4503,398.4,396.3,202.7,680.8,10,Saccade: 4782 ms,UP,175,8.15,46.55,774.34,"[ 3, 99]",4782,4956,224.1,674.5,172.5,371.5,55.97,UP,8.98,A22,S22.wav,A22.png,17,24941498,preview,,,,,,,,,,,,,,,,,
p8,Trial: 31,p8.edf,.,5,Fixation: 5138 ms,184,5138,5321,[ 99],69,1142,20271,923.2,296.5,5,67,35.85,36.8,11,Saccade: 5073 ms,RIGHT,65,20.67,318.03,520.89,"[ 3, 9, 99]",5073,5137,167,417,913,308.9,12,Saccade: 5322 ms,RIGHT,26,3.37,129.55,241.52,"[ 2, 99]",5322,5347,921.1,295.6,1034.7,249.9,-152.68,LEFT,21.78,A22,S22.wav,A22.png,17,24941498,preview,,,,,,,,,,,,,,,,,
p8,Trial: 31,p8.edf,.,6,Fixation: 5348 ms,190,5348,5537,"[ 2, 99]",6,1103,190,1031.5,242.5,1,1,36.55,37.2,12,Saccade: 5322 ms,RIGHT,26,3.37,129.55,241.52,[ 99],5322,5347,921.1,295.6,1034.7,249.9,13,Saccade: 5538 ms,DOWN,59,8.51,144.25,390.07,"[ 19, 99]",5538,5596,1028.9,242.8,1152.3,536.9,-154,LEFT,3.33,A22,S22.wav,A22.png,17,24941498,preview,,,,,,,,,,,,,,,,,
p8,Trial: 31,p8.edf,.,7,Fixation: 5597 ms,197,5597,5793,"[ 19, 99]",6,1038,197,1153.5,547.1,1,1,37.6,37.9,13,Saccade: 5538 ms,DOWN,59,8.51,144.25,390.07,"[ 2, 99]",5538,5596,1028.9,242.8,1152.3,536.9,14,Saccade: 5794 ms,LEFT,48,7.72,160.88,457.17,"[ 21, 99]",5794,5841,1156.1,546.0,872.7,544.2,112.08,UP,8.75,A22,S22.wav,A22.png,17,24941498,preview,,,,,,,,,,,,,,,,,
p8,Trial: 31,p8.edf,.,8,Fixation: 5842 ms,244,5842,6085,"[ 21, 99]",3,1140,244,860.5,545.5,1,1,35.8,37.0,14,Saccade: 5794 ms,LEFT,48,7.72,160.88,457.17,"[ 19, 99]",5794,5841,1156.1,546,872.7,544.2,15,Saccade: 6086 ms,DOWN,295,12.43,42.15,555.74,[ ],6086,6380,868.6,554.0,623.3,952.8,-0.31,RIGHT,7.98,A22,S22.wav,A22.png,17,24941498,preview,,,,,,,,,,,,,,,,,
p8,Trial: 31,p8.edf,.,9,Fixation: 6614 ms,136,6614,6749,"[ 8, 99]",8,1458,426,443.9,417.2,1,2,35.5,36.7,16,Saccade: 6550 ms,UP,64,11.24,175.66,491.59,"[ 15, 99]",6550,6613,600.2,810.6,446,421.8,17,Saccade: 6750 ms,UP,27,2.74,101.63,207.29,"[ 5, 99]",6750,6776,446.7,417.2,383.4,340.4,-16.59,RIGHT,12.19,A22,S22.wav,A22.png,17,24941498,preview,,,,,,,,,,,,,,,,,
p8,Trial: 31,p8.edf,.,10,Fixation: 6777 ms,290,6777,7066,"[ 8, 99]",8,1466,426,395.3,356.1,2,2,35.7,36.75,17,Saccade: 6750 ms,UP,27,2.74,101.63,207.29,"[ 8, 99]",6750,6776,446.7,417.2,383.4,340.4,18,Saccade: 7067 ms,DOWN,57,8.52,149.47,549.3,[ 99],7067,7123,396.2,360.7,247.6,638.9,-50.63,DOWN,2.15,A22,S22.wav,A22.png,17,24941498,preview,,,,,,,,,,,,,,,,,
p8,Trial: 31,p8.edf,.,11,Fixation: 7124 ms,180,7124,7303,[ 99],69,1319,20271,244.8,652.8,11,67,36.85,37.85,18,Saccade: 7067 ms,DOWN,57,8.52,149.47,549.3,"[ 8, 99]",7067,7123,396.2,360.7,247.6,638.9,19,Saccade: 7304 ms,UP,51,7.55,148.04,258.93,[ 99],7304,7354,241.4,658.9,252.7,376.0,62.45,UP,8.97,A22,S22.wav,A22.png,17,24941498,preview,,,,,,,,,,,,,,,,,
p8,Trial: 31,p8.edf,.,12,Fixation: 7355 ms,184,7355,7538,"[ 3, 99]",11,1258,380,248.0,387.5,1,2,36.5,37.15,19,Saccade: 7304 ms,UP,51,7.55,148.04,258.93,[ 99],7304,7354,241.4,658.9,252.7,376,20,Saccade: 7539 ms,DOWN,30,2.9,96.82,185.71,"[ 3, 18, 99]",7539,7568,248.6,389.0,203.5,487.3,-90.71,DOWN,7.08,A22,S22.wav,A22.png,17,24941498,preview,,,,,,,,,,,,,,,,,
p8,Trial: 31,p8.edf,.,13,Fixation: 7569 ms,196,7569,7764,"[ 3, 18, 99]",11,1248,380,200.3,476.0,2,2,36.9,37.5,20,Saccade: 7539 ms,DOWN,30,2.9,96.82,185.71,"[ 3, 99]",7539,7568,248.6,389,203.5,487.3,21,Saccade: 7765 ms,RIGHT,67,19.69,293.89,516.65,"[ 16, 99]",7765,7831,196.7,475.7,881.7,266.8,61.27,UP,2.7,A22,S22.wav,A22.png,17,24941498,preview,,,,,,,,,,,,,,,,,
p8,Trial: 31,p8.edf,.,14,Fixation: 7832 ms,155,7832,7986,"[ 16, 99]",1,1201,155,887.6,256.0,1,1,35.7,36.8,21,Saccade: 7765 ms,RIGHT,67,19.69,293.89,516.65,"[ 3, 18, 99]",7765,7831,196.7,475.7,881.7,266.8,22,Saccade: 7987 ms,RIGHT,41,4.4,107.22,319.6,"[ 2, 99]",7987,8027,886.1,253.0,1044.4,267.3,-162.63,LEFT,19.84,A22,S22.wav,A22.png,17,24941498,preview,,,,,,,,,,,,,,,,,
p8,Trial: 31,p8.edf,.,15,Fixation: 8028 ms,169,8028,8196,"[ 2, 99]",6,1174,169,1058.8,260.9,1,1,36.65,37.3,22,Saccade: 7987 ms,RIGHT,41,4.4,107.22,319.6,"[ 16, 99]",7987,8027,886.1,253,1044.4,267.3,23,Saccade: 8197 ms,DOWN,49,6.67,136.2,461.09,[ 99],8197,8245,1058.6,260.0,1155.9,490.5,178.4,LEFT,4.73,A22,S22.wav,A22.png,17,24941498,preview,,,,,,,,,,,,,,,,,
p8,Trial: 31,p8.edf,.,16,Fixation: 8246 ms,171,8246,8416,[ 99],69,1127,20271,1160.4,500.3,16,67,37.6,37.8,23,Saccade: 8197 ms,DOWN,49,6.67,136.2,461.09,"[ 2, 99]",8197,8245,1058.6,260,1155.9,490.5,24,Saccade: 8417 ms,DOWN,30,1.55,51.59,149.35,"[ 19, 99]",8417,8446,1157.5,504.1,1181.4,557.7,113.23,UP,6.94,A22,S22.wav,A22.png,17,24941498,preview,,,,,,,,,,,,,,,,,
p8,Trial: 31,p8.edf,.,17,Fixation: 8447 ms,193,8447,8639,"[ 19, 99]",6,1121,193,1189.1,553.6,1,1,37.95,38.1,24,Saccade: 8417 ms,DOWN,30,1.55,51.59,149.35,[ 99],8417,8446,1157.5,504.1,1181.4,557.7,25,Saccade: 8640 ms,LEFT,57,8.34,146.36,455.12,"[ 21, 99]",8640,8696,1191.0,556.3,883.2,551.8,118.41,UP,1.6,A22,S22.wav,A22.png,17,24941498,preview,,,,,,,,,,,,,,,,,
p8,Trial: 31,p8.edf,.,18,Fixation: 8697 ms,209,8697,8905,"[ 21, 99]",3,1218,209,876.3,553.7,1,1,35.85,37.1,25,Saccade: 8640 ms,LEFT,57,8.34,146.36,455.12,"[ 19, 99]",8640,8696,1191,556.3,883.2,551.8,26,Saccade: 8906 ms,LEFT,61,9.78,160.28,478.33,"[ 15, 99]",8906,8966,880.6,564.3,593.5,775.5,0.02,RIGHT,8.48,A22,S22.wav,A22.png,17,24941498,preview,,,,,,,,,,,,,,,,,
p8,Trial: 31,p8.edf,.,19,Fixation: 8967 ms,162,8967,9128,"[ 15, 99]",7,1277,162,588.0,784.2,1,1,35.9,38.05,26,Saccade: 8906 ms,LEFT,61,9.78,160.28,478.33,"[ 21, 99]",8906,8966,880.6,564.3,593.5,775.5,27,Saccade: 9129 ms,UP,72,14.55,202.12,387.96,"[ 5, 99]",9129,9200,588.1,786.1,463.6,257.7,37.36,RIGHT,10.11,A22,S22.wav,A22.png,17,24941498,preview,,,,,,,,,,,,,,,,,
p8,Trial: 31,p8.edf,.,20,Fixation: 9201 ms,256,9201,9456,"[ 5, 99]",6,1318,256,460.6,254.4,1,1,35.5,36.7,27,Saccade: 9129 ms,UP,72,14.55,202.12,387.96,"[ 15, 99]",9129,9200,588.1,786.1,463.6,257.7,28,Saccade: 9457 ms,DOWN,29,3.19,110.01,214.36,"[ 8, 99]",9457,9485,458.5,256.1,411.8,362.8,-75.87,DOWN,14.62,A22,S22.wav,A22.png,17,24941498,preview,,,,,,,,,,,,,,,,,
p8,Trial: 31,p8.edf,.,21,Fixation: 9486 ms,238,9486,9723,"[ 8, 99]",8,1236,238,409.5,357.9,1,1,35.6,36.7,28,Saccade: 9457 ms,DOWN,29,3.19,110.01,214.36,"[ 5, 99]",9457,9485,458.5,256.1,411.8,362.8,29,Saccade: 9724 ms,LEFT,56,7.69,137.34,420.34,"[ 3, 9, 99]",9724,9779,407.6,360.9,140.5,448.8,62.99,UP,3.17,A22,S22.wav,A22.png,17,24941498,preview,,,,,,,,,,,,,,,,,
p8,Trial: 31,p8.edf,.,22,Fixation: 9780 ms,171,9780,9950,"[ 3, 9, 99]",11,1172,355,131.8,450.3,1,2,37.4,37.65,29,Saccade: 9724 ms,LEFT,56,7.69,137.34,420.34,"[ 8, 99]",9724,9779,407.6,360.9,140.5,448.8,30,Saccade: 9951 ms,RIGHT,19,1.54,81.13,117.09,"[ 3, 18, 99]",9951,9969,129.7,452.2,182.1,475.9,18.09,RIGHT,8,A22,S22.wav,A22.png,17,24941498,preview,,,,,,,,,,,,,,,,,
p8,Trial: 31,p8.edf,.,23,Fixation: 9970 ms,184,9970,10153,"[ 3, 18, 99]",11,1151,355,185.4,472.7,2,2,37.0,37.5,30,Saccade: 9951 ms,RIGHT,19,1.54,81.13,117.09,"[ 3, 9, 99]",9951,9969,129.7,452.2,182.1,475.9,31,Saccade: 10154 ms,RIGHT,75,25.14,335.17,548.35,"[ 2, 99]",10154,10228,184.3,471.9,1103.1,325.7,157.52,LEFT,1.56,A22,S22.wav,A22.png,17,24941498,preview,,,,,,,,,,,,,,,,,
p8,Trial: 31,p8.edf,.,24,Fixation: 10229 ms,110,10229,10338,"[ 2, 99]",6,1084,110,1103.3,309.4,1,1,37.05,37.45,31,Saccade: 10154 ms,RIGHT,75,25.14,335.17,548.35,"[ 3, 18, 99]",10154,10228,184.3,471.9,1103.1,325.7,32,Saccade: 10339 ms,LEFT,36,3.62,100.69,303.12,"[ 6, 99]",10339,10374,1107.4,305.5,978.1,336.5,-170.03,LEFT,25.17,A22,S22.wav,A22.png,17,24941498,preview,,,,,,,,,,,,,,,,,
p8,Trial: 31,p8.edf,.,25,Fixation: 10375 ms,288,10375,10662,"[ 13, 99]",1,1096,288,977.3,334.9,1,1,36.2,37.0,32,Saccade: 10339 ms,LEFT,36,3.62,100.69,303.12,"[ 2, 99]",10339,10374,1107.4,305.5,978.1,336.5,33,Saccade: 10663 ms,LEFT,36,4.58,127.1,191.0,"[ 6, 99]",10663,10698,975.1,338.2,819.9,283.6,11.26,RIGHT,3.51,A22,S22.wav,A22.png,17,24941498,preview,,,,,,,,,,,,,,,,,
p8,Trial: 31,p8.edf,.,26,Fixation: 10699 ms,125,10699,10823,"[ 6, 99]",2,1163,125,825.1,295.2,1,1,35.5,36.65,33,Saccade: 10663 ms,LEFT,36,4.58,127.1,191,"[ 6, 13, 99]",10663,10698,975.1,338.2,819.9,283.6,34,Saccade: 10824 ms,LEFT,132,12.19,92.36,869.49,[ 99],10824,10955,828.5,307.5,420.7,154.0,-14.25,RIGHT,4.38,A22,S22.wav,A22.png,17,24941498,preview,,,,,,,,,,,,,,,,,
p8,Trial: 31,p8.edf,.,27,Fixation: 11369 ms,207,11369,11575,"[ 5, 14, 99]",6,1190,2659,484.9,175.4,1,5,35.5,36.8,35,Saccade: 11348 ms,RIGHT,21,1.85,87.86,138.76,"[ 5, 14, 99]",11348,11368,425.1,183.5,490.1,173.7,36,Saccade: 11576 ms,.,7,0.3,42.15,38.34,"[ 5, 14, 99]",11576,11582,482.6,176.2,472.2,177.5,-18.8,RIGHT,10.12,A22,S22.wav,A22.png,17,24941498,preview,,,,,,,,,,,,,,,,,
p8,Trial: 31,p8.edf,.,28,Fixation: 11583 ms,671,11583,12253,"[ 5, 14, 99]",6,1114,2659,467.4,188.2,2,5,35.5,36.8,36,Saccade: 11576 ms,.,7,0.3,42.15,38.34,"[ 5, 14, 99]",11576,11582,482.6,176.2,472.2,177.5,37,Saccade: 12254 ms,LEFT,227,2.28,10.03,1179.08,[ 99],12254,12480,472.5,206.4,391.5,211.6,35.21,RIGHT,0.6,A22,S22.wav,A22.png,17,24941498,preview,,,,,,,,,,,,,,,,,
p8,Trial: 31,p8.edf,.,29,Fixation: 12681 ms,509,12681,13189,"[ 5, 14, 99]",6,1129,2659,468.7,195.0,3,5,35.5,36.8,38,Saccade: 12655 ms,RIGHT,26,2.52,96.9,158.26,"[ 5, 99]",12655,12680,392.4,235.7,476.5,203.1,39,Saccade: 13190 ms,.,8,0.47,58.22,45.67,"[ 5, 14, 99]",13190,13197,465.2,196.7,467.3,179.7,101.21,.,0.19,A22,S22.wav,A22.png,17,24941498,preview,,,,,,,,,,,,,,,,,
p8,Trial: 31,p8.edf,13310,30,Fixation: 13198 ms,421,13198,13618,"[ 5, 14, 99]",6,1156,2659,468.0,179.0,4,5,35.5,36.85,39,Saccade: 13190 ms,.,8,0.47,58.22,45.67,"[ 5, 14, 99]",13190,13197,465.2,196.7,467.3,179.7,40,Saccade: 13619 ms,DOWN,9,0.5,55.57,47.46,"[ 5, 14, 99]",13619,13627,470.9,180.0,469.0,198.3,-87.4,.,0.43,A22,S22.wav,A22.png,17,24941498,preview,,,,,,,,,,,,,,,,,
p8,Trial: 31,p8.edf,.,31,Fixation: 13628 ms,851,13628,14478,"[ 5, 14, 99]",6,1195,2659,474.2,198.7,5,5,35.5,36.8,40,Saccade: 13619 ms,DOWN,9,0.5,55.57,47.46,"[ 5, 14, 99]",13619,13627,470.9,180,469,198.3,41,Saccade: 14479 ms,DOWN,113,11.22,99.33,372.69,"[ 23, 99]",14479,14591,478.5,199.2,537.4,609.4,108.08,UP,0.56,A22,S22.wav,A22.png,17,24941498,task,"[1, 2]","[Adverb, Verb]","[110, 280]","[260, 790]","[150, 510]","[0, 0]","[Da, befindet]","[It, is]","[0.0, 0.0]","[0.0, 0.0]","[nan, nan]","[nan, nan]","[da, befinden]","[nan, nan]","[nan, nan]","[nan, nan]","[nan, nan]"
p8,Trial: 31,p8.edf,14680,32,Fixation: 14592 ms,98,14592,14689,"[ 23, 99]",2,1171,98,548.1,628.1,1,1,35.55,37.15,41,Saccade: 14479 ms,DOWN,113,11.22,99.33,372.69,"[ 5, 14, 99]",14479,14591,478.5,199.2,537.4,609.4,42,Saccade: 14690 ms,RIGHT,26,3.59,138.07,237.71,"[ 15, 99]",14690,14715,548.1,634.6,655.2,708.0,100.16,UP,11.8,A22,S22.wav,A22.png,17,24941498,task,[3],[Pronoun_ref],[870],[1160],[290],[0],[sich],[nan],[0.0],[0.0],[nan],[nan],[sie],[nan],[nan],[nan],[nan]
p8,Trial: 31,p8.edf,.,33,Fixation: 14716 ms,555,14716,15270,"[ 15, 99]",7,1188,555,660.1,726.4,1,1,35.7,37.6,42,Saccade: 14690 ms,RIGHT,26,3.59,138.07,237.71,"[ 23, 99]",14690,14715,548.1,634.6,655.2,708,43,Saccade: 15271 ms,LEFT,69,12.56,181.96,526.02,"[ 11, 99]",15271,15339,665.5,729.4,210.1,682.2,140.09,LEFT,4.1,A22,S22.wav,A22.png,17,24941498,task,"[4, 5]","[Determiner_1, Noun_1]","[1300, 1480]","[1460, 1930]","[160, 450]","[0, 0]","[ein, Hund]","[a, dog]","[0.0, 0.0]","[0.0, 0.0]","[nan, dog_1]","[nan, S01_I022_E009]","[eine, Hund]","[nan, nan]","[nan, nan]","[nan, nan]","[nan, nan]"
p8,Trial: 31,p8.edf,.,34,Fixation: 15340 ms,328,15340,15667,"[ 11, 99]",5,1307,782,216.8,684.3,1,2,37.15,38.2,43,Saccade: 15271 ms,LEFT,69,12.56,181.96,526.02,[ 99],15271,15339,665.5,729.4,210.1,682.2,44,Saccade: 15668 ms,UP,22,0.96,43.77,84.67,"[ 11, 99]",15668,15689,215.5,681.5,204.8,646.5,-5.22,RIGHT,12.22,A22,S22.wav,A22.png,17,24941498,task,[5],[Noun_1],[1480],[1930],[450],[0],[Hund],[dog],[0.0],[0.0],[dog_1],[S01_I022_E009],[Hund],[nan],[nan],[nan],[nan]
p8,Trial: 31,p8.edf,.,35,Fixation: 15690 ms,454,15690,16143,"[ 11, 99]",5,1327,782,203.1,658.7,2,2,37.15,38.05,44,Saccade: 15668 ms,UP,22,0.96,43.77,84.67,"[ 11, 99]",15668,15689,215.5,681.5,204.8,646.5,45,Saccade: 16144 ms,RIGHT,39,4.15,106.46,169.49,[ 99],16144,16182,201.4,659.8,350.5,627.4,-61.22,DOWN,0.77,A22,S22.wav,A22.png,17,24941498,task,[6],[Preposition_1],[2310],[2615],[305],[0],[unter],[under],[0.0],[0.0],[nan],[nan],[unter],[nan],[nan],[nan],[nan]
p8,Trial: 31,p8.edf,.,36,Fixation: 16183 ms,213,16183,16395,[ 99],69,1343,20271,350.0,628.3,36,67,36.2,37.5,45,Saccade: 16144 ms,RIGHT,39,4.15,106.46,169.49,"[ 11, 99]",16144,16182,201.4,659.8,350.5,627.4,46,Saccade: 16396 ms,RIGHT,62,14.13,227.83,445.73,"[ 21, 99]",16396,16457,351.8,631.5,851.9,540.1,-168.64,LEFT,4.09,A22,S22.wav,A22.png,17,24941498,task,[7],[Determiner_2],[2640],[2870],[230],[0],[einem],[a],[0.0],[0.0],[nan],[nan],[eine],[nan],[nan],[nan],[nan]
p8,Trial: 31,p8.edf,.,37,Fixation: 16458 ms,244,16458,16701,"[ 21, 99]",3,1289,244,861.7,541.0,1,1,35.7,37.0,46,Saccade: 16396 ms,RIGHT,62,14.13,227.83,445.73,[ 99],16396,16457,351.8,631.5,851.9,540.1,47,Saccade: 16702 ms,LEFT,41,5.7,139.12,331.03,"[ 7, 99]",16702,16742,858.3,540.3,709.2,398.7,-170.65,LEFT,14.43,A22,S22.wav,A22.png,17,24941498,task,[8],[Noun_2],[2980],[3320],[340],[0],[Bett],[bed],[0.0],[1.0],[bed_1],[S01_I022_E002],[Bett],[nan],[nan],[nan],[nan]
p8,Trial: 31,p8.edf,.,38,Fixation: 16743 ms,437,16743,17179,"[ 7, 99]",3,1342,437,717.1,408.8,1,1,35.2,36.5,47,Saccade: 16702 ms,LEFT,41,5.7,139.12,331.03,"[ 21, 99]",16702,16742,858.3,540.3,709.2,398.7,48,Saccade: 17180 ms,LEFT,59,8.74,148.12,408.73,"[ 8, 99]",17180,17238,717.3,403.9,411.7,354.2,-41.41,RIGHT,5.44,A22,S22.wav,A22.png,17,24941498,task,[8],[Noun_2],[2980],[3320],[340],[0],[Bett],[bed],[0.0],[1.0],[bed_1],[S01_I022_E002],[Bett],[nan],[nan],[nan],[nan]
p8,Trial: 31,p8.edf,.,39,Fixation: 17239 ms,290,17239,17528,"[ 8, 99]",8,1332,290,400.0,355.9,1,1,35.65,36.7,48,Saccade: 17180 ms,LEFT,59,8.74,148.12,408.73,"[ 7, 99]",17180,17238,717.3,403.9,411.7,354.2,49,Saccade: 17529 ms,LEFT,51,8.05,157.93,436.11,"[ 3, 9, 99]",17529,17579,397.6,358.1,119.5,457.6,-9.17,RIGHT,9.07,A22,S22.wav,A22.png,17,24941498,task,[9],[Preposition_2_of_RC],[3700],[3880],[180],[0],[auf],[on],[0.0],[0.0],[nan],[nan],[auf],[nan],[nan],[nan],[nan]
p8,Trial: 31,p8.edf,.,40,Fixation: 17580 ms,143,17580,17722,"[ 3, 9, 99]",11,1340,766,118.2,456.8,1,3,37.55,37.75,49,Saccade: 17529 ms,LEFT,51,8.05,157.93,436.11,"[ 8, 99]",17529,17579,397.6,358.1,119.5,457.6,50,Saccade: 17723 ms,UP,26,2.41,92.65,142.22,"[ 3, 9, 99]",17723,17748,115.1,459.4,143.8,373.3,19.39,RIGHT,8.16,A22,S22.wav,A22.png,17,24941498,task,[10],[Relative Clause Pronoun],[4035],[4380],[345],[1],[dem],[that],[0.0],[0.0],[nan],[nan],[die],[nan],[nan],[nan],[nan]
p8,Trial: 31,p8.edf,17810,41,Fixation: 17749 ms,407,17749,18155,"[ 3, 9, 99]",11,1361,766,132.5,377.5,2,3,37.35,37.6,50,Saccade: 17723 ms,UP,26,2.41,92.65,142.22,"[ 3, 9, 99]",17723,17748,115.1,459.4,143.8,373.3,51,Saccade: 18156 ms,DOWN,28,2.93,104.53,191.59,"[ 3, 18, 99]",18156,18183,128.2,382.0,180.0,478.7,-100.28,DOWN,2.14,A22,S22.wav,A22.png,17,24941498,task,"[10, 11]","[Relative Clause Pronoun, Relative Clause Pers. Pronoun]","[4035, 4390]","[4380, 4540]","[345, 150]","[1, 1]","[dem, sie]","[that, she]","[0.0, 0.0]","[0.0, 0.0]","[nan, woman_1]","[nan, S01_I022_E007]","[die, sie]","[nan, nan]","[nan, nan]","[nan, nan]","[nan, nan]"
p8,Trial: 31,p8.edf,.,42,Fixation: 18184 ms,216,18184,18399,"[ 3, 18, 99]",11,1337,766,183.9,466.6,3,3,37.0,37.5,51,Saccade: 18156 ms,DOWN,28,2.93,104.53,191.59,"[ 3, 9, 99]",18156,18183,128.2,382,180,478.7,52,Saccade: 18400 ms,RIGHT,70,23.07,329.56,553.58,"[ 2, 99]",18400,18469,184.1,467.2,1008.8,272.6,120.23,UP,2.75,A22,S22.wav,A22.png,17,24941498,task,[12],[Relative Clause Adverb],[4610],[5520],[910],[0],[entspannt],[relaxed],[0.0],[0.0],[nan],[nan],[entspannt],[nan],[nan],[nan],[nan]
p8,Trial: 31,p8.edf,.,43,Fixation: 18470 ms,273,18470,18742,"[ 2, 99]",6,1285,273,1017.2,264.3,1,1,36.4,37.15,52,Saccade: 18400 ms,RIGHT,70,23.07,329.56,553.58,"[ 3, 18, 99]",18400,18469,184.1,467.2,1008.8,272.6,53,Saccade: 18743 ms,LEFT,27,4.21,155.82,322.04,"[ 6, 99]",18743,18769,1015.6,267.6,868.4,304.2,-166.58,LEFT,23.34,A22,S22.wav,A22.png,17,24941498,task,[12],[Relative Clause Adverb],[4610],[5520],[910],[0],[entspannt],[relaxed],[0.0],[0.0],[nan],[nan],[entspannt],[nan],[nan],[nan],[nan]
p8,Trial: 31,p8.edf,18865,44,Fixation: 18770 ms,285,18770,19054,"[ 6, 99]",2,1323,285,876.8,304.2,1,1,35.7,36.7,53,Saccade: 18743 ms,LEFT,27,4.21,155.82,322.04,"[ 2, 99]",18743,18769,1015.6,267.6,868.4,304.2,54,Saccade: 19055 ms,LEFT,140,15.15,108.25,489.42,[ 99],19055,19194,878.3,310.9,338.4,373.1,15.51,RIGHT,4.04,A22,S22.wav,A22.png,17,24941498,task,[12],[Relative Clause Adverb],[4610],[5520],[910],[0],[entspannt],[relaxed],[0.0],[0.0],[nan],[nan],[entspannt],[nan],[nan],[nan],[nan]
p8,Trial: 31,p8.edf,.,45,Fixation: 19195 ms,212,19195,19406,"[ 8, 99]",8,1375,212,359.4,410.7,1,1,35.95,36.9,54,Saccade: 19055 ms,LEFT,140,15.15,108.25,489.42,"[ 6, 13, 99]",19055,19194,878.3,310.9,338.4,373.1,55,Saccade: 19407 ms,DOWN,43,7.81,181.59,425.86,"[ 3, 99]",19407,19449,358.3,414.1,157.0,622.5,11.33,RIGHT,14.73,A22,S22.wav,A22.png,17,24941498,task,[13],[Relative Clause Verb],[5665],[6002],[337],[0],[liegt],[lies],[1.0],[0.0],[nan],[nan],[liegen],[nan],[nan],[nan],[nan]
p8,Trial: 31,p8.edf,.,46,Fixation: 19450 ms,255,19450,19704,"[ 3, 99]",11,1386,255,151.6,620.8,1,1,37.5,38.15,55,Saccade: 19407 ms,DOWN,43,7.81,181.59,425.86,"[ 8, 99]",19407,19449,358.3,414.1,157,622.5,56,Saccade: 19705 ms,RIGHT,21,1.96,93.31,149.71,"[ 11, 99]",19705,19725,146.6,625.5,199.5,677.3,44.7,RIGHT,7.96,A22,S22.wav,A22.png,17,24941498,task,[13],[Relative Clause Verb],[5665],[6002],[337],[0],[liegt],[lies],[1.0],[0.0],[nan],[nan],[liegen],[nan],[nan],[nan],[nan]
p8,Trial: 31,p8.edf,19754,47,Fixation: 19726 ms,294,19726,20019,"[ 11, 99]",5,1378,1955,195.0,671.3,1,2,37.25,38.2,56,Saccade: 19705 ms,RIGHT,21,1.96,93.31,149.71,"[ 3, 99]",19705,19725,146.6,625.5,199.5,677.3,57,Saccade: 20020 ms,LEFT,15,0.82,54.52,62.28,"[ 11, 99]",20020,20034,193.6,673.6,167.1,658.0,131.28,UP,1.76,A22,S22.wav,A22.png,17,24941498,post,,,,,,,,,,,,,,,,,
p8,Trial: 31,p8.edf,.,48,Fixation: 20035 ms,1661,20035,21695,"[ 11, 99]",5,1385,1955,183.1,661.8,2,2,37.4,38.2,57,Saccade: 20020 ms,LEFT,15,0.82,54.52,62.28,"[ 11, 99]",20020,20034,193.6,673.6,167.1,658,58,Saccade: 21696 ms,RIGHT,60,11.01,183.55,426.51,"[ 15, 99]",21696,21755,191.4,667.5,581.3,773.9,-37.96,.,0.4,A22,S22.wav,A22.png,17,24941498,post,,,,,,,,,,,,,,,,,
