RECORDING_SESSION_LABEL,TRIAL_LABEL,DATA_FILE,CURRENT_FIX_MSG_TIME_1,CURRENT_FIX_INDEX,CURRENT_FIX_LABEL,CURRENT_FIX_DURATION,CURRENT_FIX_START,CURRENT_FIX_END,CURRENT_FIX_INTEREST_AREAS,CURRENT_FIX_INTEREST_AREA_FIX_COUNT,CURRENT_FIX_PUPIL,CURRENT_FIX_RUN_DWELL_TIME,CURRENT_FIX_X,CURRENT_FIX_Y,CURRENT_FIX_RUN_INDEX,CURRENT_FIX_RUN_SIZE,CURRENT_FIX_X_RESOLUTION,CURRENT_FIX_Y_RESOLUTION,PREVIOUS_SAC_INDEX,PREVIOUS_SAC_LABEL,PREVIOUS_SAC_DIRECTION,PREVIOUS_SAC_DURATION,PREVIOUS_SAC_AMPLITUDE,PREVIOUS_SAC_AVG_VELOCITY,PREVIOUS_SAC_PEAK_VELOCITY,PREVIOUS_SAC_START_INTEREST_AREAS,PREVIOUS_SAC_START_TIME,PREVIOUS_SAC_END_TIME,PREVIOUS_SAC_START_X,PREVIOUS_SAC_START_Y,PREVIOUS_SAC_END_X,PREVIOUS_SAC_END_Y,NEXT_SAC_INDEX,NEXT_SAC_LABEL,NEXT_SAC_DIRECTION,NEXT_SAC_DURATION,NEXT_SAC_AMPLITUDE,NEXT_SAC_AVG_VELOCITY,NEXT_SAC_PEAK_VELOCITY,NEXT_SAC_END_INTEREST_AREAS,NEXT_SAC_START_TIME,NEXT_SAC_END_TIME,NEXT_SAC_START_X,NEXT_SAC_START_Y,NEXT_SAC_END_X,NEXT_SAC_END_Y,PREVIOUS_FIX_ANGLE,PREVIOUS_FIX_DIRECTION,PREVIOUS_FIX_DISTANCE,ItemNO,audiofilename,imagefilename,TRIAL_INDEX,TRIAL_START_TIME,viewtype,word_index,Label,word_onset,word_offset,word_duration,Continuation,wordDE,wordEN,REFWord,TargetObj,ObjectLabel,ObjectID,LemmaDE,LingIndex,DepS,pos_1,pos_2
p7,Trial: 29,p7.edf,.,1,Fixation: 3532 ms,135,3532,3666,[ 99],47,800,15222,645.5,527.3,1,46,35.3,36.75,5,Saccade: 3473 ms,UP,59,10.37,175.83,310.76,[ ],3473,3531,619.4,933.3,638.7,539.1,6,Saccade: 3667 ms,RIGHT,53,7.65,144.36,373.03,"[ 2, 4, 99]",3667,3719,646.3,527.2,850.5,342.4,-88.8,DOWN,11.45,A11,S11.wav,A11.png,16,19157165,preview,,,,,,,,,,,,,,,,,
p7,Trial: 29,p7.edf,.,2,Fixation: 3720 ms,402,3720,4121,"[ 2, 4, 99]",6,863,402,868.4,327.5,1,1,35.6,36.7,6,Saccade: 3667 ms,RIGHT,53,7.65,144.36,373.03,[ 99],3667,3719,646.3,527.2,850.5,342.4,7,Saccade: 4122 ms,LEFT,65,9.35,143.85,426.81,"[ 17, 21, 99]",4122,4186,871.9,328.2,542,294.9,-139.13,LEFT,8.31,A11,S11.wav,A11.png,16,19157165,preview,,,,,,,,,,,,,,,,,
p7,Trial: 29,p7.edf,.,3,Fixation: 4187 ms,196,4187,4382,"[ 17, 21, 99]",9,856,196,541.1,297.1,1,1,35.3,36.5,7,Saccade: 4122 ms,LEFT,65,9.35,143.85,426.81,"[ 2, 4, 99]",4122,4186,871.9,328.2,542,294.9,8,Saccade: 4383 ms,LEFT,49,7.42,151.34,425.41,"[ 5, 13, 99]",4383,4431,540.5,300,275.6,318,-5.14,RIGHT,9.27,A11,S11.wav,A11.png,16,19157165,preview,,,,,,,,,,,,,,,,,
p7,Trial: 29,p7.edf,.,4,Fixation: 4432 ms,175,4432,4606,"[ 5, 13, 99]",8,863,175,261.7,321.9,1,1,36.35,37.1,8,Saccade: 4383 ms,LEFT,49,7.42,151.34,425.41,"[ 17, 21, 99]",4383,4431,540.5,300,275.6,318,9,Saccade: 4607 ms,RIGHT,263,9.49,36.09,625.39,"[ 17, 21, 99]",4607,4869,259.2,324.3,597,286.4,4.94,RIGHT,7.83,A11,S11.wav,A11.png,16,19157165,preview,,,,,,,,,,,,,,,,,
p7,Trial: 29,p7.edf,.,5,Fixation: 5100 ms,228,5100,5327,"[ 16, 21, 99]",1,837,228,630.9,280.6,1,1,35.2,36.5,10,Saccade: 5071 ms,RIGHT,29,0.82,28.11,118.1,"[ 21, 99]",5071,5099,595.1,274.8,623.6,278.3,11,Saccade: 5328 ms,RIGHT,39,4.97,127.55,286.68,"[ 15, 99]",5328,5366,631.8,277.6,782,182.8,-173.79,LEFT,10.38,A11,S11.wav,A11.png,16,19157165,preview,,,,,,,,,,,,,,,,,
p7,Trial: 29,p7.edf,.,6,Fixation: 5367 ms,555,5367,5921,"[ 15, 99]",4,802,555,784.4,184.5,1,1,35.5,36.8,11,Saccade: 5328 ms,RIGHT,39,4.97,127.55,286.68,"[ 16, 21, 99]",5328,5366,631.8,277.6,782,182.8,12,Saccade: 5922 ms,LEFT,58,9.87,170.25,392.3,[ 99],5922,5979,787.2,192.2,436.6,165.7,-148.87,LEFT,5.07,A11,S11.wav,A11.png,16,19157165,preview,,,,,,,,,,,,,,,,,
p7,Trial: 29,p7.edf,.,7,Fixation: 5980 ms,109,5980,6088,[ 99],47,783,15222,422.3,169.1,7,46,35.7,36.9,12,Saccade: 5922 ms,LEFT,58,9.87,170.25,392.3,"[ 15, 99]",5922,5979,787.2,192.2,436.6,165.7,13,Saccade: 6089 ms,LEFT,29,6.31,217.62,418,"[ 22, 99]",6089,6117,420.8,171,191.4,168.9,-2.35,RIGHT,10.18,A11,S11.wav,A11.png,16,19157165,preview,,,,,,,,,,,,,,,,,
p7,Trial: 29,p7.edf,.,8,Fixation: 6118 ms,263,6118,6380,"[ 22, 99]",3,769,465,178.0,174.4,1,2,37.05,37.65,13,Saccade: 6089 ms,LEFT,29,6.31,217.62,418,[ 99],6089,6117,420.8,171,191.4,168.9,14,Saccade: 6381 ms,RIGHT,40,3.89,97.21,197.37,"[ 22, 99]",6381,6420,176,179.7,291.3,93,1.21,RIGHT,6.72,A11,S11.wav,A11.png,16,19157165,preview,,,,,,,,,,,,,,,,,
p7,Trial: 29,p7.edf,.,9,Fixation: 6421 ms,202,6421,6622,"[ 22, 99]",3,773,465,292.9,97.3,2,2,36.45,37.55,14,Saccade: 6381 ms,RIGHT,40,3.89,97.21,197.37,"[ 22, 99]",6381,6420,176,179.7,291.3,93,15,Saccade: 6623 ms,RIGHT,63,12.46,197.73,392.51,"[ 15, 99]",6623,6685,293.7,98.9,741.9,114.2,-146.74,LEFT,3.74,A11,S11.wav,A11.png,16,19157165,preview,,,,,,,,,,,,,,,,,
p7,Trial: 29,p7.edf,.,10,Fixation: 6686 ms,590,6686,7275,"[ 15, 99]",4,801,1552,763.8,118.6,1,3,35.5,37.0,15,Saccade: 6623 ms,RIGHT,63,12.46,197.73,392.51,"[ 22, 99]",6623,6685,293.7,98.9,741.9,114.2,16,Saccade: 7276 ms,RIGHT,24,2.66,110.97,191.38,"[ 15, 99]",7276,7299,760.4,120.5,850.4,151.5,177.5,LEFT,13.1,A11,S11.wav,A11.png,16,19157165,preview,,,,,,,,,,,,,,,,,
p7,Trial: 29,p7.edf,.,11,Fixation: 7300 ms,616,7300,7915,"[ 15, 99]",4,793,1552,852.5,154.8,2,3,35.7,37.0,16,Saccade: 7276 ms,RIGHT,24,2.66,110.97,191.38,"[ 15, 99]",7276,7299,760.4,120.5,850.4,151.5,17,Saccade: 7916 ms,UP,23,1.97,85.53,137.67,"[ 15, 99]",7916,7938,850.2,161.7,804.9,106,158.56,LEFT,2.68,A11,S11.wav,A11.png,16,19157165,preview,,,,,,,,,,,,,,,,,
p7,Trial: 29,p7.edf,.,12,Fixation: 7939 ms,346,7939,8284,"[ 15, 99]",4,782,1552,806.0,107.4,3,3,35.7,37.1,17,Saccade: 7916 ms,UP,23,1.97,85.53,137.67,"[ 15, 99]",7916,7938,850.2,161.7,804.9,106,18,Saccade: 8285 ms,DOWN,52,9.54,183.42,365.98,"[ 3, 4, 99]",8285,8336,805.3,107.9,956.4,424.9,-44.49,RIGHT,1.83,A11,S11.wav,A11.png,16,19157165,preview,,,,,,,,,,,,,,,,,
p7,Trial: 29,p7.edf,.,13,Fixation: 8337 ms,314,8337,8650,"[ 3, 4, 99]",1,769,314,959.1,447.2,1,1,36.1,37.0,18,Saccade: 8285 ms,DOWN,52,9.54,183.42,365.98,"[ 15, 99]",8285,8336,805.3,107.9,956.4,424.9,19,Saccade: 8651 ms,UP,118,2.59,21.98,561.05,"[ 2, 4, 99]",8651,8768,965.8,459.7,905.6,386.6,114.94,UP,10.11,A11,S11.wav,A11.png,16,19157165,preview,,,,,,,,,,,,,,,,,
p7,Trial: 29,p7.edf,.,14,Fixation: 8958 ms,106,8958,9063,"[ 2, 4, 99]",6,725,106,888.4,344.4,1,1,35.7,36.7,20,Saccade: 8942 ms,.,16,0.44,27.63,44.84,"[ 2, 4, 99]",8942,8957,895.3,356.7,885.1,344.3,21,Saccade: 9064 ms,DOWN,52,8.84,170.04,425.93,[ 99],9064,9115,889.1,346.7,940,671.4,-54.78,DOWN,3.41,A11,S11.wav,A11.png,16,19157165,preview,,,,,,,,,,,,,,,,,
p7,Trial: 29,p7.edf,.,15,Fixation: 9116 ms,256,9116,9371,"[ 19, 99]",1,692,256,936.4,699.2,1,1,36.4,37.8,21,Saccade: 9064 ms,DOWN,52,8.84,170.04,425.93,"[ 2, 4, 99]",9064,9115,889.1,346.7,940,671.4,22,Saccade: 9372 ms,UP,183,3.6,19.67,599.45,"[ 4, 12, 99]",9372,9554,931.4,707.1,958.7,574.7,97.96,UP,9.62,A11,S11.wav,A11.png,16,19157165,preview,,,,,,,,,,,,,,,,,
p7,Trial: 29,p7.edf,.,16,Fixation: 10058 ms,260,10058,10317,"[ 5, 10, 13, 99]",8,791,914,314.7,478.5,1,3,36.2,37.1,23,Saccade: 9981 ms,LEFT,77,17.62,228.87,588.1,"[ 4, 12, 99]",9981,10057,941,564.4,309.6,477.2,24,Saccade: 10318 ms,LEFT,27,4.37,161.83,345.99,"[ 5, 7, 99]",10318,10344,310.6,477.5,157.6,527.1,-18.99,RIGHT,18.11,A11,S11.wav,A11.png,16,19157165,preview,,,,,,,,,,,,,,,,,
p7,Trial: 29,p7.edf,.,17,Fixation: 10345 ms,281,10345,10625,"[ 5, 7, 99]",8,811,914,158.8,528.9,2,3,37.3,37.7,24,Saccade: 10318 ms,LEFT,27,4.37,161.83,345.99,"[ 5, 10, 13, 99]",10318,10344,310.6,477.5,157.6,527.1,25,Saccade: 10626 ms,UP,210,5.38,25.63,769.83,"[ 5, 13, 99]",10626,10835,164.3,535.2,250.5,353.9,17.62,RIGHT,4.45,A11,S11.wav,A11.png,16,19157165,preview,,,,,,,,,,,,,,,,,
p7,Trial: 29,p7.edf,.,18,Fixation: 11000 ms,373,11000,11372,"[ 5, 13, 99]",8,861,914,255.2,330.3,3,3,36.4,37.1,26,Saccade: 10979 ms,UP,21,0.62,29.37,72.09,"[ 5, 13, 99]",10979,10999,255.9,353.9,258.7,331.2,27,Saccade: 11373 ms,RIGHT,64,6.81,106.46,245.35,"[ 17, 21, 99]",11373,11436,259.9,330.2,503,305.8,-116.23,DOWN,5.92,A11,S11.wav,A11.png,16,19157165,preview,,,,,,,,,,,,,,,,,
p7,Trial: 29,p7.edf,.,19,Fixation: 11437 ms,388,11437,11824,"[ 17, 21, 99]",9,884,534,500.4,305.3,1,2,35.3,36.6,27,Saccade: 11373 ms,RIGHT,64,6.81,106.46,245.35,"[ 5, 13, 99]",11373,11436,259.9,330.2,503,305.8,28,Saccade: 11825 ms,UP,17,0.94,55.31,73.94,"[ 17, 21, 99]",11825,11841,501.1,303.7,498.4,269.4,-174.34,LEFT,6.87,A11,S11.wav,A11.png,16,19157165,preview,,,,,,,,,,,,,,,,,
p7,Trial: 29,p7.edf,.,20,Fixation: 11842 ms,146,11842,11987,"[ 17, 21, 99]",9,896,534,500.6,277.6,2,2,35.4,36.6,28,Saccade: 11825 ms,UP,17,0.94,55.31,73.94,"[ 17, 21, 99]",11825,11841,501.1,303.7,498.4,269.4,29,Saccade: 11988 ms,RIGHT,44,4.13,93.91,300.66,"[ 21, 99]",11988,12031,500.2,279.1,645.2,295.5,-90.43,DOWN,0.76,A11,S11.wav,A11.png,16,19157165,preview,,,,,,,,,,,,,,,,,
p7,Trial: 29,p7.edf,.,21,Fixation: 12032 ms,372,12032,12403,"[ 14, 21, 99]",3,885,372,662.6,293.1,1,1,35.2,36.5,29,Saccade: 11988 ms,RIGHT,44,4.13,93.91,300.66,"[ 17, 21, 99]",11988,12031,500.2,279.1,645.2,295.5,30,Saccade: 12404 ms,LEFT,187,0.99,5.3,746.25,"[ 21, 99]",12404,12590,659.9,304.8,627,292.7,174.72,LEFT,4.61,A11,S11.wav,A11.png,16,19157165,preview,,,,,,,,,,,,,,,,,
p7,Trial: 29,p7.edf,13134,22,Fixation: 13122 ms,338,13122,13459,"[ 22, 99]",3,827,338,187.6,194.3,1,1,37.05,37.55,31,Saccade: 13054 ms,LEFT,68,12.58,184.99,524.08,"[ 21, 99]",13054,13121,623.1,289.2,179,189,32,Saccade: 13460 ms,RIGHT,70,17.41,248.77,514.07,"[ 11, 99]",13460,13529,187.7,204.1,718.6,552.9,-11.47,RIGHT,13.42,A11,S11.wav,A11.png,16,19157165,preview,,,,,,,,,,,,,,,,,
p7,Trial: 29,p7.edf,.,23,Fixation: 13530 ms,155,13530,13684,"[ 11, 99]",5,856,611,740.2,568.0,1,3,35.45,36.85,32,Saccade: 13460 ms,RIGHT,70,17.41,248.77,514.07,"[ 22, 99]",13460,13529,187.7,204.1,718.6,552.9,33,Saccade: 13685 ms,UP,28,1.29,46,137.19,"[ 6, 11, 99]",13685,13712,741.6,566.3,734.4,519.5,146.62,LEFT,18.26,A11,S11.wav,A11.png,16,19157165,task,,break,,,,,,,,,,,,,,,
p7,Trial: 29,p7.edf,.,24,Fixation: 13713 ms,323,13713,14035,"[ 6, 11, 99]",4,895,456,728.9,519.7,1,2,35.4,36.7,33,Saccade: 13685 ms,UP,28,1.29,46,137.19,"[ 11, 99]",13685,13712,741.6,566.3,734.4,519.5,34,Saccade: 14036 ms,RIGHT,291,5.09,17.51,749.9,"[ 4, 99]",14036,14326,725.8,522.7,902.9,482.3,-76.35,DOWN,1.35,A11,S11.wav,A11.png,16,19157165,task,[2],[Verb],[260],[820],[560],[0],[befindet],[is],[0.0],[0.0],[nan],[nan],[befinden],[nan],[nan],[nan],[nan]
p7,Trial: 29,p7.edf,.,25,Fixation: 14795 ms,133,14795,14927,"[ 6, 11, 99]",4,966,456,717.6,502.0,2,2,35.3,36.7,35,Saccade: 14749 ms,LEFT,46,4.5,97.87,315.43,"[ 2, 4, 99]",14749,14794,889.4,479.9,730,494.8,36,Saccade: 14928 ms,LEFT,73,12.85,176.07,489.84,"[ 5, 99]",14928,15000,717.1,503.5,255.9,518.5,-56.46,DOWN,0.58,A11,S11.wav,A11.png,16,19157165,task,,break,,,,,,,,,,,,,,,
p7,Trial: 29,p7.edf,.,26,Fixation: 15001 ms,159,15001,15159,"[ 5, 13, 99]",8,982,891,258.0,516.4,1,3,36.5,37.35,36,Saccade: 14928 ms,LEFT,73,12.85,176.07,489.84,"[ 6, 11, 99]",14928,15000,717.1,503.5,255.9,518.5,37,Saccade: 15160 ms,UP,25,1.69,67.62,141.03,"[ 5, 10, 13, 99]",15160,15184,258.8,519.3,286.8,463.3,1.74,RIGHT,12.81,A11,S11.wav,A11.png,16,19157165,task,[5],[Noun_1],[1510],[1820],[310],[0],[Buch],[book],[0.0],[1.0],[book_1],[S01_I011_E002],[Buch],[nan],[nan],[nan],[nan]
p7,Trial: 29,p7.edf,.,27,Fixation: 15185 ms,371,15185,15555,"[ 5, 10, 13, 99]",8,965,891,286.7,464.7,2,3,36.3,37.1,37,Saccade: 15160 ms,UP,25,1.69,67.62,141.03,"[ 5, 99]",15160,15184,258.8,519.3,286.8,463.3,38,Saccade: 15556 ms,LEFT,41,3.17,77.22,252.14,"[ 5, 7, 99]",15556,15596,288.3,468,185.7,523.5,-119.58,DOWN,1.6,A11,S11.wav,A11.png,16,19157165,task,,break,,,,,,,,,,,,,,,
p7,Trial: 29,p7.edf,15810,28,Fixation: 15597 ms,361,15597,15957,"[ 5, 7, 99]",8,1016,891,170.9,530.4,3,3,37.15,37.65,38,Saccade: 15556 ms,LEFT,41,3.17,77.22,252.14,"[ 5, 10, 13, 99]",15556,15596,288.3,468,185.7,523.5,39,Saccade: 15958 ms,RIGHT,71,13.36,188.1,316.72,[ 99],15958,16028,169.4,539,653.1,518.2,29.14,RIGHT,3.61,A11,S11.wav,A11.png,16,19157165,task,"[6, 7]","[Preposition_1, Determiner_2]","[2200, 2390]","[2350, 2600]","[150, 210]","[0, 0]","[auf, einem]","[on, a]","[0.0, 0.0]","[0.0, 0.0]","[nan, nan]","[nan, nan]","[auf, eine]","[nan, nan]","[nan, nan]","[nan, nan]","[nan, nan]"
p7,Trial: 29,p7.edf,.,29,Fixation: 16029 ms,606,16029,16634,"[ 6, 11, 99]",4,952,606,685.3,519.0,1,1,35.3,36.7,39,Saccade: 15958 ms,RIGHT,71,13.36,188.1,316.72,"[ 5, 7, 99]",15958,16028,169.4,539,653.1,518.2,40,Saccade: 16635 ms,RIGHT,244,7.32,29.99,757.7,"[ 3, 4, 99]",16635,16878,689.5,526,943.8,465.8,-178.76,LEFT,14.2,A11,S11.wav,A11.png,16,19157165,task,[8],[Noun_2],[2610],[3200],[590],[0],[Sofa],[sofa],[0.0],[0.0],[sofa_1],[S01_I011_E003],[Sofa],[nan],[nan],[nan],[nan]
p7,Trial: 29,p7.edf,.,30,Fixation: 17117 ms,300,17117,17416,"[ 2, 4, 99]",6,889,1771,883.7,419.0,1,4,35.75,36.8,41,Saccade: 17085 ms,LEFT,32,1.44,44.95,154.21,"[ 3, 4, 99]",17085,17116,937.5,451,892.5,425,42,Saccade: 17417 ms,UP,40,2.15,53.64,197.91,"[ 2, 4, 99]",17417,17456,883.5,416.5,878.8,337.8,-154.02,LEFT,6.21,A11,S11.wav,A11.png,16,19157165,task,[11],[Relative Clause Adverb],[3830],[4480],[650],[0],[ruhig],[quietly],[0.0],[0.0],[nan],[nan],[ruhig],[nan],[nan],[nan],[nan]
p7,Trial: 29,p7.edf,17745,31,Fixation: 17457 ms,841,17457,18297,"[ 2, 4, 99]",6,953,1771,872.5,323.1,2,4,35.65,36.7,42,Saccade: 17417 ms,UP,40,2.15,53.64,197.91,"[ 2, 4, 99]",17417,17456,883.5,416.5,878.8,337.8,43,Saccade: 18298 ms,DOWN,32,2.84,88.77,232.23,"[ 2, 4, 99]",18298,18329,865.8,321.4,911.1,414.8,-83.14,DOWN,2.63,A11,S11.wav,A11.png,16,19157165,task,"[11, 12]","[Relative Clause Adverb, Relative Clause Verb]","[3830, 4545]","[4480, 4960]","[650, 415]","[0, 0]","[ruhig, liest]","[quietly, reads]","[0.0, 1.0]","[0.0, 0.0]","[nan, nan]","[nan, nan]","[ruhig, lesen]","[nan, nan]","[nan, nan]","[nan, nan]","[nan, nan]"
p7,Trial: 29,p7.edf,.,32,Fixation: 18330 ms,503,18330,18832,"[ 2, 4, 99]",6,1003,1771,914.8,419.2,3,4,35.85,36.85,43,Saccade: 18298 ms,DOWN,32,2.84,88.77,232.23,"[ 2, 4, 99]",18298,18329,865.8,321.4,911.1,414.8,44,Saccade: 18833 ms,DOWN,236,0.81,3.44,890.71,"[ 3, 4, 99]",18833,19068,914.8,424.9,932.3,448.9,114.36,UP,2.87,A11,S11.wav,A11.png,16,19157165,post,,,,,,,,,,,,,,,,,
