RECORDING_SESSION_LABEL,TRIAL_LABEL,DATA_FILE,CURRENT_FIX_MSG_TIME_1,CURRENT_FIX_INDEX,CURRENT_FIX_LABEL,CURRENT_FIX_DURATION,CURRENT_FIX_START,CURRENT_FIX_END,CURRENT_FIX_INTEREST_AREAS,CURRENT_FIX_INTEREST_AREA_FIX_COUNT,CURRENT_FIX_PUPIL,CURRENT_FIX_RUN_DWELL_TIME,CURRENT_FIX_X,CURRENT_FIX_Y,CURRENT_FIX_RUN_INDEX,CURRENT_FIX_RUN_SIZE,CURRENT_FIX_X_RESOLUTION,CURRENT_FIX_Y_RESOLUTION,PREVIOUS_SAC_INDEX,PREVIOUS_SAC_LABEL,PREVIOUS_SAC_DIRECTION,PREVIOUS_SAC_DURATION,PREVIOUS_SAC_AMPLITUDE,PREVIOUS_SAC_AVG_VELOCITY,PREVIOUS_SAC_PEAK_VELOCITY,PREVIOUS_SAC_START_INTEREST_AREAS,PREVIOUS_SAC_START_TIME,PREVIOUS_SAC_END_TIME,PREVIOUS_SAC_START_X,PREVIOUS_SAC_START_Y,PREVIOUS_SAC_END_X,PREVIOUS_SAC_END_Y,NEXT_SAC_INDEX,NEXT_SAC_LABEL,NEXT_SAC_DIRECTION,NEXT_SAC_DURATION,NEXT_SAC_AMPLITUDE,NEXT_SAC_AVG_VELOCITY,NEXT_SAC_PEAK_VELOCITY,NEXT_SAC_END_INTEREST_AREAS,NEXT_SAC_START_TIME,NEXT_SAC_END_TIME,NEXT_SAC_START_X,NEXT_SAC_START_Y,NEXT_SAC_END_X,NEXT_SAC_END_Y,PREVIOUS_FIX_ANGLE,PREVIOUS_FIX_DIRECTION,PREVIOUS_FIX_DISTANCE,ItemNO,audiofilename,imagefilename,TRIAL_INDEX,TRIAL_START_TIME,viewtype,word_index,Label,word_onset,word_offset,word_duration,Continuation,wordDE,wordEN,REFWord,TargetObj,ObjectLabel,ObjectID,LemmaDE,LingIndex,DepS,pos_1,pos_2
p10,Trial: 32,p10.edf,.,1,Fixation: 3936 ms,116,3936,4051,"[ 2, 99]",12,897,258,277.7,239.8,1,2,36.35,37.15,5,Saccade: 3877 ms,LEFT,59,8.48,143.79,350.49,"[ 21, 23, 99]",3877,3935,572.6,312.6,277.9,237.0,6,Saccade: 4052 ms,LEFT,16,0.8,50.27,64.45,"[ 2, 99]",4052,4067,280.1,241.1,255.0,225.7,-61.9,DOWN,20.93,A12,S12.wav,A12.png,15,4922453,preview,,,,,,,,,,,,,,,,,
p10,Trial: 32,p10.edf,.,2,Fixation: 4068 ms,142,4068,4209,"[ 2, 99]",12,896,258,258.9,231.4,2,2,36.5,37.3,6,Saccade: 4052 ms,LEFT,16,0.8,50.27,64.45,"[ 2, 99]",4052,4067,280.1,241.1,255.0,225.7,7,Saccade: 4210 ms,RIGHT,57,12.51,219.54,518.47,"[ 3, 99]",4210,4266,253.1,228.6,702.3,222.3,-23.62,RIGHT,0.56,A12,S12.wav,A12.png,15,4922453,preview,,,,,,,,,,,,,,,,,
p10,Trial: 32,p10.edf,.,3,Fixation: 4267 ms,170,4267,4436,"[ 3, 99]",8,851,170,706.6,235.0,1,1,35.3,36.6,7,Saccade: 4210 ms,RIGHT,57,12.51,219.54,518.47,"[ 2, 99]",4210,4266,253.1,228.6,702.3,222.3,8,Saccade: 4437 ms,RIGHT,25,3.82,152.65,289.16,"[ 13, 99]",4437,4461,704.4,240.1,813.4,322.4,179.55,LEFT,12.47,A12,S12.wav,A12.png,15,4922453,preview,,,,,,,,,,,,,,,,,
p10,Trial: 32,p10.edf,.,4,Fixation: 4462 ms,153,4462,4614,"[ 13, 99]",22,842,153,807.9,321.9,1,1,35.4,36.6,8,Saccade: 4437 ms,RIGHT,25,3.82,152.65,289.16,"[ 3, 99]",4437,4461,704.4,240.1,813.4,322.4,9,Saccade: 4615 ms,LEFT,21,1.52,72.19,121.49,"[ 3, 99]",4615,4635,806.5,324.8,756.6,304.6,140.36,LEFT,3.72,A12,S12.wav,A12.png,15,4922453,preview,,,,,,,,,,,,,,,,,
p10,Trial: 32,p10.edf,.,5,Fixation: 4636 ms,308,4636,4943,"[ 3, 27, 99]",8,871,489,761.0,311.5,1,2,35.3,36.5,9,Saccade: 4615 ms,LEFT,21,1.52,72.19,121.49,"[ 13, 99]",4615,4635,806.5,324.8,756.6,304.6,10,Saccade: 4944 ms,RIGHT,17,1.02,60.27,80.06,"[ 3, 99]",4944,4960,760.6,312.5,796.8,311.3,-12.1,RIGHT,1.36,A12,S12.wav,A12.png,15,4922453,preview,,,,,,,,,,,,,,,,,
p10,Trial: 32,p10.edf,.,6,Fixation: 4961 ms,181,4961,5141,"[ 3, 27, 99]",8,867,489,789.7,309.7,2,2,35.4,36.6,10,Saccade: 4944 ms,RIGHT,17,1.02,60.27,80.06,"[ 3, 27, 99]",4944,4960,760.6,312.5,796.8,311.3,11,Saccade: 5142 ms,RIGHT,21,1.53,73.02,118.9,"[ 13, 99]",5142,5162,789.0,307.0,843.3,309.6,-176.53,LEFT,0.81,A12,S12.wav,A12.png,15,4922453,preview,,,,,,,,,,,,,,,,,
p10,Trial: 32,p10.edf,.,7,Fixation: 5163 ms,230,5163,5392,"[ 13, 99]",22,853,230,836.0,306.2,1,1,35.5,36.7,11,Saccade: 5142 ms,RIGHT,21,1.53,73.02,118.9,"[ 3, 27, 99]",5142,5162,789.0,307.0,843.3,309.6,12,Saccade: 5393 ms,LEFT,24,2.25,93.87,169.96,"[ 3, 99]",5393,5416,834.4,314.1,755.2,304.4,-175.82,LEFT,1.31,A12,S12.wav,A12.png,15,4922453,preview,,,,,,,,,,,,,,,,,
p10,Trial: 32,p10.edf,.,8,Fixation: 5417 ms,267,5417,5683,"[ 3, 99]",8,883,650,759.4,304.5,1,3,35.3,36.55,12,Saccade: 5393 ms,LEFT,24,2.25,93.87,169.96,"[ 13, 99]",5393,5416,834.4,314.1,755.2,304.4,13,Saccade: 5684 ms,RIGHT,23,1.08,47.1,108.06,[ 99],5684,5706,759.8,304.7,796.3,316.7,-1.23,RIGHT,2.16,A12,S12.wav,A12.png,15,4922453,preview,,,,,,,,,,,,,,,,,
p10,Trial: 32,p10.edf,.,9,Fixation: 5707 ms,232,5707,5938,"[ 3, 99]",8,881,650,793.8,316.8,2,3,35.4,36.6,13,Saccade: 5684 ms,RIGHT,23,1.08,47.1,108.06,"[ 3, 99]",5684,5706,759.8,304.7,796.3,316.7,14,Saccade: 5939 ms,LEFT,19,0.98,51.37,76.78,"[ 3, 99]",5939,5957,793.2,320.4,760.7,308.4,160.94,LEFT,1.03,A12,S12.wav,A12.png,15,4922453,preview,,,,,,,,,,,,,,,,,
p10,Trial: 32,p10.edf,.,10,Fixation: 5958 ms,151,5958,6108,"[ 3, 27, 99]",8,877,650,766.4,313.0,3,3,35.3,36.6,14,Saccade: 5939 ms,LEFT,19,0.98,51.37,76.78,"[ 13, 99]",5939,5957,793.2,320.4,760.7,308.4,15,Saccade: 6109 ms,RIGHT,23,1.98,86.2,163.55,"[ 9, 13, 99]",6109,6131,765.3,310.1,817.6,358.4,-7.63,RIGHT,0.78,A12,S12.wav,A12.png,15,4922453,preview,,,,,,,,,,,,,,,,,
p10,Trial: 32,p10.edf,.,11,Fixation: 6132 ms,254,6132,6385,"[ 9, 13, 99]",6,858,254,816.7,350.8,1,1,35.4,36.6,15,Saccade: 6109 ms,RIGHT,23,1.98,86.2,163.55,"[ 3, 27, 99]",6109,6131,765.3,310.1,817.6,358.4,16,Saccade: 6386 ms,RIGHT,46,5.71,124.12,335.6,"[ 8, 13, 99]",6386,6431,815.4,348.6,1013.2,403.8,144.03,LEFT,1.76,A12,S12.wav,A12.png,15,4922453,preview,,,,,,,,,,,,,,,,,
p10,Trial: 32,p10.edf,.,12,Fixation: 6432 ms,175,6432,6606,"[ 8, 13, 99]",9,836,320,1024.2,410.3,1,2,36.45,37.15,16,Saccade: 6386 ms,RIGHT,46,5.71,124.12,335.6,"[ 9, 13, 99]",6386,6431,815.4,348.6,1013.2,403.8,17,Saccade: 6607 ms,LEFT,17,1.0,58.55,75.31,"[ 8, 13, 99]",6607,6623,1026.7,411.8,991.0,405.5,164.39,LEFT,6,A12,S12.wav,A12.png,15,4922453,preview,,,,,,,,,,,,,,,,,
p10,Trial: 32,p10.edf,.,13,Fixation: 6624 ms,145,6624,6768,"[ 8, 13, 99]",9,825,320,997.8,410.4,2,2,36.3,37.05,17,Saccade: 6607 ms,LEFT,17,1.0,58.55,75.31,"[ 8, 13, 99]",6607,6623,1026.7,411.8,991.0,405.5,18,Saccade: 6769 ms,LEFT,31,4.02,129.61,244.09,"[ 13, 25, 99]",6769,6799,997.2,411.9,857.9,372.7,0.21,RIGHT,0.73,A12,S12.wav,A12.png,15,4922453,preview,,,,,,,,,,,,,,,,,
p10,Trial: 32,p10.edf,.,14,Fixation: 6800 ms,198,6800,6997,"[ 13, 25, 99]",22,818,772,860.5,376.0,4,4,35.6,36.7,18,Saccade: 6769 ms,LEFT,31,4.02,129.61,244.09,"[ 8, 13, 99]",6769,6799,997.2,411.9,857.9,372.7,19,Saccade: 6998 ms,DOWN,36,4.44,123.38,298.67,[ 99],6998,7033,858.6,379.2,961.5,504.4,-13.73,RIGHT,3.93,A12,S12.wav,A12.png,15,4922453,preview,,,,,,,,,,,,,,,,,
p10,Trial: 32,p10.edf,.,15,Fixation: 7034 ms,233,7034,7266,"[ 18, 22, 99]",9,821,495,969.8,500.6,1,2,36.2,37.1,19,Saccade: 6998 ms,DOWN,36,4.44,123.38,298.67,"[ 13, 25, 99]",6998,7033,858.6,379.2,961.5,504.4,20,Saccade: 7267 ms,RIGHT,23,1.03,44.82,100.61,"[ 18, 22, 99]",7267,7289,967.4,501.5,999.9,520.5,132.04,UP,4.55,A12,S12.wav,A12.png,15,4922453,preview,,,,,,,,,,,,,,,,,
p10,Trial: 32,p10.edf,.,16,Fixation: 7290 ms,262,7290,7551,"[ 18, 22, 99]",9,824,495,997.2,519.9,2,2,36.4,37.3,20,Saccade: 7267 ms,RIGHT,23,1.03,44.82,100.61,"[ 22, 99]",7267,7289,967.4,501.5,999.9,520.5,21,Saccade: 7552 ms,LEFT,44,5.2,118.21,300.75,"[ 13, 25, 99]",7552,7595,994.7,525.5,859.1,392.8,145.5,LEFT,0.92,A12,S12.wav,A12.png,15,4922453,preview,,,,,,,,,,,,,,,,,
p10,Trial: 32,p10.edf,.,17,Fixation: 7596 ms,376,7596,7971,"[ 13, 25, 99]",22,816,484,853.7,382.1,1,2,35.6,36.7,21,Saccade: 7552 ms,LEFT,44,5.2,118.21,300.75,"[ 18, 22, 99]",7552,7595,994.7,525.5,859.1,392.8,22,Saccade: 7972 ms,RIGHT,12,0.58,48.59,47.96,"[ 13, 25, 99]",7972,7983,854.3,378.9,874.7,383.0,-43.06,RIGHT,5.46,A12,S12.wav,A12.png,15,4922453,preview,,,,,,,,,,,,,,,,,
p10,Trial: 32,p10.edf,.,18,Fixation: 7984 ms,108,7984,8091,"[ 13, 25, 99]",22,823,484,865.7,385.9,2,2,35.65,36.7,22,Saccade: 7972 ms,RIGHT,12,0.58,48.59,47.96,"[ 13, 25, 99]",7972,7983,854.3,378.9,874.7,383.0,23,Saccade: 8092 ms,LEFT,59,14.94,253.17,490.22,"[ 2, 99]",8092,8150,864.8,389.9,331.3,352.3,162.91,.,0.35,A12,S12.wav,A12.png,15,4922453,preview,,,,,,,,,,,,,,,,,
p10,Trial: 32,p10.edf,.,19,Fixation: 8151 ms,115,8151,8265,"[ 2, 99]",12,848,338,314.4,358.0,1,2,36.05,36.9,23,Saccade: 8092 ms,LEFT,59,14.94,253.17,490.22,"[ 13, 25, 99]",8092,8150,864.8,389.9,331.3,352.3,24,Saccade: 8266 ms,UP,41,3.64,88.71,262.89,"[ 2, 99]",8266,8306,313.0,357.3,270.6,229.7,-2.82,RIGHT,15.4,A12,S12.wav,A12.png,15,4922453,preview,,,,,,,,,,,,,,,,,
p10,Trial: 32,p10.edf,.,20,Fixation: 8307 ms,223,8307,8529,"[ 2, 99]",12,841,338,267.9,223.3,2,2,36.4,37.2,24,Saccade: 8266 ms,UP,41,3.64,88.71,262.89,"[ 2, 99]",8266,8306,313.0,357.3,270.6,229.7,25,Saccade: 8530 ms,RIGHT,49,8.65,176.59,445.79,"[ 23, 99]",8530,8578,269.1,224.9,579.2,216.3,-70.55,DOWN,3.86,A12,S12.wav,A12.png,15,4922453,preview,,,,,,,,,,,,,,,,,
p10,Trial: 32,p10.edf,.,21,Fixation: 8579 ms,263,8579,8841,"[ 23, 99]",7,810,1597,583.7,218.9,1,7,35.3,36.6,25,Saccade: 8530 ms,RIGHT,49,8.65,176.59,445.79,"[ 2, 99]",8530,8578,269.1,224.9,579.2,216.3,26,Saccade: 8842 ms,RIGHT,23,1.57,68.42,136.2,"[ 23, 99]",8842,8864,579.3,222.1,629.9,198.3,-179.23,LEFT,8.81,A12,S12.wav,A12.png,15,4922453,preview,,,,,,,,,,,,,,,,,
p10,Trial: 32,p10.edf,.,22,Fixation: 8865 ms,151,8865,9015,"[ 23, 99]",7,839,1597,628.0,198.7,2,7,35.3,36.7,26,Saccade: 8842 ms,RIGHT,23,1.57,68.42,136.2,"[ 23, 99]",8842,8864,579.3,222.1,629.9,198.3,27,Saccade: 9016 ms,RIGHT,53,8.15,153.77,360.48,"[ 23, 99]",9016,9068,626.3,201.5,909.9,136.1,-156.29,LEFT,1.37,A12,S12.wav,A12.png,15,4922453,preview,,,,,,,,,,,,,,,,,
p10,Trial: 32,p10.edf,.,23,Fixation: 9069 ms,284,9069,9352,"[ 23, 99]",7,865,1597,915.2,150.6,3,7,36.0,37.15,27,Saccade: 9016 ms,RIGHT,53,8.15,153.77,360.48,"[ 23, 99]",9016,9068,626.3,201.5,909.9,136.1,28,Saccade: 9353 ms,DOWN,25,2.05,81.94,158.62,"[ 23, 99]",9353,9377,915.4,155.0,939.3,226.8,-170.82,LEFT,8.16,A12,S12.wav,A12.png,15,4922453,preview,,,,,,,,,,,,,,,,,
p10,Trial: 32,p10.edf,.,24,Fixation: 9378 ms,196,9378,9573,"[ 23, 99]",7,879,1597,939.8,227.3,4,7,36.0,37.0,28,Saccade: 9353 ms,DOWN,25,2.05,81.94,158.62,"[ 23, 99]",9353,9377,915.4,155.0,939.3,226.8,29,Saccade: 9574 ms,LEFT,40,4.75,118.63,271.79,"[ 23, 99]",9574,9613,942.3,229.1,775.8,196.8,108.28,UP,2.18,A12,S12.wav,A12.png,15,4922453,preview,,,,,,,,,,,,,,,,,
p10,Trial: 32,p10.edf,.,25,Fixation: 9614 ms,246,9614,9859,"[ 23, 99]",7,899,1597,773.9,192.7,5,7,35.4,36.75,29,Saccade: 9574 ms,LEFT,40,4.75,118.63,271.79,"[ 23, 99]",9574,9613,942.3,229.1,775.8,196.8,30,Saccade: 9860 ms,LEFT,36,4.85,134.66,267.47,"[ 23, 99]",9860,9895,770.1,195.5,599.7,214.4,-11.42,RIGHT,4.74,A12,S12.wav,A12.png,15,4922453,preview,,,,,,,,,,,,,,,,,
p10,Trial: 32,p10.edf,.,26,Fixation: 9896 ms,170,9896,10065,"[ 23, 99]",7,920,1597,599.3,210.6,6,7,35.3,36.65,30,Saccade: 9860 ms,LEFT,36,4.85,134.66,267.47,"[ 23, 99]",9860,9895,770.1,195.5,599.7,214.4,31,Saccade: 10066 ms,LEFT,44,4.73,107.5,289.83,"[ 23, 99]",10066,10109,597.5,206.1,430.7,223.9,5.64,RIGHT,4.96,A12,S12.wav,A12.png,15,4922453,preview,,,,,,,,,,,,,,,,,
p10,Trial: 32,p10.edf,.,27,Fixation: 10110 ms,287,10110,10396,"[ 23, 99]",7,917,1597,420.2,225.9,7,7,35.6,36.8,31,Saccade: 10066 ms,LEFT,44,4.73,107.5,289.83,"[ 23, 99]",10066,10109,597.5,206.1,430.7,223.9,32,Saccade: 10397 ms,LEFT,32,2.53,79.17,158.34,"[ 2, 99]",10397,10428,422.3,229.7,331.6,224.9,4.71,RIGHT,5.07,A12,S12.wav,A12.png,15,4922453,preview,,,,,,,,,,,,,,,,,
p10,Trial: 32,p10.edf,.,28,Fixation: 10505 ms,248,10505,10752,"[ 2, 99]",12,876,502,242.6,226.2,1,2,36.6,37.3,33,Saccade: 10468 ms,LEFT,37,2.5,67.68,213.06,"[ 2, 99]",10468,10504,338.7,224.8,248.0,230.9,34,Saccade: 10753 ms,DOWN,39,3.35,85.91,234.91,"[ 2, 99]",10753,10791,243.3,227.5,244.7,352.3,0.09,RIGHT,4.92,A12,S12.wav,A12.png,15,4922453,preview,,,,,,,,,,,,,,,,,
p10,Trial: 32,p10.edf,.,29,Fixation: 10792 ms,254,10792,11045,"[ 2, 99]",12,887,502,245.7,366.0,2,2,36.5,37.2,34,Saccade: 10753 ms,DOWN,39,3.35,85.91,234.91,"[ 2, 99]",10753,10791,243.3,227.5,244.7,352.3,35,Saccade: 11046 ms,DOWN,23,2.48,107.94,183.87,"[ 6, 7, 12, 99]",11046,11068,248.0,368.2,184.0,434.2,91.29,UP,3.75,A12,S12.wav,A12.png,15,4922453,preview,,,,,,,,,,,,,,,,,
p10,Trial: 32,p10.edf,.,30,Fixation: 11069 ms,353,11069,11421,"[ 6, 7, 12, 99]",5,900,353,188.3,441.4,1,1,36.95,37.4,35,Saccade: 11046 ms,DOWN,23,2.48,107.94,183.87,"[ 2, 99]",11046,11068,248.0,368.2,184.0,434.2,36,Saccade: 11422 ms,LEFT,20,0.97,48.36,80.46,"[ 7, 12, 99]",11422,11441,190.0,444.1,157.7,459.8,52.29,UP,2.56,A12,S12.wav,A12.png,15,4922453,preview,,,,,,,,,,,,,,,,,
p10,Trial: 32,p10.edf,.,31,Fixation: 11442 ms,177,11442,11618,"[ 7, 12, 99]",7,908,882,161.1,463.2,2,3,37.2,37.6,36,Saccade: 11422 ms,LEFT,20,0.97,48.36,80.46,"[ 6, 7, 12, 99]",11422,11441,190.0,444.1,157.7,459.8,37,Saccade: 11619 ms,RIGHT,21,1.06,50.56,92.4,"[ 6, 7, 12, 99]",11619,11639,158.5,460.8,195.4,447.0,38.39,RIGHT,0.94,A12,S12.wav,A12.png,15,4922453,preview,,,,,,,,,,,,,,,,,
p10,Trial: 32,p10.edf,.,32,Fixation: 11640 ms,352,11640,11991,"[ 6, 7, 12, 99]",5,901,352,191.4,446.1,1,1,36.9,37.4,37,Saccade: 11619 ms,RIGHT,21,1.06,50.56,92.4,"[ 7, 12, 99]",11619,11639,158.5,460.8,195.4,447.0,38,Saccade: 11992 ms,DOWN,39,2.56,65.61,176.9,"[ 12, 99]",11992,12030,191.4,447.0,155.6,536.1,-150.86,LEFT,0.94,A12,S12.wav,A12.png,15,4922453,preview,,,,,,,,,,,,,,,,,
p10,Trial: 32,p10.edf,.,33,Fixation: 12031 ms,179,12031,12209,"[ 16, 99]",5,904,476,156.5,551.1,1,3,37.3,37.8,38,Saccade: 11992 ms,DOWN,39,2.56,65.61,176.9,"[ 6, 7, 12, 99]",11992,12030,191.4,447.0,155.6,536.1,39,Saccade: 12210 ms,RIGHT,47,4.11,87.49,226.48,"[ 10, 16, 99]",12210,12256,158.1,556.7,281.9,646.8,71.38,UP,2.95,A12,S12.wav,A12.png,15,4922453,preview,,,,,,,,,,,,,,,,,
p10,Trial: 32,p10.edf,.,34,Fixation: 12257 ms,156,12257,12412,"[ 10, 16, 99]",4,901,297,291.4,651.6,1,2,36.6,37.8,39,Saccade: 12210 ms,RIGHT,47,4.11,87.49,226.48,"[ 16, 99]",12210,12256,158.1,556.7,281.9,646.8,40,Saccade: 12413 ms,RIGHT,21,0.86,41.12,74.37,"[ 10, 16, 29, 99]",12413,12433,291.6,651.5,314.0,674.5,143.94,LEFT,4.52,A12,S12.wav,A12.png,15,4922453,preview,,,,,,,,,,,,,,,,,
p10,Trial: 32,p10.edf,.,35,Fixation: 12434 ms,141,12434,12574,"[ 10, 16, 29, 99]",4,904,297,310.8,671.6,2,2,36.5,37.8,40,Saccade: 12413 ms,RIGHT,21,0.86,41.12,74.37,"[ 10, 16, 99]",12413,12433,291.6,651.5,314.0,674.5,41,Saccade: 12575 ms,RIGHT,66,7.18,108.81,363.23,"[ 19, 99]",12575,12640,307.7,670.4,560.0,734.3,135.09,LEFT,0.75,A12,S12.wav,A12.png,15,4922453,preview,,,,,,,,,,,,,,,,,
p10,Trial: 32,p10.edf,.,36,Fixation: 12641 ms,170,12641,12810,"[ 19, 99]",3,886,170,578.8,746.7,1,1,35.8,37.75,41,Saccade: 12575 ms,RIGHT,66,7.18,108.81,363.23,"[ 10, 16, 29, 99]",12575,12640,307.7,670.4,560.0,734.3,42,Saccade: 12811 ms,LEFT,47,7.46,158.73,391.39,"[ 10, 16, 28, 99]",12811,12857,581.6,750.1,331.3,647.2,164.99,LEFT,7.68,A12,S12.wav,A12.png,15,4922453,preview,,,,,,,,,,,,,,,,,
p10,Trial: 32,p10.edf,.,37,Fixation: 12858 ms,219,12858,13076,"[ 10, 16, 99]",4,875,620,315.5,647.9,1,2,36.35,37.65,42,Saccade: 12811 ms,LEFT,47,7.46,158.73,391.39,"[ 19, 99]",12811,12857,581.6,750.1,331.3,647.2,43,Saccade: 13077 ms,LEFT,13,0.69,53.17,54.96,"[ 10, 16, 29, 99]",13077,13089,313.5,650.4,293.8,666.7,-19.75,RIGHT,7.75,A12,S12.wav,A12.png,15,4922453,preview,,,,,,,,,,,,,,,,,
p10,Trial: 32,p10.edf,13126,38,Fixation: 13090 ms,401,13090,13490,"[ 10, 16, 29, 99]",4,877,620,298.9,664.3,2,2,36.6,37.8,43,Saccade: 13077 ms,LEFT,13,0.69,53.17,54.96,"[ 10, 16, 99]",13077,13089,313.5,650.4,293.8,666.7,44,Saccade: 13491 ms,LEFT,36,5.2,144.35,306.08,"[ 15, 16, 99]",13491,13526,299.2,664.2,123.0,583.6,43.69,RIGHT,0.63,A12,S12.wav,A12.png,15,4922453,preview,,,,,,,,,,,,,,,,,
p10,Trial: 32,p10.edf,.,39,Fixation: 14511 ms,122,14511,14632,"[ 14, 99]",5,996,804,322.7,470.9,1,4,36.1,37.0,48,Saccade: 14467 ms,UP,44,3.6,81.84,239.62,"[ 10, 16, 99]",14467,14510,325.4,605.9,321.7,472.0,49,Saccade: 14633 ms,UP,18,1.05,58.12,75.7,"[ 4, 14, 99]",14633,14650,324.3,474.1,339.0,438.5,-97.22,DOWN,5.21,A12,S12.wav,A12.png,15,4922453,task,[4],[Noun_1],[800],[1370],[570],[0],[Apfel],[apple],[0.0],[1.0],[apple_1],[S01_I012_E005],[Apfel],[nan],[nan],[nan],[nan]
p10,Trial: 32,p10.edf,.,40,Fixation: 14651 ms,224,14651,14874,"[ 4, 14, 99]",2,969,459,337.9,443.1,1,2,36.0,36.9,49,Saccade: 14633 ms,UP,18,1.05,58.12,75.7,"[ 14, 99]",14633,14650,324.3,474.1,339.0,438.5,50,Saccade: 14875 ms,.,7,0.24,33.69,34.26,"[ 14, 99]",14875,14881,340.6,441.6,343.7,433.5,-119.27,DOWN,0.86,A12,S12.wav,A12.png,15,4922453,task,,break,,,,,,,,,,,,,,,
p10,Trial: 32,p10.edf,.,41,Fixation: 14882 ms,235,14882,15116,"[ 4, 14, 99]",2,945,459,341.1,436.6,2,2,36.0,36.9,50,Saccade: 14875 ms,.,7,0.24,33.69,34.26,"[ 4, 14, 99]",14875,14881,340.6,441.6,343.7,433.5,51,Saccade: 15117 ms,.,7,0.29,41.68,34.05,"[ 14, 99]",15117,15123,340.4,435.0,330.5,431.4,-116.78,.,0.2,A12,S12.wav,A12.png,15,4922453,task,,break,,,,,,,,,,,,,,,
p10,Trial: 32,p10.edf,.,42,Fixation: 15124 ms,223,15124,15346,"[ 14, 99]",5,945,804,332.4,428.4,4,4,36.0,36.95,51,Saccade: 15117 ms,.,7,0.29,41.68,34.05,"[ 4, 14, 99]",15117,15123,340.4,435.0,330.5,431.4,52,Saccade: 15347 ms,LEFT,39,3.48,89.32,217.96,"[ 6, 7, 12, 99]",15347,15385,336.8,429.8,210.2,437.1,-42.58,.,0.33,A12,S12.wav,A12.png,15,4922453,task,[6],[Determiner_2],[1833],[2110],[277],[0],[einem],[a],[0.0],[0.0],[nan],[nan],[eine],[nan],[nan],[nan],[nan]
p10,Trial: 32,p10.edf,15410,43,Fixation: 15386 ms,160,15386,15545,"[ 6, 7, 12, 99]",5,982,160,204.5,432.6,1,1,36.8,37.35,52,Saccade: 15347 ms,LEFT,39,3.48,89.32,217.96,"[ 14, 99]",15347,15385,336.8,429.8,210.2,437.1,53,Saccade: 15546 ms,RIGHT,26,3.05,117.4,215.55,"[ 14, 99]",15546,15571,204.0,431.8,315.1,425.8,1.84,RIGHT,3.52,A12,S12.wav,A12.png,15,4922453,task,[6],[Determiner_2],[1833],[2110],[277],[0],[einem],[a],[0.0],[0.0],[nan],[nan],[eine],[nan],[nan],[nan],[nan]
p10,Trial: 32,p10.edf,.,44,Fixation: 15572 ms,139,15572,15710,"[ 14, 99]",5,988,139,312.5,422.3,1,1,36.1,37.0,53,Saccade: 15546 ms,RIGHT,26,3.05,117.4,215.55,"[ 6, 7, 12, 99]",15546,15571,204.0,431.8,315.1,425.8,54,Saccade: 15711 ms,RIGHT,70,17.44,249.09,569.63,"[ 13, 99]",15711,15780,311.1,424.7,939.2,399.6,-174.66,LEFT,2.98,A12,S12.wav,A12.png,15,4922453,task,[7],[Noun_2],[2210],[2645],[435],[0],[Korb],[basket],[0.0],[0.0],[basket_1],[S01_I012_E006],[Korb],[nan],[nan],[nan],[nan]
p10,Trial: 32,p10.edf,.,45,Fixation: 15781 ms,226,15781,16006,"[ 13, 99]",22,969,226,930.2,406.4,1,1,35.95,36.9,54,Saccade: 15711 ms,RIGHT,70,17.44,249.09,569.63,"[ 14, 99]",15711,15780,311.1,424.7,939.2,399.6,55,Saccade: 16007 ms,LEFT,75,21.52,286.88,595.91,[ 99],16007,16081,932.4,408.1,145.0,395.7,-178.56,LEFT,17.15,A12,S12.wav,A12.png,15,4922453,task,[7],[Noun_2],[2210],[2645],[435],[0],[Korb],[basket],[0.0],[0.0],[basket_1],[S01_I012_E006],[Korb],[nan],[nan],[nan],[nan]
p10,Trial: 32,p10.edf,.,46,Fixation: 16082 ms,125,16082,16206,[ 99],80,991,19648,149.6,403.9,46,79,37.3,37.6,55,Saccade: 16007 ms,LEFT,75,21.52,286.88,595.91,"[ 13, 99]",16007,16081,932.4,408.1,145.0,395.7,56,Saccade: 16207 ms,RIGHT,30,1.09,36.29,138.47,[ 99],16207,16236,147.6,403.6,185.7,417.3,-0.18,RIGHT,21.31,A12,S12.wav,A12.png,15,4922453,task,,break,,,,,,,,,,,,,,,
p10,Trial: 32,p10.edf,16460,47,Fixation: 16237 ms,501,16237,16737,"[ 12, 99]",8,961,1510,187.2,422.6,1,3,37.0,37.4,56,Saccade: 16207 ms,RIGHT,30,1.09,36.29,138.47,[ 99],16207,16236,147.6,403.6,185.7,417.3,57,Saccade: 16738 ms,.,8,0.46,57.2,43.06,"[ 6, 7, 12, 99]",16738,16745,182.7,422.0,195.4,433.3,153.77,LEFT,1.13,A12,S12.wav,A12.png,15,4922453,task,"[8, 9, 10]","[Relative Clause Pronoun, Relative Clause Pers. Pronoun, Relative Clause Adverb]","[3000, 3140, 3260]","[3130, 3255, 3800]","[130, 115, 540]","[0, 1, 0]","[den, er, schnell]","[that, he, quickly]","[0.0, 0.0, 0.0]","[0.0, 0.0, 0.0]","[nan, man_1, nan]","[nan, S01_I012_E001, nan]","[die, er, schnell]","[nan, nan, nan]","[nan, nan, nan]","[nan, nan, nan]","[nan, nan, nan]"
p10,Trial: 32,p10.edf,17240,48,Fixation: 16746 ms,643,16746,17388,"[ 6, 7, 12, 99]",5,955,643,195.6,431.2,1,1,36.9,37.4,57,Saccade: 16738 ms,.,8,0.46,57.2,43.06,"[ 12, 99]",16738,16745,182.7,422.0,195.4,433.3,58,Saccade: 17389 ms,.,10,0.46,45.87,40.1,"[ 6, 7, 12, 99]",17389,17398,200.7,438.0,215.0,428.9,134.67,.,0.32,A12,S12.wav,A12.png,15,4922453,task,[10],[Relative Clause Adverb],[3260],[3800],[540],[0],[schnell],[quickly],[0.0],[0.0],[nan],[nan],[schnell],[nan],[nan],[nan],[nan]
p10,Trial: 32,p10.edf,.,49,Fixation: 17399 ms,366,17399,17764,"[ 7, 12, 99]",7,949,1009,210.6,425.0,2,2,36.75,37.3,58,Saccade: 17389 ms,.,10,0.46,45.87,40.1,"[ 6, 7, 12, 99]",17389,17398,200.7,438.0,215.0,428.9,59,Saccade: 17765 ms,UP,21,1.71,81.56,133.67,"[ 2, 99]",17765,17785,209.5,421.8,235.9,363.9,-157.83,.,0.44,A12,S12.wav,A12.png,15,4922453,task,[11],[Relative Clause Verb],[4040],[4755],[715],[0],[aufsammelt],[picks up],[1.0],[0.0],[nan],[nan],[aufsammeln],[nan],[nan],[nan],[nan]
p10,Trial: 32,p10.edf,.,50,Fixation: 17786 ms,189,17786,17974,"[ 2, 99]",12,960,1088,243.4,362.6,1,4,36.55,37.2,59,Saccade: 17765 ms,UP,21,1.71,81.56,133.67,"[ 12, 99]",17765,17785,209.5,421.8,235.9,363.9,60,Saccade: 17975 ms,RIGHT,12,0.62,51.82,50.06,"[ 2, 99]",17975,17986,243.4,365.7,263.0,354.1,-118.11,DOWN,1.9,A12,S12.wav,A12.png,15,4922453,task,[11],[Relative Clause Verb],[4040],[4755],[715],[0],[aufsammelt],[picks up],[1.0],[0.0],[nan],[nan],[aufsammeln],[nan],[nan],[nan],[nan]
p10,Trial: 32,p10.edf,.,51,Fixation: 17987 ms,329,17987,18315,"[ 2, 99]",12,935,1088,259.4,360.7,2,4,36.4,37.1,60,Saccade: 17975 ms,RIGHT,12,0.62,51.82,50.06,"[ 2, 99]",17975,17986,243.4,365.7,263.0,354.1,61,Saccade: 18316 ms,UP,36,3.77,104.72,179.65,"[ 2, 99]",18316,18351,260.1,365.7,250.5,225.8,-173.35,.,0.44,A12,S12.wav,A12.png,15,4922453,task,[11],[Relative Clause Verb],[4040],[4755],[715],[0],[aufsammelt],[picks up],[1.0],[0.0],[nan],[nan],[aufsammeln],[nan],[nan],[nan],[nan]
p10,Trial: 32,p10.edf,18630,52,Fixation: 18352 ms,472,18352,18823,"[ 2, 99]",12,904,1088,259.2,229.2,3,4,36.5,37.25,61,Saccade: 18316 ms,UP,36,3.77,104.72,179.65,"[ 2, 99]",18316,18351,260.1,365.7,250.5,225.8,62,Saccade: 18824 ms,.,6,0.28,46.94,38.16,"[ 2, 99]",18824,18829,259.3,231.6,250.8,225.7,-89.91,DOWN,3.54,A12,S12.wav,A12.png,15,4922453,post,,,,,,,,,,,,,,,,,
