RECORDING_SESSION_LABEL,TRIAL_LABEL,DATA_FILE,CURRENT_FIX_MSG_TIME_1,CURRENT_FIX_INDEX,CURRENT_FIX_LABEL,CURRENT_FIX_DURATION,CURRENT_FIX_START,CURRENT_FIX_END,CURRENT_FIX_INTEREST_AREAS,CURRENT_FIX_INTEREST_AREA_FIX_COUNT,CURRENT_FIX_PUPIL,CURRENT_FIX_RUN_DWELL_TIME,CURRENT_FIX_X,CURRENT_FIX_Y,CURRENT_FIX_RUN_INDEX,CURRENT_FIX_RUN_SIZE,CURRENT_FIX_X_RESOLUTION,CURRENT_FIX_Y_RESOLUTION,PREVIOUS_SAC_INDEX,PREVIOUS_SAC_LABEL,PREVIOUS_SAC_DIRECTION,PREVIOUS_SAC_DURATION,PREVIOUS_SAC_AMPLITUDE,PREVIOUS_SAC_AVG_VELOCITY,PREVIOUS_SAC_PEAK_VELOCITY,PREVIOUS_SAC_START_INTEREST_AREAS,PREVIOUS_SAC_START_TIME,PREVIOUS_SAC_END_TIME,PREVIOUS_SAC_START_X,PREVIOUS_SAC_START_Y,PREVIOUS_SAC_END_X,PREVIOUS_SAC_END_Y,NEXT_SAC_INDEX,NEXT_SAC_LABEL,NEXT_SAC_DIRECTION,NEXT_SAC_DURATION,NEXT_SAC_AMPLITUDE,NEXT_SAC_AVG_VELOCITY,NEXT_SAC_PEAK_VELOCITY,NEXT_SAC_END_INTEREST_AREAS,NEXT_SAC_START_TIME,NEXT_SAC_END_TIME,NEXT_SAC_START_X,NEXT_SAC_START_Y,NEXT_SAC_END_X,NEXT_SAC_END_Y,PREVIOUS_FIX_ANGLE,PREVIOUS_FIX_DIRECTION,PREVIOUS_FIX_DISTANCE,ItemNO,audiofilename,imagefilename,TRIAL_INDEX,TRIAL_START_TIME,viewtype,word_index,Label,word_onset,word_offset,word_duration,Continuation,wordDE,wordEN,REFWord,TargetObj,ObjectLabel,ObjectID,LemmaDE,LingIndex,DepS,pos_1,pos_2
p9,Trial: 36,p9.edf,.,1,Fixation: 3409 ms,418,3409,3826,[ 99],72,1005,21771,549.5,528.7,1,71,35.4,36.8,4,Saccade: 3340 ms,UP,69,13.26,192.15,405.43,[ ],3340,3408,689.6,1023.3,559.6,531.3,5,Saccade: 3827 ms,LEFT,53,10.33,194.94,372.49,[ 99],3827,3879,548.5,528.5,191.9,414.5,-72.3,DOWN,13.23,A14,S14.wav,A14.png,16,1567979,preview,,,,,,,,,,,,,,,,,
p9,Trial: 36,p9.edf,.,2,Fixation: 3880 ms,242,3880,4121,"[ 3, 99]",10,1024,242,200.8,413.0,1,1,36.9,37.4,5,Saccade: 3827 ms,LEFT,53,10.33,194.94,372.49,[ 99],3827,3879,548.5,528.5,191.9,414.5,6,Saccade: 4122 ms,LEFT,24,2.42,100.67,182.69,"[ 4, 23, 99]",4122,4145,197.2,411.8,107.9,423.1,-17.92,RIGHT,10.14,A14,S14.wav,A14.png,16,1567979,preview,,,,,,,,,,,,,,,,,
p9,Trial: 36,p9.edf,.,3,Fixation: 4146 ms,354,4146,4499,"[ 4, 23, 99]",13,1069,354,122.1,413.8,1,1,37.55,37.75,6,Saccade: 4122 ms,LEFT,24,2.42,100.67,182.69,[ 99],4122,4145,197.2,411.8,107.9,423.1,7,Saccade: 4500 ms,RIGHT,50,6.03,120.68,288.31,"[ 3, 99]",4500,4549,121.1,409.5,339.1,368.3,0.58,RIGHT,2.11,A14,S14.wav,A14.png,16,1567979,preview,,,,,,,,,,,,,,,,,
p9,Trial: 36,p9.edf,.,4,Fixation: 4550 ms,157,4550,4706,"[ 3, 99]",10,1080,157,344.4,360.2,1,1,35.95,36.9,7,Saccade: 4500 ms,RIGHT,50,6.03,120.68,288.31,"[ 4, 23, 99]",4500,4549,121.1,409.5,339.1,368.3,8,Saccade: 4707 ms,RIGHT,71,19.22,270.77,620.74,[ 99],4707,4777,345.1,352.9,1040.5,306.2,-166.65,LEFT,6.22,A14,S14.wav,A14.png,16,1567979,preview,,,,,,,,,,,,,,,,,
p9,Trial: 36,p9.edf,.,5,Fixation: 4778 ms,121,4778,4898,[ 99],72,1029,21771,1049.1,293.1,5,71,36.6,37.2,8,Saccade: 4707 ms,RIGHT,71,19.22,270.77,620.74,"[ 3, 99]",4707,4777,345.1,352.9,1040.5,306.2,9,Saccade: 4899 ms,RIGHT,30,2.9,96.64,189.15,"[ 2, 99]",4899,4928,1046.4,290.8,1153.4,300.4,-174.67,LEFT,19.51,A14,S14.wav,A14.png,16,1567979,preview,,,,,,,,,,,,,,,,,
p9,Trial: 36,p9.edf,.,6,Fixation: 4929 ms,309,4929,5237,"[ 2, 99]",7,1031,309,1135.7,302.9,1,1,37.4,37.65,9,Saccade: 4899 ms,RIGHT,30,2.9,96.64,189.15,[ 99],4899,4928,1046.4,290.8,1153.4,300.4,10,Saccade: 5238 ms,LEFT,75,14.58,194.46,575.77,"[ 5, 99]",5238,5312,1133.4,309.1,605.6,340.5,173.62,LEFT,2.36,A14,S14.wav,A14.png,16,1567979,preview,,,,,,,,,,,,,,,,,
p9,Trial: 36,p9.edf,.,7,Fixation: 5313 ms,236,5313,5548,"[ 5, 99]",6,1088,236,603.8,352.7,1,1,35.2,36.5,10,Saccade: 5238 ms,LEFT,75,14.58,194.46,575.77,"[ 2, 99]",5238,5312,1133.4,309.1,605.6,340.5,11,Saccade: 5549 ms,LEFT,61,8.86,145.28,465.07,"[ 3, 99]",5549,5609,599.5,359.4,284.2,327.6,5.24,RIGHT,14.71,A14,S14.wav,A14.png,16,1567979,preview,,,,,,,,,,,,,,,,,
p9,Trial: 36,p9.edf,.,8,Fixation: 5610 ms,456,5610,6065,"[ 3, 99]",10,1099,1275,275.9,320.7,1,3,36.3,37.0,11,Saccade: 5549 ms,LEFT,61,8.86,145.28,465.07,"[ 5, 99]",5549,5609,599.5,359.4,284.2,327.6,12,Saccade: 6066 ms,LEFT,22,1.69,76.77,118.46,"[ 3, 99]",6066,6087,286.2,316.0,224.7,311.7,-5.42,RIGHT,9.21,A14,S14.wav,A14.png,16,1567979,preview,,,,,,,,,,,,,,,,,
p9,Trial: 36,p9.edf,.,9,Fixation: 6088 ms,425,6088,6512,"[ 3, 99]",10,1109,1275,242.6,312.9,2,3,36.6,37.2,12,Saccade: 6066 ms,LEFT,22,1.69,76.77,118.46,"[ 3, 99]",6066,6087,286.2,316,224.7,311.7,13,Saccade: 6513 ms,LEFT,15,0.75,50.02,63.38,[ 99],6513,6527,236.4,311.3,210.8,321.6,-12.96,RIGHT,0.94,A14,S14.wav,A14.png,16,1567979,preview,,,,,,,,,,,,,,,,,
p9,Trial: 36,p9.edf,.,10,Fixation: 6528 ms,394,6528,6921,"[ 3, 99]",10,1141,1275,214.4,312.6,3,3,36.8,37.3,13,Saccade: 6513 ms,LEFT,15,0.75,50.02,63.38,"[ 3, 99]",6513,6527,236.4,311.3,210.8,321.6,14,Saccade: 6922 ms,RIGHT,43,7.88,183.23,375.47,"[ 18, 24, 99]",6922,6964,206.9,306.0,491.3,301.8,-0.6,RIGHT,0.77,A14,S14.wav,A14.png,16,1567979,preview,,,,,,,,,,,,,,,,,
p9,Trial: 36,p9.edf,.,11,Fixation: 6965 ms,350,6965,7314,"[ 17, 24, 99]",1,1081,350,479.1,301.1,1,1,35.4,36.6,14,Saccade: 6922 ms,RIGHT,43,7.88,183.23,375.47,"[ 3, 99]",6922,6964,206.9,306,491.3,301.8,15,Saccade: 7315 ms,RIGHT,61,13.47,220.83,471.82,"[ 14, 99]",7315,7375,475.0,306.2,955.3,331.0,-177.57,LEFT,7.34,A14,S14.wav,A14.png,16,1567979,preview,,,,,,,,,,,,,,,,,
p9,Trial: 36,p9.edf,.,12,Fixation: 7376 ms,103,7376,7478,"[ 14, 99]",3,993,103,965.4,334.7,1,1,36.05,36.9,15,Saccade: 7315 ms,RIGHT,61,13.47,220.83,471.82,"[ 18, 24, 99]",7315,7375,475,306.2,955.3,331,16,Saccade: 7479 ms,RIGHT,49,4.32,88.21,265.7,"[ 2, 99]",7479,7527,965.5,342.1,1123.0,324.8,176.16,LEFT,13.64,A14,S14.wav,A14.png,16,1567979,preview,,,,,,,,,,,,,,,,,
p9,Trial: 36,p9.edf,.,13,Fixation: 7528 ms,648,7528,8175,"[ 2, 99]",7,940,648,1140.1,327.6,1,1,37.3,37.55,16,Saccade: 7479 ms,RIGHT,49,4.32,88.21,265.7,"[ 14, 99]",7479,7527,965.5,342.1,1123,324.8,17,Saccade: 8176 ms,LEFT,59,8.89,150.73,454.54,[ 99],8176,8234,1142.7,326.9,862.1,494.1,-177.71,LEFT,4.77,A14,S14.wav,A14.png,16,1567979,preview,,,,,,,,,,,,,,,,,
p9,Trial: 36,p9.edf,.,14,Fixation: 8235 ms,320,8235,8554,[ 99],72,992,21771,849.5,506.4,14,71,35.65,36.9,17,Saccade: 8176 ms,LEFT,59,8.89,150.73,454.54,"[ 2, 99]",8176,8234,1142.7,326.9,862.1,494.1,18,Saccade: 8555 ms,LEFT,61,10.46,171.41,500.09,[ 99],8555,8615,847.0,507.4,489.7,616.0,31.09,RIGHT,9.3,A14,S14.wav,A14.png,16,1567979,preview,,,,,,,,,,,,,,,,,
p9,Trial: 36,p9.edf,.,15,Fixation: 8616 ms,195,8616,8810,[ 99],72,1103,21771,486.3,624.2,15,71,35.7,37.2,18,Saccade: 8555 ms,LEFT,61,10.46,171.41,500.09,[ 99],8555,8615,847,507.4,489.7,616,19,Saccade: 8811 ms,RIGHT,53,6.43,121.26,351.88,[ 99],8811,8863,486.0,625.0,712.8,658.9,17.34,RIGHT,10.67,A14,S14.wav,A14.png,16,1567979,preview,,,,,,,,,,,,,,,,,
p9,Trial: 36,p9.edf,.,16,Fixation: 8864 ms,87,8864,8950,[ 99],72,1119,21771,725.8,654.7,16,71,35.6,37.3,19,Saccade: 8811 ms,RIGHT,53,6.43,121.26,351.88,[ 99],8811,8863,486,625,712.8,658.9,20,Saccade: 8951 ms,DOWN,39,3.69,94.65,332.87,"[ 11, 99]",8951,8989,734.8,653.7,658.7,767.1,173.05,LEFT,6.77,A14,S14.wav,A14.png,16,1567979,preview,,,,,,,,,,,,,,,,,
p9,Trial: 36,p9.edf,.,17,Fixation: 8990 ms,185,8990,9174,"[ 11, 99]",2,1147,185,660.2,770.1,1,1,35.9,37.9,20,Saccade: 8951 ms,DOWN,39,3.69,94.65,332.87,[ 99],8951,8989,734.8,653.7,658.7,767.1,21,Saccade: 9175 ms,RIGHT,74,13.28,179.39,387.54,"[ 10, 99]",9175,9248,657.0,762.8,1012.8,429.3,59.13,UP,3.58,A14,S14.wav,A14.png,16,1567979,preview,,,,,,,,,,,,,,,,,
p9,Trial: 36,p9.edf,.,18,Fixation: 9249 ms,106,9249,9354,[ 99],72,1170,21771,1019.1,416.2,18,71,36.4,37.1,21,Saccade: 9175 ms,RIGHT,74,13.28,179.39,387.54,"[ 11, 99]",9175,9248,657,762.8,1012.8,429.3,22,Saccade: 9355 ms,RIGHT,42,4.82,114.66,249.26,"[ 2, 99]",9355,9396,1017.0,415.3,1155.0,301.6,-136.45,LEFT,13.7,A14,S14.wav,A14.png,16,1567979,preview,,,,,,,,,,,,,,,,,
p9,Trial: 36,p9.edf,.,19,Fixation: 9397 ms,174,9397,9570,"[ 2, 99]",7,1188,751,1145.5,309.3,1,2,37.45,37.65,22,Saccade: 9355 ms,RIGHT,42,4.82,114.66,249.26,[ 99],9355,9396,1017,415.3,1155,301.6,23,Saccade: 9571 ms,LEFT,22,0.9,40.94,76.12,"[ 2, 99]",9571,9592,1143.7,312.7,1110.5,317.6,-140.12,LEFT,4.46,A14,S14.wav,A14.png,16,1567979,preview,,,,,,,,,,,,,,,,,
p9,Trial: 36,p9.edf,.,20,Fixation: 9593 ms,577,9593,10169,"[ 2, 99]",7,1227,751,1120.8,316.5,2,2,37.15,37.5,23,Saccade: 9571 ms,LEFT,22,0.9,40.94,76.12,"[ 2, 99]",9571,9592,1143.7,312.7,1110.5,317.6,24,Saccade: 10170 ms,LEFT,72,14.18,196.98,567.87,"[ 5, 99]",10170,10241,1125.3,312.5,612.2,330.8,16.14,RIGHT,0.69,A14,S14.wav,A14.png,16,1567979,preview,,,,,,,,,,,,,,,,,
p9,Trial: 36,p9.edf,.,21,Fixation: 10242 ms,244,10242,10485,"[ 5, 99]",6,1346,244,614.8,337.1,1,1,35.2,36.5,24,Saccade: 10170 ms,LEFT,72,14.18,196.98,567.87,"[ 2, 99]",10170,10241,1125.3,312.5,612.2,330.8,25,Saccade: 10486 ms,LEFT,64,11.67,182.35,623.98,"[ 3, 22, 99]",10486,10549,607.1,338.8,186.4,336.0,2.28,RIGHT,14,A14,S14.wav,A14.png,16,1567979,preview,,,,,,,,,,,,,,,,,
p9,Trial: 36,p9.edf,.,22,Fixation: 10550 ms,233,10550,10782,"[ 3, 22, 99]",10,1340,233,190.6,348.5,1,1,36.95,37.4,25,Saccade: 10486 ms,LEFT,64,11.67,182.35,623.98,"[ 5, 99]",10486,10549,607.1,338.8,186.4,336,26,Saccade: 10783 ms,LEFT,32,1.09,34.01,149.55,"[ 4, 99]",10783,10814,185.3,346.7,152.6,370.6,1.5,RIGHT,11.76,A14,S14.wav,A14.png,16,1567979,preview,,,,,,,,,,,,,,,,,
p9,Trial: 36,p9.edf,.,23,Fixation: 10815 ms,207,10815,11021,"[ 4, 99]",13,1257,2094,149.8,373.2,1,2,37.2,37.5,26,Saccade: 10783 ms,LEFT,32,1.09,34.01,149.55,"[ 3, 99]",10783,10814,185.3,346.7,152.6,370.6,27,Saccade: 11022 ms,LEFT,24,1.71,71.08,134.29,"[ 4, 23, 99]",11022,11045,154.6,377.7,103.1,415.7,30.94,RIGHT,1.28,A14,S14.wav,A14.png,16,1567979,preview,,,,,,,,,,,,,,,,,
p9,Trial: 36,p9.edf,.,24,Fixation: 11046 ms,1887,11046,12932,"[ 4, 23, 99]",13,1260,2094,126.4,394.5,2,2,37.55,37.7,27,Saccade: 11022 ms,LEFT,24,1.71,71.08,134.29,"[ 4, 99]",11022,11045,154.6,377.7,103.1,415.7,28,Saccade: 12933 ms,RIGHT,60,12.55,209.19,430.7,"[ 5, 99]",12933,12992,135.2,392.1,590.8,388.5,42.14,RIGHT,0.84,A14,S14.wav,A14.png,16,1567979,preview,,,,,,,,,,,,,,,,,
p9,Trial: 36,p9.edf,.,25,Fixation: 12993 ms,130,12993,13122,"[ 5, 99]",6,1187,130,600.6,390.3,1,1,35.2,36.5,28,Saccade: 12933 ms,RIGHT,60,12.55,209.19,430.7,"[ 4, 23, 99]",12933,12992,135.2,392.1,590.8,388.5,29,Saccade: 13123 ms,RIGHT,31,4.52,145.66,283.5,"[ 13, 99]",13123,13153,602.3,397.6,758.2,430.9,-179.5,LEFT,13.04,A14,S14.wav,A14.png,16,1567979,preview,,,,,,,,,,,,,,,,,
p9,Trial: 36,p9.edf,13156,26,Fixation: 13154 ms,373,13154,13526,"[ 13, 99]",7,1114,373,745.8,433.2,1,1,35.3,36.6,29,Saccade: 13123 ms,RIGHT,31,4.52,145.66,283.5,"[ 5, 99]",13123,13153,602.3,397.6,758.2,430.9,30,Saccade: 13527 ms,RIGHT,62,13.42,216.43,385.68,"[ 2, 99]",13527,13588,733.4,436.4,1205.6,296.7,164.1,LEFT,4.28,A14,S14.wav,A14.png,16,1567979,preview,,,,,,,,,,,,,,,,,
p9,Trial: 36,p9.edf,.,27,Fixation: 13589 ms,110,13589,13698,"[ 2, 99]",7,1010,252,1191.8,290.8,1,2,37.9,37.85,30,Saccade: 13527 ms,RIGHT,62,13.42,216.43,385.68,"[ 13, 99]",13527,13588,733.4,436.4,1205.6,296.7,31,Saccade: 13699 ms,LEFT,32,1.85,57.71,185.13,"[ 2, 99]",13699,13730,1189.6,288.7,1123.3,308.8,-162.57,LEFT,12.77,A14,S14.wav,A14.png,16,1567979,task,[1],[Adverb],[75],[250],[175],[0],[Da],[It],[0.0],[0.0],[nan],[nan],[da],[nan],[nan],[nan],[nan]
p9,Trial: 36,p9.edf,.,28,Fixation: 13731 ms,142,13731,13872,"[ 2, 99]",7,986,252,1120.9,303.3,2,2,37.2,37.5,31,Saccade: 13699 ms,LEFT,32,1.85,57.71,185.13,"[ 2, 99]",13699,13730,1189.6,288.7,1123.3,308.8,32,Saccade: 13873 ms,DOWN,28,4.96,176.97,325.7,"[ 10, 99]",13873,13900,1119.1,297.9,1024.5,456.2,9.97,RIGHT,1.92,A14,S14.wav,A14.png,16,1567979,task,[2],[Verb],[260],[750],[490],[0],[befindet],[is],[0.0],[0.0],[nan],[nan],[befinden],[nan],[nan],[nan],[nan]
p9,Trial: 36,p9.edf,.,29,Fixation: 13901 ms,328,13901,14228,"[ 10, 99]",7,1008,328,1033.6,457.9,1,1,36.55,37.25,32,Saccade: 13873 ms,DOWN,28,4.96,176.97,325.7,"[ 2, 99]",13873,13900,1119.1,297.9,1024.5,456.2,33,Saccade: 14229 ms,LEFT,44,9.3,211.32,459.71,"[ 13, 99]",14229,14272,1038.5,458.6,704.9,446.7,60.22,UP,4.77,A14,S14.wav,A14.png,16,1567979,task,[2],[Verb],[260],[750],[490],[0],[befindet],[is],[0.0],[0.0],[nan],[nan],[befinden],[nan],[nan],[nan],[nan]
p9,Trial: 36,p9.edf,14486,30,Fixation: 14273 ms,815,14273,15087,"[ 13, 99]",7,1097,815,725.5,426.4,1,1,35.3,36.55,33,Saccade: 14229 ms,LEFT,44,9.3,211.32,459.71,"[ 10, 99]",14229,14272,1038.5,458.6,704.9,446.7,34,Saccade: 15088 ms,LEFT,65,13.39,205.98,542.47,"[ 3, 99]",15088,15152,731.9,419.5,259.7,331.1,-5.68,RIGHT,8.62,A14,S14.wav,A14.png,16,1567979,task,"[3, 4, 5]","[Pronoun_ref, Determiner_1, Noun_1]","[830, 1060, 1286]","[1030, 1240, 1857]","[200, 180, 571]","[0, 0, 0]","[sich, ein, Käfig]","[nan, a, cage]","[0.0, 0.0, 0.0]","[0.0, 0.0, 1.0]","[nan, nan, cage_1]","[nan, nan, S01_I014_E009]","[sie, eine, Käfig]","[nan, nan, nan]","[nan, nan, nan]","[nan, nan, nan]","[nan, nan, nan]"
p9,Trial: 36,p9.edf,.,31,Fixation: 15153 ms,223,15153,15375,"[ 3, 99]",10,1175,223,262.0,338.5,1,1,36.4,37.1,34,Saccade: 15088 ms,LEFT,65,13.39,205.98,542.47,"[ 13, 99]",15088,15152,731.9,419.5,259.7,331.1,35,Saccade: 15376 ms,LEFT,26,3.43,131.8,239.31,"[ 4, 99]",15376,15401,266.8,344.6,156.3,406.2,-10.46,RIGHT,13.15,A14,S14.wav,A14.png,16,1567979,task,[5],[Noun_1],[1286],[1857],[571],[0],[Käfig],[cage],[0.0],[1.0],[cage_1],[S01_I014_E009],[Käfig],[nan],[nan],[nan],[nan]
p9,Trial: 36,p9.edf,.,32,Fixation: 15402 ms,167,15402,15568,"[ 4, 99]",13,1181,656,160.4,403.9,1,2,37.2,37.5,35,Saccade: 15376 ms,LEFT,26,3.43,131.8,239.31,"[ 3, 99]",15376,15401,266.8,344.6,156.3,406.2,36,Saccade: 15569 ms,LEFT,19,1.35,71.26,96.98,"[ 4, 23, 99]",15569,15587,161.4,406.7,119.5,435.2,32.42,RIGHT,3.27,A14,S14.wav,A14.png,16,1567979,task,,break,,,,,,,,,,,,,,,
p9,Trial: 36,p9.edf,.,33,Fixation: 15588 ms,489,15588,16076,"[ 4, 23, 99]",13,1100,656,122.9,442.3,2,2,37.55,37.75,36,Saccade: 15569 ms,LEFT,19,1.35,71.26,96.98,"[ 4, 99]",15569,15587,161.4,406.7,119.5,435.2,37,Saccade: 16077 ms,RIGHT,52,12.42,238.82,431.1,"[ 5, 99]",16077,16128,114.1,443.8,556.9,351.0,45.49,UP,1.43,A14,S14.wav,A14.png,16,1567979,task,"[6, 7]","[Preposition_1, Determiner_2]","[2250, 2400]","[2350, 2642]","[100, 242]","[0, 0]","[auf, einem]","[on, a]","[0.0, 0.0]","[0.0, 0.0]","[nan, nan]","[nan, nan]","[auf, eine]","[nan, nan]","[nan, nan]","[nan, nan]","[nan, nan]"
p9,Trial: 36,p9.edf,16390,34,Fixation: 16129 ms,553,16129,16681,"[ 5, 99]",6,1066,553,547.8,339.7,1,1,35.2,36.5,37,Saccade: 16077 ms,RIGHT,52,12.42,238.82,431.1,"[ 4, 23, 99]",16077,16128,114.1,443.8,556.9,351,38,Saccade: 16682 ms,LEFT,65,10.83,166.58,413.05,"[ 4, 99]",16682,16746,547.2,330.2,161.9,403.8,-166.69,LEFT,12,A14,S14.wav,A14.png,16,1567979,task,[8],[Adj_2],[2670],[3180],[510],[0],[kleinen],[small],[0.0],[0.0],[nan],[nan],[klein],[nan],[nan],[nan],[nan]
p9,Trial: 36,p9.edf,.,35,Fixation: 16747 ms,168,16747,16914,"[ 4, 99]",13,1073,1349,150.4,403.6,1,2,37.25,37.55,38,Saccade: 16682 ms,LEFT,65,10.83,166.58,413.05,"[ 5, 99]",16682,16746,547.2,330.2,161.9,403.8,39,Saccade: 16915 ms,LEFT,20,1.34,66.98,92.76,"[ 4, 23, 99]",16915,16934,146.6,403.6,108.8,436.8,8.94,RIGHT,11.11,A14,S14.wav,A14.png,16,1567979,task,[9],[Noun_2],[3190],[3580],[390],[0],[Tisch],[table],[0.0],[0.0],[table_1],[S01_I014_E006],[Tisch],[nan],[nan],[nan],[nan]
p9,Trial: 36,p9.edf,17442,36,Fixation: 16935 ms,1181,16935,18115,"[ 4, 23, 99]",13,1101,1349,119.0,434.8,2,2,37.55,37.75,39,Saccade: 16915 ms,LEFT,20,1.34,66.98,92.76,"[ 4, 99]",16915,16934,146.6,403.6,108.8,436.8,40,Saccade: 18116 ms,RIGHT,67,17.81,265.87,441.6,"[ 15, 99]",18116,18182,126.8,427.0,776.0,416.0,44.63,RIGHT,1.18,A14,S14.wav,A14.png,16,1567979,task,"[9, 10, 11, 12]","[Noun_2, Relative Clause Pronoun, Relative Clause Pers. Pronoun, Relative Clause Adverb]","[3190, 3930, 4100, 4242]","[3580, 4100, 4170, 4700]","[390, 170, 70, 458]","[0, 0, 0, 0]","[Tisch, den, er, achtsam]","[table, that, he, carefully]","[0.0, 0.0, 0.0, 0.0]","[0.0, 0.0, 0.0, 0.0]","[table_1, nan, man_1, nan]","[S01_I014_E006, nan, S01_I014_E001, nan]","[Tisch, die, er, achtsam]","[nan, nan, nan, nan]","[nan, nan, nan, nan]","[nan, nan, nan, nan]","[nan, nan, nan, nan]"
p9,Trial: 36,p9.edf,.,37,Fixation: 18183 ms,441,18183,18623,"[ 15, 99]",1,1112,441,766.7,405.0,1,1,35.35,36.6,40,Saccade: 18116 ms,RIGHT,67,17.81,265.87,441.6,"[ 4, 23, 99]",18116,18182,126.8,427,776,416,41,Saccade: 18624 ms,DOWN,50,5.82,116.44,266.23,[ 99],18624,18673,763.2,404.4,647.0,581.0,-177.42,LEFT,17.79,A14,S14.wav,A14.png,16,1567979,task,[13],[Relative Clause Verb],[4720],[5120],[400],[0],[trägt],[moves],[1.0],[0.0],[nan],[nan],[tragen],[nan],[nan],[nan],[nan]
p9,Trial: 36,p9.edf,.,38,Fixation: 18674 ms,213,18674,18886,[ 99],72,1131,21771,641.2,585.7,38,71,35.4,36.9,41,Saccade: 18624 ms,DOWN,50,5.82,116.44,266.23,"[ 15, 99]",18624,18673,763.2,404.4,647,581,42,Saccade: 18887 ms,DOWN,34,4.6,135.42,268.06,"[ 11, 99]",18887,18920,640.1,584.5,662.9,754.8,54.19,UP,6.06,A14,S14.wav,A14.png,16,1567979,post,,,,,,,,,,,,,,,,,
p9,Trial: 36,p9.edf,18990,39,Fixation: 18921 ms,130,18921,19050,"[ 11, 99]",2,1194,130,663.4,741.2,1,1,35.8,37.8,42,Saccade: 18887 ms,DOWN,34,4.6,135.42,268.06,[ 99],18887,18920,640.1,584.5,662.9,754.8,43,Saccade: 19051 ms,LEFT,72,15.51,215.35,613.98,[ 99],19051,19122,671.1,748.2,166.8,482.9,98.52,UP,4.21,A14,S14.wav,A14.png,16,1567979,post,,,,,,,,,,,,,,,,,
p9,Trial: 36,p9.edf,.,40,Fixation: 19123 ms,158,19123,19280,[ 99],72,1285,21771,162.2,486.2,40,71,37.2,37.6,43,Saccade: 19051 ms,LEFT,72,15.51,215.35,613.98,"[ 11, 99]",19051,19122,671.1,748.2,166.8,482.9,44,Saccade: 19281 ms,LEFT,21,1.61,76.74,123.74,"[ 4, 99]",19281,19301,163.0,484.1,115.5,446.7,-26.22,RIGHT,15.31,A14,S14.wav,A14.png,16,1567979,post,,,,,,,,,,,,,,,,,
