RECORDING_SESSION_LABEL,TRIAL_LABEL,DATA_FILE,CURRENT_FIX_MSG_TIME_1,CURRENT_FIX_INDEX,CURRENT_FIX_LABEL,CURRENT_FIX_DURATION,CURRENT_FIX_START,CURRENT_FIX_END,CURRENT_FIX_INTEREST_AREAS,CURRENT_FIX_INTEREST_AREA_FIX_COUNT,CURRENT_FIX_PUPIL,CURRENT_FIX_RUN_DWELL_TIME,CURRENT_FIX_X,CURRENT_FIX_Y,CURRENT_FIX_RUN_INDEX,CURRENT_FIX_RUN_SIZE,CURRENT_FIX_X_RESOLUTION,CURRENT_FIX_Y_RESOLUTION,PREVIOUS_SAC_INDEX,PREVIOUS_SAC_LABEL,PREVIOUS_SAC_DIRECTION,PREVIOUS_SAC_DURATION,PREVIOUS_SAC_AMPLITUDE,PREVIOUS_SAC_AVG_VELOCITY,PREVIOUS_SAC_PEAK_VELOCITY,PREVIOUS_SAC_START_INTEREST_AREAS,PREVIOUS_SAC_START_TIME,PREVIOUS_SAC_END_TIME,PREVIOUS_SAC_START_X,PREVIOUS_SAC_START_Y,PREVIOUS_SAC_END_X,PREVIOUS_SAC_END_Y,NEXT_SAC_INDEX,NEXT_SAC_LABEL,NEXT_SAC_DIRECTION,NEXT_SAC_DURATION,NEXT_SAC_AMPLITUDE,NEXT_SAC_AVG_VELOCITY,NEXT_SAC_PEAK_VELOCITY,NEXT_SAC_END_INTEREST_AREAS,NEXT_SAC_START_TIME,NEXT_SAC_END_TIME,NEXT_SAC_START_X,NEXT_SAC_START_Y,NEXT_SAC_END_X,NEXT_SAC_END_Y,PREVIOUS_FIX_ANGLE,PREVIOUS_FIX_DIRECTION,PREVIOUS_FIX_DISTANCE,ItemNO,audiofilename,imagefilename,TRIAL_INDEX,TRIAL_START_TIME,viewtype,word_index,Label,word_onset,word_offset,word_duration,Continuation,wordDE,wordEN,REFWord,TargetObj,ObjectLabel,ObjectID,LemmaDE,LingIndex,DepS,pos_1,pos_2
p3,Trial: 31,p3.edf,.,1,Fixation: 3539 ms,125,3539,3663,[ 99],62,739,17108,502.4,492.1,1,60,35.4,36.7,6,Saccade: 3474 ms,UP,65,11.93,183.6,598.57,[ ],3474,3538,645.7,920.3,500.6,494.1,7,Saccade: 3664 ms,RIGHT,48,6.16,128.34,369.7,"[ 4, 99]",3664,3711,497.2,486.4,672.8,353.4,-71.35,DOWN,12.11,A2,S2.wav,A2.png,14,2238151,preview,,,,,,,,,,,,,,,,,
p3,Trial: 31,p3.edf,.,2,Fixation: 3712 ms,139,3712,3850,"[ 4, 99]",10,745,139,685.4,339.9,1,1,35.2,36.5,7,Saccade: 3664 ms,RIGHT,48,6.16,128.34,369.7,[ 99],3664,3711,497.2,486.4,672.8,353.4,8,Saccade: 3851 ms,DOWN,48,5.96,124.1,451.65,"[ 25, 26, 99]",3851,3898,682.9,336.5,831.4,491.5,-141.27,LEFT,6.65,A2,S2.wav,A2.png,14,2238151,preview,,,,,,,,,,,,,,,,,
p3,Trial: 31,p3.edf,.,3,Fixation: 3899 ms,362,3899,4260,"[ 25, 26, 99]",7,701,362,844.6,518.8,1,1,35.65,36.85,8,Saccade: 3851 ms,DOWN,48,5.96,124.1,451.65,"[ 4, 99]",3851,3898,682.9,336.5,831.4,491.5,9,Saccade: 4261 ms,DOWN,38,2.19,57.73,187.87,[ 99],4261,4298,844.7,519.7,839.6,600.8,132.65,UP,6.63,A2,S2.wav,A2.png,14,2238151,preview,,,,,,,,,,,,,,,,,
p3,Trial: 31,p3.edf,.,4,Fixation: 4299 ms,146,4299,4444,"[ 14, 99]",1,675,146,840.0,609.6,1,1,35.8,37.2,9,Saccade: 4261 ms,DOWN,38,2.19,57.73,187.87,"[ 25, 26, 99]",4261,4298,844.7,519.7,839.6,600.8,10,Saccade: 4445 ms,UP,69,9.28,134.55,429.76,"[ 4, 99]",4445,4513,838.2,610.3,734.5,285.5,86.99,UP,2.46,A2,S2.wav,A2.png,14,2238151,preview,,,,,,,,,,,,,,,,,
p3,Trial: 31,p3.edf,.,5,Fixation: 4514 ms,155,4514,4668,"[ 4, 99]",10,768,528,733.5,291.4,1,3,35.3,36.5,10,Saccade: 4445 ms,UP,69,9.28,134.55,429.76,[ 99],4445,4513,838.2,610.3,734.5,285.5,11,Saccade: 4669 ms,UP,30,2.73,91.04,205.69,"[ 4, 99]",4669,4698,738.6,288.8,708.9,193.7,-70.87,DOWN,9.14,A2,S2.wav,A2.png,14,2238151,preview,,,,,,,,,,,,,,,,,
p3,Trial: 31,p3.edf,.,6,Fixation: 4699 ms,169,4699,4867,"[ 4, 99]",10,758,528,704.9,210.3,2,3,35.3,36.7,11,Saccade: 4669 ms,UP,30,2.73,91.04,205.69,"[ 4, 99]",4669,4698,738.6,288.8,708.9,193.7,12,Saccade: 4868 ms,DOWN,44,3.09,70.17,233.19,"[ 4, 99]",4868,4911,700.8,209.2,700.6,322.2,-69.92,DOWN,2.36,A2,S2.wav,A2.png,14,2238151,preview,,,,,,,,,,,,,,,,,
p3,Trial: 31,p3.edf,.,7,Fixation: 4912 ms,204,4912,5115,"[ 4, 99]",10,721,528,702.3,338.1,3,3,35.2,36.5,12,Saccade: 4868 ms,DOWN,44,3.09,70.17,233.19,"[ 4, 99]",4868,4911,700.8,209.2,700.6,322.2,13,Saccade: 5116 ms,LEFT,52,6.94,133.52,392.23,"[ 24, 99]",5116,5167,707.7,337.7,504.0,196.2,88.79,UP,3.49,A2,S2.wav,A2.png,14,2238151,preview,,,,,,,,,,,,,,,,,
p3,Trial: 31,p3.edf,.,8,Fixation: 5168 ms,165,5168,5332,"[ 24, 99]",4,701,539,492.3,191.2,1,2,35.45,36.8,13,Saccade: 5116 ms,LEFT,52,6.94,133.52,392.23,"[ 4, 99]",5116,5167,707.7,337.7,504,196.2,14,Saccade: 5333 ms,UP,26,2.59,99.44,183.4,"[ 21, 24, 99]",5333,5358,492.6,189.9,440.0,111.5,-33.99,RIGHT,7.17,A2,S2.wav,A2.png,14,2238151,preview,,,,,,,,,,,,,,,,,
p3,Trial: 31,p3.edf,.,9,Fixation: 5359 ms,374,5359,5732,"[ 21, 24, 99]",1,680,374,444.1,124.0,1,1,35.7,37.1,14,Saccade: 5333 ms,UP,26,2.59,99.44,183.4,"[ 24, 99]",5333,5358,492.6,189.9,440,111.5,15,Saccade: 5733 ms,RIGHT,72,16.12,223.88,652.63,"[ 25, 26, 99]",5733,5804,443.4,125.1,889.3,502.9,-53.31,DOWN,2.27,A2,S2.wav,A2.png,14,2238151,preview,,,,,,,,,,,,,,,,,
p3,Trial: 31,p3.edf,.,10,Fixation: 6723 ms,150,6723,6872,"[ 9, 99]",2,788,150,472.0,746.2,1,1,36.0,37.85,17,Saccade: 6664 ms,LEFT,59,10.78,182.71,494.87,"[ 26, 99]",6664,6722,812.3,522.6,484.3,733.7,18,Saccade: 6873 ms,RIGHT,59,10.76,182.31,462.85,"[ 26, 99]",6873,6931,465.9,739.7,824.5,591.4,92.68,UP,16.62,A2,S2.wav,A2.png,14,2238151,preview,,,,,,,,,,,,,,,,,
p3,Trial: 31,p3.edf,.,11,Fixation: 6932 ms,135,6932,7066,"[ 26, 99]",12,727,135,839.6,582.7,1,1,35.7,37.1,18,Saccade: 6873 ms,RIGHT,59,10.76,182.31,462.85,"[ 9, 99]",6873,6931,465.9,739.7,824.5,591.4,19,Saccade: 7067 ms,LEFT,75,17.02,226.96,633.56,"[ 3, 99]",7067,7141,844.3,582.1,242.8,448.7,-156.95,LEFT,11.14,A2,S2.wav,A2.png,14,2238151,preview,,,,,,,,,,,,,,,,,
p3,Trial: 31,p3.edf,.,12,Fixation: 7142 ms,254,7142,7395,"[ 3, 99]",7,810,621,250.3,458.2,1,3,36.55,37.2,19,Saccade: 7067 ms,LEFT,75,17.02,226.96,633.56,"[ 26, 99]",7067,7141,844.3,582.1,242.8,448.7,20,Saccade: 7396 ms,LEFT,38,3.04,79.96,277.6,"[ 3, 99]",7396,7433,253.8,459.6,151.2,414.1,-11.61,RIGHT,16.65,A2,S2.wav,A2.png,14,2238151,preview,,,,,,,,,,,,,,,,,
p3,Trial: 31,p3.edf,.,13,Fixation: 7434 ms,234,7434,7667,"[ 3, 99]",7,876,621,144.1,414.0,2,3,37.25,37.6,20,Saccade: 7396 ms,LEFT,38,3.04,79.96,277.6,"[ 3, 99]",7396,7433,253.8,459.6,151.2,414.1,21,Saccade: 7668 ms,UP,36,3.61,100.2,170.12,"[ 3, 99]",7668,7703,141.3,416.6,186.6,289.3,-22.32,RIGHT,3.11,A2,S2.wav,A2.png,14,2238151,preview,,,,,,,,,,,,,,,,,
p3,Trial: 31,p3.edf,.,14,Fixation: 7704 ms,133,7704,7836,"[ 3, 99]",7,870,621,186.3,300.1,3,3,37.0,37.4,21,Saccade: 7668 ms,UP,36,3.61,100.2,170.12,"[ 3, 99]",7668,7703,141.3,416.6,186.6,289.3,22,Saccade: 7837 ms,DOWN,34,2.93,86.08,249.84,"[ 3, 99]",7837,7870,184.2,299.1,122.2,389.5,-110.52,DOWN,3.24,A2,S2.wav,A2.png,14,2238151,preview,,,,,,,,,,,,,,,,,
p3,Trial: 31,p3.edf,.,15,Fixation: 7871 ms,1147,7871,9017,[ 99],62,839,17108,127.9,377.1,15,60,37.5,37.7,22,Saccade: 7837 ms,DOWN,34,2.93,86.08,249.84,"[ 3, 99]",7837,7870,184.2,299.1,122.2,389.5,23,Saccade: 9018 ms,DOWN,45,3.25,72.15,194.86,"[ 5, 99]",9018,9062,121.4,378.5,179.4,485.8,52.6,UP,2.58,A2,S2.wav,A2.png,14,2238151,preview,,,,,,,,,,,,,,,,,
p3,Trial: 31,p3.edf,.,16,Fixation: 9063 ms,242,9063,9304,"[ 5, 99]",11,892,242,190.3,489.8,1,1,37.05,37.55,23,Saccade: 9018 ms,DOWN,45,3.25,72.15,194.86,[ 99],9018,9062,121.4,378.5,179.4,485.8,24,Saccade: 9305 ms,UP,27,3.05,113.05,187.93,"[ 3, 99]",9305,9331,193.5,491.4,152.0,384.9,119.2,UP,3.43,A2,S2.wav,A2.png,14,2238151,preview,,,,,,,,,,,,,,,,,
p3,Trial: 31,p3.edf,.,17,Fixation: 9332 ms,224,9332,9555,"[ 3, 99]",7,928,224,140.1,391.5,1,1,37.3,37.55,24,Saccade: 9305 ms,UP,27,3.05,113.05,187.93,"[ 5, 99]",9305,9331,193.5,491.4,152,384.9,25,Saccade: 9556 ms,RIGHT,74,19.54,264.03,622.21,"[ 26, 99]",9556,9629,132.3,387.4,819.4,586.2,-62.71,DOWN,2.95,A2,S2.wav,A2.png,14,2238151,preview,,,,,,,,,,,,,,,,,
p3,Trial: 31,p3.edf,.,18,Fixation: 9630 ms,216,9630,9845,"[ 26, 99]",12,850,216,811.0,585.3,1,1,35.65,37.1,25,Saccade: 9556 ms,RIGHT,74,19.54,264.03,622.21,"[ 3, 99]",9556,9629,132.3,387.4,819.4,586.2,26,Saccade: 9846 ms,UP,33,4.39,132.99,268.09,"[ 6, 99]",9846,9878,807.6,584.4,808.9,422.9,164.24,LEFT,19.11,A2,S2.wav,A2.png,14,2238151,preview,,,,,,,,,,,,,,,,,
p3,Trial: 31,p3.edf,.,19,Fixation: 9879 ms,223,9879,10101,"[ 6, 99]",9,923,223,811.0,432.8,1,1,35.5,36.65,26,Saccade: 9846 ms,UP,33,4.39,132.99,268.09,"[ 26, 99]",9846,9878,807.6,584.4,808.9,422.9,27,Saccade: 10102 ms,UP,49,5.97,121.76,346.99,"[ 4, 99]",10102,10150,809.6,433.4,677.6,263.1,-90,DOWN,4.14,A2,S2.wav,A2.png,14,2238151,preview,,,,,,,,,,,,,,,,,
p3,Trial: 31,p3.edf,.,20,Fixation: 10151 ms,212,10151,10362,"[ 4, 99]",10,942,627,677.9,250.3,1,3,35.2,36.55,27,Saccade: 10102 ms,UP,49,5.97,121.76,346.99,"[ 6, 99]",10102,10150,809.6,433.4,677.6,263.1,28,Saccade: 10363 ms,DOWN,26,1.85,71.08,111.25,"[ 4, 99]",10363,10388,676.3,249.0,691.8,314.6,-52.94,DOWN,6.25,A2,S2.wav,A2.png,14,2238151,preview,,,,,,,,,,,,,,,,,
p3,Trial: 31,p3.edf,.,21,Fixation: 10389 ms,237,10389,10625,"[ 4, 99]",10,904,627,690.5,311.5,2,3,35.2,36.5,28,Saccade: 10363 ms,DOWN,26,1.85,71.08,111.25,"[ 4, 99]",10363,10388,676.3,249,691.8,314.6,29,Saccade: 10626 ms,LEFT,331,1.21,3.67,977.67,[ 99],10626,10956,691.3,309.5,652.6,328.3,102.06,UP,1.71,A2,S2.wav,A2.png,14,2238151,preview,,,,,,,,,,,,,,,,,
p3,Trial: 31,p3.edf,.,22,Fixation: 11146 ms,178,11146,11323,"[ 4, 99]",10,961,627,682.8,302.0,3,3,35.2,36.5,30,Saccade: 11128 ms,UP,18,1.3,72.11,90.18,[ 99],11128,11145,652.4,335.8,682.1,299.8,31,Saccade: 11324 ms,LEFT,54,8.11,150.17,433.41,"[ 24, 99]",11324,11377,683.3,303.3,435.7,151.9,-49.95,.,0.34,A2,S2.wav,A2.png,14,2238151,preview,,,,,,,,,,,,,,,,,
p3,Trial: 31,p3.edf,.,23,Fixation: 11378 ms,151,11378,11528,"[ 24, 99]",4,905,467,424.3,140.4,1,2,35.75,37.05,31,Saccade: 11324 ms,LEFT,54,8.11,150.17,433.41,"[ 4, 99]",11324,11377,683.3,303.3,435.7,151.9,32,Saccade: 11529 ms,UP,24,1.61,67.1,119.67,"[ 24, 99]",11529,11552,424.2,136.3,423.2,76.4,-31.09,RIGHT,8.51,A2,S2.wav,A2.png,14,2238151,preview,,,,,,,,,,,,,,,,,
p3,Trial: 31,p3.edf,.,24,Fixation: 11553 ms,316,11553,11868,"[ 24, 99]",4,804,467,423.6,91.0,2,2,35.85,37.25,32,Saccade: 11529 ms,UP,24,1.61,67.1,119.67,"[ 21, 24, 99]",11529,11552,424.2,136.3,423.2,76.4,33,Saccade: 11869 ms,RIGHT,72,15.47,214.91,646.46,"[ 25, 26, 99]",11869,11940,424.2,94.3,837.8,473.8,-89.16,DOWN,1.33,A2,S2.wav,A2.png,14,2238151,preview,,,,,,,,,,,,,,,,,
p3,Trial: 31,p3.edf,.,25,Fixation: 11941 ms,265,11941,12205,"[ 25, 26, 99]",7,762,265,827.9,473.0,1,1,35.55,36.75,33,Saccade: 11869 ms,RIGHT,72,15.47,214.91,646.46,"[ 24, 99]",11869,11940,424.2,94.3,837.8,473.8,34,Saccade: 12206 ms,LEFT,31,4.66,150.22,293.08,"[ 6, 13, 99]",12206,12236,828.6,470.6,687.5,382.8,137.65,LEFT,15.32,A2,S2.wav,A2.png,14,2238151,preview,,,,,,,,,,,,,,,,,
p3,Trial: 31,p3.edf,.,26,Fixation: 12237 ms,177,12237,12413,"[ 6, 13, 99]",9,821,177,681.0,384.8,1,1,35.2,36.5,34,Saccade: 12206 ms,LEFT,31,4.66,150.22,293.08,"[ 25, 26, 99]",12206,12236,828.6,470.6,687.5,382.8,35,Saccade: 12414 ms,UP,254,0.68,2.68,643.98,[ 99],12414,12667,683.9,387.9,689.6,363.8,-30.11,RIGHT,4.8,A2,S2.wav,A2.png,14,2238151,preview,,,,,,,,,,,,,,,,,
p3,Trial: 31,p3.edf,13170,27,Fixation: 12943 ms,612,12943,13554,"[ 25, 26, 99]",7,943,612,850.4,436.5,1,1,35.55,36.7,36,Saccade: 12898 ms,RIGHT,45,4.37,97.08,374.31,"[ 6, 13, 99]",12898,12942,689.7,372.9,834.6,428.2,37,Saccade: 13555 ms,LEFT,48,5.07,105.65,371.59,"[ 6, 13, 99]",13555,13602,851.3,437.8,680.7,380.0,163.57,LEFT,4.99,A2,S2.wav,A2.png,14,2238151,preview,,,,,,,,,,,,,,,,,
p3,Trial: 31,p3.edf,.,28,Fixation: 13603 ms,781,13603,14383,"[ 6, 99]",9,935,1145,670.8,369.8,1,3,35.2,36.5,37,Saccade: 13555 ms,LEFT,48,5.07,105.65,371.59,"[ 25, 26, 99]",13555,13602,851.3,437.8,680.7,380,38,Saccade: 14384 ms,RIGHT,269,4.01,14.89,683.73,"[ 6, 99]",14384,14652,676.3,376.0,817.8,371.1,-19.75,RIGHT,5.39,A2,S2.wav,A2.png,14,2238151,task,"[1, 2]","[Adverb, Verb]","[50, 250]","[230, 780]","[180, 530]","[0, 0]","[Da, befindet]","[It, is]","[0.0, 0.0]","[0.0, 0.0]","[nan, nan]","[nan, nan]","[da, befinden]","[nan, nan]","[nan, nan]","[ADV, VVFIN]","[nan, nan]"
p3,Trial: 31,p3.edf,.,29,Fixation: 15017 ms,210,15017,15226,"[ 6, 99]",9,948,1145,814.3,422.4,2,3,35.5,36.7,39,Saccade: 14994 ms,DOWN,23,1.32,57.29,78.2,"[ 6, 99]",14994,15016,815.2,384.9,811,433,40,Saccade: 15227 ms,LEFT,32,4.35,135.92,265.16,"[ 6, 99]",15227,15258,817.4,422.6,668.0,385.0,160.51,LEFT,4.31,A2,S2.wav,A2.png,14,2238151,task,[5],[Noun_1],[1640],[2080],[440],[0],[Becher],[mug],[0.0],[0.0],[mug_1],[S01_I002_E009],[Becher],[nan],[nan],[NN],[nan]
p3,Trial: 31,p3.edf,.,30,Fixation: 15259 ms,154,15259,15412,"[ 6, 13, 99]",9,901,1145,680.1,391.6,3,3,35.2,36.5,40,Saccade: 15227 ms,LEFT,32,4.35,135.92,265.16,"[ 6, 99]",15227,15258,817.4,422.6,668,385,41,Saccade: 15413 ms,DOWN,53,6.07,114.6,377.92,"[ 26, 99]",15413,15465,678.3,391.4,820.2,559.1,-12.5,RIGHT,3.89,A2,S2.wav,A2.png,14,2238151,task,[5],[Noun_1],[1640],[2080],[440],[0],[Becher],[mug],[0.0],[0.0],[mug_1],[S01_I002_E009],[Becher],[nan],[nan],[NN],[nan]
p3,Trial: 31,p3.edf,.,31,Fixation: 15466 ms,141,15466,15606,"[ 26, 99]",12,797,141,823.9,578.8,1,1,35.65,37.05,41,Saccade: 15413 ms,DOWN,53,6.07,114.6,377.92,"[ 6, 13, 99]",15413,15465,678.3,391.4,820.2,559.1,42,Saccade: 15607 ms,UP,46,6.39,138.85,388.7,"[ 6, 13, 99]",15607,15652,826.8,578.9,689.0,392.4,128.57,UP,6.51,A2,S2.wav,A2.png,14,2238151,task,[5],[Noun_1],[1640],[2080],[440],[0],[Becher],[mug],[0.0],[0.0],[mug_1],[S01_I002_E009],[Becher],[nan],[nan],[NN],[nan]
p3,Trial: 31,p3.edf,16120,32,Fixation: 15653 ms,1102,15653,16754,"[ 6, 13, 99]",9,852,2360,698.9,377.6,1,2,35.2,36.5,42,Saccade: 15607 ms,UP,46,6.39,138.85,388.7,"[ 26, 99]",15607,15652,826.8,578.9,689,392.4,43,Saccade: 16755 ms,LEFT,24,1.68,70.08,113.1,"[ 6, 99]",16755,16778,702.7,378.2,643.5,377.4,-57.18,DOWN,6.51,A2,S2.wav,A2.png,14,2238151,task,"[6, 7, 8]","[Preposition_1, Determiner_2, Noun_2]","[2450, 2630, 2930]","[2570, 2880, 3740]","[120, 250, 810]","[0, 0, 0]","[auf, einem, Kaffeetisch]","[on, a, coffee table]","[0.0, 0.0, 0.0]","[0.0, 0.0, 1.0]","[nan, nan, sidetable_1]","[nan, nan, S01_I002_E004]","[auf, eine, Kaffeetisch]","[nan, nan, nan]","[nan, nan, nan]","[APPR, ART, NN]","[nan, nan, nan]"
p3,Trial: 31,p3.edf,17672,33,Fixation: 16779 ms,1258,16779,18036,"[ 6, 99]",9,853,2360,664.5,381.6,2,2,35.2,36.5,43,Saccade: 16755 ms,LEFT,24,1.68,70.08,113.1,"[ 6, 13, 99]",16755,16778,702.7,378.2,643.5,377.4,44,Saccade: 18037 ms,UP,26,2.14,82.33,146.29,"[ 4, 99]",18037,18062,670.4,383.0,693.4,308.6,6.4,RIGHT,0.98,A2,S2.wav,A2.png,14,2238151,task,"[8, 9, 10, 11]","[Noun_2, Relative Clause Pronoun, Relative Clause Pers. Pronoun, Relative Clause Adverb]","[2930, 4090, 4270, 4460]","[3740, 4260, 4410, 4990]","[810, 170, 140, 530]","[0, 0, 0, 0]","[Kaffeetisch, den, sie, achtlos]","[coffee table, that, she, carelessly]","[0.0, 0.0, 0.0, 0.0]","[1.0, 0.0, 0.0, 0.0]","[sidetable_1, nan, woman_1, nan]","[S01_I002_E004, nan, S01_I002_E002, nan]","[Kaffeetisch, die, sie, achtlos]","[nan, nan, nan, nan]","[nan, nan, nan, nan]","[NN, PRELS, PPER, nan]","[nan, nan, nan, nan]"
p3,Trial: 31,p3.edf,18320,34,Fixation: 18063 ms,513,18063,18575,"[ 4, 99]",10,846,925,695.1,312.6,1,3,35.2,36.5,44,Saccade: 18037 ms,UP,26,2.14,82.33,146.29,"[ 6, 99]",18037,18062,670.4,383,693.4,308.6,45,Saccade: 18576 ms,UP,34,3.46,101.83,188.29,"[ 4, 99]",18576,18609,698.1,312.8,695.8,186.1,-114.7,DOWN,2.08,A2,S2.wav,A2.png,14,2238151,task,[11],[Relative Clause Adverb],[4460],[4990],[530],[0],[achtlos],[carelessly],[0.0],[0.0],[nan],[nan],[achtlos],[nan],[nan],[nan],[nan]
p3,Trial: 31,p3.edf,.,35,Fixation: 18610 ms,173,18610,18782,"[ 4, 99]",10,812,925,697.5,199.9,2,3,35.3,36.7,45,Saccade: 18576 ms,UP,34,3.46,101.83,188.29,"[ 4, 99]",18576,18609,698.1,312.8,695.8,186.1,46,Saccade: 18783 ms,DOWN,43,3.34,77.7,233.49,"[ 4, 99]",18783,18825,696.6,197.1,701.0,319.3,-91.27,DOWN,3.08,A2,S2.wav,A2.png,14,2238151,task,[12],[Relative Clause Verb],[5110],[5710],[600],[0],[beschädigt],[damages],[1.0],[0.0],[nan],[nan],[beschädigen],[nan],[nan],[VVPP],[nan]
p3,Trial: 31,p3.edf,.,36,Fixation: 18826 ms,239,18826,19064,"[ 4, 99]",10,809,925,704.2,332.9,3,3,35.2,36.5,46,Saccade: 18783 ms,DOWN,43,3.34,77.7,233.49,"[ 4, 99]",18783,18825,696.6,197.1,701,319.3,47,Saccade: 19065 ms,LEFT,60,15.13,252.15,619.71,"[ 5, 12, 99]",19065,19124,706.7,334.4,193.2,525.3,92.99,UP,3.64,A2,S2.wav,A2.png,14,2238151,task,[12],[Relative Clause Verb],[5110],[5710],[600],[0],[beschädigt],[damages],[1.0],[0.0],[nan],[nan],[beschädigen],[nan],[nan],[VVPP],[nan]
p3,Trial: 31,p3.edf,.,37,Fixation: 19125 ms,180,19125,19304,"[ 5, 99]",11,849,339,185.0,538.5,1,2,37.05,37.65,47,Saccade: 19065 ms,LEFT,60,15.13,252.15,619.71,"[ 4, 99]",19065,19124,706.7,334.4,193.2,525.3,48,Saccade: 19305 ms,UP,32,2.35,73.57,141.82,"[ 5, 99]",19305,19336,184.4,542.3,152.9,459.6,21.1,RIGHT,15.41,A2,S2.wav,A2.png,14,2238151,task,,break,,,,,,,,,,,,,,,
