RECORDING_SESSION_LABEL,TRIAL_LABEL,DATA_FILE,CURRENT_FIX_MSG_TIME_1,CURRENT_FIX_INDEX,CURRENT_FIX_LABEL,CURRENT_FIX_DURATION,CURRENT_FIX_START,CURRENT_FIX_END,CURRENT_FIX_INTEREST_AREAS,CURRENT_FIX_INTEREST_AREA_FIX_COUNT,CURRENT_FIX_PUPIL,CURRENT_FIX_RUN_DWELL_TIME,CURRENT_FIX_X,CURRENT_FIX_Y,CURRENT_FIX_RUN_INDEX,CURRENT_FIX_RUN_SIZE,CURRENT_FIX_X_RESOLUTION,CURRENT_FIX_Y_RESOLUTION,PREVIOUS_SAC_INDEX,PREVIOUS_SAC_LABEL,PREVIOUS_SAC_DIRECTION,PREVIOUS_SAC_DURATION,PREVIOUS_SAC_AMPLITUDE,PREVIOUS_SAC_AVG_VELOCITY,PREVIOUS_SAC_PEAK_VELOCITY,PREVIOUS_SAC_START_INTEREST_AREAS,PREVIOUS_SAC_START_TIME,PREVIOUS_SAC_END_TIME,PREVIOUS_SAC_START_X,PREVIOUS_SAC_START_Y,PREVIOUS_SAC_END_X,PREVIOUS_SAC_END_Y,NEXT_SAC_INDEX,NEXT_SAC_LABEL,NEXT_SAC_DIRECTION,NEXT_SAC_DURATION,NEXT_SAC_AMPLITUDE,NEXT_SAC_AVG_VELOCITY,NEXT_SAC_PEAK_VELOCITY,NEXT_SAC_END_INTEREST_AREAS,NEXT_SAC_START_TIME,NEXT_SAC_END_TIME,NEXT_SAC_START_X,NEXT_SAC_START_Y,NEXT_SAC_END_X,NEXT_SAC_END_Y,PREVIOUS_FIX_ANGLE,PREVIOUS_FIX_DIRECTION,PREVIOUS_FIX_DISTANCE,ItemNO,audiofilename,imagefilename,TRIAL_INDEX,TRIAL_START_TIME,viewtype,word_index,Label,word_onset,word_offset,word_duration,Continuation,wordDE,wordEN,REFWord,TargetObj,ObjectLabel,ObjectID,LemmaDE,LingIndex,DepS,pos_1,pos_2
p4,Trial: 11,p4.edf,.,1,Fixation: 3335 ms,177,3335,3511,[ 99],74,798,5759,572.0,537.3,1,25,35.35,36.75,6,Saccade: 3262 ms,UP,73,13.7,187.61,414.46,[ ],3262,3334,669.9,1040.7,571.3,523.3,7,Saccade: 3512 ms,LEFT,61,10.56,173.13,400.88,"[ 10, 99]",3512,3572,572,542.1,191,580.7,-75.78,DOWN,10.88,A24,S24.wav,A24.png,8,5917675,preview,,,,,,,,,,,,,,,,,
p4,Trial: 11,p4.edf,.,2,Fixation: 3573 ms,142,3573,3714,"[ 10, 99]",11,792,142,180.6,583.0,1,1,37.15,37.8,7,Saccade: 3512 ms,LEFT,61,10.56,173.13,400.88,[ 99],3512,3572,572,542.1,191,580.7,8,Saccade: 3715 ms,UP,21,2.04,97.33,142.67,"[ 5, 99]",3715,3735,181.8,585.9,142.5,519.7,6.48,RIGHT,10.87,A24,S24.wav,A24.png,8,5917675,preview,,,,,,,,,,,,,,,,,
p4,Trial: 11,p4.edf,.,3,Fixation: 3736 ms,665,3736,4400,"[ 5, 99]",13,767,665,142.1,513.7,1,1,37.4,37.8,8,Saccade: 3715 ms,UP,21,2.04,97.33,142.67,"[ 10, 99]",3715,3735,181.8,585.9,142.5,519.7,9,Saccade: 4401 ms,RIGHT,54,9.57,177.3,336.68,[ 99],4401,4454,139.3,503.5,483,568.2,-60.6,DOWN,2.1,A24,S24.wav,A24.png,8,5917675,preview,,,,,,,,,,,,,,,,,
p4,Trial: 11,p4.edf,.,4,Fixation: 4455 ms,114,4455,4568,[ 99],74,725,5759,483.8,572.8,4,25,35.6,37.0,9,Saccade: 4401 ms,RIGHT,54,9.57,177.3,336.68,"[ 5, 99]",4401,4454,139.3,503.5,483,568.2,10,Saccade: 4569 ms,RIGHT,42,6.06,144.26,353.45,[ 99],4569,4610,484.7,575.5,690.3,642.5,170.42,LEFT,9.49,A24,S24.wav,A24.png,8,5917675,preview,,,,,,,,,,,,,,,,,
p4,Trial: 11,p4.edf,.,5,Fixation: 4611 ms,125,4611,4735,"[ 3, 99]",5,693,125,698.9,640.6,1,1,35.5,37.2,10,Saccade: 4569 ms,RIGHT,42,6.06,144.26,353.45,[ 99],4569,4610,484.7,575.5,690.3,642.5,11,Saccade: 4736 ms,DOWN,37,2.69,72.76,227.81,[ 99],4736,4772,700.4,642.1,633.9,714.6,163.19,LEFT,6.32,A24,S24.wav,A24.png,8,5917675,preview,,,,,,,,,,,,,,,,,
p4,Trial: 11,p4.edf,.,6,Fixation: 4773 ms,131,4773,4903,[ 99],74,671,5759,623.0,717.4,6,25,35.7,37.6,11,Saccade: 4736 ms,DOWN,37,2.69,72.76,227.81,"[ 3, 99]",4736,4772,700.4,642.1,633.9,714.6,12,Saccade: 4904 ms,UP,71,7.05,99.36,252.23,"[ 15, 99]",4904,4974,618.8,712.1,480.4,493.1,43.93,RIGHT,2.96,A24,S24.wav,A24.png,8,5917675,preview,,,,,,,,,,,,,,,,,
p4,Trial: 11,p4.edf,.,7,Fixation: 4975 ms,134,4975,5108,"[ 15, 99]",9,734,134,482.4,498.7,1,1,35.5,36.8,12,Saccade: 4904 ms,UP,71,7.05,99.36,252.23,[ 99],4904,4974,618.8,712.1,480.4,493.1,13,Saccade: 5109 ms,UP,54,6.49,120.19,280.42,"[ 9, 99]",5109,5162,484.7,502.6,623,312.8,-56.11,DOWN,7.08,A24,S24.wav,A24.png,8,5917675,preview,,,,,,,,,,,,,,,,,
p4,Trial: 11,p4.edf,.,8,Fixation: 5163 ms,155,5163,5317,"[ 9, 99]",2,737,155,621.3,299.2,1,1,35.2,36.5,13,Saccade: 5109 ms,UP,54,6.49,120.19,280.42,"[ 15, 99]",5109,5162,484.7,502.6,623,312.8,14,Saccade: 5318 ms,LEFT,34,2.32,68.33,224.32,"[ 2, 12, 15, 99]",5318,5351,617.1,299.5,539.6,326.9,-125.82,DOWN,6.71,A24,S24.wav,A24.png,8,5917675,preview,,,,,,,,,,,,,,,,,
p4,Trial: 11,p4.edf,.,9,Fixation: 5352 ms,199,5352,5550,"[ 2, 12, 15, 99]",1,718,199,532.3,335.1,1,1,35.3,36.5,14,Saccade: 5318 ms,LEFT,34,2.32,68.33,224.32,"[ 9, 99]",5318,5351,617.1,299.5,539.6,326.9,15,Saccade: 5551 ms,UP,54,4.4,81.46,169.25,"[ 19, 99]",5551,5604,535.3,338.7,578.3,184,21.28,RIGHT,2.71,A24,S24.wav,A24.png,8,5917675,preview,,,,,,,,,,,,,,,,,
p4,Trial: 11,p4.edf,.,10,Fixation: 5605 ms,163,5605,5767,"[ 19, 99]",1,696,163,578.4,171.2,1,1,35.3,36.75,15,Saccade: 5551 ms,UP,54,4.4,81.46,169.25,"[ 12, 15, 99]",5551,5604,535.3,338.7,578.3,184,16,Saccade: 5768 ms,RIGHT,50,10.94,218.88,478.6,"[ 22, 28, 99]",5768,5817,581.3,168.8,941,325,-106.27,DOWN,4.66,A24,S24.wav,A24.png,8,5917675,preview,,,,,,,,,,,,,,,,,
p4,Trial: 11,p4.edf,.,11,Fixation: 5818 ms,194,5818,6011,"[ 22, 28, 99]",1,735,194,947.3,330.8,1,1,36.0,36.9,16,Saccade: 5768 ms,RIGHT,50,10.94,218.88,478.6,"[ 19, 99]",5768,5817,581.3,168.8,941,325,17,Saccade: 6012 ms,RIGHT,47,6.56,139.64,303.54,"[ 30, 31, 99]",6012,6058,945,330.3,1133,483,157.28,LEFT,11.22,A24,S24.wav,A24.png,8,5917675,preview,,,,,,,,,,,,,,,,,
p4,Trial: 11,p4.edf,.,12,Fixation: 6059 ms,149,6059,6207,"[ 30, 31, 99]",1,725,149,1139.0,487.1,1,1,37.4,37.7,17,Saccade: 6012 ms,RIGHT,47,6.56,139.64,303.54,"[ 22, 28, 99]",6012,6058,945,330.3,1133,483,18,Saccade: 6208 ms,LEFT,57,19.37,339.77,606.6,[ 99],6208,6264,1137.8,488.1,537.8,107,141.26,LEFT,6.7,A24,S24.wav,A24.png,8,5917675,preview,,,,,,,,,,,,,,,,,
p4,Trial: 11,p4.edf,.,13,Fixation: 6265 ms,126,6265,6390,[ 99],74,697,5759,531.0,106.4,13,25,35.5,37.0,18,Saccade: 6208 ms,LEFT,57,19.37,339.77,606.6,"[ 30, 31, 99]",6208,6264,1137.8,488.1,537.8,107,19,Saccade: 6391 ms,LEFT,31,1.72,55.61,183.5,"[ 18, 99]",6391,6421,529.2,110.3,470.7,129.3,-31.43,RIGHT,19.55,A24,S24.wav,A24.png,8,5917675,preview,,,,,,,,,,,,,,,,,
p4,Trial: 11,p4.edf,.,14,Fixation: 6422 ms,295,6422,6716,"[ 18, 99]",1,701,295,470.8,134.1,1,1,35.6,37.0,19,Saccade: 6391 ms,LEFT,31,1.72,55.61,183.5,"[ 18, 99]",6391,6421,529.2,110.3,470.7,129.3,20,Saccade: 6717 ms,DOWN,63,13.67,216.94,511.28,"[ 5, 99]",6717,6779,480.7,136.3,173.1,537.5,23.85,RIGHT,1.85,A24,S24.wav,A24.png,8,5917675,preview,,,,,,,,,,,,,,,,,
p4,Trial: 11,p4.edf,.,15,Fixation: 6780 ms,129,6780,6908,"[ 5, 99]",13,742,319,169.4,558.4,1,2,37.2,37.75,20,Saccade: 6717 ms,DOWN,63,13.67,216.94,511.28,"[ 18, 99]",6717,6779,480.7,136.3,173.1,537.5,21,Saccade: 6909 ms,UP,21,1.89,89.95,162.96,"[ 5, 99]",6909,6929,171.8,563.1,134.8,502.3,53.89,UP,14.05,A24,S24.wav,A24.png,8,5917675,preview,,,,,,,,,,,,,,,,,
p4,Trial: 11,p4.edf,.,16,Fixation: 6930 ms,190,6930,7119,"[ 5, 99]",13,733,319,133.2,496.9,2,2,37.4,37.8,21,Saccade: 6909 ms,UP,21,1.89,89.95,162.96,[ 99],6909,6929,171.8,563.1,134.8,502.3,22,Saccade: 7120 ms,RIGHT,28,3.33,118.92,218.03,"[ 10, 99]",7120,7147,134.8,494.6,243.6,553.7,-59.2,DOWN,1.9,A24,S24.wav,A24.png,8,5917675,preview,,,,,,,,,,,,,,,,,
p4,Trial: 11,p4.edf,.,17,Fixation: 7148 ms,294,7148,7441,"[ 10, 99]",11,750,456,244.2,561.9,1,2,36.7,37.5,22,Saccade: 7120 ms,RIGHT,28,3.33,118.92,218.03,"[ 5, 99]",7120,7147,134.8,494.6,243.6,553.7,23,Saccade: 7442 ms,DOWN,13,0.62,47.52,55.54,"[ 10, 99]",7442,7454,247.7,564.2,261.2,582.8,150.05,LEFT,3.46,A24,S24.wav,A24.png,8,5917675,preview,,,,,,,,,,,,,,,,,
p4,Trial: 11,p4.edf,.,18,Fixation: 7455 ms,162,7455,7616,"[ 10, 99]",11,743,456,259.2,578.5,2,2,36.6,37.5,23,Saccade: 7442 ms,DOWN,13,0.62,47.52,55.54,"[ 10, 99]",7442,7454,247.7,564.2,261.2,582.8,24,Saccade: 7617 ms,RIGHT,25,1.98,79.19,118.82,"[ 13, 99]",7617,7641,258,578.3,319.7,540.1,132.76,UP,0.6,A24,S24.wav,A24.png,8,5917675,preview,,,,,,,,,,,,,,,,,
p4,Trial: 11,p4.edf,.,19,Fixation: 7642 ms,504,7642,8145,"[ 13, 99]",4,739,504,333.5,534.1,1,1,36.15,37.15,24,Saccade: 7617 ms,RIGHT,25,1.98,79.19,118.82,"[ 10, 99]",7617,7641,258,578.3,319.7,540.1,25,Saccade: 8146 ms,LEFT,44,4.43,100.71,260.4,"[ 5, 99]",8146,8189,337.5,528.9,176.4,509.8,-149.79,LEFT,2.36,A24,S24.wav,A24.png,8,5917675,preview,,,,,,,,,,,,,,,,,
p4,Trial: 11,p4.edf,.,20,Fixation: 8190 ms,127,8190,8316,"[ 5, 99]",13,720,664,165.0,508.9,1,2,37.15,37.65,25,Saccade: 8146 ms,LEFT,44,4.43,100.71,260.4,"[ 13, 99]",8146,8189,337.5,528.9,176.4,509.8,26,Saccade: 8317 ms,LEFT,30,0.86,28.79,106.2,"[ 5, 99]",8317,8346,166,508.9,136.2,496.5,-8.34,RIGHT,4.65,A24,S24.wav,A24.png,8,5917675,preview,,,,,,,,,,,,,,,,,
p4,Trial: 11,p4.edf,.,21,Fixation: 8347 ms,537,8347,8883,"[ 5, 99]",13,704,664,131.0,492.0,2,2,37.4,37.8,26,Saccade: 8317 ms,LEFT,30,0.86,28.79,106.2,"[ 5, 99]",8317,8346,166,508.9,136.2,496.5,27,Saccade: 8884 ms,RIGHT,27,3.64,134.78,231.79,"[ 10, 99]",8884,8910,134,496.5,248.5,569.1,-26.16,RIGHT,1.02,A24,S24.wav,A24.png,8,5917675,preview,,,,,,,,,,,,,,,,,
p4,Trial: 11,p4.edf,.,22,Fixation: 8911 ms,262,8911,9172,"[ 10, 99]",11,711,262,248.9,569.7,1,1,36.7,37.55,27,Saccade: 8884 ms,RIGHT,27,3.64,134.78,231.79,"[ 5, 99]",8884,8910,134,496.5,248.5,569.1,28,Saccade: 9173 ms,RIGHT,31,2.94,94.97,148.56,"[ 13, 99]",9173,9203,246.8,571.5,340.1,517.4,147.05,LEFT,3.79,A24,S24.wav,A24.png,8,5917675,preview,,,,,,,,,,,,,,,,,
p4,Trial: 11,p4.edf,.,23,Fixation: 9204 ms,209,9204,9412,"[ 13, 99]",4,719,209,338.1,517.4,1,1,36.05,37.1,28,Saccade: 9173 ms,RIGHT,31,2.94,94.97,148.56,"[ 10, 99]",9173,9203,246.8,571.5,340.1,517.4,29,Saccade: 9413 ms,RIGHT,59,11.23,190.36,455.21,[ 99],9413,9471,338.6,518.5,646.1,792.7,-150.26,LEFT,2.82,A24,S24.wav,A24.png,8,5917675,preview,,,,,,,,,,,,,,,,,
p4,Trial: 11,p4.edf,.,24,Fixation: 9472 ms,238,9472,9709,[ 99],74,674,5759,638.2,805.7,24,25,35.95,38.15,29,Saccade: 9413 ms,RIGHT,59,11.23,190.36,455.21,"[ 13, 99]",9413,9471,338.6,518.5,646.1,792.7,30,Saccade: 9710 ms,LEFT,24,1.34,55.64,114.95,"[ 4, 99]",9710,9733,638.3,808.7,599.7,839.3,137.41,LEFT,11.32,A24,S24.wav,A24.png,8,5917675,preview,,,,,,,,,,,,,,,,,
p4,Trial: 11,p4.edf,.,25,Fixation: 9734 ms,338,9734,10071,"[ 4, 99]",4,690,338,599.8,835.3,1,1,36.1,38.5,30,Saccade: 9710 ms,LEFT,24,1.34,55.64,114.95,[ 99],9710,9733,638.3,808.7,599.7,839.3,31,Saccade: 10072 ms,DOWN,17,0.63,36.97,58.37,[ ],10072,10088,599.8,840.4,607.3,863.3,35.93,RIGHT,1.32,A24,S24.wav,A24.png,8,5917675,preview,,,,,,,,,,,,,,,,,
p4,Trial: 11,p4.edf,.,26,Fixation: 10089 ms,569,10089,10657,[ ],.,677,.,606.6,864.1,.,.,36.25,38.7,31,Saccade: 10072 ms,DOWN,17,0.63,36.97,58.37,"[ 4, 99]",10072,10088,599.8,840.4,607.3,863.3,32,Saccade: 10658 ms,LEFT,93,14.62,157.16,309.23,"[ 10, 99]",10658,10750,606.8,872,199.9,510.5,104.14,UP,0.77,A24,S24.wav,A24.png,8,5917675,preview,,,,,,,,,,,,,,,,,
p4,Trial: 11,p4.edf,.,27,Fixation: 10751 ms,163,10751,10913,"[ 10, 99]",11,663,163,203.7,521.8,1,1,36.9,37.55,32,Saccade: 10658 ms,LEFT,93,14.62,157.16,309.23,[ ],10658,10750,606.8,872,199.9,510.5,33,Saccade: 10914 ms,LEFT,26,2.62,100.71,184.25,"[ 5, 99]",10914,10939,208.4,529.8,112.4,511.6,-39.18,RIGHT,14.21,A24,S24.wav,A24.png,8,5917675,preview,,,,,,,,,,,,,,,,,
p4,Trial: 11,p4.edf,.,28,Fixation: 10940 ms,273,10940,11212,"[ 5, 99]",13,632,273,120.3,508.6,1,1,37.6,37.9,33,Saccade: 10914 ms,LEFT,26,2.62,100.71,184.25,"[ 10, 99]",10914,10939,208.4,529.8,112.4,511.6,34,Saccade: 11213 ms,RIGHT,35,3.8,108.6,248.17,"[ 10, 99]",11213,11247,118.7,508.9,246.7,569.4,-8.88,RIGHT,2.27,A24,S24.wav,A24.png,8,5917675,preview,,,,,,,,,,,,,,,,,
p4,Trial: 11,p4.edf,.,29,Fixation: 11248 ms,432,11248,11679,"[ 10, 99]",11,621,432,247.8,574.7,1,1,36.7,37.6,34,Saccade: 11213 ms,RIGHT,35,3.8,108.6,248.17,"[ 5, 99]",11213,11247,118.7,508.9,246.7,569.4,35,Saccade: 11680 ms,LEFT,35,3.51,100.19,167.72,"[ 5, 99]",11680,11714,246,572,143.1,491.4,152.97,LEFT,3.85,A24,S24.wav,A24.png,8,5917675,preview,,,,,,,,,,,,,,,,,
p4,Trial: 11,p4.edf,.,30,Fixation: 11715 ms,140,11715,11854,"[ 5, 99]",13,604,756,140.4,495.4,1,2,37.4,37.7,35,Saccade: 11680 ms,LEFT,35,3.51,100.19,167.72,"[ 10, 99]",11680,11714,246,572,143.1,491.4,36,Saccade: 11855 ms,.,17,0.46,27.16,54.7,"[ 5, 99]",11855,11871,141.9,495.6,125.7,489.5,-36,RIGHT,3.58,A24,S24.wav,A24.png,8,5917675,preview,,,,,,,,,,,,,,,,,
p4,Trial: 11,p4.edf,.,31,Fixation: 11872 ms,616,11872,12487,"[ 5, 99]",13,607,756,128.1,488.6,2,2,37.5,37.8,36,Saccade: 11855 ms,.,17,0.46,27.16,54.7,"[ 5, 99]",11855,11871,141.9,495.6,125.7,489.5,37,Saccade: 12488 ms,RIGHT,32,4.8,150.1,277.02,[ 99],12488,12519,129.2,490.9,299.8,539.8,-28.74,.,0.37,A24,S24.wav,A24.png,8,5917675,preview,,,,,,,,,,,,,,,,,
p4,Trial: 11,p4.edf,.,32,Fixation: 12520 ms,209,12520,12728,"[ 10, 99]",11,647,209,298.9,549.4,1,1,36.3,37.3,37,Saccade: 12488 ms,RIGHT,32,4.8,150.1,277.02,"[ 5, 99]",12488,12519,129.2,490.9,299.8,539.8,38,Saccade: 12729 ms,DOWN,43,3.31,77.07,248.28,"[ 6, 99]",12729,12771,299.8,550.3,298.7,674.9,160.72,LEFT,4.9,A24,S24.wav,A24.png,8,5917675,preview,,,,,,,,,,,,,,,,,
p4,Trial: 11,p4.edf,.,33,Fixation: 12772 ms,261,12772,13032,[ 99],74,656,15443,289.2,692.5,7,48,36.65,37.95,38,Saccade: 12729 ms,DOWN,43,3.31,77.07,248.28,"[ 10, 99]",12729,12771,299.8,550.3,298.7,674.9,39,Saccade: 13033 ms,RIGHT,25,3.08,123.23,240.46,[ 99],13033,13057,287.7,695.4,387.8,748.8,86,UP,3.81,A24,S24.wav,A24.png,8,5917675,preview,,,,,,,,,,,,,,,,,
p4,Trial: 11,p4.edf,13119,34,Fixation: 13058 ms,428,13058,13485,[ 99],74,678,15443,384.6,758.2,8,48,36.4,38.1,39,Saccade: 13033 ms,RIGHT,25,3.08,123.23,240.46,[ 99],13033,13057,287.7,695.4,387.8,748.8,40,Saccade: 13486 ms,UP,59,6.78,114.86,232.15,[ 99],13486,13544,384.5,759,497,533.9,146.52,LEFT,3.13,A24,S24.wav,A24.png,8,5917675,preview,,,,,,,,,,,,,,,,,
p4,Trial: 11,p4.edf,.,35,Fixation: 13545 ms,164,13545,13708,[ 99],74,718,15443,499.3,532.1,9,48,35.5,36.8,40,Saccade: 13486 ms,UP,59,6.78,114.86,232.15,[ 99],13486,13544,384.5,759,497,533.9,41,Saccade: 13709 ms,DOWN,38,7.76,204.3,393.24,"[ 4, 99]",13709,13746,495.8,536.2,625.4,793.3,-117.86,DOWN,6.83,A24,S24.wav,A24.png,8,5917675,task,,break,,,,,,,,,,,,,,,
p4,Trial: 11,p4.edf,.,36,Fixation: 13747 ms,207,13747,13953,"[ 4, 99]",4,681,207,619.6,802.5,1,1,35.95,38.15,41,Saccade: 13709 ms,DOWN,38,7.76,204.3,393.24,[ 99],13709,13746,495.8,536.2,625.4,793.3,42,Saccade: 13954 ms,UP,48,9.73,202.61,364.25,[ 99],13954,14001,620.7,812.2,375.3,551.4,115.02,UP,7.96,A24,S24.wav,A24.png,8,5917675,task,[2],[Verb],[290],[830],[540],[0],[befindet],[is],[0.0],[0.0],[nan],[nan],[befinden],[nan],[nan],[nan],[nan]
p4,Trial: 11,p4.edf,.,37,Fixation: 14002 ms,296,14002,14297,[ 99],74,727,15443,372.4,556.9,11,48,35.9,37.1,42,Saccade: 13954 ms,UP,48,9.73,202.61,364.25,"[ 4, 99]",13954,14001,620.7,812.2,375.3,551.4,43,Saccade: 14298 ms,RIGHT,44,7.79,177.15,309.06,"[ 9, 99]",14298,14341,373.5,554.7,650.3,580,-43.49,RIGHT,9.48,A24,S24.wav,A24.png,8,5917675,task,[2],[Verb],[290],[830],[540],[0],[befindet],[is],[0.0],[0.0],[nan],[nan],[befinden],[nan],[nan],[nan],[nan]
p4,Trial: 11,p4.edf,.,38,Fixation: 14342 ms,155,14342,14496,"[ 9, 99]",2,704,155,644.8,584.5,1,1,35.4,36.9,43,Saccade: 14298 ms,RIGHT,44,7.79,177.15,309.06,[ 99],14298,14341,373.5,554.7,650.3,580,44,Saccade: 14497 ms,LEFT,59,7.05,119.42,324.13,"[ 15, 99]",14497,14555,647.1,583.1,423,467.8,174.42,LEFT,7.68,A24,S24.wav,A24.png,8,5917675,task,[3],[Pronoun_ref],[920],[1250],[330],[0],[sich],[nan],[0.0],[0.0],[nan],[nan],[sie],[nan],[nan],[nan],[nan]
p4,Trial: 11,p4.edf,.,39,Fixation: 14556 ms,108,14556,14663,"[ 15, 99]",9,697,108,422.0,473.0,1,1,35.6,36.8,44,Saccade: 14497 ms,LEFT,59,7.05,119.42,324.13,"[ 9, 99]",14497,14555,647.1,583.1,423,467.8,45,Saccade: 14664 ms,LEFT,35,2.56,73.28,221.49,"[ 13, 99]",14664,14698,421.7,475.8,331.8,495.7,-25.74,RIGHT,6.97,A24,S24.wav,A24.png,8,5917675,task,,break,,,,,,,,,,,,,,,
p4,Trial: 11,p4.edf,14790,40,Fixation: 14699 ms,260,14699,14958,"[ 13, 99]",4,686,520,329.4,510.2,1,2,36.1,37.1,45,Saccade: 14664 ms,LEFT,35,2.56,73.28,221.49,"[ 15, 99]",14664,14698,421.7,475.8,331.8,495.7,46,Saccade: 14959 ms,DOWN,16,0.73,45.33,61.99,"[ 13, 99]",14959,14974,333,512.1,350.6,532,21.29,RIGHT,2.77,A24,S24.wav,A24.png,8,5917675,task,[4],[Determiner_1],[1430],[1705],[275],[0],[ein],[a],[0.0],[0.0],[nan],[nan],[eine],[nan],[nan],[nan],[nan]
p4,Trial: 11,p4.edf,.,41,Fixation: 14975 ms,260,14975,15234,"[ 13, 99]",4,713,520,347.2,530.6,2,2,36.05,37.1,46,Saccade: 14959 ms,DOWN,16,0.73,45.33,61.99,"[ 13, 99]",14959,14974,333,512.1,350.6,532,47,Saccade: 15235 ms,UP,55,6.79,123.45,235.66,"[ 12, 15, 99]",15235,15289,343.8,530.5,510.5,349.1,131.9,UP,0.74,A24,S24.wav,A24.png,8,5917675,task,"[4, 5]","[Determiner_1, Noun_1]","[1430, 1590]","[1705, 2350]","[275, 760]","[0, 0]","[ein, Radio]","[a, radio]","[0.0, 0.0]","[0.0, 0.0]","[nan, radio_1]","[nan, S01_I024_E009]","[eine, Radio]","[nan, nan]","[nan, nan]","[nan, nan]","[nan, nan]"
p4,Trial: 11,p4.edf,.,42,Fixation: 15290 ms,299,15290,15588,"[ 12, 15, 99]",4,715,299,514.5,342.2,1,1,35.3,36.5,47,Saccade: 15235 ms,UP,55,6.79,123.45,235.66,"[ 13, 99]",15235,15289,343.8,530.5,510.5,349.1,48,Saccade: 15589 ms,RIGHT,41,7.21,175.92,357.02,[ 99],15589,15629,509.1,342.5,714.5,498.5,-132.49,DOWN,6.94,A24,S24.wav,A24.png,8,5917675,task,[5],[Noun_1],[1590],[2350],[760],[0],[Radio],[radio],[0.0],[0.0],[radio_1],[S01_I024_E009],[Radio],[nan],[nan],[nan],[nan]
p4,Trial: 11,p4.edf,.,43,Fixation: 15630 ms,125,15630,15754,[ 99],74,721,15443,717.4,495.7,17,48,35.3,36.7,48,Saccade: 15589 ms,RIGHT,41,7.21,175.92,357.02,"[ 12, 15, 99]",15589,15629,509.1,342.5,714.5,498.5,49,Saccade: 15755 ms,LEFT,54,6.48,119.98,341.08,"[ 12, 15, 99]",15755,15808,719.1,498.3,541.8,348.5,143.88,LEFT,7.12,A24,S24.wav,A24.png,8,5917675,task,,break,,,,,,,,,,,,,,,
p4,Trial: 11,p4.edf,.,44,Fixation: 15809 ms,502,15809,16310,"[ 12, 15, 99]",4,738,502,539.1,338.5,1,1,35.3,36.5,49,Saccade: 15755 ms,LEFT,54,6.48,119.98,341.08,[ 99],15755,15808,719.1,498.3,541.8,348.5,50,Saccade: 16311 ms,DOWN,50,11.8,235.99,479.58,"[ 3, 99]",16311,16360,542.5,329.7,810.5,665.1,-40.38,RIGHT,6.63,A24,S24.wav,A24.png,8,5917675,task,"[6, 7]","[Preposition_1, Determiner_2]","[2680, 2870]","[2820, 3100]","[140, 230]","[0, 0]","[auf, einem]","[on, a]","[0.0, 0.0]","[0.0, 0.0]","[nan, nan]","[nan, nan]","[auf, eine]","[nan, nan]","[nan, nan]","[nan, nan]","[nan, nan]"
p4,Trial: 11,p4.edf,16380,45,Fixation: 16361 ms,147,16361,16507,"[ 3, 99]",5,729,422,810.9,668.2,1,2,35.8,37.45,50,Saccade: 16311 ms,DOWN,50,11.8,235.99,479.58,"[ 2, 12, 15, 99]",16311,16360,542.5,329.7,810.5,665.1,51,Saccade: 16508 ms,LEFT,22,1.39,63.27,121.7,"[ 3, 99]",16508,16529,809.1,672.4,762.3,654.7,130.61,UP,11.75,A24,S24.wav,A24.png,8,5917675,task,[7],[Determiner_2],[2870],[3100],[230],[0],[einem],[a],[0.0],[0.0],[nan],[nan],[eine],[nan],[nan],[nan],[nan]
p4,Trial: 11,p4.edf,.,46,Fixation: 16530 ms,275,16530,16804,"[ 3, 99]",5,705,422,761.6,657.8,2,2,35.7,37.3,51,Saccade: 16508 ms,LEFT,22,1.39,63.27,121.7,"[ 3, 99]",16508,16529,809.1,672.4,762.3,654.7,52,Saccade: 16805 ms,RIGHT,61,10.91,178.78,330.32,"[ 29, 31, 99]",16805,16865,761,664.3,1145.2,553,-11.41,RIGHT,1.41,A24,S24.wav,A24.png,8,5917675,task,[8],[Noun_2],[3180],[3720],[540],[0],[Kissen],[pillow],[0.0],[1.0],[pillow_1],[S01_I024_E010],[Kissen],[nan],[nan],[nan],[nan]
p4,Trial: 11,p4.edf,.,47,Fixation: 16866 ms,174,16866,17039,"[ 29, 31, 99]",2,742,174,1151.4,554.1,1,1,37.55,37.95,52,Saccade: 16805 ms,RIGHT,61,10.91,178.78,330.32,"[ 3, 99]",16805,16865,761,664.3,1145.2,553,53,Saccade: 17040 ms,DOWN,21,0.94,44.74,84.03,"[ 29, 31, 99]",17040,17060,1153.2,558,1155.1,593.7,-165.48,LEFT,10.99,A24,S24.wav,A24.png,8,5917675,task,[8],[Noun_2],[3180],[3720],[540],[0],[Kissen],[pillow],[0.0],[1.0],[pillow_1],[S01_I024_E010],[Kissen],[nan],[nan],[nan],[nan]
p4,Trial: 11,p4.edf,.,48,Fixation: 17194 ms,125,17194,17318,"[ 5, 99]",13,718,125,167.8,595.0,1,1,37.3,37.9,54,Saccade: 17110 ms,LEFT,84,26.42,314.58,652.02,"[ 29, 31, 99]",17110,17193,1155.9,594.3,165,587.3,55,Saccade: 17319 ms,RIGHT,56,7.84,140.08,379.7,"[ 15, 99]",17319,17374,166.6,593.8,430.9,482,2.35,RIGHT,26.3,A24,S24.wav,A24.png,8,5917675,task,,break,,,,,,,,,,,,,,,
p4,Trial: 11,p4.edf,.,49,Fixation: 17375 ms,138,17375,17512,"[ 15, 99]",9,746,294,436.6,477.8,1,2,35.6,36.8,55,Saccade: 17319 ms,RIGHT,56,7.84,140.08,379.7,"[ 5, 99]",17319,17374,166.6,593.8,430.9,482,56,Saccade: 17513 ms,UP,46,3.57,77.55,232.06,"[ 7, 15, 99]",17513,17558,437.4,480.7,525.5,386.9,-156.95,LEFT,8.01,A24,S24.wav,A24.png,8,5917675,task,[9],[Preposition_2_of_RC],[4045],[4210],[165],[0],[auf],[on],[0.0],[0.0],[nan],[nan],[auf],[nan],[nan],[nan],[nan]
p4,Trial: 11,p4.edf,.,50,Fixation: 17559 ms,156,17559,17714,"[ 7, 15, 99]",1,750,156,529.9,381.9,1,1,35.3,36.5,56,Saccade: 17513 ms,UP,46,3.57,77.55,232.06,"[ 15, 99]",17513,17558,437.4,480.7,525.5,386.9,57,Saccade: 17715 ms,LEFT,49,8.64,176.32,510.24,[ 99],17715,17763,533.9,382.9,307.9,601.5,-135.17,LEFT,3.71,A24,S24.wav,A24.png,8,5917675,task,[10],[Relative Clause Pronoun],[4270],[4430],[160],[1],[dem],[that],[0.0],[0.0],[nan],[nan],[die],[nan],[nan],[nan],[nan]
p4,Trial: 11,p4.edf,17780,51,Fixation: 17764 ms,131,17764,17894,"[ 6, 10, 99]",1,750,131,292.2,611.8,1,1,36.45,37.55,57,Saccade: 17715 ms,LEFT,49,8.64,176.32,510.24,"[ 7, 15, 99]",17715,17763,533.9,382.9,307.9,601.5,58,Saccade: 17895 ms,LEFT,28,1.7,60.66,183.96,"[ 10, 99]",17895,17922,294.2,615.4,232.9,604.3,43.14,RIGHT,9.08,A24,S24.wav,A24.png,8,5917675,task,[11],[Relative Clause Pers. Pronoun],[4440],[4580],[140],[0],[sie],[she],[0.0],[0.0],[kid_1],[S01_I024_E004],[sie],[nan],[nan],[nan],[nan]
p4,Trial: 11,p4.edf,.,52,Fixation: 17923 ms,488,17923,18410,"[ 10, 99]",11,786,1238,231.8,596.3,2,4,36.8,37.7,58,Saccade: 17895 ms,LEFT,28,1.7,60.66,183.96,"[ 6, 99]",17895,17922,294.2,615.4,232.9,604.3,59,Saccade: 18411 ms,.,8,0.42,52.47,43.28,"[ 10, 99]",18411,18418,233.5,591.1,248.7,588.4,-14.03,RIGHT,1.7,A24,S24.wav,A24.png,8,5917675,task,[12],[Relative Clause Adverb],[4580],[5220],[640],[0],[fröhlich],[cheerfully],[0.0],[0.0],[nan],[nan],[fröhlich],[nan],[nan],[nan],[nan]
p4,Trial: 11,p4.edf,18560,53,Fixation: 18419 ms,370,18419,18788,"[ 10, 99]",11,754,1238,244.3,589.1,3,4,36.75,37.65,59,Saccade: 18411 ms,.,8,0.42,52.47,43.28,"[ 10, 99]",18411,18418,233.5,591.1,248.7,588.4,60,Saccade: 18789 ms,LEFT,28,1.96,70.07,128.59,"[ 5, 99]",18789,18816,231.2,592,159.1,581.8,-150.65,.,0.39,A24,S24.wav,A24.png,8,5917675,task,[12],[Relative Clause Adverb],[4580],[5220],[640],[0],[fröhlich],[cheerfully],[0.0],[0.0],[nan],[nan],[fröhlich],[nan],[nan],[nan],[nan]
p4,Trial: 11,p4.edf,.,54,Fixation: 18817 ms,249,18817,19065,"[ 10, 99]",11,718,1238,190.2,590.6,4,4,37.25,37.85,60,Saccade: 18789 ms,LEFT,28,1.96,70.07,128.59,"[ 10, 99]",18789,18816,231.2,592,159.1,581.8,61,Saccade: 19066 ms,UP,23,0.94,41,90.4,"[ 5, 99]",19066,19088,192.2,593.7,169.3,566.7,1.56,RIGHT,1.46,A24,S24.wav,A24.png,8,5917675,task,[13],[Relative Clause Verb],[5360],[5840],[480],[0],[sitzt],[sits],[1.0],[0.0],[nan],[nan],[sitzen],[nan],[nan],[nan],[nan]
p4,Trial: 11,p4.edf,.,55,Fixation: 19089 ms,154,19089,19242,"[ 5, 99]",13,724,2704,164.8,564.2,1,3,37.25,37.8,61,Saccade: 19066 ms,UP,23,0.94,41,90.4,"[ 10, 99]",19066,19088,192.2,593.7,169.3,566.7,62,Saccade: 19243 ms,UP,17,1.47,86.27,108.68,"[ 5, 99]",19243,19259,166.8,561.5,137.6,514.6,-45.67,DOWN,0.98,A24,S24.wav,A24.png,8,5917675,task,[13],[Relative Clause Verb],[5360],[5840],[480],[0],[sitzt],[sits],[1.0],[0.0],[nan],[nan],[sitzen],[nan],[nan],[nan],[nan]
p4,Trial: 11,p4.edf,19590,56,Fixation: 19260 ms,1139,19260,20398,"[ 5, 99]",13,705,2704,131.7,511.7,2,3,37.45,37.8,62,Saccade: 19243 ms,UP,17,1.47,86.27,108.68,"[ 5, 99]",19243,19259,166.8,561.5,137.6,514.6,63,Saccade: 20399 ms,.,16,0.21,13.26,37.27,"[ 5, 99]",20399,20414,123.9,505.3,116.2,503.2,-57.46,DOWN,1.65,A24,S24.wav,A24.png,8,5917675,post,,,,,,,,,,,,,,,,,
