RECORDING_SESSION_LABEL,TRIAL_LABEL,DATA_FILE,CURRENT_FIX_MSG_TIME_1,CURRENT_FIX_INDEX,CURRENT_FIX_LABEL,CURRENT_FIX_DURATION,CURRENT_FIX_START,CURRENT_FIX_END,CURRENT_FIX_INTEREST_AREAS,CURRENT_FIX_INTEREST_AREA_FIX_COUNT,CURRENT_FIX_PUPIL,CURRENT_FIX_RUN_DWELL_TIME,CURRENT_FIX_X,CURRENT_FIX_Y,CURRENT_FIX_RUN_INDEX,CURRENT_FIX_RUN_SIZE,CURRENT_FIX_X_RESOLUTION,CURRENT_FIX_Y_RESOLUTION,PREVIOUS_SAC_INDEX,PREVIOUS_SAC_LABEL,PREVIOUS_SAC_DIRECTION,PREVIOUS_SAC_DURATION,PREVIOUS_SAC_AMPLITUDE,PREVIOUS_SAC_AVG_VELOCITY,PREVIOUS_SAC_PEAK_VELOCITY,PREVIOUS_SAC_START_INTEREST_AREAS,PREVIOUS_SAC_START_TIME,PREVIOUS_SAC_END_TIME,PREVIOUS_SAC_START_X,PREVIOUS_SAC_START_Y,PREVIOUS_SAC_END_X,PREVIOUS_SAC_END_Y,NEXT_SAC_INDEX,NEXT_SAC_LABEL,NEXT_SAC_DIRECTION,NEXT_SAC_DURATION,NEXT_SAC_AMPLITUDE,NEXT_SAC_AVG_VELOCITY,NEXT_SAC_PEAK_VELOCITY,NEXT_SAC_END_INTEREST_AREAS,NEXT_SAC_START_TIME,NEXT_SAC_END_TIME,NEXT_SAC_START_X,NEXT_SAC_START_Y,NEXT_SAC_END_X,NEXT_SAC_END_Y,PREVIOUS_FIX_ANGLE,PREVIOUS_FIX_DIRECTION,PREVIOUS_FIX_DISTANCE,ItemNO,audiofilename,imagefilename,TRIAL_INDEX,TRIAL_START_TIME,viewtype,word_index,Label,word_onset,word_offset,word_duration,Continuation,wordDE,wordEN,REFWord,TargetObj,ObjectLabel,ObjectID,LemmaDE,LingIndex,DepS,pos_1,pos_2
p7,Trial: 9,p7.edf,.,1,Fixation: 3415 ms,171,3415,3585,"[ 1, 99]",4,994,171,531.5,795.6,1,1,36.05,38.15,4,Saccade: 3367 ms,UP,48,3.89,80.95,273.53,[ ],3367,3414,610.6,933.2,534.7,806.3,5,Saccade: 3586 ms,UP,47,11.2,238.3,449.22,"[ 3, 99]",3586,3632,527.7,791.7,551.7,374.7,-52.39,DOWN,4.96,A30,S30.wav,A30.png,4,18621769,preview,,,,,,,,,,,,,,,,,
p7,Trial: 9,p7.edf,.,2,Fixation: 3633 ms,187,3633,3819,"[ 3, 99]",5,1039,402,556.2,358.5,1,2,35.2,36.5,5,Saccade: 3586 ms,UP,47,11.2,238.3,449.22,"[ 1, 99]",3586,3632,527.7,791.7,551.7,374.7,6,Saccade: 3820 ms,UP,24,2.58,107.42,209.61,"[ 3, 99]",3820,3843,557.7,351.3,494.2,283.8,-93.39,DOWN,11.73,A30,S30.wav,A30.png,4,18621769,preview,,,,,,,,,,,,,,,,,
p7,Trial: 9,p7.edf,.,3,Fixation: 3844 ms,215,3844,4058,"[ 3, 99]",5,1095,402,492.4,288.7,2,2,35.4,36.6,6,Saccade: 3820 ms,UP,24,2.58,107.42,209.61,"[ 3, 99]",3820,3843,557.7,351.3,494.2,283.8,7,Saccade: 4059 ms,RIGHT,194,14.43,74.36,1097.09,"[ 2, 99]",4059,4252,492.3,290.9,992.4,426.4,-46.58,DOWN,2.63,A30,S30.wav,A30.png,4,18621769,preview,,,,,,,,,,,,,,,,,
p7,Trial: 9,p7.edf,.,4,Fixation: 4537 ms,198,4537,4734,"[ 8, 99]",8,1225,528,743.5,670.8,1,2,35.7,37.35,8,Saccade: 4489 ms,DOWN,48,8.89,185.31,547.99,[ 99],4489,4536,980.5,417.5,760.5,657.3,9,Saccade: 4735 ms,.,28,0.39,14.06,82.7,"[ 8, 99]",4735,4762,745.0,675.8,732.3,682.1,124.35,UP,12.52,A30,S30.wav,A30.png,4,18621769,preview,,,,,,,,,,,,,,,,,
p7,Trial: 9,p7.edf,.,5,Fixation: 4763 ms,330,4763,5092,"[ 8, 99]",8,1213,528,724.4,687.3,2,2,35.7,37.45,9,Saccade: 4735 ms,.,28,0.39,14.06,82.7,"[ 8, 99]",4735,4762,745,675.8,732.3,682.1,10,Saccade: 5093 ms,UP,46,2.55,55.47,205.76,[ 99],5093,5138,728.6,694.4,715.2,600.4,39.51,RIGHT,0.69,A30,S30.wav,A30.png,4,18621769,preview,,,,,,,,,,,,,,,,,
p7,Trial: 9,p7.edf,.,6,Fixation: 5139 ms,171,5139,5309,[ 99],52,1161,14384,713.6,590.8,6,51,35.5,37.0,10,Saccade: 5093 ms,UP,46,2.55,55.47,205.76,"[ 8, 99]",5093,5138,728.6,694.4,715.2,600.4,11,Saccade: 5310 ms,UP,224,0.76,3.38,1061.07,[ 99],5310,5533,712.7,594.4,694.4,573.9,-83.33,DOWN,2.61,A30,S30.wav,A30.png,4,18621769,preview,,,,,,,,,,,,,,,,,
p7,Trial: 9,p7.edf,.,7,Fixation: 5747 ms,417,5747,6163,"[ 2, 99]",7,1211,1772,954.6,610.3,1,2,36.3,37.5,12,Saccade: 5684 ms,RIGHT,63,7.44,118.06,342.02,[ 99],5684,5746,694.3,565.9,958.2,605.5,13,Saccade: 6164 ms,UP,21,2.13,101.63,159.17,"[ 2, 99]",6164,6184,953.9,615.0,966.2,536.3,175.54,LEFT,6.73,A30,S30.wav,A30.png,4,18621769,preview,,,,,,,,,,,,,,,,,
p7,Trial: 9,p7.edf,.,8,Fixation: 6185 ms,1355,6185,7539,"[ 2, 99]",7,1150,1772,972.3,537.9,2,2,36.2,37.2,13,Saccade: 6164 ms,UP,21,2.13,101.63,159.17,"[ 2, 99]",6164,6184,953.9,615,966.2,536.3,14,Saccade: 7540 ms,LEFT,32,6.95,217.05,396.91,[ 99],7540,7571,966.7,528.1,724.9,589.6,-104.14,DOWN,2,A30,S30.wav,A30.png,4,18621769,preview,,,,,,,,,,,,,,,,,
p7,Trial: 9,p7.edf,.,9,Fixation: 7572 ms,143,7572,7714,"[ 8, 99]",8,1133,1192,723.3,602.4,1,2,35.5,37.05,14,Saccade: 7540 ms,LEFT,32,6.95,217.05,396.91,"[ 2, 99]",7540,7571,966.7,528.1,724.9,589.6,15,Saccade: 7715 ms,DOWN,202,1.76,8.72,723.48,"[ 8, 99]",7715,7916,721.5,610.0,718.3,675.5,14.04,RIGHT,7.16,A30,S30.wav,A30.png,4,18621769,preview,,,,,,,,,,,,,,,,,
p7,Trial: 9,p7.edf,.,10,Fixation: 8157 ms,1049,8157,9205,"[ 8, 99]",8,1201,1192,725.6,682.3,2,2,35.65,37.4,16,Saccade: 8133 ms,DOWN,24,0.84,34.99,92.41,"[ 8, 99]",8133,8156,714.9,655.9,728.2,684,17,Saccade: 9206 ms,UP,59,10.94,185.42,453.37,"[ 19, 99]",9206,9264,717.9,676.0,471.3,363.3,91.73,UP,2.15,A30,S30.wav,A30.png,4,18621769,preview,,,,,,,,,,,,,,,,,
p7,Trial: 9,p7.edf,.,11,Fixation: 9265 ms,192,9265,9456,"[ 19, 99]",2,1251,192,464.6,348.4,1,1,35.4,36.6,17,Saccade: 9206 ms,UP,59,10.94,185.42,453.37,"[ 8, 99]",9206,9264,717.9,676,471.3,363.3,18,Saccade: 9457 ms,UP,26,2.5,96.05,188.3,"[ 3, 99]",9457,9482,466.8,353.1,493.9,266.1,-50.85,DOWN,11.64,A30,S30.wav,A30.png,4,18621769,preview,,,,,,,,,,,,,,,,,
p7,Trial: 9,p7.edf,.,12,Fixation: 9483 ms,165,9483,9647,"[ 3, 99]",5,1239,165,489.0,277.5,1,1,35.4,36.6,18,Saccade: 9457 ms,UP,26,2.5,96.05,188.3,"[ 19, 99]",9457,9482,466.8,353.1,493.9,266.1,19,Saccade: 9648 ms,LEFT,65,9.54,146.8,452.4,"[ 7, 13, 99]",9648,9712,491.4,279.2,155.8,366.7,-109.59,DOWN,2.06,A30,S30.wav,A30.png,4,18621769,preview,,,,,,,,,,,,,,,,,
p7,Trial: 9,p7.edf,.,13,Fixation: 9713 ms,147,9713,9859,"[ 7, 99]",13,1175,635,161.0,371.8,1,3,37.15,37.5,19,Saccade: 9648 ms,LEFT,65,9.54,146.8,452.4,"[ 3, 99]",9648,9712,491.4,279.2,155.8,366.7,20,Saccade: 9860 ms,LEFT,202,0.65,3.24,896.69,"[ 7, 13, 99]",9860,10061,167.0,387.6,142.7,386.0,15.72,RIGHT,9.39,A30,S30.wav,A30.png,4,18621769,preview,,,,,,,,,,,,,,,,,
p7,Trial: 9,p7.edf,.,14,Fixation: 10517 ms,210,10517,10726,"[ 7, 13, 99]",13,1224,635,110.4,395.7,2,3,37.55,37.7,21,Saccade: 10488 ms,LEFT,29,0.94,32.51,113.3,"[ 7, 13, 99]",10488,10516,146.2,372.8,117.3,393.1,22,Saccade: 10727 ms,RIGHT,35,2.51,71.71,228.28,"[ 7, 14, 99]",10727,10761,110.0,394.7,203.0,386.3,25.14,RIGHT,1.5,A30,S30.wav,A30.png,4,18621769,preview,,,,,,,,,,,,,,,,,
p7,Trial: 9,p7.edf,.,15,Fixation: 10762 ms,278,10762,11039,"[ 7, 14, 99]",13,1219,635,214.3,385.7,3,3,36.75,37.3,22,Saccade: 10727 ms,RIGHT,35,2.51,71.71,228.28,"[ 7, 13, 99]",10727,10761,110,394.7,203,386.3,23,Saccade: 11040 ms,UP,40,4.34,108.48,209.06,"[ 12, 99]",11040,11079,212.4,387.6,193.1,226.5,-174.55,LEFT,2.81,A30,S30.wav,A30.png,4,18621769,preview,,,,,,,,,,,,,,,,,
p7,Trial: 9,p7.edf,.,16,Fixation: 11080 ms,244,11080,11323,"[ 12, 99]",3,1143,473,183.0,229.0,1,2,37.0,37.5,23,Saccade: 11040 ms,UP,40,4.34,108.48,209.06,"[ 7, 14, 99]",11040,11079,212.4,387.6,193.1,226.5,24,Saccade: 11324 ms,UP,27,0.57,21.18,88.74,"[ 6, 12, 99]",11324,11350,184.9,228.1,178.3,207.7,-78.55,DOWN,4.27,A30,S30.wav,A30.png,4,18621769,preview,,,,,,,,,,,,,,,,,
p7,Trial: 9,p7.edf,.,17,Fixation: 11351 ms,229,11351,11579,"[ 6, 12, 99]",2,1085,229,170.3,210.0,1,1,37.1,37.6,24,Saccade: 11324 ms,UP,27,0.57,21.18,88.74,"[ 12, 99]",11324,11350,184.9,228.1,178.3,207.7,25,Saccade: 11580 ms,RIGHT,58,10.05,173.34,354.88,[ 99],11580,11637,170.3,212.1,531.9,254.3,-55.88,DOWN,0.61,A30,S30.wav,A30.png,4,18621769,preview,,,,,,,,,,,,,,,,,
p7,Trial: 9,p7.edf,.,18,Fixation: 11638 ms,199,11638,11836,"[ 10, 18, 99]",5,1070,199,549.8,262.2,1,1,35.3,36.6,25,Saccade: 11580 ms,RIGHT,58,10.05,173.34,354.88,"[ 6, 12, 99]",11580,11637,170.3,212.1,531.9,254.3,26,Saccade: 11837 ms,LEFT,28,1.02,36.41,118.02,[ 99],11837,11864,555.3,265.7,524.1,247.1,172.36,LEFT,10.58,A30,S30.wav,A30.png,4,18621769,preview,,,,,,,,,,,,,,,,,
p7,Trial: 9,p7.edf,.,19,Fixation: 11865 ms,213,11865,12077,"[ 3, 99]",5,1052,213,518.7,250.5,1,1,35.3,36.6,26,Saccade: 11837 ms,LEFT,28,1.02,36.41,118.02,"[ 10, 18, 99]",11837,11864,555.3,265.7,524.1,247.1,27,Saccade: 12078 ms,RIGHT,57,4.74,83.09,271.28,"[ 4, 10, 99]",12078,12134,519.2,251.0,664.9,335.5,-19.94,RIGHT,0.94,A30,S30.wav,A30.png,4,18621769,preview,,,,,,,,,,,,,,,,,
p7,Trial: 9,p7.edf,.,20,Fixation: 12135 ms,126,12135,12260,"[ 10, 99]",5,1000,307,664.6,343.4,1,2,35.2,36.5,27,Saccade: 12078 ms,RIGHT,57,4.74,83.09,271.28,"[ 3, 99]",12078,12134,519.2,251,664.9,335.5,28,Saccade: 12261 ms,UP,23,0.87,37.72,98.59,"[ 4, 10, 99]",12261,12283,665.8,345.1,658.3,314.4,148.45,LEFT,4.86,A30,S30.wav,A30.png,4,18621769,preview,,,,,,,,,,,,,,,,,
p7,Trial: 9,p7.edf,.,21,Fixation: 12284 ms,181,12284,12464,"[ 4, 10, 99]",3,996,181,656.1,315.3,1,1,35.2,36.5,28,Saccade: 12261 ms,UP,23,0.87,37.72,98.59,[ 99],12261,12283,665.8,345.1,658.3,314.4,29,Saccade: 12465 ms,DOWN,24,2.27,94.63,172.13,"[ 16, 99]",12465,12488,654.6,316.0,702.2,382.6,-72.59,DOWN,0.81,A30,S30.wav,A30.png,4,18621769,preview,,,,,,,,,,,,,,,,,
p7,Trial: 9,p7.edf,.,22,Fixation: 12489 ms,148,12489,12636,"[ 16, 99]",1,1009,148,695.2,382.2,1,1,35.2,36.5,29,Saccade: 12465 ms,DOWN,24,2.27,94.63,172.13,"[ 4, 10, 99]",12465,12488,654.6,316,702.2,382.6,30,Saccade: 12637 ms,RIGHT,39,5.9,151.36,292.26,"[ 17, 20, 99]",12637,12675,696.8,382.8,905.6,364.5,121.22,UP,2.14,A30,S30.wav,A30.png,4,18621769,preview,,,,,,,,,,,,,,,,,
p7,Trial: 9,p7.edf,.,23,Fixation: 12676 ms,164,12676,12839,"[ 17, 20, 99]",1,1009,164,904.5,360.7,1,1,35.8,36.8,30,Saccade: 12637 ms,RIGHT,39,5.9,151.36,292.26,"[ 16, 99]",12637,12675,696.8,382.8,905.6,364.5,31,Saccade: 12840 ms,RIGHT,54,3.67,68.04,245.73,"[ 2, 99]",12840,12893,901.6,362.7,1021.9,420.3,-174.32,LEFT,5.92,A30,S30.wav,A30.png,4,18621769,preview,,,,,,,,,,,,,,,,,
p7,Trial: 9,p7.edf,.,24,Fixation: 12894 ms,198,12894,13091,"[ 2, 99]",7,1021,198,1017.3,424.9,1,1,36.45,37.2,31,Saccade: 12840 ms,RIGHT,54,3.67,68.04,245.73,"[ 17, 20, 99]",12840,12893,901.6,362.7,1021.9,420.3,32,Saccade: 13092 ms,DOWN,176,2.61,14.83,951.5,"[ 2, 99]",13092,13267,1013.1,436.9,985.2,529.8,150.94,LEFT,3.57,A30,S30.wav,A30.png,4,18621769,preview,,,,,,,,,,,,,,,,,
p7,Trial: 9,p7.edf,.,25,Fixation: 13515 ms,253,13515,13767,[ 99],52,1093,14384,914.2,648.2,25,51,36.15,37.55,33,Saccade: 13479 ms,DOWN,36,3.56,98.85,283.27,"[ 2, 99]",13479,13514,973.8,519.1,931.9,645,34,Saccade: 13768 ms,LEFT,50,5.61,112.16,379.98,"[ 8, 99]",13768,13817,907.9,650.2,707.0,658.2,64.57,UP,6.62,A30,S30.wav,A30.png,4,18621769,task,"[1, 2]","[Adverb, Verb]","[85, 320]","[250, 820]","[165, 500]","[0, 0]","[Da, befindet]","[It, is]","[0.0, 0.0]","[0.0, 0.0]","[nan, nan]","[nan, nan]","[da, befinden]","[nan, nan]","[nan, nan]","[nan, nan]","[nan, nan]"
p7,Trial: 9,p7.edf,.,26,Fixation: 13818 ms,176,13818,13993,"[ 8, 99]",8,1199,176,693.0,660.2,1,1,35.6,37.3,34,Saccade: 13768 ms,LEFT,50,5.61,112.16,379.98,[ 99],13768,13817,907.9,650.2,707,658.2,35,Saccade: 13994 ms,LEFT,49,6.14,125.2,427.46,"[ 1, 99]",13994,14042,694.0,658.6,487.1,735.9,2.98,RIGHT,6.17,A30,S30.wav,A30.png,4,18621769,task,[2],[Verb],[320],[820],[500],[0],[befindet],[is],[0.0],[0.0],[nan],[nan],[befinden],[nan],[nan],[nan],[nan]
p7,Trial: 9,p7.edf,.,27,Fixation: 14043 ms,180,14043,14222,"[ 1, 99]",4,1242,180,472.5,742.7,1,1,36.0,37.85,35,Saccade: 13994 ms,LEFT,49,6.14,125.2,427.46,"[ 8, 99]",13994,14042,694,658.6,487.1,735.9,36,Saccade: 14223 ms,UP,65,9.0,138.53,333.83,[ 99],14223,14287,473.2,740.0,317.0,444.4,19.62,RIGHT,6.54,A30,S30.wav,A30.png,4,18621769,task,[2],[Verb],[320],[820],[500],[0],[befindet],[is],[0.0],[0.0],[nan],[nan],[befinden],[nan],[nan],[nan],[nan]
p7,Trial: 9,p7.edf,.,28,Fixation: 14288 ms,125,14288,14412,"[ 7, 99]",13,1294,881,311.0,420.0,1,4,36.1,37.0,36,Saccade: 14223 ms,UP,65,9,138.53,333.83,"[ 1, 99]",14223,14287,473.2,740,317,444.4,37,Saccade: 14413 ms,LEFT,38,2.29,60.27,176.64,"[ 7, 99]",14413,14450,310.6,413.2,246.1,359.6,-62.55,DOWN,9.72,A30,S30.wav,A30.png,4,18621769,task,[3],[Pronoun_ref],[920],[1240],[320],[0],[sich],[nan],[0.0],[0.0],[nan],[nan],[sie],[nan],[nan],[nan],[nan]
p7,Trial: 9,p7.edf,.,29,Fixation: 14451 ms,417,14451,14867,"[ 7, 99]",13,1286,881,249.4,363.9,2,4,36.5,37.15,37,Saccade: 14413 ms,LEFT,38,2.29,60.27,176.64,"[ 7, 15, 99]",14413,14450,310.6,413.2,246.1,359.6,38,Saccade: 14868 ms,RIGHT,23,1.81,78.64,132.23,"[ 7, 15, 99]",14868,14890,251.3,373.7,316.0,362.3,-41.72,RIGHT,2.27,A30,S30.wav,A30.png,4,18621769,task,[3],[Pronoun_ref],[920],[1240],[320],[0],[sich],[nan],[0.0],[0.0],[nan],[nan],[sie],[nan],[nan],[nan],[nan]
p7,Trial: 9,p7.edf,14960,30,Fixation: 14891 ms,129,14891,15019,"[ 7, 15, 99]",13,1196,881,312.1,366.4,3,4,36.1,36.95,38,Saccade: 14868 ms,RIGHT,23,1.81,78.64,132.23,"[ 7, 99]",14868,14890,251.3,373.7,316,362.3,39,Saccade: 15020 ms,RIGHT,191,6.66,34.87,901.74,"[ 3, 99]",15020,15210,310.6,377.6,546.6,350.5,177.76,LEFT,1.73,A30,S30.wav,A30.png,4,18621769,task,[4],[Determiner_1],[1470],[1680],[210],[0],[ein],[an],[0.0],[0.0],[nan],[nan],[eine],[nan],[nan],[nan],[nan]
p7,Trial: 9,p7.edf,.,31,Fixation: 15625 ms,210,15625,15834,"[ 7, 15, 99]",13,1235,881,296.3,377.0,4,4,36.15,36.95,40,Saccade: 15575 ms,LEFT,50,6.39,127.8,392.3,"[ 3, 99]",15575,15624,542.7,344.7,316.1,371.7,41,Saccade: 15835 ms,RIGHT,71,11.52,162.28,366.52,"[ 4, 10, 99]",15835,15905,294.1,378.0,698.8,302.3,33.26,RIGHT,0.52,A30,S30.wav,A30.png,4,18621769,task,[5],[Noun_1],[1760],[2560],[800],[0],[Umschlag],[envelope],[0.0],[0.0],[envelope_1],[S01_I030_E005],[Umschlag],[nan],[nan],[nan],[nan]
p7,Trial: 9,p7.edf,.,32,Fixation: 15906 ms,120,15906,16025,"[ 4, 10, 99]",3,1198,867,695.3,303.5,1,2,35.2,36.5,41,Saccade: 15835 ms,RIGHT,71,11.52,162.28,366.52,"[ 7, 15, 99]",15835,15905,294.1,378,698.8,302.3,42,Saccade: 16026 ms,LEFT,31,1.14,36.77,152.22,"[ 4, 10, 99]",16026,16056,695.8,303.9,655.8,300.6,-169.86,LEFT,11.36,A30,S30.wav,A30.png,4,18621769,task,,break,,,,,,,,,,,,,,,
p7,Trial: 9,p7.edf,16531,33,Fixation: 16057 ms,747,16057,16803,"[ 4, 10, 99]",3,1141,867,648.3,306.6,2,2,35.2,36.5,42,Saccade: 16026 ms,LEFT,31,1.14,36.77,152.22,"[ 4, 10, 99]",16026,16056,695.8,303.9,655.8,300.6,43,Saccade: 16804 ms,.,176,0.36,2.07,846.36,"[ 4, 10, 99]",16804,16979,646.9,321.3,646.2,334.6,3.64,RIGHT,1.34,A30,S30.wav,A30.png,4,18621769,task,"[6, 7, 8]","[Preposition_1, Determiner_2, Noun_2]","[2905, 3112, 3331]","[3020, 3314, 4130]","[115, 202, 799]","[0, 0, 0]","[auf, einem, Schreibtisch]","[on, the, desk]","[0.0, 0.0, 0.0]","[0.0, 0.0, 1.0]","[nan, nan, table_1]","[nan, nan, S01_I030_E008]","[auf, eine, Schreibtisch]","[nan, nan, nan]","[nan, nan, nan]","[nan, nan, nan]","[nan, nan, nan]"
p7,Trial: 9,p7.edf,.,34,Fixation: 18860 ms,187,18860,19046,"[ 2, 99]",7,1161,279,972.5,433.5,1,2,36.2,37.0,44,Saccade: 18795 ms,RIGHT,65,10.09,155.27,444.71,"[ 10, 99]",18795,18859,640.7,299.6,979.6,425.5,45,Saccade: 19047 ms,DOWN,25,1.45,58.0,135.75,"[ 2, 99]",19047,19071,970.8,436.5,972.4,490.2,159.18,LEFT,9.72,A30,S30.wav,A30.png,4,18621769,task,[11],[Relative Clause Verb],[4812],[5772],[960],[0],[zusammenbaut],[assembles],[1.0],[0.0],[nan],[nan],[zusammenbauen],[nan],[nan],[nan],[nan]
p7,Trial: 9,p7.edf,.,35,Fixation: 19072 ms,92,19072,19163,"[ 2, 99]",7,1204,279,969.0,488.1,2,2,36.2,37.1,45,Saccade: 19047 ms,DOWN,25,1.45,58,135.75,"[ 2, 99]",19047,19071,970.8,436.5,972.4,490.2,46,Saccade: 19164 ms,LEFT,63,8.81,139.91,474.63,"[ 5, 8, 99]",19164,19226,970.3,491.6,744.3,723.0,86.25,UP,1.48,A30,S30.wav,A30.png,4,18621769,task,,break,,,,,,,,,,,,,,,
p7,Trial: 9,p7.edf,.,36,Fixation: 19227 ms,95,19227,19321,"[ 5, 8, 99]",1,1279,95,745.0,721.1,1,1,35.8,37.7,46,Saccade: 19164 ms,LEFT,63,8.81,139.91,474.63,"[ 2, 99]",19164,19226,970.3,491.6,744.3,723,47,Saccade: 19322 ms,UP,23,0.95,41.14,98.6,"[ 8, 99]",19322,19344,746.1,720.8,730.2,689.4,45.04,UP,8.81,A30,S30.wav,A30.png,4,18621769,post,,,,,,,,,,,,,,,,,
p7,Trial: 9,p7.edf,19640,37,Fixation: 19345 ms,1190,19345,20534,"[ 8, 99]",8,1289,1825,714.3,695.2,2,3,35.7,37.5,47,Saccade: 19322 ms,UP,23,0.95,41.14,98.6,"[ 5, 8, 99]",19322,19344,746.1,720.8,730.2,689.4,48,Saccade: 20535 ms,DOWN,198,3.76,18.99,646.22,[ 99],20535,20732,704.4,705.3,730.5,845.5,-38.73,RIGHT,1.1,A30,S30.wav,A30.png,4,18621769,post,,,,,,,,,,,,,,,,,
