RECORDING_SESSION_LABEL,TRIAL_LABEL,DATA_FILE,CURRENT_FIX_MSG_TIME_1,CURRENT_FIX_INDEX,CURRENT_FIX_LABEL,CURRENT_FIX_DURATION,CURRENT_FIX_START,CURRENT_FIX_END,CURRENT_FIX_INTEREST_AREAS,CURRENT_FIX_INTEREST_AREA_FIX_COUNT,CURRENT_FIX_PUPIL,CURRENT_FIX_RUN_DWELL_TIME,CURRENT_FIX_X,CURRENT_FIX_Y,CURRENT_FIX_RUN_INDEX,CURRENT_FIX_RUN_SIZE,CURRENT_FIX_X_RESOLUTION,CURRENT_FIX_Y_RESOLUTION,PREVIOUS_SAC_INDEX,PREVIOUS_SAC_LABEL,PREVIOUS_SAC_DIRECTION,PREVIOUS_SAC_DURATION,PREVIOUS_SAC_AMPLITUDE,PREVIOUS_SAC_AVG_VELOCITY,PREVIOUS_SAC_PEAK_VELOCITY,PREVIOUS_SAC_START_INTEREST_AREAS,PREVIOUS_SAC_START_TIME,PREVIOUS_SAC_END_TIME,PREVIOUS_SAC_START_X,PREVIOUS_SAC_START_Y,PREVIOUS_SAC_END_X,PREVIOUS_SAC_END_Y,NEXT_SAC_INDEX,NEXT_SAC_LABEL,NEXT_SAC_DIRECTION,NEXT_SAC_DURATION,NEXT_SAC_AMPLITUDE,NEXT_SAC_AVG_VELOCITY,NEXT_SAC_PEAK_VELOCITY,NEXT_SAC_END_INTEREST_AREAS,NEXT_SAC_START_TIME,NEXT_SAC_END_TIME,NEXT_SAC_START_X,NEXT_SAC_START_Y,NEXT_SAC_END_X,NEXT_SAC_END_Y,PREVIOUS_FIX_ANGLE,PREVIOUS_FIX_DIRECTION,PREVIOUS_FIX_DISTANCE,ItemNO,audiofilename,imagefilename,TRIAL_INDEX,TRIAL_START_TIME,viewtype,word_index,Label,word_onset,word_offset,word_duration,Continuation,wordDE,wordEN,REFWord,TargetObj,ObjectLabel,ObjectID,LemmaDE,LingIndex,DepS,pos_1,pos_2
p14,Trial: 24,p14.edf,.,1,Fixation: 3376 ms,200,3376,3575,[ 99],57,897,18788,401.9,848.0,2,57,36.6,38.75,4,Saccade: 3346 ms,UP,30,4.51,150.19,291.57,[ ],3346,3375,401.4,1028.6,405.4,850,5,Saccade: 3576 ms,LEFT,23,0.92,40.12,85.06,[ 99],3576,3598,408.8,837.0,379.4,854.7,146.44,LEFT,10.47,A2,S2.wav,A2.png,12,25637412,preview,,,,,,,,,,,,,,,,,
p14,Trial: 24,p14.edf,.,2,Fixation: 3734 ms,184,3734,3917,[ 99],57,1180,18788,560.4,244.5,3,57,35.3,36.6,6,Saccade: 3672 ms,UP,62,16.77,270.45,671.2,[ ],3672,3733,387.8,860.9,553.4,252.2,7,Saccade: 3918 ms,RIGHT,36,3.11,86.39,153.87,[ 99],3918,3953,562.3,250.9,659.5,197.9,-105.39,DOWN,16.61,A2,S2.wav,A2.png,12,25637412,preview,,,,,,,,,,,,,,,,,
p14,Trial: 24,p14.edf,.,3,Fixation: 3954 ms,148,3954,4101,[ 99],57,1145,18788,662.1,203.7,4,57,35.3,36.65,7,Saccade: 3918 ms,RIGHT,36,3.11,86.39,153.87,[ 99],3918,3953,562.3,250.9,659.5,197.9,8,Saccade: 4102 ms,DOWN,32,2.66,83.22,148.03,"[ 4, 99]",4102,4133,667.1,206.7,681.4,302.9,-158.86,LEFT,3.09,A2,S2.wav,A2.png,12,25637412,preview,,,,,,,,,,,,,,,,,
p14,Trial: 24,p14.edf,.,4,Fixation: 4134 ms,225,4134,4358,"[ 4, 99]",4,1130,225,679.5,297.0,1,1,35.2,36.5,8,Saccade: 4102 ms,DOWN,32,2.66,83.22,148.03,[ 99],4102,4133,667.1,206.7,681.4,302.9,9,Saccade: 4359 ms,LEFT,46,8.51,184.93,343.84,"[ 21, 24, 99]",4359,4404,679.2,302.5,437.2,115.7,100.95,UP,2.6,A2,S2.wav,A2.png,12,25637412,preview,,,,,,,,,,,,,,,,,
p14,Trial: 24,p14.edf,.,5,Fixation: 4405 ms,148,4405,4552,"[ 21, 24, 99]",3,1247,148,443.7,115.9,1,1,35.7,37.1,9,Saccade: 4359 ms,LEFT,46,8.51,184.93,343.84,"[ 4, 99]",4359,4404,679.2,302.5,437.2,115.7,10,Saccade: 4553 ms,LEFT,17,0.97,56.78,74.86,"[ 24, 99]",4553,4569,445.2,116.8,413.2,130.2,-36.5,RIGHT,8.27,A2,S2.wav,A2.png,12,25637412,preview,,,,,,,,,,,,,,,,,
p14,Trial: 24,p14.edf,.,6,Fixation: 4570 ms,253,4570,4822,"[ 24, 99]",8,1227,401,419.0,134.3,2,2,35.75,37.1,10,Saccade: 4553 ms,LEFT,17,0.97,56.78,74.86,"[ 21, 24, 99]",4553,4569,445.2,116.8,413.2,130.2,11,Saccade: 4823 ms,LEFT,45,9.41,209.09,391.28,"[ 27, 99]",4823,4867,426.5,137.5,140.2,331.6,35.65,RIGHT,0.85,A2,S2.wav,A2.png,12,25637412,preview,,,,,,,,,,,,,,,,,
p14,Trial: 24,p14.edf,.,7,Fixation: 4868 ms,190,4868,5057,"[ 27, 99]",5,1259,190,140.7,326.5,1,1,37.35,37.6,11,Saccade: 4823 ms,LEFT,45,9.41,209.09,391.28,"[ 21, 24, 99]",4823,4867,426.5,137.5,140.2,331.6,12,Saccade: 5058 ms,DOWN,42,3.41,81.3,192.09,"[ 5, 99]",5058,5099,135.8,328.5,118.1,456.0,34.05,RIGHT,9.19,A2,S2.wav,A2.png,12,25637412,preview,,,,,,,,,,,,,,,,,
p14,Trial: 24,p14.edf,.,8,Fixation: 5100 ms,180,5100,5279,"[ 5, 99]",12,1298,180,121.6,446.8,1,1,37.55,37.75,12,Saccade: 5058 ms,DOWN,42,3.41,81.3,192.09,"[ 27, 99]",5058,5099,135.8,328.5,118.1,456,13,Saccade: 5280 ms,LEFT,21,0.83,39.61,66.81,"[ 27, 99]",5280,5300,120.5,441.5,89.4,437.8,80.93,UP,3.23,A2,S2.wav,A2.png,12,25637412,preview,,,,,,,,,,,,,,,,,
p14,Trial: 24,p14.edf,.,9,Fixation: 5301 ms,460,5301,5760,"[ 27, 99]",5,1372,767,88.6,429.0,1,2,37.8,37.85,13,Saccade: 5280 ms,LEFT,21,0.83,39.61,66.81,[ 99],5280,5300,120.5,441.5,89.4,437.8,14,Saccade: 5761 ms,.,8,0.34,42.35,36.79,"[ 27, 99]",5761,5768,88.8,407.5,85.6,395.1,-28.26,RIGHT,0.99,A2,S2.wav,A2.png,12,25637412,preview,,,,,,,,,,,,,,,,,
p14,Trial: 24,p14.edf,.,10,Fixation: 5769 ms,307,5769,6075,"[ 27, 99]",5,1406,767,88.7,391.8,2,2,37.8,37.8,14,Saccade: 5761 ms,.,8,0.34,42.35,36.79,"[ 27, 99]",5761,5768,88.8,407.5,85.6,395.1,15,Saccade: 6076 ms,DOWN,35,4.19,119.69,195.47,"[ 5, 99]",6076,6110,94.8,390.5,157.7,535.6,-90.15,DOWN,0.98,A2,S2.wav,A2.png,12,25637412,preview,,,,,,,,,,,,,,,,,
p14,Trial: 24,p14.edf,.,11,Fixation: 6111 ms,247,6111,6357,"[ 5, 99]",12,1351,247,153.6,522.8,1,1,37.3,37.8,15,Saccade: 6076 ms,DOWN,35,4.19,119.69,195.47,"[ 27, 99]",6076,6110,94.8,390.5,157.7,535.6,16,Saccade: 6358 ms,RIGHT,49,10.35,211.19,362.96,"[ 10, 11, 99]",6358,6406,151.3,520.0,437.5,268.9,116.51,UP,3.87,A2,S2.wav,A2.png,12,25637412,preview,,,,,,,,,,,,,,,,,
p14,Trial: 24,p14.edf,.,12,Fixation: 6407 ms,232,6407,6638,"[ 10, 11, 99]",1,1307,232,438.8,269.1,1,1,35.5,36.7,16,Saccade: 6358 ms,RIGHT,49,10.35,211.19,362.96,"[ 5, 99]",6358,6406,151.3,520,437.5,268.9,17,Saccade: 6639 ms,UP,32,3.73,116.56,185.84,"[ 21, 24, 99]",6639,6670,440.9,273.7,434.8,136.4,-139,LEFT,10.38,A2,S2.wav,A2.png,12,25637412,preview,,,,,,,,,,,,,,,,,
p14,Trial: 24,p14.edf,.,13,Fixation: 6671 ms,147,6671,6817,"[ 24, 99]",8,1285,386,444.1,145.1,1,2,35.7,37.0,17,Saccade: 6639 ms,UP,32,3.73,116.56,185.84,"[ 10, 11, 99]",6639,6670,440.9,273.7,434.8,136.4,18,Saccade: 6818 ms,LEFT,16,0.92,57.21,71.32,"[ 24, 99]",6818,6833,444.7,149.1,418.2,129.2,-92.53,DOWN,3.37,A2,S2.wav,A2.png,12,25637412,preview,,,,,,,,,,,,,,,,,
p14,Trial: 24,p14.edf,.,14,Fixation: 6834 ms,239,6834,7072,"[ 21, 24, 99]",3,1261,239,427.7,130.9,1,1,35.75,37.1,18,Saccade: 6818 ms,LEFT,16,0.92,57.21,71.32,"[ 24, 99]",6818,6833,444.7,149.1,418.2,129.2,19,Saccade: 7073 ms,RIGHT,73,13.51,185.12,323.65,"[ 26, 99]",7073,7145,430.7,135.4,804.7,448.4,-39.86,RIGHT,0.6,A2,S2.wav,A2.png,12,25637412,preview,,,,,,,,,,,,,,,,,
p14,Trial: 24,p14.edf,.,15,Fixation: 7146 ms,208,7146,7353,"[ 26, 99]",11,988,457,806.8,444.0,1,2,35.45,36.7,19,Saccade: 7073 ms,RIGHT,73,13.51,185.12,323.65,"[ 21, 24, 99]",7073,7145,430.7,135.4,804.7,448.4,20,Saccade: 7354 ms,DOWN,246,3.72,15.11,333.21,"[ 26, 99]",7354,7599,809.2,442.5,863.5,567.6,141.45,LEFT,13.62,A2,S2.wav,A2.png,12,25637412,preview,,,,,,,,,,,,,,,,,
p14,Trial: 24,p14.edf,.,16,Fixation: 7600 ms,249,7600,7848,"[ 26, 99]",11,804,457,859.8,578.2,2,2,35.8,37.1,20,Saccade: 7354 ms,DOWN,246,3.72,15.11,333.21,"[ 26, 99]",7354,7599,809.2,442.5,863.5,567.6,21,Saccade: 7849 ms,UP,41,6.97,170.06,359.34,[ 99],7849,7889,863.8,583.6,751.8,354.7,112.25,UP,3.93,A2,S2.wav,A2.png,12,25637412,preview,,,,,,,,,,,,,,,,,
p14,Trial: 24,p14.edf,.,17,Fixation: 7890 ms,181,7890,8070,"[ 4, 99]",4,914,181,759.3,345.4,1,1,35.3,36.5,21,Saccade: 7849 ms,UP,41,6.97,170.06,359.34,"[ 26, 99]",7849,7889,863.8,583.6,751.8,354.7,22,Saccade: 8071 ms,RIGHT,18,0.97,53.81,68.59,[ 99],8071,8088,755.4,340.9,789.5,344.1,-65.92,DOWN,6.93,A2,S2.wav,A2.png,12,25637412,preview,,,,,,,,,,,,,,,,,
p14,Trial: 24,p14.edf,.,18,Fixation: 8089 ms,669,8089,8757,[ 99],57,900,18788,781.3,350.0,19,57,35.4,36.6,22,Saccade: 8071 ms,RIGHT,18,0.97,53.81,68.59,"[ 4, 99]",8071,8088,755.4,340.9,789.5,344.1,23,Saccade: 8758 ms,LEFT,42,7.15,170.2,296.25,"[ 2, 11, 99]",8758,8799,785.3,354.1,538.1,299.9,168.57,LEFT,0.63,A2,S2.wav,A2.png,12,25637412,preview,,,,,,,,,,,,,,,,,
p14,Trial: 24,p14.edf,.,19,Fixation: 8800 ms,165,8800,8964,"[ 2, 11, 99]",1,967,165,541.5,294.5,1,1,35.3,36.5,23,Saccade: 8758 ms,LEFT,42,7.15,170.2,296.25,[ 99],8758,8799,785.3,354.1,538.1,299.9,24,Saccade: 8965 ms,LEFT,24,2.11,87.93,151.71,"[ 11, 20, 99]",8965,8988,541.6,294.0,467.5,285.1,-12.62,RIGHT,6.95,A2,S2.wav,A2.png,12,25637412,preview,,,,,,,,,,,,,,,,,
p14,Trial: 24,p14.edf,.,20,Fixation: 8989 ms,202,8989,9190,"[ 11, 20, 99]",3,968,367,477.0,284.8,2,2,35.4,36.6,24,Saccade: 8965 ms,LEFT,24,2.11,87.93,151.71,"[ 2, 11, 99]",8965,8988,541.6,294,467.5,285.1,25,Saccade: 9191 ms,UP,29,3.33,114.96,193.68,"[ 22, 24, 99]",9191,9219,473.8,279.5,489.7,158.1,-8.28,RIGHT,1.84,A2,S2.wav,A2.png,12,25637412,preview,,,,,,,,,,,,,,,,,
p14,Trial: 24,p14.edf,.,21,Fixation: 9220 ms,205,9220,9424,"[ 22, 24, 99]",2,977,205,492.9,158.4,1,1,35.5,36.9,25,Saccade: 9191 ms,UP,29,3.33,114.96,193.68,"[ 11, 20, 99]",9191,9219,473.8,279.5,489.7,158.1,26,Saccade: 9425 ms,LEFT,22,1.99,90.67,151.53,"[ 21, 24, 99]",9425,9446,496.6,161.2,435.9,122.9,-97.43,DOWN,3.47,A2,S2.wav,A2.png,12,25637412,preview,,,,,,,,,,,,,,,,,
p14,Trial: 24,p14.edf,.,22,Fixation: 9447 ms,384,9447,9830,"[ 21, 24, 99]",3,1001,384,441.4,126.5,1,1,35.7,37.05,26,Saccade: 9425 ms,LEFT,22,1.99,90.67,151.53,"[ 22, 24, 99]",9425,9446,496.6,161.2,435.9,122.9,27,Saccade: 9831 ms,RIGHT,23,2.01,87.23,136.18,"[ 22, 24, 99]",9831,9853,441.4,131.2,506.7,161.2,-30.81,RIGHT,1.68,A2,S2.wav,A2.png,12,25637412,preview,,,,,,,,,,,,,,,,,
p14,Trial: 24,p14.edf,.,23,Fixation: 9854 ms,180,9854,10033,"[ 22, 24, 99]",2,975,180,507.0,165.9,1,1,35.45,36.8,27,Saccade: 9831 ms,RIGHT,23,2.01,87.23,136.18,"[ 21, 24, 99]",9831,9853,441.4,131.2,506.7,161.2,28,Saccade: 10034 ms,RIGHT,19,1.4,73.52,99.22,"[ 24, 99]",10034,10052,509.4,171.0,551.5,144.0,149.94,LEFT,2.13,A2,S2.wav,A2.png,12,25637412,preview,,,,,,,,,,,,,,,,,
p14,Trial: 24,p14.edf,.,24,Fixation: 10053 ms,131,10053,10183,"[ 23, 24, 99]",1,969,131,549.9,136.0,1,1,35.4,36.9,28,Saccade: 10034 ms,RIGHT,19,1.4,73.52,99.22,"[ 22, 24, 99]",10034,10052,509.4,171,551.5,144,29,Saccade: 10184 ms,RIGHT,39,4.84,124.22,277.71,"[ 4, 99]",10184,10222,549.6,134.5,693.4,231.2,-146.18,LEFT,1.46,A2,S2.wav,A2.png,12,25637412,preview,,,,,,,,,,,,,,,,,
p14,Trial: 24,p14.edf,.,25,Fixation: 10223 ms,196,10223,10418,"[ 4, 99]",4,940,599,690.9,223.8,1,2,35.3,36.6,29,Saccade: 10184 ms,RIGHT,39,4.84,124.22,277.71,"[ 23, 24, 99]",10184,10222,549.6,134.5,693.4,231.2,30,Saccade: 10419 ms,DOWN,22,1.94,88.0,123.3,"[ 4, 99]",10419,10440,690.7,226.5,700.0,296.6,149.08,LEFT,4.65,A2,S2.wav,A2.png,12,25637412,preview,,,,,,,,,,,,,,,,,
p14,Trial: 24,p14.edf,.,26,Fixation: 10441 ms,403,10441,10843,"[ 4, 99]",4,936,599,692.2,295.5,2,2,35.2,36.5,30,Saccade: 10419 ms,DOWN,22,1.94,88,123.3,"[ 4, 99]",10419,10440,690.7,226.5,700,296.6,31,Saccade: 10844 ms,LEFT,56,15.76,281.36,468.48,"[ 3, 99]",10844,10899,697.5,294.4,140.4,423.1,91.08,UP,1.96,A2,S2.wav,A2.png,12,25637412,preview,,,,,,,,,,,,,,,,,
p14,Trial: 24,p14.edf,.,27,Fixation: 10900 ms,179,10900,11078,"[ 3, 99]",1,1049,179,148.5,423.5,1,1,37.3,37.6,31,Saccade: 10844 ms,LEFT,56,15.76,281.36,468.48,"[ 4, 99]",10844,10899,697.5,294.4,140.4,423.1,32,Saccade: 11079 ms,LEFT,21,1.32,63.08,90.86,"[ 5, 99]",11079,11099,145.4,423.6,107.1,455.4,12.97,RIGHT,15.39,A2,S2.wav,A2.png,12,25637412,preview,,,,,,,,,,,,,,,,,
p14,Trial: 24,p14.edf,.,28,Fixation: 11100 ms,150,11100,11249,"[ 5, 99]",12,1062,657,114.3,451.1,1,2,37.6,37.8,32,Saccade: 11079 ms,LEFT,21,1.32,63.08,90.86,"[ 3, 99]",11079,11099,145.4,423.6,107.1,455.4,33,Saccade: 11250 ms,DOWN,27,3.18,117.89,203.43,"[ 5, 99]",11250,11276,113.1,451.7,179.4,551.5,38.72,RIGHT,1.17,A2,S2.wav,A2.png,12,25637412,preview,,,,,,,,,,,,,,,,,
p14,Trial: 24,p14.edf,.,29,Fixation: 11277 ms,507,11277,11783,"[ 5, 99]",12,1132,657,176.0,548.5,2,2,37.15,37.7,33,Saccade: 11250 ms,DOWN,27,3.18,117.89,203.43,"[ 5, 99]",11250,11276,113.1,451.7,179.4,551.5,34,Saccade: 11784 ms,DOWN,274,9.22,33.64,885.49,[ 99],11784,12057,179.7,546.4,408.4,805.1,122.61,UP,3.06,A2,S2.wav,A2.png,12,25637412,preview,,,,,,,,,,,,,,,,,
p14,Trial: 24,p14.edf,13117,30,Fixation: 12315 ms,1717,12315,14031,[ 99],57,897,18788,406.4,835.1,31,57,36.5,38.55,35,Saccade: 12305 ms,DOWN,10,0.71,70.98,62.1,[ 99],12305,12314,400.1,779.2,411.1,803.8,36,Saccade: 14032 ms,DOWN,327,4.8,14.69,559.75,[ ],14032,14358,404.8,844.1,410.5,1034.5,129.77,UP,9.78,A2,S2.wav,A2.png,12,25637412,preview,"[1, 2]","[Adverb, Verb]","[50, 250]","[230, 780]","[180, 530]","[0, 0]","[Da, befindet]","[It, is]","[0.0, 0.0]","[0.0, 0.0]","[nan, nan]","[nan, nan]","[da, befinden]","[nan, nan]","[nan, nan]","[ADV, VVFIN]","[nan, nan]"
p14,Trial: 24,p14.edf,14842,31,Fixation: 14768 ms,490,14768,15257,[ 99],57,1067,18788,388.8,818.1,32,57,36.55,38.55,37,Saccade: 14757 ms,UP,11,0.67,60.82,54.19,[ 99],14757,14767,380.4,829,391.7,806.1,38,Saccade: 15258 ms,DOWN,18,1.11,61.59,70.5,[ ],15258,15275,395.9,825.7,397.0,868.7,-42.46,RIGHT,0.65,A2,S2.wav,A2.png,12,25637412,task,"[4, 5]","[Determiner_1, Noun_1]","[1330, 1640]","[1550, 2080]","[220, 440]","[0, 0]","[ein, Becher]","[a, mug]","[0.0, 0.0]","[0.0, 0.0]","[nan, mug_1]","[nan, S01_I002_E009]","[eine, Becher]","[nan, nan]","[nan, nan]","[ART, NN]","[nan, nan]"
p14,Trial: 24,p14.edf,.,32,Fixation: 15276 ms,592,15276,15867,[ 99],57,1089,18788,390.8,839.0,33,57,36.65,38.8,38,Saccade: 15258 ms,DOWN,18,1.11,61.59,70.5,[ 99],15258,15275,395.9,825.7,397,868.7,39,Saccade: 15868 ms,LEFT,704,7.1,10.08,731.56,[ 99],15868,16571,380.7,827.6,168.9,666.0,95.77,UP,0.54,A2,S2.wav,A2.png,12,25637412,task,[5],[Noun_1],[1640],[2080],[440],[0],[Becher],[mug],[0.0],[0.0],[mug_1],[S01_I002_E009],[Becher],[nan],[nan],[NN],[nan]
p14,Trial: 24,p14.edf,.,33,Fixation: 16790 ms,98,16790,16887,"[ 5, 15, 99]",12,1506,1201,109.1,527.9,1,3,37.75,37.95,40,Saccade: 16769 ms,LEFT,21,1.24,58.91,86.77,"[ 5, 99]",16769,16789,143.1,522.1,102.2,499.9,41,Saccade: 16888 ms,RIGHT,19,1.27,66.73,93.87,"[ 5, 99]",16888,16906,105.2,535.8,152.8,536.8,-46.95,DOWN,11.09,A2,S2.wav,A2.png,12,25637412,task,[8],[Noun_2],[2930],[3740],[810],[0],[Kaffeetisch],[coffee table],[0.0],[1.0],[sidetable_1],[S01_I002_E004],[Kaffeetisch],[nan],[nan],[NN],[nan]
p14,Trial: 24,p14.edf,.,34,Fixation: 16907 ms,683,16907,17589,"[ 5, 99]",12,1221,1201,174.1,549.2,2,3,37.2,37.75,41,Saccade: 16888 ms,RIGHT,19,1.27,66.73,93.87,"[ 5, 15, 99]",16888,16906,105.2,535.8,152.8,536.8,42,Saccade: 17590 ms,.,7,0.27,38.3,34.3,"[ 5, 99]",17590,17596,185.4,558.7,175.7,561.0,162.03,LEFT,1.82,A2,S2.wav,A2.png,12,25637412,task,"[8, 9]","[Noun_2, Relative Clause Pronoun]","[2930, 4090]","[3740, 4260]","[810, 170]","[0, 0]","[Kaffeetisch, den]","[coffee table, that]","[0.0, 0.0]","[1.0, 0.0]","[sidetable_1, nan]","[S01_I002_E004, nan]","[Kaffeetisch, die]","[nan, nan]","[nan, nan]","[NN, PRELS]","[nan, nan]"
p14,Trial: 24,p14.edf,17672,35,Fixation: 17597 ms,420,17597,18016,"[ 5, 99]",12,1209,1201,174.9,553.4,3,3,37.2,37.75,42,Saccade: 17590 ms,.,7,0.27,38.3,34.3,"[ 5, 99]",17590,17596,185.4,558.7,175.7,561,43,Saccade: 18017 ms,UP,33,4.02,121.71,222.42,"[ 27, 99]",18017,18049,175.2,548.2,102.8,415.3,100.94,.,0.11,A2,S2.wav,A2.png,12,25637412,task,"[10, 11]","[Relative Clause Pers. Pronoun, Relative Clause Adverb]","[4270, 4460]","[4410, 4990]","[140, 530]","[0, 0]","[sie, achtlos]","[she, carelessly]","[0.0, 0.0]","[0.0, 0.0]","[woman_1, nan]","[S01_I002_E002, nan]","[sie, achtlos]","[nan, nan]","[nan, nan]","[PPER, nan]","[nan, nan]"
p14,Trial: 24,p14.edf,.,36,Fixation: 18050 ms,188,18050,18237,"[ 27, 99]",5,1270,188,112.3,415.2,1,1,37.65,37.75,43,Saccade: 18017 ms,UP,33,4.02,121.71,222.42,"[ 5, 99]",18017,18049,175.2,548.2,102.8,415.3,44,Saccade: 18238 ms,DOWN,35,4.29,122.66,226.61,"[ 5, 99]",18238,18272,115.1,411.6,169.7,564.0,-65.44,DOWN,4.02,A2,S2.wav,A2.png,12,25637412,task,[11],[Relative Clause Adverb],[4460],[4990],[530],[0],[achtlos],[carelessly],[0.0],[0.0],[nan],[nan],[achtlos],[nan],[nan],[nan],[nan]
p14,Trial: 24,p14.edf,18320,37,Fixation: 18273 ms,556,18273,18828,"[ 5, 99]",12,1325,556,172.8,542.3,1,1,37.15,37.75,44,Saccade: 18238 ms,DOWN,35,4.29,122.66,226.61,"[ 27, 99]",18238,18272,115.1,411.6,169.7,564,45,Saccade: 18829 ms,UP,33,4.19,126.9,216.76,"[ 27, 99]",18829,18861,179.0,527.7,98.5,392.1,115.66,UP,3.74,A2,S2.wav,A2.png,12,25637412,task,[12],[Relative Clause Verb],[5110],[5710],[600],[0],[beschädigt],[damages],[1.0],[0.0],[nan],[nan],[beschädigen],[nan],[nan],[VVPP],[nan]
p14,Trial: 24,p14.edf,.,38,Fixation: 18862 ms,401,18862,19262,"[ 27, 99]",5,1399,401,106.1,393.6,1,1,37.7,37.8,45,Saccade: 18829 ms,UP,33,4.19,126.9,216.76,"[ 5, 99]",18829,18861,179,527.7,98.5,392.1,46,Saccade: 19263 ms,DOWN,42,6.55,155.9,295.56,"[ 5, 99]",19263,19304,103.5,397.9,226.2,611.9,-65.64,DOWN,4.32,A2,S2.wav,A2.png,12,25637412,task,[12],[Relative Clause Verb],[5110],[5710],[600],[0],[beschädigt],[damages],[1.0],[0.0],[nan],[nan],[beschädigen],[nan],[nan],[VVPP],[nan]
