RECORDING_SESSION_LABEL,TRIAL_LABEL,DATA_FILE,CURRENT_FIX_MSG_TIME_1,CURRENT_FIX_INDEX,CURRENT_FIX_LABEL,CURRENT_FIX_DURATION,CURRENT_FIX_START,CURRENT_FIX_END,CURRENT_FIX_INTEREST_AREAS,CURRENT_FIX_INTEREST_AREA_FIX_COUNT,CURRENT_FIX_PUPIL,CURRENT_FIX_RUN_DWELL_TIME,CURRENT_FIX_X,CURRENT_FIX_Y,CURRENT_FIX_RUN_INDEX,CURRENT_FIX_RUN_SIZE,CURRENT_FIX_X_RESOLUTION,CURRENT_FIX_Y_RESOLUTION,PREVIOUS_SAC_INDEX,PREVIOUS_SAC_LABEL,PREVIOUS_SAC_DIRECTION,PREVIOUS_SAC_DURATION,PREVIOUS_SAC_AMPLITUDE,PREVIOUS_SAC_AVG_VELOCITY,PREVIOUS_SAC_PEAK_VELOCITY,PREVIOUS_SAC_START_INTEREST_AREAS,PREVIOUS_SAC_START_TIME,PREVIOUS_SAC_END_TIME,PREVIOUS_SAC_START_X,PREVIOUS_SAC_START_Y,PREVIOUS_SAC_END_X,PREVIOUS_SAC_END_Y,NEXT_SAC_INDEX,NEXT_SAC_LABEL,NEXT_SAC_DIRECTION,NEXT_SAC_DURATION,NEXT_SAC_AMPLITUDE,NEXT_SAC_AVG_VELOCITY,NEXT_SAC_PEAK_VELOCITY,NEXT_SAC_END_INTEREST_AREAS,NEXT_SAC_START_TIME,NEXT_SAC_END_TIME,NEXT_SAC_START_X,NEXT_SAC_START_Y,NEXT_SAC_END_X,NEXT_SAC_END_Y,PREVIOUS_FIX_ANGLE,PREVIOUS_FIX_DIRECTION,PREVIOUS_FIX_DISTANCE,ItemNO,audiofilename,imagefilename,TRIAL_INDEX,TRIAL_START_TIME,viewtype,word_index,Label,word_onset,word_offset,word_duration,Continuation,wordDE,wordEN,REFWord,TargetObj,ObjectLabel,ObjectID,LemmaDE,LingIndex,DepS,pos_1,pos_2
p8,Trial: 25,p8.edf,.,1,Fixation: 3343 ms,294,3343,3636,"[ 19, 20, 99]",2,1277,294,628.9,597.0,1,1,35.4,36.95,7,Saccade: 3296 ms,UP,47,8.81,187.55,308.66,[ ],3296,3342,671.1,914.2,631.3,581.9,8,Saccade: 3637 ms,DOWN,49,5.23,106.69,186.73,"[ 20, 99]",3637,3685,623.7,598.8,707.7,773.8,-85.48,DOWN,8.82,A8,S8.wav,A8.png,15,24798062,preview,,,,,,,,,,,,,,,,,
p8,Trial: 25,p8.edf,.,2,Fixation: 3686 ms,208,3686,3893,"[ 20, 99]",4,1283,502,711.8,768.5,2,2,35.9,38.0,8,Saccade: 3637 ms,DOWN,49,5.23,106.69,186.73,"[ 19, 20, 99]",3637,3685,623.7,598.8,707.7,773.8,9,Saccade: 3894 ms,DOWN,31,1.89,60.84,128.56,"[ 13, 99]",3894,3924,706.4,772,677.5,837.2,116.94,UP,5.13,A8,S8.wav,A8.png,15,24798062,preview,,,,,,,,,,,,,,,,,
p8,Trial: 25,p8.edf,.,3,Fixation: 3925 ms,311,3925,4235,"[ 13, 99]",6,1273,311,671.1,827.3,1,1,36.1,38.35,9,Saccade: 3894 ms,DOWN,31,1.89,60.84,128.56,"[ 20, 99]",3894,3924,706.4,772.0,677.5,837.2,10,Saccade: 4236 ms,DOWN,30,2.53,84.18,198.65,[ ],4236,4265,668.6,824.6,686.4,920.6,53.72,UP,1.91,A8,S8.wav,A8.png,15,24798062,preview,,,,,,,,,,,,,,,,,
p8,Trial: 25,p8.edf,.,4,Fixation: 4266 ms,304,4266,4569,[ ],.,1281,.,683.1,906.1,.,.,36.45,39.15,10,Saccade: 4236 ms,DOWN,30,2.53,84.18,198.65,"[ 13, 99]",4236,4265,668.6,824.6,686.4,920.6,11,Saccade: 4570 ms,LEFT,19,1.61,84.58,116.74,[ ],4570,4588,685.8,907.8,631.4,885,99.24,UP,2.06,A8,S8.wav,A8.png,15,24798062,preview,,,,,,,,,,,,,,,,,
p8,Trial: 25,p8.edf,.,5,Fixation: 4589 ms,253,4589,4841,[ ],.,1339,.,634.3,879.0,.,.,36.3,38.8,11,Saccade: 4570 ms,LEFT,19,1.61,84.58,116.74,[ ],4570,4588,685.8,907.8,631.4,885.0,12,Saccade: 4842 ms,LEFT,38,2.99,78.62,114.5,[ 99],4842,4879,636.1,877.4,547.4,811.5,-27.4,RIGHT,1.51,A8,S8.wav,A8.png,15,24798062,preview,,,,,,,,,,,,,,,,,
p8,Trial: 25,p8.edf,.,6,Fixation: 4880 ms,101,4880,4980,[ 99],35,1378,101,559.6,821.7,1,1,36.1,38.3,12,Saccade: 4842 ms,LEFT,38,2.99,78.62,114.5,[ ],4842,4879,636.1,877.4,547.4,811.5,13,Saccade: 4981 ms,RIGHT,462,5.53,11.96,512.71,[ ],4981,5442,557.2,820.7,737.5,914.6,-35.77,RIGHT,2.54,A8,S8.wav,A8.png,15,24798062,preview,,,,,,,,,,,,,,,,,
p8,Trial: 25,p8.edf,.,7,Fixation: 5693 ms,298,5693,5990,[ ],.,1312,.,689.5,888.2,.,.,36.4,39.1,14,Saccade: 5668 ms,RIGHT,25,1.74,69.41,121.69,[ ],5668,5692,657.3,992.5,708.2,951.1,15,Saccade: 5991 ms,LEFT,24,2.36,98.32,173.96,[ ],5991,6014,686.8,862.1,607.4,896.5,154.38,LEFT,3.97,A8,S8.wav,A8.png,15,24798062,preview,,,,,,,,,,,,,,,,,
p8,Trial: 25,p8.edf,.,8,Fixation: 6015 ms,325,6015,6339,[ ],.,1297,.,616.5,885.8,.,.,36.35,38.95,15,Saccade: 5991 ms,LEFT,24,2.36,98.32,173.96,[ ],5991,6014,686.8,862.1,607.4,896.5,16,Saccade: 6340 ms,RIGHT,34,2.43,71.55,104.17,"[ 13, 99]",6340,6373,618,887.5,692.5,837.3,-1.76,RIGHT,2.01,A8,S8.wav,A8.png,15,24798062,preview,,,,,,,,,,,,,,,,,
p8,Trial: 25,p8.edf,.,9,Fixation: 6374 ms,169,6374,6542,"[ 13, 99]",6,1261,169,690.0,845.9,1,1,36.15,38.45,16,Saccade: 6340 ms,RIGHT,34,2.43,71.55,104.17,[ ],6340,6373,618.0,887.5,692.5,837.3,17,Saccade: 6543 ms,LEFT,48,3.8,79.08,193.22,[ 99],6543,6590,691.1,848.5,556.5,820.2,-153.05,LEFT,2.27,A8,S8.wav,A8.png,15,24798062,preview,,,,,,,,,,,,,,,,,
p8,Trial: 25,p8.edf,.,10,Fixation: 6685 ms,250,6685,6934,[ ],.,1212,.,683.9,939.2,.,.,36.6,39.4,18,Saccade: 6656 ms,RIGHT,29,4.88,168.35,338.35,[ 99],6656,6684,543.5,823.5,677.6,947.9,19,Saccade: 6935 ms,LEFT,19,1.41,74.06,99.15,[ ],6935,6953,685.5,941.9,645.1,907.8,86,UP,2.4,A8,S8.wav,A8.png,15,24798062,preview,,,,,,,,,,,,,,,,,
p8,Trial: 25,p8.edf,.,11,Fixation: 6954 ms,294,6954,7247,[ ],.,1214,.,650.8,915.7,.,.,36.4,39.15,19,Saccade: 6935 ms,LEFT,19,1.41,74.06,99.15,[ ],6935,6953,685.5,941.9,645.1,907.8,20,Saccade: 7248 ms,LEFT,25,2.21,88.58,168.99,[ ],7248,7272,652,918,576.5,888,-33.42,RIGHT,1.09,A8,S8.wav,A8.png,15,24798062,preview,,,,,,,,,,,,,,,,,
p8,Trial: 25,p8.edf,.,12,Fixation: 7273 ms,619,7273,7891,[ ],.,1169,.,589.0,894.9,.,.,36.35,38.9,20,Saccade: 7248 ms,LEFT,25,2.21,88.58,168.99,[ ],7248,7272,652.0,918.0,576.5,888.0,21,Saccade: 7892 ms,DOWN,258,3.6,13.97,567.03,[ ],7892,8149,583.7,892.2,613.2,1031.3,-17.42,RIGHT,1.78,A8,S8.wav,A8.png,15,24798062,preview,,,,,,,,,,,,,,,,,
p8,Trial: 25,p8.edf,.,13,Fixation: 9243 ms,183,9243,9425,[ ],.,1193,.,572.5,883.8,.,.,36.3,38.9,22,Saccade: 9226 ms,LEFT,17,0.96,56.66,70.83,[ ],9226,9242,598.7,879.1,564.3,885.8,23,Saccade: 9426 ms,RIGHT,19,1.5,78.69,97.91,[ ],9426,9444,573.9,883.8,628,888.4,-32.14,RIGHT,0.54,A8,S8.wav,A8.png,15,24798062,preview,,,,,,,,,,,,,,,,,
p8,Trial: 25,p8.edf,.,14,Fixation: 9445 ms,124,9445,9568,[ ],.,1197,.,633.0,883.0,.,.,36.3,38.85,23,Saccade: 9426 ms,RIGHT,19,1.5,78.69,97.91,[ ],9426,9444,573.9,883.8,628.0,888.4,24,Saccade: 9569 ms,DOWN,295,2.78,9.43,507.72,[ ],9569,9863,635.7,880.2,666.1,984.5,-179.29,LEFT,1.67,A8,S8.wav,A8.png,15,24798062,preview,,,,,,,,,,,,,,,,,
p8,Trial: 25,p8.edf,.,15,Fixation: 9940 ms,223,9940,10162,[ ],.,1023,.,584.7,1012.4,.,.,37.0,40.25,25,Saccade: 9903 ms,RIGHT,37,3.94,106.59,308.49,[ ],9903,9939,461.9,1152.6,587.5,1066.2,26,Saccade: 10163 ms,RIGHT,20,1.28,63.8,92.05,[ ],10163,10182,584.1,979.9,629.4,966.8,68.06,UP,3.53,A8,S8.wav,A8.png,15,24798062,preview,,,,,,,,,,,,,,,,,
p8,Trial: 25,p8.edf,.,16,Fixation: 10183 ms,1652,10183,11834,[ ],.,1126,.,612.0,898.1,.,.,36.55,39.3,26,Saccade: 10163 ms,RIGHT,20,1.28,63.8,92.05,[ ],10163,10182,584.1,979.9,629.4,966.8,27,Saccade: 11835 ms,RIGHT,16,0.97,60.93,77.7,[ ],11835,11850,606.5,897.8,641.4,891.2,-104.48,DOWN,2.97,A8,S8.wav,A8.png,15,24798062,preview,,,,,,,,,,,,,,,,,
p8,Trial: 25,p8.edf,.,17,Fixation: 11851 ms,305,11851,12155,[ ],.,1094,.,653.5,876.4,.,.,36.3,38.85,27,Saccade: 11835 ms,RIGHT,16,0.97,60.93,77.7,[ ],11835,11850,606.5,897.8,641.4,891.2,28,Saccade: 12156 ms,DOWN,20,1.04,52.09,60.4,[ ],12156,12175,654.1,882.9,645.6,922.5,-154.01,LEFT,1.27,A8,S8.wav,A8.png,15,24798062,preview,,,,,,,,,,,,,,,,,
p8,Trial: 25,p8.edf,.,18,Fixation: 12176 ms,270,12176,12445,[ ],.,1077,.,640.6,922.6,.,.,36.45,39.15,28,Saccade: 12156 ms,DOWN,20,1.04,52.09,60.4,[ ],12156,12175,654.1,882.9,645.6,922.5,29,Saccade: 12446 ms,DOWN,250,2.37,9.46,476.74,[ ],12446,12695,639.2,914.1,674.1,999.7,73.33,UP,1.24,A8,S8.wav,A8.png,15,24798062,preview,,,,,,,,,,,,,,,,,
p8,Trial: 25,p8.edf,13117,19,Fixation: 12849 ms,680,12849,13528,[ ],.,1058,.,646.5,912.0,.,.,36.5,39.25,31,Saccade: 12827 ms,RIGHT,22,1.84,83.55,129.02,[ ],12827,12848,587.6,954.4,654.7,949.2,32,Saccade: 13529 ms,LEFT,21,1.45,69,100.75,[ ],13529,13549,651.9,910.5,599.6,903.2,-120.89,.,0.32,A8,S8.wav,A8.png,15,24798062,preview,,,,,,,,,,,,,,,,,
p8,Trial: 25,p8.edf,.,20,Fixation: 13550 ms,398,13550,13947,[ ],.,1106,.,611.5,895.6,.,.,36.35,38.95,32,Saccade: 13529 ms,LEFT,21,1.45,69.0,100.75,[ ],13529,13549,651.9,910.5,599.6,903.2,33,Saccade: 13948 ms,UP,48,3.31,68.88,132.86,"[ 13, 99]",13948,13995,604.5,894,666.4,785.3,-23.58,RIGHT,1.05,A8,S8.wav,A8.png,15,24798062,task,[2],[Verb],[300],[780],[480],[0],[befindet],[is],[0.0],[0.0],[nan],[nan],[befinden],[nan],[nan],[nan],[nan]
p8,Trial: 25,p8.edf,.,21,Fixation: 13996 ms,160,13996,14155,"[ 13, 99]",6,1158,160,673.7,792.5,1,1,35.9,38.0,33,Saccade: 13948 ms,UP,48,3.31,68.88,132.86,[ ],13948,13995,604.5,894.0,666.4,785.3,34,Saccade: 14156 ms,UP,63,12.48,198.07,412.22,"[ 6, 99]",14156,14218,672.8,782.3,536.8,339.8,-122.72,DOWN,3.19,A8,S8.wav,A8.png,15,24798062,task,[2],[Verb],[300],[780],[480],[0],[befindet],[is],[0.0],[0.0],[nan],[nan],[befinden],[nan],[nan],[nan],[nan]
p8,Trial: 25,p8.edf,.,22,Fixation: 14219 ms,378,14219,14596,"[ 6, 99]",13,1220,378,535.6,341.2,1,1,35.3,36.5,34,Saccade: 14156 ms,UP,63,12.48,198.07,412.22,"[ 13, 99]",14156,14218,672.8,782.3,536.8,339.8,35,Saccade: 14597 ms,DOWN,32,2.04,63.66,111.76,"[ 14, 99]",14597,14628,535.8,348.6,559.2,418.9,-72.25,DOWN,12.72,A8,S8.wav,A8.png,15,24798062,task,[3],[Pronoun_ref],[860],[1170],[310],[0],[sich],[nan],[0.0],[0.0],[nan],[nan],[sie],[nan],[nan],[nan],[nan]
p8,Trial: 25,p8.edf,14990,23,Fixation: 14629 ms,417,14629,15045,"[ 14, 99]",9,1053,812,561.9,420.4,1,2,35.2,36.5,35,Saccade: 14597 ms,DOWN,32,2.04,63.66,111.76,"[ 6, 99]",14597,14628,535.8,348.6,559.2,418.9,36,Saccade: 15046 ms,UP,41,5.18,126.31,240.67,"[ 6, 14, 99]",15046,15086,558.8,422,574.3,233.4,108.98,UP,2.29,A8,S8.wav,A8.png,15,24798062,task,[4],[Determiner_1],[1500],[1740],[240],[0],[eine],[a],[0.0],[0.0],[nan],[nan],[eine],[nan],[nan],[nan],[nan]
p8,Trial: 25,p8.edf,.,24,Fixation: 15087 ms,395,15087,15481,"[ 6, 14, 99]",13,1155,1583,569.4,239.8,1,5,35.3,36.6,36,Saccade: 15046 ms,UP,41,5.18,126.31,240.67,"[ 14, 99]",15046,15086,558.8,422.0,574.3,233.4,37,Saccade: 15482 ms,DOWN,42,4.69,111.7,185.82,"[ 6, 99]",15482,15523,568.5,245.3,504.8,403.8,-92.47,DOWN,4.95,A8,S8.wav,A8.png,15,24798062,task,[5],[Noun_1],[1790],[2424],[634],[0],[Gitarre],[guitar],[0.0],[0.0],[guitar_1],[S01_I008_E002],[Gitarre],[nan],[nan],[nan],[nan]
p8,Trial: 25,p8.edf,.,25,Fixation: 15524 ms,140,15524,15663,"[ 6, 99]",13,1156,1583,507.7,388.9,2,5,35.3,36.6,37,Saccade: 15482 ms,DOWN,42,4.69,111.7,185.82,"[ 6, 14, 99]",15482,15523,568.5,245.3,504.8,403.8,38,Saccade: 15664 ms,UP,28,3.14,112.28,195.14,"[ 3, 6, 99]",15664,15691,508.1,390.6,469.5,282.7,66.78,UP,4.43,A8,S8.wav,A8.png,15,24798062,task,[5],[Noun_1],[1790],[2424],[634],[0],[Gitarre],[guitar],[0.0],[0.0],[guitar_1],[S01_I008_E002],[Gitarre],[nan],[nan],[nan],[nan]
p8,Trial: 25,p8.edf,.,26,Fixation: 15692 ms,454,15692,16145,"[ 3, 6, 99]",4,1223,1048,465.5,283.2,1,3,35.45,36.6,38,Saccade: 15664 ms,UP,28,3.14,112.28,195.14,"[ 6, 99]",15664,15691,508.1,390.6,469.5,282.7,39,Saccade: 16146 ms,LEFT,20,1.38,68.9,107.1,"[ 3, 6, 99]",16146,16165,464.7,286.4,416,280.9,-67.56,DOWN,3.12,A8,S8.wav,A8.png,15,24798062,task,[5],[Noun_1],[1790],[2424],[634],[0],[Gitarre],[guitar],[0.0],[0.0],[guitar_1],[S01_I008_E002],[Gitarre],[nan],[nan],[nan],[nan]
p8,Trial: 25,p8.edf,.,27,Fixation: 16166 ms,289,16166,16454,"[ 3, 6, 99]",4,1205,1048,426.7,282.4,2,3,35.6,36.7,39,Saccade: 16146 ms,LEFT,20,1.38,68.9,107.1,"[ 3, 6, 99]",16146,16165,464.7,286.4,416.0,280.9,40,Saccade: 16455 ms,RIGHT,16,0.96,59.82,68.44,"[ 3, 6, 99]",16455,16470,431.1,282.1,465.1,283.5,-1.14,RIGHT,1.09,A8,S8.wav,A8.png,15,24798062,task,"[6, 7]","[Preposition_1, Determiner_2]","[2770, 2937]","[2910, 3190]","[140, 253]","[0, 0]","[auf, einer]","[on, a]","[0.0, 0.0]","[0.0, 0.0]","[nan, nan]","[nan, nan]","[auf, eine]","[nan, nan]","[nan, nan]","[nan, nan]","[nan, nan]"
p8,Trial: 25,p8.edf,.,28,Fixation: 16471 ms,305,16471,16775,"[ 3, 6, 99]",4,1252,1048,462.2,284.0,3,3,35.5,36.6,40,Saccade: 16455 ms,RIGHT,16,0.96,59.82,68.44,"[ 3, 6, 99]",16455,16470,431.1,282.1,465.1,283.5,41,Saccade: 16776 ms,LEFT,61,9.2,150.82,336.59,"[ 9, 16, 99]",16776,16836,464.1,285.9,208.9,504.9,177.5,LEFT,1,A8,S8.wav,A8.png,15,24798062,task,[8],[Noun_2],[3255],[3767],[512],[0],[Couch],[couch],[0.0],[1.0],[couch_1],[S01_I008_E005],[Couch],[nan],[nan],[nan],[nan]
p8,Trial: 25,p8.edf,.,29,Fixation: 16837 ms,252,16837,17088,"[ 9, 16, 99]",5,1283,252,196.7,510.6,1,1,36.9,37.5,41,Saccade: 16776 ms,LEFT,61,9.2,150.82,336.59,"[ 3, 6, 99]",16776,16836,464.1,285.9,208.9,504.9,42,Saccade: 17089 ms,RIGHT,265,12.39,46.74,1056.75,"[ 6, 99]",17089,17353,201.4,516.5,625.6,373.3,39.82,RIGHT,9.55,A8,S8.wav,A8.png,15,24798062,task,[8],[Noun_2],[3255],[3767],[512],[0],[Couch],[couch],[0.0],[1.0],[couch_1],[S01_I008_E005],[Couch],[nan],[nan],[nan],[nan]
p8,Trial: 25,p8.edf,.,30,Fixation: 17494 ms,156,17494,17649,"[ 4, 99]",1,1286,156,706.1,314.6,1,1,35.2,36.5,43,Saccade: 17469 ms,RIGHT,25,2.78,111.23,196.53,"[ 6, 99]",17469,17493,633.6,366.9,711.1,304.9,44,Saccade: 17650 ms,LEFT,47,5.72,121.68,421.54,"[ 6, 99]",17650,17696,703.3,317.5,502.4,300.1,-159.45,LEFT,15.09,A8,S8.wav,A8.png,15,24798062,task,[9],[Preposition_2_of_RC],[4103],[4257],[154],[0],[auf],[on],[0.0],[0.0],[nan],[nan],[auf],[nan],[nan],[nan],[nan]
p8,Trial: 25,p8.edf,.,31,Fixation: 17697 ms,201,17697,17897,"[ 3, 6, 99]",4,1385,201,487.0,300.8,1,1,35.35,36.6,44,Saccade: 17650 ms,LEFT,47,5.72,121.68,421.54,"[ 4, 99]",17650,17696,703.3,317.5,502.4,300.1,45,Saccade: 17898 ms,RIGHT,58,10.43,179.87,404.79,"[ 8, 12, 99]",17898,17955,479.2,297.6,848.3,329,-3.48,RIGHT,6.22,A8,S8.wav,A8.png,15,24798062,task,[10],[Relative Clause Pronoun],[4330],[4530],[200],[1],[der],[that],[0.0],[0.0],[nan],[nan],[die],[nan],[nan],[nan],[nan]
p8,Trial: 25,p8.edf,.,32,Fixation: 17956 ms,267,17956,18222,"[ 8, 12, 99]",2,1347,267,868.5,335.6,1,1,35.6,36.7,45,Saccade: 17898 ms,RIGHT,58,10.43,179.87,404.79,"[ 3, 6, 99]",17898,17955,479.2,297.6,848.3,329.0,46,Saccade: 18223 ms,RIGHT,41,5.34,130.21,345.16,[ 99],18223,18263,867.8,340,1060.4,327.5,174.95,LEFT,10.8,A8,S8.wav,A8.png,15,24798062,task,[12],[Relative Clause Adverb],[4743],[5400],[657],[0],[gemütlich],[comfortably],[0.0],[0.0],[nan],[nan],[gemütlich],[nan],[nan],[nan],[nan]
p8,Trial: 25,p8.edf,.,33,Fixation: 18264 ms,206,18264,18469,[ 99],35,1279,11079,1058.8,331.4,13,30,36.7,37.25,46,Saccade: 18223 ms,RIGHT,41,5.34,130.21,345.16,"[ 8, 12, 99]",18223,18263,867.8,340.0,1060.4,327.5,47,Saccade: 18470 ms,LEFT,60,14.21,236.92,638.61,"[ 6, 14, 99]",18470,18529,1056.2,331.5,551.9,242.4,-178.76,LEFT,5.27,A8,S8.wav,A8.png,15,24798062,task,[12],[Relative Clause Adverb],[4743],[5400],[657],[0],[gemütlich],[comfortably],[0.0],[0.0],[nan],[nan],[gemütlich],[nan],[nan],[nan],[nan]
p8,Trial: 25,p8.edf,18750,34,Fixation: 18530 ms,298,18530,18827,"[ 6, 14, 99]",13,1397,580,543.8,248.3,1,2,35.3,36.6,47,Saccade: 18470 ms,LEFT,60,14.21,236.92,638.61,[ 99],18470,18529,1056.2,331.5,551.9,242.4,48,Saccade: 18828 ms,UP,24,2.51,104.64,161.96,"[ 6, 14, 99]",18828,18851,542.9,251,536.2,159.1,-8.94,RIGHT,14.48,A8,S8.wav,A8.png,15,24798062,task,[12],[Relative Clause Adverb],[4743],[5400],[657],[0],[gemütlich],[comfortably],[0.0],[0.0],[nan],[nan],[gemütlich],[nan],[nan],[nan],[nan]
p8,Trial: 25,p8.edf,.,35,Fixation: 18852 ms,282,18852,19133,"[ 6, 14, 99]",13,1393,580,535.8,170.3,2,2,35.4,36.8,48,Saccade: 18828 ms,UP,24,2.51,104.64,161.96,"[ 6, 14, 99]",18828,18851,542.9,251.0,536.2,159.1,49,Saccade: 19134 ms,RIGHT,51,13.03,255.47,429.27,"[ 5, 8, 99]",19134,19184,537.2,172,983.4,312.1,-83.92,DOWN,2.14,A8,S8.wav,A8.png,15,24798062,task,[13],[Relative Clause Verb],[5550],[5970],[420],[0],[sitzt],[sits],[1.0],[0.0],[nan],[nan],[sitzen],[nan],[nan],[nan],[nan]
p8,Trial: 25,p8.edf,.,36,Fixation: 19185 ms,200,19185,19384,"[ 5, 8, 99]",1,1324,200,996.1,306.1,1,1,36.25,37.05,49,Saccade: 19134 ms,RIGHT,51,13.03,255.47,429.27,"[ 6, 14, 99]",19134,19184,537.2,172.0,983.4,312.1,50,Saccade: 19385 ms,LEFT,50,12.56,251.12,499.11,"[ 6, 14, 99]",19385,19434,998.3,304.5,549,290.7,164.03,LEFT,13.36,A8,S8.wav,A8.png,15,24798062,task,[13],[Relative Clause Verb],[5550],[5970],[420],[0],[sitzt],[sits],[1.0],[0.0],[nan],[nan],[sitzen],[nan],[nan],[nan],[nan]
p8,Trial: 25,p8.edf,.,37,Fixation: 19435 ms,303,19435,19737,"[ 6, 14, 99]",13,1391,515,558.2,289.8,1,2,35.25,36.5,50,Saccade: 19385 ms,LEFT,50,12.56,251.12,499.11,"[ 5, 8, 99]",19385,19434,998.3,304.5,549.0,290.7,51,Saccade: 19738 ms,UP,36,3.56,98.99,188.12,"[ 6, 14, 99]",19738,19773,555,289.3,554.5,158.7,-2.07,RIGHT,12.26,A8,S8.wav,A8.png,15,24798062,post,,,,,,,,,,,,,,,,,
p8,Trial: 25,p8.edf,.,38,Fixation: 19774 ms,212,19774,19985,"[ 6, 14, 99]",13,1406,515,557.6,166.4,2,2,35.4,36.8,51,Saccade: 19738 ms,UP,36,3.56,98.99,188.12,"[ 6, 14, 99]",19738,19773,555.0,289.3,554.5,158.7,52,Saccade: 19986 ms,LEFT,28,0.66,23.46,103.65,"[ 6, 14, 99]",19986,20013,557,162.9,534.5,156.8,-89.71,DOWN,3.37,A8,S8.wav,A8.png,15,24798062,post,,,,,,,,,,,,,,,,,
p8,Trial: 25,p8.edf,.,39,Fixation: 20014 ms,153,20014,20166,"[ 14, 99]",9,1374,1611,530.3,157.1,3,4,35.4,36.8,52,Saccade: 19986 ms,LEFT,28,0.66,23.46,103.65,"[ 6, 14, 99]",19986,20013,557.0,162.9,534.5,156.8,53,Saccade: 20167 ms,RIGHT,15,0.81,53.94,63.89,"[ 6, 14, 99]",20167,20181,528.8,158,556.1,149,-18.14,RIGHT,0.81,A8,S8.wav,A8.png,15,24798062,post,,,,,,,,,,,,,,,,,
