RECORDING_SESSION_LABEL,TRIAL_LABEL,DATA_FILE,CURRENT_FIX_MSG_TIME_1,CURRENT_FIX_INDEX,CURRENT_FIX_LABEL,CURRENT_FIX_DURATION,CURRENT_FIX_START,CURRENT_FIX_END,CURRENT_FIX_INTEREST_AREAS,CURRENT_FIX_INTEREST_AREA_FIX_COUNT,CURRENT_FIX_PUPIL,CURRENT_FIX_RUN_DWELL_TIME,CURRENT_FIX_X,CURRENT_FIX_Y,CURRENT_FIX_RUN_INDEX,CURRENT_FIX_RUN_SIZE,CURRENT_FIX_X_RESOLUTION,CURRENT_FIX_Y_RESOLUTION,PREVIOUS_SAC_INDEX,PREVIOUS_SAC_LABEL,PREVIOUS_SAC_DIRECTION,PREVIOUS_SAC_DURATION,PREVIOUS_SAC_AMPLITUDE,PREVIOUS_SAC_AVG_VELOCITY,PREVIOUS_SAC_PEAK_VELOCITY,PREVIOUS_SAC_START_INTEREST_AREAS,PREVIOUS_SAC_START_TIME,PREVIOUS_SAC_END_TIME,PREVIOUS_SAC_START_X,PREVIOUS_SAC_START_Y,PREVIOUS_SAC_END_X,PREVIOUS_SAC_END_Y,NEXT_SAC_INDEX,NEXT_SAC_LABEL,NEXT_SAC_DIRECTION,NEXT_SAC_DURATION,NEXT_SAC_AMPLITUDE,NEXT_SAC_AVG_VELOCITY,NEXT_SAC_PEAK_VELOCITY,NEXT_SAC_END_INTEREST_AREAS,NEXT_SAC_START_TIME,NEXT_SAC_END_TIME,NEXT_SAC_START_X,NEXT_SAC_START_Y,NEXT_SAC_END_X,NEXT_SAC_END_Y,PREVIOUS_FIX_ANGLE,PREVIOUS_FIX_DIRECTION,PREVIOUS_FIX_DISTANCE,ItemNO,audiofilename,imagefilename,TRIAL_INDEX,TRIAL_START_TIME,viewtype,word_index,Label,word_onset,word_offset,word_duration,Continuation,wordDE,wordEN,REFWord,TargetObj,ObjectLabel,ObjectID,LemmaDE,LingIndex,DepS,pos_1,pos_2
p8,Trial: 30,p8.edf,.,1,Fixation: 3356 ms,251,3356,3606,"[ 11, 99]",8,990,251,670.8,725.2,1,1,35.7,37.55,7,Saccade: 3317 ms,UP,39,6.03,154.7,268.98,[ ],3317,3355,646.5,938.9,672.7,708.6,8,Saccade: 3607 ms,UP,55,7.83,142.42,335.53,"[ 6, 7, 12, 99]",3607,3661,670.8,722.8,721.2,437,-95.61,DOWN,5.35,A6,S6.wav,A6.png,16,24913257,preview,,,,,,,,,,,,,,,,,
p8,Trial: 30,p8.edf,.,2,Fixation: 3662 ms,470,3662,4131,"[ 6, 7, 12, 99]",4,1092,470,718.8,424.4,1,1,35.25,36.55,8,Saccade: 3607 ms,UP,55,7.83,142.42,335.53,"[ 11, 99]",3607,3661,670.8,722.8,721.2,437.0,9,Saccade: 4132 ms,UP,40,4.85,121.14,197.78,"[ 8, 99]",4132,4171,717.7,426.7,667.1,257.8,-99.46,DOWN,8.23,A6,S6.wav,A6.png,16,24913257,preview,,,,,,,,,,,,,,,,,
p8,Trial: 30,p8.edf,.,3,Fixation: 4172 ms,349,4172,4520,"[ 8, 99]",3,1062,473,662.8,262.7,1,2,35.2,36.5,9,Saccade: 4132 ms,UP,40,4.85,121.14,197.78,"[ 6, 7, 12, 99]",4132,4171,717.7,426.7,667.1,257.8,10,Saccade: 4521 ms,UP,17,1.07,62.96,74.63,"[ 8, 99]",4521,4537,662.5,263.3,637,234.5,-70.25,DOWN,4.7,A6,S6.wav,A6.png,16,24913257,preview,,,,,,,,,,,,,,,,,
p8,Trial: 30,p8.edf,.,4,Fixation: 4538 ms,124,4538,4661,"[ 8, 99]",3,1038,473,639.8,238.7,2,2,35.2,36.55,10,Saccade: 4521 ms,UP,17,1.07,62.96,74.63,"[ 8, 99]",4521,4537,662.5,263.3,637.0,234.5,11,Saccade: 4662 ms,DOWN,242,20.04,82.8,715.25,[ ],4662,4903,646.7,255.6,684.5,1023,-45.16,DOWN,0.93,A6,S6.wav,A6.png,16,24913257,preview,,,,,,,,,,,,,,,,,
p8,Trial: 30,p8.edf,.,5,Fixation: 5076 ms,149,5076,5224,[ ],.,1014,.,695.7,899.3,.,.,36.4,39.0,12,Saccade: 5051 ms,UP,25,1.56,62.25,93.7,[ ],5051,5075,669.1,959.2,694.7,904.6,13,Saccade: 5225 ms,LEFT,26,2.74,105.31,197.39,[ ],5225,5250,697.4,903.2,597.9,897.1,95.1,UP,17.56,A6,S6.wav,A6.png,16,24913257,preview,,,,,,,,,,,,,,,,,
p8,Trial: 30,p8.edf,.,6,Fixation: 5251 ms,2714,5251,7964,[ ],.,1094,.,612.2,906.2,.,.,36.4,39.0,13,Saccade: 5225 ms,LEFT,26,2.74,105.31,197.39,[ ],5225,5250,697.4,903.2,597.9,897.1,14,Saccade: 7965 ms,DOWN,197,2.45,12.46,481.38,[ ],7965,8161,605.7,895.2,572.9,985.1,4.41,RIGHT,2.3,A6,S6.wav,A6.png,16,24913257,preview,,,,,,,,,,,,,,,,,
p8,Trial: 30,p8.edf,.,7,Fixation: 15082 ms,228,15082,15309,[ 99],36,1654,9623,556.5,828.2,1,32,36.2,38.45,16,Saccade: 15070 ms,.,12,0.45,37.55,38.63,"[ 11, 99]",15070,15081,563.8,848.3,553.2,835.1,17,Saccade: 15310 ms,RIGHT,24,1.35,56.22,90.15,"[ 11, 99]",15310,15333,559.7,835.6,606.3,820.3,-52.7,DOWN,2.53,A6,S6.wav,A6.png,16,24913257,task,[5],[Noun_1],[1660],[2610],[950],[0],[Flaschenöffner],[bottle opener],[0.0],[1.0],[bottleopener_1],[S01_I006_E005],[Flaschenöffner],[nan],[nan],[NN],[nan]
p8,Trial: 30,p8.edf,.,8,Fixation: 15334 ms,220,15334,15553,"[ 11, 99]",8,1516,613,626.7,821.4,1,2,36.05,38.3,17,Saccade: 15310 ms,RIGHT,24,1.35,56.22,90.15,[ 99],15310,15333,559.7,835.6,606.3,820.3,18,Saccade: 15554 ms,UP,25,1.14,45.72,53.79,"[ 11, 99]",15554,15578,629.5,823.8,635.1,780.6,-174.79,LEFT,1.95,A6,S6.wav,A6.png,16,24913257,task,[5],[Noun_1],[1660],[2610],[950],[0],[Flaschenöffner],[bottle opener],[0.0],[1.0],[bottleopener_1],[S01_I006_E005],[Flaschenöffner],[nan],[nan],[NN],[nan]
p8,Trial: 30,p8.edf,.,9,Fixation: 15579 ms,393,15579,15971,"[ 11, 99]",8,1507,613,640.3,779.6,2,2,35.9,38.0,18,Saccade: 15554 ms,UP,25,1.14,45.72,53.79,"[ 11, 99]",15554,15578,629.5,823.8,635.1,780.6,19,Saccade: 15972 ms,LEFT,37,2.49,67.41,138.13,[ 99],15972,16008,643.9,780.3,554.7,790,-109.04,DOWN,1.16,A6,S6.wav,A6.png,16,24913257,task,[5],[Noun_1],[1660],[2610],[950],[0],[Flaschenöffner],[bottle opener],[0.0],[1.0],[bottleopener_1],[S01_I006_E005],[Flaschenöffner],[nan],[nan],[NN],[nan]
p8,Trial: 30,p8.edf,.,10,Fixation: 16009 ms,182,16009,16190,[ 99],36,1537,9623,564.9,793.9,4,32,36.0,38.15,19,Saccade: 15972 ms,LEFT,37,2.49,67.41,138.13,"[ 11, 99]",15972,16008,643.9,780.3,554.7,790.0,20,Saccade: 16191 ms,RIGHT,35,2.35,67.21,117.77,"[ 11, 99]",16191,16225,563.4,798.5,647.7,791.4,10.15,RIGHT,2.13,A6,S6.wav,A6.png,16,24913257,task,,break,,,,,,,,,,,,,,,
p8,Trial: 30,p8.edf,.,11,Fixation: 16226 ms,192,16226,16417,"[ 11, 99]",8,1499,428,641.7,793.1,1,2,35.95,38.1,20,Saccade: 16191 ms,RIGHT,35,2.35,67.21,117.77,[ 99],16191,16225,563.4,798.5,647.7,791.4,21,Saccade: 16418 ms,UP,29,1.48,51.18,75.54,"[ 11, 99]",16418,16446,641,793.9,608.1,749.6,-179.44,LEFT,2.13,A6,S6.wav,A6.png,16,24913257,task,[6],[Preposition_1],[2930],[3062],[132],[0],[auf],[on],[0.0],[0.0],[nan],[nan],[auf],[nan],[nan],[APPR],[nan]
p8,Trial: 30,p8.edf,16571,12,Fixation: 16447 ms,236,16447,16682,"[ 11, 99]",8,1532,428,614.0,757.5,2,2,35.8,37.85,21,Saccade: 16418 ms,UP,29,1.48,51.18,75.54,"[ 11, 99]",16418,16446,641.0,793.9,608.1,749.6,22,Saccade: 16683 ms,RIGHT,57,9.32,163.46,297.87,"[ 10, 12, 99]",16683,16739,615.7,759.8,884.8,552.8,-50.52,DOWN,1.21,A6,S6.wav,A6.png,16,24913257,task,[7],[Determiner_2],[3074],[3340],[266],[0],[einem],[a],[0.0],[0.0],[nan],[nan],[eine],[nan],[nan],[ART],[nan]
p8,Trial: 30,p8.edf,.,13,Fixation: 16740 ms,129,16740,16868,"[ 10, 12, 99]",6,1517,819,882.9,562.2,1,4,35.85,37.1,22,Saccade: 16683 ms,RIGHT,57,9.32,163.46,297.87,"[ 11, 99]",16683,16739,615.7,759.8,884.8,552.8,23,Saccade: 16869 ms,RIGHT,22,1.99,90.61,139.9,"[ 10, 12, 14, 99]",16869,16890,883.7,564.1,940.5,518.9,-145.23,LEFT,9.14,A6,S6.wav,A6.png,16,24913257,task,[8],[Noun_2],[3371],[4120],[749],[0],[Kasten],[box],[0.0],[0.0],[box_1],[S01_I006_E006],[Kaste],[nan],[nan],[NN],[nan]
p8,Trial: 30,p8.edf,.,14,Fixation: 16891 ms,200,16891,17090,"[ 10, 12, 14, 99]",6,1471,819,933.8,519.8,2,4,36.05,37.1,23,Saccade: 16869 ms,RIGHT,22,1.99,90.61,139.9,"[ 10, 12, 99]",16869,16890,883.7,564.1,940.5,518.9,24,Saccade: 17091 ms,RIGHT,24,1,41.78,105.96,"[ 5, 10, 12, 99]",17091,17114,934.1,523.9,969.1,533.4,-141.09,LEFT,1.82,A6,S6.wav,A6.png,16,24913257,task,[8],[Noun_2],[3371],[4120],[749],[0],[Kasten],[box],[0.0],[0.0],[box_1],[S01_I006_E006],[Kaste],[nan],[nan],[NN],[nan]
p8,Trial: 30,p8.edf,.,15,Fixation: 17115 ms,278,17115,17392,"[ 5, 10, 12, 99]",2,1333,490,966.9,535.9,1,2,36.25,37.25,24,Saccade: 17091 ms,RIGHT,24,1.0,41.78,105.96,"[ 10, 12, 99]",17091,17114,934.1,523.9,969.1,533.4,25,Saccade: 17393 ms,DOWN,161,0.89,5.53,869.79,"[ 10, 12, 99]",17393,17553,975.3,551.3,963.9,582.4,154.69,LEFT,1.01,A6,S6.wav,A6.png,16,24913257,task,[8],[Noun_2],[3371],[4120],[749],[0],[Kasten],[box],[0.0],[0.0],[box_1],[S01_I006_E006],[Kaste],[nan],[nan],[NN],[nan]
p8,Trial: 30,p8.edf,17957,16,Fixation: 17798 ms,212,17798,18009,"[ 5, 10, 12, 99]",2,1226,490,954.2,545.3,2,2,36.2,37.2,26,Saccade: 17783 ms,UP,15,1.06,70.43,82.66,"[ 10, 12, 99]",17783,17797,942.9,579.1,959.4,543.6,27,Saccade: 18010 ms,UP,45,4.52,100.55,202.86,"[ 3, 4, 12, 99]",18010,18054,954.2,545.7,990.9,382.1,35.76,.,0.43,A6,S6.wav,A6.png,16,24913257,task,[9],[Relative Clause Pronoun],[4450],[4595],[145],[1],[den],[that],[0.0],[0.0],[nan],[nan],[die],[nan],[nan],[PRELS],[nan]
p8,Trial: 30,p8.edf,.,17,Fixation: 18055 ms,319,18055,18373,"[ 3, 4, 12, 99]",3,1238,788,983.1,388.3,1,3,36.2,37.0,27,Saccade: 18010 ms,UP,45,4.52,100.55,202.86,"[ 5, 10, 12, 99]",18010,18054,954.2,545.7,990.9,382.1,28,Saccade: 18374 ms,RIGHT,23,1.77,76.76,121.37,"[ 3, 12, 99]",18374,18396,983.8,384.7,1045.3,365.7,-100.68,DOWN,4.31,A6,S6.wav,A6.png,16,24913257,task,[11],[Relative Clause Adverb],[4700],[5285],[585],[0],[entschlossen],[tightly],[0.0],[0.0],[nan],[nan],[entschlossen],[nan],[nan],[nan],[nan]
p8,Trial: 30,p8.edf,18525,18,Fixation: 18397 ms,189,18397,18585,"[ 3, 12, 99]",3,1209,788,1037.2,364.6,2,3,36.55,37.2,28,Saccade: 18374 ms,RIGHT,23,1.77,76.76,121.37,"[ 3, 4, 12, 99]",18374,18396,983.8,384.7,1045.3,365.7,29,Saccade: 18586 ms,LEFT,24,2.23,93,169.19,"[ 3, 4, 12, 99]",18586,18609,1036.9,363,956.3,355.8,-156.76,LEFT,1.62,A6,S6.wav,A6.png,16,24913257,task,[11],[Relative Clause Adverb],[4700],[5285],[585],[0],[entschlossen],[tightly],[0.0],[0.0],[nan],[nan],[entschlossen],[nan],[nan],[nan],[nan]
p8,Trial: 30,p8.edf,.,19,Fixation: 18610 ms,280,18610,18889,"[ 3, 4, 12, 99]",3,1190,788,969.8,356.5,3,3,36.1,36.95,29,Saccade: 18586 ms,LEFT,24,2.23,93.0,169.19,"[ 3, 12, 99]",18586,18609,1036.9,363.0,956.3,355.8,30,Saccade: 18890 ms,RIGHT,31,2.57,82.91,141.43,"[ 9, 99]",18890,18920,971.5,357,1046.9,300.7,-6.72,RIGHT,1.87,A6,S6.wav,A6.png,16,24913257,task,[12],[Relative Clause Verb],[5325],[5774],[449],[0],[greift],[grasps],[1.0],[0.0],[nan],[nan],[greifen],[nan],[nan],[VVPP],[nan]
p8,Trial: 30,p8.edf,.,20,Fixation: 18921 ms,203,18921,19123,"[ 9, 99]",1,1188,203,1037.6,309.4,1,1,36.6,37.2,30,Saccade: 18890 ms,RIGHT,31,2.57,82.91,141.43,"[ 3, 4, 12, 99]",18890,18920,971.5,357.0,1046.9,300.7,31,Saccade: 19124 ms,LEFT,55,8.78,159.71,509.3,"[ 6, 7, 12, 99]",19124,19178,1036.4,309.3,743.3,428.9,-145.74,LEFT,2.26,A6,S6.wav,A6.png,16,24913257,task,[12],[Relative Clause Verb],[5325],[5774],[449],[0],[greift],[grasps],[1.0],[0.0],[nan],[nan],[greifen],[nan],[nan],[VVPP],[nan]
p8,Trial: 30,p8.edf,.,21,Fixation: 19179 ms,239,19179,19417,"[ 6, 7, 12, 99]",4,1244,509,732.8,430.6,1,2,35.3,36.6,31,Saccade: 19124 ms,LEFT,55,8.78,159.71,509.3,"[ 9, 99]",19124,19178,1036.4,309.3,743.3,428.9,32,Saccade: 19418 ms,UP,21,0.85,40.52,77.84,"[ 6, 7, 12, 99]",19418,19438,730.9,429.5,709.7,407.5,21.18,RIGHT,9.09,A6,S6.wav,A6.png,16,24913257,post,,,,,,,,,,,,,,,,,
p8,Trial: 30,p8.edf,19462,22,Fixation: 19439 ms,270,19439,19708,"[ 6, 7, 12, 99]",4,1272,509,708.3,416.1,2,2,35.2,36.5,32,Saccade: 19418 ms,UP,21,0.85,40.52,77.84,"[ 6, 7, 12, 99]",19418,19438,730.9,429.5,709.7,407.5,33,Saccade: 19709 ms,LEFT,24,1.44,60.07,116.67,"[ 8, 99]",19709,19732,707,421.2,658.3,406.4,-29.72,RIGHT,0.8,A6,S6.wav,A6.png,16,24913257,post,,,,,,,,,,,,,,,,,
