RECORDING_SESSION_LABEL,TRIAL_LABEL,DATA_FILE,CURRENT_FIX_MSG_TIME_1,CURRENT_FIX_INDEX,CURRENT_FIX_LABEL,CURRENT_FIX_DURATION,CURRENT_FIX_START,CURRENT_FIX_END,CURRENT_FIX_INTEREST_AREAS,CURRENT_FIX_INTEREST_AREA_FIX_COUNT,CURRENT_FIX_PUPIL,CURRENT_FIX_RUN_DWELL_TIME,CURRENT_FIX_X,CURRENT_FIX_Y,CURRENT_FIX_RUN_INDEX,CURRENT_FIX_RUN_SIZE,CURRENT_FIX_X_RESOLUTION,CURRENT_FIX_Y_RESOLUTION,PREVIOUS_SAC_INDEX,PREVIOUS_SAC_LABEL,PREVIOUS_SAC_DIRECTION,PREVIOUS_SAC_DURATION,PREVIOUS_SAC_AMPLITUDE,PREVIOUS_SAC_AVG_VELOCITY,PREVIOUS_SAC_PEAK_VELOCITY,PREVIOUS_SAC_START_INTEREST_AREAS,PREVIOUS_SAC_START_TIME,PREVIOUS_SAC_END_TIME,PREVIOUS_SAC_START_X,PREVIOUS_SAC_START_Y,PREVIOUS_SAC_END_X,PREVIOUS_SAC_END_Y,NEXT_SAC_INDEX,NEXT_SAC_LABEL,NEXT_SAC_DIRECTION,NEXT_SAC_DURATION,NEXT_SAC_AMPLITUDE,NEXT_SAC_AVG_VELOCITY,NEXT_SAC_PEAK_VELOCITY,NEXT_SAC_END_INTEREST_AREAS,NEXT_SAC_START_TIME,NEXT_SAC_END_TIME,NEXT_SAC_START_X,NEXT_SAC_START_Y,NEXT_SAC_END_X,NEXT_SAC_END_Y,PREVIOUS_FIX_ANGLE,PREVIOUS_FIX_DIRECTION,PREVIOUS_FIX_DISTANCE,ItemNO,audiofilename,imagefilename,TRIAL_INDEX,TRIAL_START_TIME,viewtype,word_index,Label,word_onset,word_offset,word_duration,Continuation,wordDE,wordEN,REFWord,TargetObj,ObjectLabel,ObjectID,LemmaDE,LingIndex,DepS,pos_1,pos_2
p7,Trial: 42,p7.edf,.,1,Fixation: 3395 ms,124,3395,3518,"[ 2, 99]",7,960,321,555.9,460.6,1,2,35.3,36.6,4,Saccade: 3327 ms,UP,68,11.92,175.35,346.08,[ ],3327,3394,611.5,929.8,553.3,481.5,5,Saccade: 3519 ms,UP,47,6.11,129.9,408.04,"[ 2, 99]",3519,3565,556.1,456.2,525.6,235,-81.85,DOWN,12.85,A10,S10.wav,A10.png,21,19494540,preview,,,,,,,,,,,,,,,,,
p7,Trial: 42,p7.edf,.,2,Fixation: 3566 ms,197,3566,3762,"[ 2, 99]",7,986,321,529.0,220.8,2,2,35.3,36.65,5,Saccade: 3519 ms,UP,47,6.11,129.9,408.04,"[ 2, 99]",3519,3565,556.1,456.2,525.6,235,6,Saccade: 3763 ms,LEFT,66,12.39,187.68,518.68,"[ 11, 99]",3763,3828,533.9,220.1,86.8,292.7,-83.36,DOWN,6.59,A10,S10.wav,A10.png,21,19494540,preview,,,,,,,,,,,,,,,,,
p7,Trial: 42,p7.edf,.,3,Fixation: 3829 ms,192,3829,4020,"[ 11, 99]",4,967,192,102.6,299.0,1,1,37.75,37.8,6,Saccade: 3763 ms,LEFT,66,12.39,187.68,518.68,"[ 2, 99]",3763,3828,533.9,220.1,86.8,292.7,7,Saccade: 4021 ms,RIGHT,183,14.89,81.36,717.79,[ 99],4021,4203,101.3,305.3,628.5,436.5,10.2,RIGHT,11.86,A10,S10.wav,A10.png,21,19494540,preview,,,,,,,,,,,,,,,,,
p7,Trial: 42,p7.edf,.,4,Fixation: 4357 ms,264,4357,4620,[ 99],45,998,16237,698.3,469.0,4,44,35.3,36.6,8,Saccade: 4331 ms,RIGHT,26,2.44,93.93,207.02,[ 99],4331,4356,631.1,433.7,710.7,467.7,9,Saccade: 4621 ms,RIGHT,58,11.02,189.96,488.45,"[ 28, 99]",4621,4678,696.2,467.2,1066.4,618.6,164.35,LEFT,16.94,A10,S10.wav,A10.png,21,19494540,preview,,,,,,,,,,,,,,,,,
p7,Trial: 42,p7.edf,.,5,Fixation: 4679 ms,248,4679,4926,"[ 28, 99]",12,921,1205,1087.3,620.3,1,3,37.15,37.95,9,Saccade: 4621 ms,RIGHT,58,11.02,189.96,488.45,[ 99],4621,4678,696.2,467.2,1066.4,618.6,10,Saccade: 4927 ms,LEFT,207,1.31,6.35,850,"[ 28, 99]",4927,5133,1084.6,634.8,1040.5,613.8,159.29,LEFT,11.48,A10,S10.wav,A10.png,21,19494540,preview,,,,,,,,,,,,,,,,,
p7,Trial: 42,p7.edf,.,6,Fixation: 5501 ms,388,5501,5888,"[ 5, 28, 99]",3,840,388,986.5,624.8,1,1,36.55,37.65,11,Saccade: 5469 ms,LEFT,32,1.42,44.53,170.87,"[ 28, 99]",5469,5500,1052.7,619.3,1000.5,623.6,12,Saccade: 5889 ms,RIGHT,26,3.63,139.74,257.34,"[ 6, 28, 99]",5889,5914,985.2,621.9,1117.9,601.1,2.49,RIGHT,2.74,A10,S10.wav,A10.png,21,19494540,preview,,,,,,,,,,,,,,,,,
p7,Trial: 42,p7.edf,.,7,Fixation: 5915 ms,569,5915,6483,"[ 6, 28, 99]",7,840,569,1118.5,596.8,1,1,37.4,37.95,12,Saccade: 5889 ms,RIGHT,26,3.63,139.74,257.34,"[ 5, 28, 99]",5889,5914,985.2,621.9,1117.9,601.1,13,Saccade: 6484 ms,UP,37,5.27,142.53,285.4,"[ 18, 99]",6484,6520,1115.1,593.8,1037.3,412.2,-168.28,LEFT,3.65,A10,S10.wav,A10.png,21,19494540,preview,,,,,,,,,,,,,,,,,
p7,Trial: 42,p7.edf,.,8,Fixation: 6521 ms,229,6521,6749,"[ 18, 99]",2,877,229,1043.3,408.2,1,1,36.6,37.2,13,Saccade: 6484 ms,UP,37,5.27,142.53,285.4,"[ 6, 28, 99]",6484,6520,1115.1,593.8,1037.3,412.2,14,Saccade: 6750 ms,LEFT,56,7.83,139.81,383.46,"[ 10, 14, 99]",6750,6805,1044.6,408,775.6,323,-67.96,DOWN,5.42,A10,S10.wav,A10.png,21,19494540,preview,,,,,,,,,,,,,,,,,
p7,Trial: 42,p7.edf,.,9,Fixation: 6806 ms,393,6806,7198,"[ 10, 99]",4,888,661,756.5,321.4,1,2,35.3,36.55,14,Saccade: 6750 ms,LEFT,56,7.83,139.81,383.46,"[ 18, 99]",6750,6805,1044.6,408,775.6,323,15,Saccade: 7199 ms,LEFT,24,3.01,125.56,228.87,"[ 10, 16, 99]",7199,7222,755.6,326.1,655.4,289.6,-16.44,RIGHT,8.32,A10,S10.wav,A10.png,21,19494540,preview,,,,,,,,,,,,,,,,,
p7,Trial: 42,p7.edf,.,10,Fixation: 7223 ms,268,7223,7490,"[ 10, 16, 99]",4,874,661,658.4,286.6,2,2,35.2,36.5,15,Saccade: 7199 ms,LEFT,24,3.01,125.56,228.87,"[ 10, 99]",7199,7222,755.6,326.1,655.4,289.6,16,Saccade: 7491 ms,LEFT,31,3.64,117.5,287.39,"[ 2, 99]",7491,7521,659.7,287.3,556.7,207.7,-18.9,RIGHT,2.94,A10,S10.wav,A10.png,21,19494540,preview,,,,,,,,,,,,,,,,,
p7,Trial: 42,p7.edf,.,11,Fixation: 7522 ms,170,7522,7691,"[ 2, 99]",7,867,406,549.8,215.9,1,2,35.3,36.65,16,Saccade: 7491 ms,LEFT,31,3.64,117.5,287.39,"[ 10, 16, 99]",7491,7521,659.7,287.3,556.7,207.7,17,Saccade: 7692 ms,LEFT,21,0.55,26.23,63.44,"[ 2, 99]",7692,7712,550.2,219.9,533.9,208.9,-32.11,RIGHT,3.64,A10,S10.wav,A10.png,21,19494540,preview,,,,,,,,,,,,,,,,,
p7,Trial: 42,p7.edf,.,12,Fixation: 7713 ms,236,7713,7948,"[ 2, 99]",7,860,406,532.4,212.1,2,2,35.3,36.7,17,Saccade: 7692 ms,LEFT,21,0.55,26.23,63.44,"[ 2, 99]",7692,7712,550.2,219.9,533.9,208.9,18,Saccade: 7949 ms,LEFT,58,12.65,218.02,520.01,"[ 11, 99]",7949,8006,534.6,212.7,75.2,269.9,-11.87,RIGHT,0.5,A10,S10.wav,A10.png,21,19494540,preview,,,,,,,,,,,,,,,,,
p7,Trial: 42,p7.edf,.,13,Fixation: 8007 ms,610,8007,8616,"[ 11, 99]",4,813,610,63.8,279.5,1,1,37.95,37.95,18,Saccade: 7949 ms,LEFT,58,12.65,218.02,520.01,"[ 2, 99]",7949,8006,534.6,212.7,75.2,269.9,19,Saccade: 8617 ms,DOWN,40,5.43,135.65,243.56,"[ 4, 99]",8617,8656,63.9,286.3,198.1,439.9,8.03,RIGHT,12.92,A10,S10.wav,A10.png,21,19494540,preview,,,,,,,,,,,,,,,,,
p7,Trial: 42,p7.edf,.,14,Fixation: 8657 ms,219,8657,8875,"[ 4, 99]",6,806,219,206.8,442.0,1,1,36.85,37.4,19,Saccade: 8617 ms,DOWN,40,5.43,135.65,243.56,"[ 11, 99]",8617,8656,63.9,286.3,198.1,439.9,20,Saccade: 8876 ms,LEFT,32,2.26,70.76,211.47,"[ 11, 99]",8876,8907,206,442.5,133.2,485.1,131.56,UP,5.76,A10,S10.wav,A10.png,21,19494540,preview,,,,,,,,,,,,,,,,,
p7,Trial: 42,p7.edf,.,15,Fixation: 8908 ms,193,8908,9100,"[ 11, 99]",4,841,193,123.9,489.8,1,1,37.5,37.75,20,Saccade: 8876 ms,LEFT,32,2.26,70.76,211.47,"[ 4, 99]",8876,8907,206,442.5,133.2,485.1,21,Saccade: 9101 ms,RIGHT,216,4.19,19.39,685.35,"[ 4, 12, 99]",9101,9316,125.8,497.7,255,411,29.7,RIGHT,2.57,A10,S10.wav,A10.png,21,19494540,preview,,,,,,,,,,,,,,,,,
p7,Trial: 42,p7.edf,.,16,Fixation: 9573 ms,418,9573,9990,"[ 4, 12, 99]",6,896,418,282.2,398.8,1,1,36.3,37.1,22,Saccade: 9550 ms,RIGHT,23,1.17,51.01,108.28,"[ 4, 12, 99]",9550,9572,250.5,421.5,285.6,396.7,23,Saccade: 9991 ms,DOWN,35,2.65,75.64,253.67,"[ 23, 99]",9991,10025,283,397.1,346.7,470.3,-150.46,LEFT,4.93,A10,S10.wav,A10.png,21,19494540,preview,,,,,,,,,,,,,,,,,
p7,Trial: 42,p7.edf,.,17,Fixation: 10026 ms,567,10026,10592,"[ 23, 99]",3,882,567,357.0,480.5,1,1,35.95,37.0,23,Saccade: 9991 ms,DOWN,35,2.65,75.64,253.67,"[ 4, 12, 99]",9991,10025,283,397.1,346.7,470.3,24,Saccade: 10593 ms,RIGHT,64,9.36,146.27,290.41,[ 99],10593,10656,359.9,484.2,692.4,507.5,133.2,UP,3.02,A10,S10.wav,A10.png,21,19494540,preview,,,,,,,,,,,,,,,,,
p7,Trial: 42,p7.edf,.,18,Fixation: 10657 ms,1912,10657,12568,[ 99],45,864,16237,703.4,507.7,18,44,35.3,36.7,24,Saccade: 10593 ms,RIGHT,64,9.36,146.27,290.41,"[ 23, 99]",10593,10656,359.9,484.2,692.4,507.5,25,Saccade: 12569 ms,RIGHT,197,10.84,55.02,907.24,"[ 28, 99]",12569,12765,686.2,506.5,1062,621,175.66,LEFT,9.75,A10,S10.wav,A10.png,21,19494540,preview,,,,,,,,,,,,,,,,,
p7,Trial: 42,p7.edf,13035,19,Fixation: 12951 ms,698,12951,13648,"[ 5, 28, 99]",3,868,698,987.5,623.4,1,1,36.5,37.6,26,Saccade: 12925 ms,LEFT,26,2.12,81.66,168.78,"[ 28, 99]",12925,12950,1060.2,624.1,982.4,618,27,Saccade: 13649 ms,LEFT,330,8.03,24.32,731.23,"[ 22, 99]",13649,13978,986.4,624.3,716.3,520.5,158.52,LEFT,8.5,A10,S10.wav,A10.png,21,19494540,preview,"[1, 2]","[Adverb, Verb]","[50, 240]","[200, 435]","[150, 195]","[0, 0]","[Da, ist]","[It, is]","[0.0, 0.0]","[0.0, 0.0]","[nan, nan]","[nan, nan]","[da, sein]","[nan, nan]","[nan, nan]","[nan, nan]","[nan, nan]"
p7,Trial: 42,p7.edf,.,20,Fixation: 14201 ms,166,14201,14366,"[ 23, 99]",3,952,166,379.4,476.6,1,1,35.8,36.9,28,Saccade: 14147 ms,LEFT,54,9.43,174.71,487.61,"[ 22, 99]",14147,14200,721.6,510.2,387.7,477.5,29,Saccade: 14367 ms,LEFT,34,3.3,97,273.06,"[ 4, 12, 99]",14367,14400,382.7,477.5,289.5,402,-13.19,RIGHT,17.28,A10,S10.wav,A10.png,21,19494540,task,[4],[Noun_1],[765],[1067],[302],[0],[Ball],[ball],[0.0],[1.0],[ball_1],[S01_I010_E015],[Ball],[nan],[nan],[nan],[nan]
p7,Trial: 42,p7.edf,.,21,Fixation: 14401 ms,197,14401,14597,"[ 4, 12, 99]",6,977,515,280.3,406.2,1,2,36.25,37.05,29,Saccade: 14367 ms,LEFT,34,3.3,97,273.06,"[ 23, 99]",14367,14400,382.7,477.5,289.5,402,30,Saccade: 14598 ms,LEFT,24,2.36,98.38,171.46,"[ 4, 15, 99]",14598,14621,279.6,406.3,194.1,419.1,-34.69,RIGHT,3.35,A10,S10.wav,A10.png,21,19494540,task,,break,,,,,,,,,,,,,,,
p7,Trial: 42,p7.edf,.,22,Fixation: 14622 ms,318,14622,14939,"[ 4, 15, 99]",6,940,515,200.6,417.9,2,2,36.9,37.4,30,Saccade: 14598 ms,LEFT,24,2.36,98.38,171.46,"[ 4, 12, 99]",14598,14621,279.6,406.3,194.1,419.1,31,Saccade: 14940 ms,RIGHT,56,7.71,137.64,314.61,"[ 17, 99]",14940,14995,197.7,422.9,458.3,321,8.21,RIGHT,2.2,A10,S10.wav,A10.png,21,19494540,task,[5],[Preposition_1],[1477],[1660],[183],[0],[auf],[on],[0.0],[0.0],[nan],[nan],[auf],[nan],[nan],[nan],[nan]
p7,Trial: 42,p7.edf,.,23,Fixation: 14996 ms,227,14996,15222,"[ 17, 99]",3,864,227,474.0,320.1,1,1,35.45,36.6,31,Saccade: 14940 ms,RIGHT,56,7.71,137.64,314.61,"[ 4, 15, 99]",14940,14995,197.7,422.9,458.3,321,32,Saccade: 15223 ms,UP,44,3.36,76.41,213.94,"[ 2, 99]",15223,15266,472.7,320.2,546.2,223.5,-160.72,LEFT,8.01,A10,S10.wav,A10.png,21,19494540,task,[6],[Determiner_2],[1704],[1940],[236],[0],[einem],[a],[0.0],[0.0],[nan],[nan],[eine],[nan],[nan],[nan],[nan]
p7,Trial: 42,p7.edf,.,24,Fixation: 15267 ms,258,15267,15524,"[ 2, 99]",7,835,258,547.6,213.7,1,1,35.3,36.65,32,Saccade: 15223 ms,UP,44,3.36,76.41,213.94,"[ 17, 99]",15223,15266,472.7,320.2,546.2,223.5,33,Saccade: 15525 ms,LEFT,53,12.03,227,478.48,"[ 11, 99]",15525,15577,544.8,216.4,136.3,376,-125.61,DOWN,3.57,A10,S10.wav,A10.png,21,19494540,task,[7],[Noun_2],[2035],[2450],[415],[0],[Tisch],[table],[0.0],[0.0],[tablepart_1],[S01_I010_E007],[Tisch],[nan],[nan],[nan],[nan]
p7,Trial: 42,p7.edf,.,25,Fixation: 15578 ms,351,15578,15928,"[ 11, 99]",4,862,351,127.9,391.6,1,1,37.45,37.65,33,Saccade: 15525 ms,LEFT,53,12.03,227,478.48,"[ 2, 99]",15525,15577,544.8,216.4,136.3,376,34,Saccade: 15929 ms,RIGHT,33,2.12,64.37,135.37,"[ 4, 15, 99]",15929,15961,125.4,403.5,203.5,414.9,22.54,RIGHT,12.49,A10,S10.wav,A10.png,21,19494540,task,[7],[Noun_2],[2035],[2450],[415],[0],[Tisch],[table],[0.0],[0.0],[tablepart_1],[S01_I010_E007],[Tisch],[nan],[nan],[nan],[nan]
p7,Trial: 42,p7.edf,.,26,Fixation: 15962 ms,230,15962,16191,"[ 4, 12, 99]",6,886,230,232.0,399.1,1,1,36.7,37.25,34,Saccade: 15929 ms,RIGHT,33,2.12,64.37,135.37,"[ 11, 99]",15929,15961,125.4,403.5,203.5,414.9,35,Saccade: 16192 ms,RIGHT,288,6.59,22.9,530.35,[ 99],16192,16479,234.3,400.6,455.6,311.7,175.92,LEFT,2.81,A10,S10.wav,A10.png,21,19494540,task,,break,,,,,,,,,,,,,,,
p7,Trial: 42,p7.edf,.,27,Fixation: 18117 ms,210,18117,18326,"[ 2, 99]",7,1002,373,483.1,282.4,1,2,35.4,36.6,36,Saccade: 18095 ms,UP,22,1.36,61.66,90.98,[ 99],18095,18116,454.9,323,479.6,280.4,37,Saccade: 18327 ms,UP,21,1.93,91.96,151.39,"[ 2, 99]",18327,18347,482.8,283.5,518.9,223.4,-155.59,LEFT,7.65,A10,S10.wav,A10.png,21,19494540,post,,,,,,,,,,,,,,,,,
p7,Trial: 42,p7.edf,18410,28,Fixation: 18348 ms,163,18348,18510,"[ 2, 99]",7,976,373,522.8,228.5,2,2,35.35,36.65,37,Saccade: 18327 ms,UP,21,1.93,91.96,151.39,"[ 2, 99]",18327,18347,482.8,283.5,518.9,223.4,38,Saccade: 18511 ms,DOWN,39,2.64,67.68,221.09,"[ 17, 99]",18511,18549,526.1,230.2,475.4,311.3,-127.33,DOWN,1.85,A10,S10.wav,A10.png,21,19494540,post,,,,,,,,,,,,,,,,,
