RECORDING_SESSION_LABEL,TRIAL_LABEL,DATA_FILE,CURRENT_FIX_MSG_TIME_1,CURRENT_FIX_INDEX,CURRENT_FIX_LABEL,CURRENT_FIX_DURATION,CURRENT_FIX_START,CURRENT_FIX_END,CURRENT_FIX_INTEREST_AREAS,CURRENT_FIX_INTEREST_AREA_FIX_COUNT,CURRENT_FIX_PUPIL,CURRENT_FIX_RUN_DWELL_TIME,CURRENT_FIX_X,CURRENT_FIX_Y,CURRENT_FIX_RUN_INDEX,CURRENT_FIX_RUN_SIZE,CURRENT_FIX_X_RESOLUTION,CURRENT_FIX_Y_RESOLUTION,PREVIOUS_SAC_INDEX,PREVIOUS_SAC_LABEL,PREVIOUS_SAC_DIRECTION,PREVIOUS_SAC_DURATION,PREVIOUS_SAC_AMPLITUDE,PREVIOUS_SAC_AVG_VELOCITY,PREVIOUS_SAC_PEAK_VELOCITY,PREVIOUS_SAC_START_INTEREST_AREAS,PREVIOUS_SAC_START_TIME,PREVIOUS_SAC_END_TIME,PREVIOUS_SAC_START_X,PREVIOUS_SAC_START_Y,PREVIOUS_SAC_END_X,PREVIOUS_SAC_END_Y,NEXT_SAC_INDEX,NEXT_SAC_LABEL,NEXT_SAC_DIRECTION,NEXT_SAC_DURATION,NEXT_SAC_AMPLITUDE,NEXT_SAC_AVG_VELOCITY,NEXT_SAC_PEAK_VELOCITY,NEXT_SAC_END_INTEREST_AREAS,NEXT_SAC_START_TIME,NEXT_SAC_END_TIME,NEXT_SAC_START_X,NEXT_SAC_START_Y,NEXT_SAC_END_X,NEXT_SAC_END_Y,PREVIOUS_FIX_ANGLE,PREVIOUS_FIX_DIRECTION,PREVIOUS_FIX_DISTANCE,ItemNO,audiofilename,imagefilename,TRIAL_INDEX,TRIAL_START_TIME,viewtype,word_index,Label,word_onset,word_offset,word_duration,Continuation,wordDE,wordEN,REFWord,TargetObj,ObjectLabel,ObjectID,LemmaDE,LingIndex,DepS,pos_1,pos_2
p3,Trial: 30,p3.edf,.,1,Fixation: 3750 ms,160,3750,3909,"[ 5, 99]",12,853,160,491.9,305.3,1,1,35.35,36.6,9,Saccade: 3710 ms,LEFT,40,3.55,88.69,323.99,[ 99],3710,3749,630.1,314.6,505.5,303.6,10,Saccade: 3910 ms,LEFT,52,9.25,177.93,506.05,"[ 3, 99]",3910,3961,491.2,306.3,156.5,277.9,-74.75,DOWN,17.33,A19,S19.wav,A19.png,13,2209749,preview,,,,,,,,,,,,,,,,,
p3,Trial: 30,p3.edf,.,2,Fixation: 3962 ms,152,3962,4113,"[ 3, 99]",4,806,152,143.5,286.1,1,1,37.25,37.6,10,Saccade: 3910 ms,LEFT,52,9.25,177.93,506.05,"[ 5, 99]",3910,3961,491.2,306.3,156.5,277.9,11,Saccade: 4114 ms,RIGHT,56,7.99,142.63,446.58,"[ 4, 99]",4114,4169,144.1,289.5,434.8,273.3,-3.09,RIGHT,9.61,A19,S19.wav,A19.png,13,2209749,preview,,,,,,,,,,,,,,,,,
p3,Trial: 30,p3.edf,.,3,Fixation: 4170 ms,166,4170,4335,"[ 4, 99]",6,766,166,439.7,271.5,1,1,35.55,36.7,11,Saccade: 4114 ms,RIGHT,56,7.99,142.63,446.58,"[ 3, 99]",4114,4169,144.1,289.5,434.8,273.3,12,Saccade: 4336 ms,LEFT,40,8.12,203.02,428.5,"[ 3, 99]",4336,4375,443.7,270.6,151.4,312.7,-177.24,LEFT,8.15,A19,S19.wav,A19.png,13,2209749,preview,,,,,,,,,,,,,,,,,
p3,Trial: 30,p3.edf,.,4,Fixation: 4376 ms,308,4376,4683,"[ 3, 99]",4,743,421,155.2,310.4,1,2,37.2,37.5,12,Saccade: 4336 ms,LEFT,40,8.12,203.02,428.5,"[ 4, 99]",4336,4375,443.7,270.6,151.4,312.7,13,Saccade: 4684 ms,.,7,0.29,40.73,36.26,"[ 3, 99]",4684,4690,159.9,308.9,169.1,303.6,7.64,RIGHT,7.89,A19,S19.wav,A19.png,13,2209749,preview,,,,,,,,,,,,,,,,,
p3,Trial: 30,p3.edf,.,5,Fixation: 4691 ms,113,4691,4803,"[ 3, 99]",4,728,421,171.9,300.5,2,2,37.1,37.5,13,Saccade: 4684 ms,.,7,0.29,40.73,36.26,"[ 3, 99]",4684,4690,159.9,308.9,169.1,303.6,14,Saccade: 4804 ms,RIGHT,32,5.82,181.8,340.35,"[ 4, 99]",4804,4835,171.5,298.9,378.2,250.6,-149.58,LEFT,0.52,A19,S19.wav,A19.png,13,2209749,preview,,,,,,,,,,,,,,,,,
p3,Trial: 30,p3.edf,.,6,Fixation: 4836 ms,392,4836,5227,"[ 4, 99]",6,738,745,385.2,254.4,1,2,35.8,36.85,14,Saccade: 4804 ms,RIGHT,32,5.82,181.8,340.35,"[ 3, 99]",4804,4835,171.5,298.9,378.2,250.6,15,Saccade: 5228 ms,LEFT,20,0.92,45.82,73.23,"[ 4, 99]",5228,5247,387.5,255.2,354.7,253.3,-168.04,LEFT,5.98,A19,S19.wav,A19.png,13,2209749,preview,,,,,,,,,,,,,,,,,
p3,Trial: 30,p3.edf,.,7,Fixation: 5248 ms,353,5248,5600,"[ 4, 99]",6,724,745,356.3,252.0,2,2,35.9,36.9,15,Saccade: 5228 ms,LEFT,20,0.92,45.82,73.23,"[ 4, 99]",5228,5247,387.5,255.2,354.7,253.3,16,Saccade: 5601 ms,RIGHT,72,18.65,259.02,615.6,"[ 7, 99]",5601,5672,350.1,245.9,1008.1,396.1,-4.62,RIGHT,0.81,A19,S19.wav,A19.png,13,2209749,preview,,,,,,,,,,,,,,,,,
p3,Trial: 30,p3.edf,.,8,Fixation: 5673 ms,193,5673,5865,"[ 7, 99]",6,708,193,1006.3,395.0,1,1,36.4,37.1,16,Saccade: 5601 ms,RIGHT,72,18.65,259.02,615.6,"[ 4, 99]",5601,5672,350.1,245.9,1008.1,396.1,17,Saccade: 5866 ms,RIGHT,26,3,115.38,183.2,"[ 2, 99]",5866,5891,1006.6,396,1103.2,342.4,167.87,LEFT,18.39,A19,S19.wav,A19.png,13,2209749,preview,,,,,,,,,,,,,,,,,
p3,Trial: 30,p3.edf,.,9,Fixation: 5892 ms,150,5892,6041,"[ 2, 99]",1,739,150,1107.1,347.5,1,1,37.05,37.45,17,Saccade: 5866 ms,RIGHT,26,3.0,115.38,183.2,"[ 7, 99]",5866,5891,1006.6,396.0,1103.2,342.4,18,Saccade: 6042 ms,LEFT,276,17.73,64.26,859.06,"[ 8, 99]",6042,6317,1111.7,346.8,471.4,405.7,-155.1,LEFT,3.03,A19,S19.wav,A19.png,13,2209749,preview,,,,,,,,,,,,,,,,,
p3,Trial: 30,p3.edf,.,10,Fixation: 6529 ms,2509,6529,9037,"[ 5, 99]",12,910,2509,500.7,305.4,1,1,35.3,36.6,19,Saccade: 6482 ms,UP,47,3.46,73.65,257.29,"[ 8, 99]",6482,6528,466.5,443.7,505.4,323.4,20,Saccade: 9038 ms,RIGHT,229,0.55,2.41,1214.1,"[ 5, 99]",9038,9266,503.7,302.2,522.2,295.9,-3.88,RIGHT,16.8,A19,S19.wav,A19.png,13,2209749,preview,,,,,,,,,,,,,,,,,
p3,Trial: 30,p3.edf,16280,11,Fixation: 16273 ms,505,16273,16777,"[ 7, 99]",6,878,505,1073.4,334.6,1,1,36.8,37.3,22,Saccade: 16237 ms,RIGHT,36,3.82,106.07,225.64,"[ 7, 31, 99]",16237,16272,974.7,412.1,1076.5,315.2,23,Saccade: 16778 ms,LEFT,54,13.2,244.46,572.6,"[ 17, 99]",16778,16831,1073.7,343.7,599.6,377.3,177.15,LEFT,15.91,A19,S19.wav,A19.png,13,2209749,task,"[7, 8]","[Determiner_2, Noun_2]","[2790, 3080]","[3075, 3650]","[285, 570]","[0, 0]","[einem, Regal]","[a, shelf]","[0.0, 0.0]","[0.0, 0.0]","[nan, shelf_1]","[nan, S01_I019_E007]","[eine, Regal]","[nan, nan]","[nan, nan]","[nan, nan]","[nan, nan]"
p3,Trial: 30,p3.edf,.,12,Fixation: 16832 ms,403,16832,17234,"[ 17, 99]",1,827,403,595.3,379.2,1,1,35.2,36.5,23,Saccade: 16778 ms,LEFT,54,13.2,244.46,572.6,[ 99],16778,16831,1073.7,343.7,599.6,377.3,24,Saccade: 17235 ms,RIGHT,52,8.85,170.11,368.69,"[ 6, 99]",17235,17286,598.9,377.8,901.8,292.3,5.2,RIGHT,13.34,A19,S19.wav,A19.png,13,2209749,task,[8],[Noun_2],[3080],[3650],[570],[0],[Regal],[shelf],[0.0],[0.0],[shelf_1],[S01_I019_E007],[Regal],[nan],[nan],[nan],[nan]
p3,Trial: 30,p3.edf,.,13,Fixation: 17287 ms,234,17287,17520,"[ 6, 99]",1,774,234,918.1,283.8,1,1,35.85,36.85,24,Saccade: 17235 ms,RIGHT,52,8.85,170.11,368.69,"[ 17, 99]",17235,17286,598.9,377.8,901.8,292.3,25,Saccade: 17521 ms,LEFT,62,10.64,171.68,560.59,"[ 5, 99]",17521,17582,924.8,285,546.6,309.2,-164.03,LEFT,9.45,A19,S19.wav,A19.png,13,2209749,task,,break,,,,,,,,,,,,,,,
p3,Trial: 30,p3.edf,17595,14,Fixation: 17583 ms,252,17583,17834,"[ 5, 99]",12,817,252,551.8,310.0,1,1,35.25,36.5,25,Saccade: 17521 ms,LEFT,62,10.64,171.68,560.59,"[ 6, 99]",17521,17582,924.8,285.0,546.6,309.2,26,Saccade: 17835 ms,RIGHT,68,14.29,210.14,531.83,"[ 7, 99]",17835,17902,550.1,309.8,1063.3,333.1,3.97,RIGHT,10.33,A19,S19.wav,A19.png,13,2209749,task,[9],[Relative Clause Pronoun],[4035],[4240],[205],[1],[das],[that],[0.0],[0.0],[nan],[nan],[die],[nan],[nan],[nan],[nan]
p3,Trial: 30,p3.edf,.,15,Fixation: 17903 ms,143,17903,18045,"[ 7, 99]",6,809,299,1051.9,335.1,1,2,36.7,37.25,26,Saccade: 17835 ms,RIGHT,68,14.29,210.14,531.83,"[ 5, 99]",17835,17902,550.1,309.8,1063.3,333.1,27,Saccade: 18046 ms,LEFT,35,1.92,54.91,214.85,"[ 7, 99]",18046,18080,1052.3,337.6,983.9,322.2,177.2,LEFT,13.92,A19,S19.wav,A19.png,13,2209749,task,[11],[Relative Clause Adverb],[4395],[5090],[695],[0],[unbeschwert],[playfully],[0.0],[0.0],[nan],[nan],[unbeschwert],[nan],[nan],[nan],[nan]
p3,Trial: 30,p3.edf,.,16,Fixation: 18081 ms,156,18081,18236,"[ 7, 99]",6,800,299,974.3,322.4,2,2,36.2,37.0,27,Saccade: 18046 ms,LEFT,35,1.92,54.91,214.85,"[ 7, 99]",18046,18080,1052.3,337.6,983.9,322.2,28,Saccade: 18237 ms,LEFT,67,13.08,195.29,567.47,"[ 5, 99]",18237,18303,977.4,321.2,510.6,290.2,-9.13,RIGHT,2.16,A19,S19.wav,A19.png,13,2209749,task,[11],[Relative Clause Adverb],[4395],[5090],[695],[0],[unbeschwert],[playfully],[0.0],[0.0],[nan],[nan],[unbeschwert],[nan],[nan],[nan],[nan]
p3,Trial: 30,p3.edf,18370,17,Fixation: 18304 ms,190,18304,18493,"[ 5, 99]",12,804,190,526.2,293.5,1,1,35.3,36.6,28,Saccade: 18237 ms,LEFT,67,13.08,195.29,567.47,"[ 7, 27, 99]",18237,18303,977.4,321.2,510.6,290.2,29,Saccade: 18494 ms,RIGHT,76,13.8,181.59,384.51,"[ 7, 27, 99]",18494,18569,528.8,292.4,1022.4,327,-3.59,RIGHT,12.56,A19,S19.wav,A19.png,13,2209749,task,[11],[Relative Clause Adverb],[4395],[5090],[695],[0],[unbeschwert],[playfully],[0.0],[0.0],[nan],[nan],[unbeschwert],[nan],[nan],[nan],[nan]
p3,Trial: 30,p3.edf,.,18,Fixation: 18570 ms,166,18570,18735,"[ 7, 27, 99]",6,736,479,1019.8,327.3,1,2,36.45,37.1,29,Saccade: 18494 ms,RIGHT,76,13.8,181.59,384.51,"[ 5, 99]",18494,18569,528.8,292.4,1022.4,327.0,30,Saccade: 18736 ms,LEFT,21,1.5,71.37,110.08,"[ 7, 27, 99]",18736,18756,1020.8,329.5,969.3,311.8,176.19,LEFT,13.79,A19,S19.wav,A19.png,13,2209749,task,,break,,,,,,,,,,,,,,,
p3,Trial: 30,p3.edf,.,19,Fixation: 18757 ms,313,18757,19069,"[ 7, 27, 99]",6,720,479,977.8,315.7,2,2,36.1,37.0,30,Saccade: 18736 ms,LEFT,21,1.5,71.37,110.08,"[ 7, 27, 99]",18736,18756,1020.8,329.5,969.3,311.8,31,Saccade: 19070 ms,.,19,0.48,25.35,53.65,"[ 7, 99]",19070,19088,973.9,317.7,957.3,323,-15.13,RIGHT,1.2,A19,S19.wav,A19.png,13,2209749,task,[12],[Relative Clause Verb],[5170],[5780],[610],[0],[jagt],[chases],[1.0],[0.0],[nan],[nan],[jagen],[nan],[nan],[nan],[nan]
p3,Trial: 30,p3.edf,.,20,Fixation: 19089 ms,332,19089,19420,[ 99],47,730,14751,961.4,325.4,20,46,36.1,36.9,31,Saccade: 19070 ms,.,19,0.48,25.35,53.65,"[ 7, 27, 99]",19070,19088,973.9,317.7,957.3,323.0,32,Saccade: 19421 ms,LEFT,57,13.56,237.92,620.14,[ 99],19421,19477,963.7,319.7,479.4,296.4,30.02,RIGHT,0.52,A19,S19.wav,A19.png,13,2209749,task,[12],[Relative Clause Verb],[5170],[5780],[610],[0],[jagt],[chases],[1.0],[0.0],[nan],[nan],[jagen],[nan],[nan],[nan],[nan]
p3,Trial: 30,p3.edf,.,21,Fixation: 19478 ms,124,19478,19601,"[ 8, 99]",3,806,124,477.8,302.0,1,1,35.4,36.6,32,Saccade: 19421 ms,LEFT,57,13.56,237.92,620.14,"[ 7, 27, 99]",19421,19477,963.7,319.7,479.4,296.4,33,Saccade: 19602 ms,RIGHT,24,1.71,71.41,150.08,"[ 5, 99]",19602,19625,477,303.1,530.1,272.9,-2.69,RIGHT,13.54,A19,S19.wav,A19.png,13,2209749,post,,,,,,,,,,,,,,,,,
p3,Trial: 30,p3.edf,19645,22,Fixation: 19626 ms,149,19626,19774,"[ 5, 99]",12,812,687,523.7,283.1,1,2,35.3,36.6,33,Saccade: 19602 ms,RIGHT,24,1.71,71.41,150.08,"[ 8, 99]",19602,19625,477.0,303.1,530.1,272.9,34,Saccade: 19775 ms,LEFT,18,0.91,50.7,79.23,"[ 5, 99]",19775,19792,522.1,283.3,490.4,289.5,-158.31,LEFT,1.4,A19,S19.wav,A19.png,13,2209749,post,,,,,,,,,,,,,,,,,
p3,Trial: 30,p3.edf,.,23,Fixation: 19793 ms,538,19793,20330,"[ 5, 99]",12,762,687,496.4,290.7,2,2,35.4,36.6,34,Saccade: 19775 ms,LEFT,18,0.91,50.7,79.23,"[ 5, 99]",19775,19792,522.1,283.3,490.4,289.5,35,Saccade: 20331 ms,LEFT,263,8.27,31.44,916.47,"[ 10, 99]",20331,20593,500.3,291.7,203.2,261.8,15.05,RIGHT,0.8,A19,S19.wav,A19.png,13,2209749,post,,,,,,,,,,,,,,,,,
