RECORDING_SESSION_LABEL,TRIAL_LABEL,DATA_FILE,CURRENT_FIX_MSG_TIME_1,CURRENT_FIX_INDEX,CURRENT_FIX_LABEL,CURRENT_FIX_DURATION,CURRENT_FIX_START,CURRENT_FIX_END,CURRENT_FIX_INTEREST_AREAS,CURRENT_FIX_INTEREST_AREA_FIX_COUNT,CURRENT_FIX_PUPIL,CURRENT_FIX_RUN_DWELL_TIME,CURRENT_FIX_X,CURRENT_FIX_Y,CURRENT_FIX_RUN_INDEX,CURRENT_FIX_RUN_SIZE,CURRENT_FIX_X_RESOLUTION,CURRENT_FIX_Y_RESOLUTION,PREVIOUS_SAC_INDEX,PREVIOUS_SAC_LABEL,PREVIOUS_SAC_DIRECTION,PREVIOUS_SAC_DURATION,PREVIOUS_SAC_AMPLITUDE,PREVIOUS_SAC_AVG_VELOCITY,PREVIOUS_SAC_PEAK_VELOCITY,PREVIOUS_SAC_START_INTEREST_AREAS,PREVIOUS_SAC_START_TIME,PREVIOUS_SAC_END_TIME,PREVIOUS_SAC_START_X,PREVIOUS_SAC_START_Y,PREVIOUS_SAC_END_X,PREVIOUS_SAC_END_Y,NEXT_SAC_INDEX,NEXT_SAC_LABEL,NEXT_SAC_DIRECTION,NEXT_SAC_DURATION,NEXT_SAC_AMPLITUDE,NEXT_SAC_AVG_VELOCITY,NEXT_SAC_PEAK_VELOCITY,NEXT_SAC_END_INTEREST_AREAS,NEXT_SAC_START_TIME,NEXT_SAC_END_TIME,NEXT_SAC_START_X,NEXT_SAC_START_Y,NEXT_SAC_END_X,NEXT_SAC_END_Y,PREVIOUS_FIX_ANGLE,PREVIOUS_FIX_DIRECTION,PREVIOUS_FIX_DISTANCE,ItemNO,audiofilename,imagefilename,TRIAL_INDEX,TRIAL_START_TIME,viewtype,word_index,Label,word_onset,word_offset,word_duration,Continuation,wordDE,wordEN,REFWord,TargetObj,ObjectLabel,ObjectID,LemmaDE,LingIndex,DepS,pos_1,pos_2
p11,Trial: 20,p11.edf,.,1,Fixation: 3344 ms,335,3344,3678,"[ 19, 20, 99]",14,1036,335,533.8,534.3,1,1,35.4,36.85,4,Saccade: 3281 ms,UP,63,9.63,152.82,584.93,[ ],3281,3343,591.1,916.5,526.8,557,5,Saccade: 3679 ms,LEFT,64,9.31,145.53,380.72,"[ 9, 15, 99]",3679,3742,541.7,534.3,206.5,571.6,-79.79,DOWN,10.37,A8,S8.wav,A8.png,10,14032145,preview,,,,,,,,,,,,,,,,,
p11,Trial: 20,p11.edf,.,2,Fixation: 3743 ms,155,3743,3897,"[ 9, 15, 99]",15,1078,155,194.6,580.0,1,1,37.05,37.75,5,Saccade: 3679 ms,LEFT,64,9.31,145.53,380.72,"[ 19, 20, 99]",3679,3742,541.7,534.3,206.5,571.6,6,Saccade: 3898 ms,RIGHT,184,14.89,80.92,371.44,"[ 6, 14, 99]",3898,4081,191.7,573.8,599.8,212,7.45,RIGHT,9.44,A8,S8.wav,A8.png,10,14032145,preview,,,,,,,,,,,,,,,,,
p11,Trial: 20,p11.edf,.,3,Fixation: 4236 ms,360,4236,4595,"[ 6, 14, 99]",18,1051,360,545.7,211.1,1,1,35.35,36.7,7,Saccade: 4212 ms,LEFT,24,1.99,82.78,134.04,"[ 6, 14, 99]",4212,4235,601,228.4,537.1,198.4,8,Saccade: 4596 ms,RIGHT,67,15.46,230.75,552.76,[ 99],4596,4662,545.8,216.4,1098.2,303.5,-134.38,DOWN,13.87,A8,S8.wav,A8.png,10,14032145,preview,,,,,,,,,,,,,,,,,
p11,Trial: 20,p11.edf,.,4,Fixation: 4663 ms,270,4663,4932,"[ 2, 99]",1,937,270,1121.4,307.5,1,1,37.1,37.45,8,Saccade: 4596 ms,RIGHT,67,15.46,230.75,552.76,"[ 6, 14, 99]",4596,4662,545.8,216.4,1098.2,303.5,9,Saccade: 4933 ms,LEFT,31,5.68,183.34,379.28,"[ 5, 8, 99]",4933,4963,1123.9,306.2,944.2,412.7,170.71,LEFT,16.1,A8,S8.wav,A8.png,10,14032145,preview,,,,,,,,,,,,,,,,,
p11,Trial: 20,p11.edf,.,5,Fixation: 4964 ms,212,4964,5175,"[ 5, 8, 99]",3,947,212,949.7,410.5,1,1,36.0,36.9,9,Saccade: 4933 ms,LEFT,31,5.68,183.34,379.28,"[ 2, 99]",4933,4963,1123.9,306.2,944.2,412.7,10,Saccade: 5176 ms,LEFT,23,2.25,97.77,162.53,"[ 8, 12, 99]",5176,5198,951.4,410.2,874.8,384.4,30.53,RIGHT,5.45,A8,S8.wav,A8.png,10,14032145,preview,,,,,,,,,,,,,,,,,
p11,Trial: 20,p11.edf,.,6,Fixation: 5199 ms,432,5199,5630,"[ 8, 99]",8,1034,644,881.5,382.9,2,2,35.7,36.7,10,Saccade: 5176 ms,LEFT,23,2.25,97.77,162.53,"[ 5, 8, 99]",5176,5198,951.4,410.2,874.8,384.4,11,Saccade: 5631 ms,LEFT,45,6.64,147.52,293.39,[ 99],5631,5675,882.3,382.2,657.3,311,-21.52,RIGHT,2.04,A8,S8.wav,A8.png,10,14032145,preview,,,,,,,,,,,,,,,,,
p11,Trial: 20,p11.edf,.,7,Fixation: 5676 ms,251,5676,5926,"[ 4, 99]",3,1088,251,669.2,313.7,1,1,35.2,36.5,11,Saccade: 5631 ms,LEFT,45,6.64,147.52,293.39,"[ 8, 99]",5631,5675,882.3,382.2,657.3,311,12,Saccade: 5927 ms,LEFT,56,5.83,104.16,310.63,"[ 3, 6, 99]",5927,5982,670.2,310.3,467.9,269,-17.52,RIGHT,6.28,A8,S8.wav,A8.png,10,14032145,preview,,,,,,,,,,,,,,,,,
p11,Trial: 20,p11.edf,.,8,Fixation: 5983 ms,181,5983,6163,"[ 3, 6, 99]",10,1147,181,457.7,270.1,1,1,35.5,36.7,12,Saccade: 5927 ms,LEFT,56,5.83,104.16,310.63,"[ 4, 99]",5927,5982,670.2,310.3,467.9,269,13,Saccade: 6164 ms,DOWN,55,6.72,122.18,469.42,[ 99],6164,6218,458.5,267.7,345.8,486.4,-11.26,RIGHT,6.1,A8,S8.wav,A8.png,10,14032145,preview,,,,,,,,,,,,,,,,,
p11,Trial: 20,p11.edf,.,9,Fixation: 6219 ms,150,6219,6368,[ 99],73,1131,20573,346.6,507.9,9,71,36.0,37.05,13,Saccade: 6164 ms,DOWN,55,6.72,122.18,469.42,"[ 3, 6, 99]",6164,6218,458.5,267.7,345.8,486.4,14,Saccade: 6369 ms,RIGHT,23,1.79,77.82,126.11,"[ 18, 19, 20, 99]",6369,6391,348.1,512.8,410.9,499.2,64.27,UP,7.16,A8,S8.wav,A8.png,10,14032145,preview,,,,,,,,,,,,,,,,,
p11,Trial: 20,p11.edf,.,10,Fixation: 6392 ms,275,6392,6666,"[ 18, 19, 20, 99]",8,1186,1440,401.5,500.7,1,4,35.7,36.9,14,Saccade: 6369 ms,RIGHT,23,1.79,77.82,126.11,"[ 20, 99]",6369,6391,348.1,512.8,410.9,499.2,15,Saccade: 6667 ms,UP,15,0.83,55.52,65.87,"[ 18, 19, 20, 99]",6667,6681,399.9,497.9,379.7,475.3,-172.75,LEFT,1.54,A8,S8.wav,A8.png,10,14032145,preview,,,,,,,,,,,,,,,,,
p11,Trial: 20,p11.edf,.,11,Fixation: 6682 ms,327,6682,7008,"[ 18, 19, 20, 99]",8,1285,1440,386.4,481.4,2,4,35.8,36.9,15,Saccade: 6667 ms,UP,15,0.83,55.52,65.87,"[ 18, 19, 20, 99]",6667,6681,399.9,497.9,379.7,475.3,16,Saccade: 7009 ms,.,8,0.37,46.21,42.78,"[ 18, 19, 20, 99]",7009,7016,384.1,478.7,397.2,476.9,-51.08,DOWN,0.67,A8,S8.wav,A8.png,10,14032145,preview,,,,,,,,,,,,,,,,,
p11,Trial: 20,p11.edf,.,12,Fixation: 7017 ms,693,7017,7709,"[ 18, 19, 20, 99]",8,1346,1440,385.1,471.6,3,4,35.75,36.9,16,Saccade: 7009 ms,.,8,0.37,46.21,42.78,"[ 18, 19, 20, 99]",7009,7016,384.1,478.7,397.2,476.9,17,Saccade: 7710 ms,.,9,0.42,46.51,42.48,"[ 19, 20, 99]",7710,7718,386.2,465.2,395.1,452.8,-82.21,.,0.27,A8,S8.wav,A8.png,10,14032145,preview,,,,,,,,,,,,,,,,,
p11,Trial: 20,p11.edf,.,13,Fixation: 7719 ms,145,7719,7863,"[ 18, 19, 20, 99]",8,1414,1440,393.7,456.5,4,4,35.7,36.8,17,Saccade: 7710 ms,.,9,0.42,46.51,42.48,"[ 18, 19, 20, 99]",7710,7718,386.2,465.2,395.1,452.8,18,Saccade: 7864 ms,LEFT,52,5.89,113.19,352.26,"[ 9, 16, 99]",7864,7915,393.2,454.1,179.5,469.7,-120.43,.,0.48,A8,S8.wav,A8.png,10,14032145,preview,,,,,,,,,,,,,,,,,
p11,Trial: 20,p11.edf,.,14,Fixation: 7916 ms,391,7916,8306,"[ 9, 99]",15,1421,952,171.1,477.5,1,3,37.15,37.55,18,Saccade: 7864 ms,LEFT,52,5.89,113.19,352.26,"[ 19, 20, 99]",7864,7915,393.2,454.1,179.5,469.7,19,Saccade: 8307 ms,UP,23,0.62,27.05,67.91,"[ 9, 99]",8307,8329,164.5,484.4,153.9,463.6,5.28,RIGHT,6.14,A8,S8.wav,A8.png,10,14032145,preview,,,,,,,,,,,,,,,,,
p11,Trial: 20,p11.edf,.,15,Fixation: 8330 ms,282,8330,8611,"[ 9, 99]",15,1316,952,158.7,469.8,2,3,37.2,37.6,19,Saccade: 8307 ms,UP,23,0.62,27.05,67.91,"[ 9, 99]",8307,8329,164.5,484.4,153.9,463.6,20,Saccade: 8612 ms,DOWN,28,2.93,104.74,195.9,"[ 9, 99]",8612,8639,156.4,472.6,128.1,579.7,-31.56,.,0.39,A8,S8.wav,A8.png,10,14032145,preview,,,,,,,,,,,,,,,,,
p11,Trial: 20,p11.edf,.,16,Fixation: 8640 ms,279,8640,8918,"[ 9, 99]",15,1271,952,131.4,561.9,3,3,37.6,38.0,20,Saccade: 8612 ms,DOWN,28,2.93,104.74,195.9,"[ 9, 99]",8612,8639,156.4,472.6,128.1,579.7,21,Saccade: 8919 ms,RIGHT,44,7.15,162.44,346.85,"[ 18, 19, 20, 99]",8919,8962,126.8,565.7,375.2,479.7,73.32,UP,2.54,A8,S8.wav,A8.png,10,14032145,preview,,,,,,,,,,,,,,,,,
p11,Trial: 20,p11.edf,.,17,Fixation: 8963 ms,321,8963,9283,"[ 18, 19, 20, 99]",8,1188,503,376.7,492.4,1,2,35.8,36.9,21,Saccade: 8919 ms,RIGHT,44,7.15,162.44,346.85,"[ 9, 99]",8919,8962,126.8,565.7,375.2,479.7,22,Saccade: 9284 ms,UP,19,0.9,47.53,71.68,"[ 19, 20, 99]",9284,9302,385.2,496.1,366.5,468.9,-164.48,LEFT,6.94,A8,S8.wav,A8.png,10,14032145,preview,,,,,,,,,,,,,,,,,
p11,Trial: 20,p11.edf,.,18,Fixation: 9303 ms,182,9303,9484,"[ 18, 19, 20, 99]",8,1115,503,374.8,477.9,2,2,35.85,36.9,22,Saccade: 9284 ms,UP,19,0.9,47.53,71.68,"[ 18, 19, 20, 99]",9284,9302,385.2,496.1,366.5,468.9,23,Saccade: 9485 ms,UP,57,7.42,130.1,427.03,"[ 6, 14, 99]",9485,9541,374.3,475.4,521.2,249.1,-82.31,.,0.4,A8,S8.wav,A8.png,10,14032145,preview,,,,,,,,,,,,,,,,,
p11,Trial: 20,p11.edf,.,19,Fixation: 9542 ms,186,9542,9727,"[ 6, 14, 99]",18,1108,974,540.6,228.1,1,5,35.3,36.6,23,Saccade: 9485 ms,UP,57,7.42,130.1,427.03,"[ 18, 19, 20, 99]",9485,9541,374.3,475.4,521.2,249.1,24,Saccade: 9728 ms,UP,33,0.87,26.3,133.17,"[ 6, 14, 99]",9728,9760,546.9,227.3,546.3,195.5,-124.44,DOWN,8.24,A8,S8.wav,A8.png,10,14032145,preview,,,,,,,,,,,,,,,,,
p11,Trial: 20,p11.edf,.,20,Fixation: 9761 ms,149,9761,9909,"[ 6, 14, 99]",18,1111,974,546.9,191.8,2,5,35.3,36.7,24,Saccade: 9728 ms,UP,33,0.87,26.3,133.17,"[ 6, 14, 99]",9728,9760,546.9,227.3,546.3,195.5,25,Saccade: 9910 ms,UP,19,0.77,40.47,65.35,"[ 6, 14, 99]",9910,9928,547,194.7,534.7,169.5,-100.22,DOWN,1.01,A8,S8.wav,A8.png,10,14032145,preview,,,,,,,,,,,,,,,,,
p11,Trial: 20,p11.edf,.,21,Fixation: 9929 ms,216,9929,10144,"[ 6, 14, 99]",18,1066,974,539.1,174.5,3,5,35.4,36.8,25,Saccade: 9910 ms,UP,19,0.77,40.47,65.35,"[ 6, 14, 99]",9910,9928,547,194.7,534.7,169.5,26,Saccade: 10145 ms,LEFT,29,3.78,130.39,257.83,"[ 3, 6, 99]",10145,10173,536.3,175.7,425.4,254.1,-64.89,DOWN,0.52,A8,S8.wav,A8.png,10,14032145,preview,,,,,,,,,,,,,,,,,
p11,Trial: 20,p11.edf,.,22,Fixation: 10174 ms,267,10174,10440,"[ 3, 6, 99]",10,992,423,438.5,253.3,1,2,35.6,36.7,26,Saccade: 10145 ms,LEFT,29,3.78,130.39,257.83,"[ 6, 14, 99]",10145,10173,536.3,175.7,425.4,254.1,27,Saccade: 10441 ms,LEFT,10,0.56,56.33,51.19,"[ 3, 6, 99]",10441,10450,436.5,254.8,420.6,267.4,37.11,RIGHT,3.55,A8,S8.wav,A8.png,10,14032145,preview,,,,,,,,,,,,,,,,,
p11,Trial: 20,p11.edf,.,23,Fixation: 10451 ms,156,10451,10606,"[ 3, 6, 99]",10,984,423,422.1,267.1,2,2,35.6,36.7,27,Saccade: 10441 ms,LEFT,10,0.56,56.33,51.19,"[ 3, 6, 99]",10441,10450,436.5,254.8,420.6,267.4,28,Saccade: 10607 ms,RIGHT,42,7.26,172.97,364.16,"[ 4, 99]",10607,10648,423,267.4,679,292.7,39.22,RIGHT,0.59,A8,S8.wav,A8.png,10,14032145,preview,,,,,,,,,,,,,,,,,
p11,Trial: 20,p11.edf,.,24,Fixation: 10649 ms,196,10649,10844,"[ 4, 99]",3,963,196,681.2,292.1,1,1,35.2,36.5,28,Saccade: 10607 ms,RIGHT,42,7.26,172.97,364.16,"[ 3, 6, 99]",10607,10648,423,267.4,679,292.7,29,Saccade: 10845 ms,RIGHT,128,9.6,75.02,660.51,"[ 8, 99]",10845,10972,684.1,294.3,1022,359.4,174.67,LEFT,7.35,A8,S8.wav,A8.png,10,14032145,preview,,,,,,,,,,,,,,,,,
p11,Trial: 20,p11.edf,.,25,Fixation: 11147 ms,769,11147,11915,"[ 8, 12, 99]",8,1160,769,904.7,357.4,1,1,35.7,36.75,30,Saccade: 11118 ms,LEFT,29,3.75,129.16,250.26,"[ 8, 99]",11118,11146,1019.6,361.5,884.6,358.7,31,Saccade: 11916 ms,DOWN,204,13.92,68.25,361.46,"[ 20, 99]",11916,12119,896.2,346.8,565.9,734.8,164.21,LEFT,6.55,A8,S8.wav,A8.png,10,14032145,preview,,,,,,,,,,,,,,,,,
p11,Trial: 20,p11.edf,.,26,Fixation: 12301 ms,195,12301,12495,[ 99],73,1305,20573,604.0,706.7,26,71,35.65,37.45,32,Saccade: 12277 ms,UP,24,1.54,64.32,115.51,"[ 20, 99]",12277,12300,575.1,740.8,602.1,690.2,33,Saccade: 12496 ms,LEFT,76,12.6,165.76,503.83,"[ 9, 16, 99]",12496,12571,609,708.4,185.5,527,48.16,UP,12.64,A8,S8.wav,A8.png,10,14032145,preview,,,,,,,,,,,,,,,,,
p11,Trial: 20,p11.edf,.,27,Fixation: 12572 ms,460,12572,13031,"[ 9, 99]",15,1248,753,174.4,538.0,1,2,37.15,37.65,33,Saccade: 12496 ms,LEFT,76,12.6,165.76,503.83,[ 99],12496,12571,609,708.4,185.5,527,34,Saccade: 13032 ms,UP,27,2.53,93.87,181.72,"[ 9, 99]",13032,13058,173.7,542.2,179.7,447.1,-20.84,RIGHT,12.63,A8,S8.wav,A8.png,10,14032145,preview,,,,,,,,,,,,,,,,,
p11,Trial: 20,p11.edf,13136,28,Fixation: 13059 ms,293,13059,13351,"[ 9, 16, 99]",15,1204,753,180.0,478.5,2,2,37.05,37.55,34,Saccade: 13032 ms,UP,27,2.53,93.87,181.72,"[ 9, 99]",13032,13058,173.7,542.2,179.7,447.1,35,Saccade: 13352 ms,RIGHT,58,8.46,145.84,397.39,"[ 3, 6, 99]",13352,13409,174,480,421.4,293.4,-95.45,DOWN,1.59,A8,S8.wav,A8.png,10,14032145,preview,,,,,,,,,,,,,,,,,
p11,Trial: 20,p11.edf,.,29,Fixation: 13410 ms,246,13410,13655,"[ 3, 6, 99]",10,1174,246,440.4,282.5,1,1,35.55,36.7,35,Saccade: 13352 ms,RIGHT,58,8.46,145.84,397.39,"[ 9, 16, 99]",13352,13409,174,480,421.4,293.4,36,Saccade: 13656 ms,DOWN,51,5.46,107.11,453.04,"[ 18, 19, 20, 99]",13656,13706,440.6,285.6,384.8,478.2,-143.65,LEFT,8.91,A8,S8.wav,A8.png,10,14032145,task,[1],[Adverb],[100],[260],[160],[0],[Da],[It],[0.0],[0.0],[nan],[nan],[da],[nan],[nan],[nan],[nan]
p11,Trial: 20,p11.edf,.,30,Fixation: 13707 ms,266,13707,13972,"[ 18, 19, 20, 99]",8,1239,266,384.6,500.2,1,1,35.85,36.95,36,Saccade: 13656 ms,DOWN,51,5.46,107.11,453.04,"[ 3, 6, 99]",13656,13706,440.6,285.6,384.8,478.2,37,Saccade: 13973 ms,DOWN,63,7.47,118.64,341.89,"[ 20, 99]",13973,14035,376.7,497.9,540.3,718.7,75.19,UP,6.11,A8,S8.wav,A8.png,10,14032145,task,[2],[Verb],[300],[780],[480],[0],[befindet],[is],[0.0],[0.0],[nan],[nan],[befinden],[nan],[nan],[nan],[nan]
p11,Trial: 20,p11.edf,.,31,Fixation: 14036 ms,261,14036,14296,"[ 20, 99]",22,1291,1492,552.0,735.6,2,4,35.8,37.7,37,Saccade: 13973 ms,DOWN,63,7.47,118.64,341.89,"[ 18, 19, 20, 99]",13973,14035,376.7,497.9,540.3,718.7,38,Saccade: 14297 ms,RIGHT,18,1.11,61.88,79.49,[ 99],14297,14314,555.4,739.4,594.6,747.1,126.54,UP,7.85,A8,S8.wav,A8.png,10,14032145,task,[2],[Verb],[300],[780],[480],[0],[befindet],[is],[0.0],[0.0],[nan],[nan],[befinden],[nan],[nan],[nan],[nan]
p11,Trial: 20,p11.edf,14990,32,Fixation: 14315 ms,823,14315,15137,"[ 20, 99]",22,1380,1492,589.5,746.3,3,4,35.8,37.8,38,Saccade: 14297 ms,RIGHT,18,1.11,61.88,79.49,"[ 20, 99]",14297,14314,555.4,739.4,594.6,747.1,39,Saccade: 15138 ms,UP,55,4.55,82.74,439.57,"[ 19, 20, 99]",15138,15192,587.9,752.7,499.8,609.5,164.86,LEFT,1.09,A8,S8.wav,A8.png,10,14032145,task,"[3, 4]","[Pronoun_ref, Determiner_1]","[860, 1500]","[1170, 1740]","[310, 240]","[0, 0]","[sich, eine]","[nan, a]","[0.0, 0.0]","[0.0, 0.0]","[nan, nan]","[nan, nan]","[sie, eine]","[nan, nan]","[nan, nan]","[nan, nan]","[nan, nan]"
p11,Trial: 20,p11.edf,.,33,Fixation: 15193 ms,142,15193,15334,"[ 19, 20, 99]",14,1488,142,505.5,620.5,1,1,35.6,37.1,39,Saccade: 15138 ms,UP,55,4.55,82.74,439.57,"[ 20, 99]",15138,15192,587.9,752.7,499.8,609.5,40,Saccade: 15335 ms,LEFT,68,5.62,82.71,495.19,[ 99],15335,15402,516.8,619.3,332.1,535.5,-54.99,DOWN,4.1,A8,S8.wav,A8.png,10,14032145,task,[5],[Noun_1],[1790],[2424],[634],[0],[Gitarre],[guitar],[0.0],[0.0],[guitar_1],[S01_I008_E002],[Gitarre],[nan],[nan],[nan],[nan]
p11,Trial: 20,p11.edf,.,34,Fixation: 15705 ms,245,15705,15949,"[ 4, 99]",3,1390,245,664.6,312.1,1,1,35.2,36.5,42,Saccade: 15644 ms,RIGHT,61,12.67,207.72,586.08,"[ 9, 16, 99]",15644,15704,194.3,456.1,632.2,322.9,43,Saccade: 15950 ms,LEFT,42,5.96,141.88,313.41,"[ 3, 6, 99]",15950,15991,668.2,310.3,459.3,282.2,-118.2,DOWN,9.51,A8,S8.wav,A8.png,10,14032145,task,[5],[Noun_1],[1790],[2424],[634],[0],[Gitarre],[guitar],[0.0],[0.0],[guitar_1],[S01_I008_E002],[Gitarre],[nan],[nan],[nan],[nan]
p11,Trial: 20,p11.edf,.,35,Fixation: 15992 ms,130,15992,16121,"[ 3, 6, 99]",10,1329,530,472.2,279.3,1,2,35.45,36.6,43,Saccade: 15950 ms,LEFT,42,5.96,141.88,313.41,"[ 4, 99]",15950,15991,668.2,310.3,459.3,282.2,44,Saccade: 16122 ms,LEFT,21,1.41,67.35,100.88,"[ 3, 6, 99]",16122,16142,470.6,275.8,420.4,276.7,-9.36,RIGHT,5.52,A8,S8.wav,A8.png,10,14032145,task,,break,,,,,,,,,,,,,,,
p11,Trial: 20,p11.edf,16455,36,Fixation: 16143 ms,400,16143,16542,"[ 3, 6, 99]",10,1158,530,435.1,278.6,2,2,35.6,36.7,44,Saccade: 16122 ms,LEFT,21,1.41,67.35,100.88,"[ 3, 6, 99]",16122,16142,470.6,275.8,420.4,276.7,45,Saccade: 16543 ms,RIGHT,52,6.84,131.53,300.59,"[ 4, 99]",16543,16594,433.7,277,674.9,298.7,-1.05,RIGHT,1.04,A8,S8.wav,A8.png,10,14032145,task,"[6, 7]","[Preposition_1, Determiner_2]","[2770, 2937]","[2910, 3190]","[140, 253]","[0, 0]","[auf, einer]","[on, a]","[0.0, 0.0]","[0.0, 0.0]","[nan, nan]","[nan, nan]","[auf, eine]","[nan, nan]","[nan, nan]","[nan, nan]","[nan, nan]"
p11,Trial: 20,p11.edf,.,37,Fixation: 16711 ms,142,16711,16852,"[ 5, 8, 99]",3,997,511,935.8,373.1,1,2,35.95,36.85,46,Saccade: 16661 ms,RIGHT,50,6.89,137.84,425.6,"[ 4, 99]",16661,16710,684,298.8,920,366.7,47,Saccade: 16853 ms,LEFT,20,1.54,77.24,106.43,"[ 8, 12, 99]",16853,16872,939.8,374.8,884.6,379.4,169.6,LEFT,14.23,A8,S8.wav,A8.png,10,14032145,task,[8],[Noun_2],[3255],[3767],[512],[0],[Couch],[couch],[0.0],[1.0],[couch_1],[S01_I008_E005],[Couch],[nan],[nan],[nan],[nan]
p11,Trial: 20,p11.edf,.,38,Fixation: 16873 ms,369,16873,17241,"[ 5, 8, 99]",3,1041,511,894.0,379.3,2,2,35.7,36.75,47,Saccade: 16853 ms,LEFT,20,1.54,77.24,106.43,"[ 5, 8, 99]",16853,16872,939.8,374.8,884.6,379.4,48,Saccade: 17242 ms,.,7,0.25,35.43,32.62,"[ 8, 12, 99]",17242,17248,885.7,381,877.7,377.1,8.22,RIGHT,1.18,A8,S8.wav,A8.png,10,14032145,task,[8],[Noun_2],[3255],[3767],[512],[0],[Couch],[couch],[0.0],[1.0],[couch_1],[S01_I008_E005],[Couch],[nan],[nan],[nan],[nan]
p11,Trial: 20,p11.edf,.,39,Fixation: 17249 ms,392,17249,17640,"[ 8, 12, 99]",8,1162,1131,879.3,374.5,3,4,35.7,36.7,48,Saccade: 17242 ms,.,7,0.25,35.43,32.62,"[ 8, 99]",17242,17248,885.7,381,877.7,377.1,49,Saccade: 17641 ms,UP,25,1.98,79.23,127.13,[ 99],17641,17665,877.8,371,923.8,315.6,-17.61,.,0.43,A8,S8.wav,A8.png,10,14032145,task,[9],[Preposition_2_of_RC],[4103],[4257],[154],[0],[auf],[on],[0.0],[0.0],[nan],[nan],[auf],[nan],[nan],[nan],[nan]
p11,Trial: 20,p11.edf,.,40,Fixation: 17666 ms,228,17666,17893,"[ 8, 12, 99]",8,1167,1131,913.1,326.5,4,4,35.85,36.8,49,Saccade: 17641 ms,UP,25,1.98,79.23,127.13,"[ 8, 12, 99]",17641,17665,877.8,371,923.8,315.6,50,Saccade: 17894 ms,UP,28,2.34,83.47,131.27,[ 99],17894,17921,905.3,329.3,964.5,268.1,-125.88,DOWN,1.61,A8,S8.wav,A8.png,10,14032145,task,[10],[Relative Clause Pronoun],[4330],[4530],[200],[1],[der],[that],[0.0],[0.0],[nan],[nan],[die],[nan],[nan],[nan],[nan]
p11,Trial: 20,p11.edf,17943,41,Fixation: 17922 ms,259,17922,18180,[ 99],73,1185,20573,954.5,283.8,41,71,36.05,36.95,50,Saccade: 17894 ms,UP,28,2.34,83.47,131.27,"[ 8, 12, 99]",17894,17921,905.3,329.3,964.5,268.1,51,Saccade: 18181 ms,LEFT,67,12.91,192.63,492.75,"[ 3, 6, 99]",18181,18247,953,287.1,492.3,279.6,-134.84,DOWN,1.63,A8,S8.wav,A8.png,10,14032145,task,[11],[Relative Clause Pers. Pronoun],[4550],[4660],[110],[0],[sie],[she],[0.0],[0.0],[woman_1],[S01_I008_E011],[sie],[nan],[nan],[nan],[nan]
p11,Trial: 20,p11.edf,.,42,Fixation: 18248 ms,236,18248,18483,"[ 3, 6, 99]",10,1233,236,471.8,292.1,1,1,35.4,36.6,51,Saccade: 18181 ms,LEFT,67,12.91,192.63,492.75,[ 99],18181,18247,953,287.1,492.3,279.6,52,Saccade: 18484 ms,RIGHT,22,2.11,95.82,153.76,"[ 6, 14, 99]",18484,18505,470,299.9,527.8,251.2,0.96,RIGHT,13.51,A8,S8.wav,A8.png,10,14032145,task,[12],[Relative Clause Adverb],[4743],[5400],[657],[0],[gemütlich],[comfortably],[0.0],[0.0],[nan],[nan],[gemütlich],[nan],[nan],[nan],[nan]
p11,Trial: 20,p11.edf,.,43,Fixation: 18506 ms,141,18506,18646,"[ 6, 99]",18,1252,2475,523.7,263.2,2,6,35.3,36.6,52,Saccade: 18484 ms,RIGHT,22,2.11,95.82,153.76,"[ 3, 6, 99]",18484,18505,470,299.9,527.8,251.2,53,Saccade: 18647 ms,UP,33,1.81,54.78,192.05,"[ 6, 14, 99]",18647,18679,527.8,264.2,525.3,198,-151.73,LEFT,1.67,A8,S8.wav,A8.png,10,14032145,task,[12],[Relative Clause Adverb],[4743],[5400],[657],[0],[gemütlich],[comfortably],[0.0],[0.0],[nan],[nan],[gemütlich],[nan],[nan],[nan],[nan]
p11,Trial: 20,p11.edf,18750,44,Fixation: 18680 ms,629,18680,19308,"[ 6, 14, 99]",18,1090,2475,525.1,193.4,3,6,35.4,36.75,53,Saccade: 18647 ms,UP,33,1.81,54.78,192.05,"[ 6, 14, 99]",18647,18679,527.8,264.2,525.3,198,54,Saccade: 19309 ms,LEFT,27,3.56,131.69,241.07,"[ 6, 99]",19309,19335,525.6,183.9,418.9,253.8,-91.19,DOWN,1.9,A8,S8.wav,A8.png,10,14032145,task,"[12, 13]","[Relative Clause Adverb, Relative Clause Verb]","[4743, 5550]","[5400, 5970]","[657, 420]","[0, 0]","[gemütlich, sitzt]","[comfortably, sits]","[0.0, 1.0]","[0.0, 0.0]","[nan, nan]","[nan, nan]","[gemütlich, sitzen]","[nan, nan]","[nan, nan]","[nan, nan]","[nan, nan]"
p11,Trial: 20,p11.edf,.,45,Fixation: 19336 ms,274,19336,19609,"[ 3, 6, 99]",10,953,1237,429.5,251.7,1,2,35.6,36.75,54,Saccade: 19309 ms,LEFT,27,3.56,131.69,241.07,"[ 6, 99]",19309,19335,525.6,183.9,418.9,253.8,55,Saccade: 19610 ms,.,9,0.37,41.12,39.73,"[ 3, 6, 99]",19610,19618,429.8,250.6,420,259.7,30.5,RIGHT,3.13,A8,S8.wav,A8.png,10,14032145,task,,break,,,,,,,,,,,,,,,
p11,Trial: 20,p11.edf,20010,46,Fixation: 19619 ms,963,19619,20581,"[ 3, 6, 99]",10,984,1237,419.9,262.9,2,2,35.6,36.8,55,Saccade: 19610 ms,.,9,0.37,41.12,39.73,"[ 3, 6, 99]",19610,19618,429.8,250.6,420,259.7,56,Saccade: 20582 ms,RIGHT,35,4.45,127.05,290.05,"[ 6, 14, 99]",20582,20616,414.8,262.5,546,171.5,48.48,.,0.41,A8,S8.wav,A8.png,10,14032145,post,,,,,,,,,,,,,,,,,
