RECORDING_SESSION_LABEL,TRIAL_LABEL,DATA_FILE,CURRENT_FIX_MSG_TIME_1,CURRENT_FIX_INDEX,CURRENT_FIX_LABEL,CURRENT_FIX_DURATION,CURRENT_FIX_START,CURRENT_FIX_END,CURRENT_FIX_INTEREST_AREAS,CURRENT_FIX_INTEREST_AREA_FIX_COUNT,CURRENT_FIX_PUPIL,CURRENT_FIX_RUN_DWELL_TIME,CURRENT_FIX_X,CURRENT_FIX_Y,CURRENT_FIX_RUN_INDEX,CURRENT_FIX_RUN_SIZE,CURRENT_FIX_X_RESOLUTION,CURRENT_FIX_Y_RESOLUTION,PREVIOUS_SAC_INDEX,PREVIOUS_SAC_LABEL,PREVIOUS_SAC_DIRECTION,PREVIOUS_SAC_DURATION,PREVIOUS_SAC_AMPLITUDE,PREVIOUS_SAC_AVG_VELOCITY,PREVIOUS_SAC_PEAK_VELOCITY,PREVIOUS_SAC_START_INTEREST_AREAS,PREVIOUS_SAC_START_TIME,PREVIOUS_SAC_END_TIME,PREVIOUS_SAC_START_X,PREVIOUS_SAC_START_Y,PREVIOUS_SAC_END_X,PREVIOUS_SAC_END_Y,NEXT_SAC_INDEX,NEXT_SAC_LABEL,NEXT_SAC_DIRECTION,NEXT_SAC_DURATION,NEXT_SAC_AMPLITUDE,NEXT_SAC_AVG_VELOCITY,NEXT_SAC_PEAK_VELOCITY,NEXT_SAC_END_INTEREST_AREAS,NEXT_SAC_START_TIME,NEXT_SAC_END_TIME,NEXT_SAC_START_X,NEXT_SAC_START_Y,NEXT_SAC_END_X,NEXT_SAC_END_Y,PREVIOUS_FIX_ANGLE,PREVIOUS_FIX_DIRECTION,PREVIOUS_FIX_DISTANCE,ItemNO,audiofilename,imagefilename,TRIAL_INDEX,TRIAL_START_TIME,viewtype,word_index,Label,word_onset,word_offset,word_duration,Continuation,wordDE,wordEN,REFWord,TargetObj,ObjectLabel,ObjectID,LemmaDE,LingIndex,DepS,pos_1,pos_2
p8,Trial: 6,p8.edf,.,1,Fixation: 3316 ms,355,3316,3670,"[ 7, 99]",5,1089,355,607.2,758.2,1,1,35.8,37.9,4,Saccade: 3278 ms,UP,38,4.71,123.99,187.24,[ ],3278,3315,636.6,937.7,607.5,758.5,5,Saccade: 3671 ms,UP,48,6.92,144.15,225.01,"[ 22, 99]",3671,3718,604.7,756.3,717.4,526.9,-78.95,DOWN,4.65,A10,S10.wav,A10.png,3,24290542,preview,,,,,,,,,,,,,,,,,
p8,Trial: 6,p8.edf,.,2,Fixation: 3719 ms,267,3719,3985,"[ 22, 99]",6,1090,267,716.3,531.0,1,1,35.4,36.8,5,Saccade: 3671 ms,UP,48,6.92,144.15,225.01,"[ 7, 99]",3671,3718,604.7,756.3,717.4,526.9,6,Saccade: 3986 ms,UP,214,8.08,37.75,904.93,"[ 2, 99]",3986,4199,721.8,534.7,544.6,302.5,-116.74,DOWN,6.81,A10,S10.wav,A10.png,3,24290542,preview,,,,,,,,,,,,,,,,,
p8,Trial: 6,p8.edf,.,3,Fixation: 4361 ms,350,4361,4710,"[ 2, 99]",6,1125,350,523.3,209.2,1,1,35.35,36.65,7,Saccade: 4337 ms,UP,24,2.51,104.4,172.36,"[ 2, 99]",4337,4360,545.2,328.4,532.3,237.8,8,Saccade: 4711 ms,DOWN,37,4.15,112.05,208.92,"[ 9, 99]",4711,4747,523.5,206.5,453.5,340.1,-58.09,DOWN,10.32,A10,S10.wav,A10.png,3,24290542,preview,,,,,,,,,,,,,,,,,
p8,Trial: 6,p8.edf,.,4,Fixation: 4748 ms,225,4748,4972,"[ 9, 99]",2,1094,225,457.2,345.7,1,1,35.5,36.6,8,Saccade: 4711 ms,DOWN,37,4.15,112.05,208.92,"[ 2, 99]",4711,4747,523.5,206.5,453.5,340.1,9,Saccade: 4973 ms,LEFT,40,6.12,152.89,294.66,"[ 4, 12, 99]",4973,5012,457.4,344.1,239.7,379.7,63.41,UP,4.17,A10,S10.wav,A10.png,3,24290542,preview,,,,,,,,,,,,,,,,,
p8,Trial: 6,p8.edf,.,5,Fixation: 5013 ms,199,5013,5211,"[ 4, 12, 99]",4,1131,199,247.7,385.8,1,1,36.55,37.2,9,Saccade: 4973 ms,LEFT,40,6.12,152.89,294.66,"[ 9, 99]",4973,5012,457.4,344.1,239.7,379.7,10,Saccade: 5212 ms,LEFT,40,4.92,122.98,220.97,"[ 11, 99]",5212,5251,245.6,386.8,94.6,282.9,10.58,RIGHT,5.92,A10,S10.wav,A10.png,3,24290542,preview,,,,,,,,,,,,,,,,,
p8,Trial: 6,p8.edf,.,6,Fixation: 5252 ms,342,5252,5593,"[ 11, 99]",1,1130,342,92.3,272.7,1,1,37.75,37.8,10,Saccade: 5212 ms,LEFT,40,4.92,122.98,220.97,"[ 4, 12, 99]",5212,5251,245.6,386.8,94.6,282.9,11,Saccade: 5594 ms,RIGHT,156,12.55,80.47,883.55,"[ 2, 99]",5594,5749,102.8,284.8,549.9,179.7,-35.79,RIGHT,5.16,A10,S10.wav,A10.png,3,24290542,preview,,,,,,,,,,,,,,,,,
p8,Trial: 6,p8.edf,.,7,Fixation: 6012 ms,155,6012,6166,"[ 2, 99]",6,1080,155,528.5,192.3,1,1,35.4,36.7,12,Saccade: 6003 ms,.,9,0.41,45.92,43.17,"[ 2, 99]",6003,6011,543.9,200.3,530.4,194.5,13,Saccade: 6167 ms,RIGHT,46,8.18,177.73,285.95,"[ 26, 99]",6167,6212,529.7,191.1,785.2,46.9,-169.74,LEFT,12.12,A10,S10.wav,A10.png,3,24290542,preview,,,,,,,,,,,,,,,,,
p8,Trial: 6,p8.edf,.,8,Fixation: 6213 ms,281,6213,6493,"[ 26, 99]",3,1065,281,784.0,37.7,1,1,35.7,37.35,13,Saccade: 6167 ms,RIGHT,46,8.18,177.73,285.95,"[ 2, 99]",6167,6212,529.7,191.1,785.2,46.9,14,Saccade: 6494 ms,RIGHT,27,3.07,113.57,175.55,[ 99],6494,6520,779.6,37.6,872.7,98.2,-149.84,LEFT,8.31,A10,S10.wav,A10.png,3,24290542,preview,,,,,,,,,,,,,,,,,
p8,Trial: 6,p8.edf,.,9,Fixation: 6521 ms,209,6521,6729,[ 99],50,1028,20167,888.7,101.8,9,49,35.95,37.25,14,Saccade: 6494 ms,RIGHT,27,3.07,113.57,175.55,"[ 26, 99]",6494,6520,779.6,37.6,872.7,98.2,15,Saccade: 6730 ms,LEFT,25,2.55,102.12,160.03,"[ 26, 99]",6730,6754,887.8,101.7,800.7,72.5,149.54,LEFT,3.39,A10,S10.wav,A10.png,3,24290542,preview,,,,,,,,,,,,,,,,,
p8,Trial: 6,p8.edf,.,10,Fixation: 6755 ms,301,6755,7055,"[ 26, 99]",3,1061,693,795.3,70.2,1,2,35.7,37.2,15,Saccade: 6730 ms,LEFT,25,2.55,102.12,160.03,[ 99],6730,6754,887.8,101.7,800.7,72.5,16,Saccade: 7056 ms,RIGHT,15,0.78,52.22,63.64,"[ 26, 99]",7056,7070,795.2,71.1,823.2,70.6,-18.04,RIGHT,2.74,A10,S10.wav,A10.png,3,24290542,preview,,,,,,,,,,,,,,,,,
p8,Trial: 6,p8.edf,.,11,Fixation: 7071 ms,392,7071,7462,"[ 26, 99]",3,1122,693,813.0,67.9,2,2,35.75,37.25,16,Saccade: 7056 ms,RIGHT,15,0.78,52.22,63.64,"[ 26, 99]",7056,7070,795.2,71.1,823.2,70.6,17,Saccade: 7463 ms,DOWN,55,14.16,257.47,424.88,"[ 18, 99]",7463,7517,805.9,73.4,1110.6,500.9,-172.89,.,0.5,A10,S10.wav,A10.png,3,24290542,preview,,,,,,,,,,,,,,,,,
p8,Trial: 6,p8.edf,.,12,Fixation: 7518 ms,198,7518,7715,"[ 18, 99]",1,1094,198,1110.1,510.7,1,1,37.2,37.6,17,Saccade: 7463 ms,DOWN,55,14.16,257.47,424.88,"[ 26, 99]",7463,7517,805.9,73.4,1110.6,500.9,18,Saccade: 7716 ms,DOWN,26,3.27,125.84,250.93,"[ 6, 28, 99]",7716,7741,1108.7,508.9,1138.0,629.3,124.55,UP,14.36,A10,S10.wav,A10.png,3,24290542,preview,,,,,,,,,,,,,,,,,
p8,Trial: 6,p8.edf,.,13,Fixation: 7742 ms,357,7742,8098,"[ 6, 28, 99]",8,1128,357,1140.5,627.8,1,1,37.65,38.2,18,Saccade: 7716 ms,DOWN,26,3.27,125.84,250.93,"[ 18, 99]",7716,7741,1108.7,508.9,1138,629.3,19,Saccade: 8099 ms,LEFT,27,3.0,111.0,188.93,"[ 5, 28, 99]",8099,8125,1146.3,629.6,1034.8,635.3,104.73,UP,3.19,A10,S10.wav,A10.png,3,24290542,preview,,,,,,,,,,,,,,,,,
p8,Trial: 6,p8.edf,.,14,Fixation: 8126 ms,524,8126,8649,"[ 5, 28, 99]",1,1071,524,1033.9,644.6,1,1,36.8,37.85,19,Saccade: 8099 ms,LEFT,27,3,111,188.93,"[ 6, 28, 99]",8099,8125,1146.3,629.6,1034.8,635.3,20,Saccade: 8650 ms,RIGHT,25,2.28,91.11,122.75,"[ 6, 28, 99]",8650,8674,1028.3,648.5,1111.4,632.8,8.77,RIGHT,2.9,A10,S10.wav,A10.png,3,24290542,preview,,,,,,,,,,,,,,,,,
p8,Trial: 6,p8.edf,.,15,Fixation: 8675 ms,339,8675,9013,"[ 6, 28, 99]",8,1001,339,1128.3,619.6,1,1,37.45,38.1,20,Saccade: 8650 ms,RIGHT,25,2.28,91.11,122.75,"[ 5, 28, 99]",8650,8674,1028.3,648.5,1111.4,632.8,21,Saccade: 9014 ms,LEFT,88,17.38,197.46,385.18,[ 99],9014,9101,1130.4,613.4,518.5,806.1,-165.49,LEFT,2.63,A10,S10.wav,A10.png,3,24290542,preview,,,,,,,,,,,,,,,,,
p8,Trial: 6,p8.edf,.,16,Fixation: 9102 ms,183,9102,9284,"[ 7, 99]",5,1019,183,561.8,814.5,1,1,36.1,38.3,21,Saccade: 9014 ms,LEFT,88,17.38,197.46,385.18,"[ 6, 28, 99]",9014,9101,1130.4,613.4,518.5,806.1,22,Saccade: 9285 ms,UP,182,5.83,32.01,687.46,[ 99],9285,9466,567.7,815.3,710.7,654.8,18.33,RIGHT,16.23,A10,S10.wav,A10.png,3,24290542,preview,,,,,,,,,,,,,,,,,
p8,Trial: 6,p8.edf,.,17,Fixation: 9591 ms,376,9591,9966,"[ 22, 99]",6,1111,2676,720.7,555.4,1,5,35.4,36.85,23,Saccade: 9566 ms,UP,25,2.02,80.92,118.02,[ 99],9566,9590,704.2,644.8,730.6,575.1,24,Saccade: 9967 ms,UP,19,0.88,46.34,58.32,"[ 22, 99]",9967,9985,724.8,550.1,722.9,517.8,-122.81,DOWN,8.2,A10,S10.wav,A10.png,3,24290542,preview,,,,,,,,,,,,,,,,,
p8,Trial: 6,p8.edf,.,18,Fixation: 9986 ms,205,9986,10190,"[ 22, 99]",6,1120,2676,723.6,511.3,2,5,35.3,36.7,24,Saccade: 9967 ms,UP,19,0.88,46.34,58.32,"[ 22, 99]",9967,9985,724.8,550.1,722.9,517.8,25,Saccade: 10191 ms,UP,12,0.55,45.76,47.01,"[ 22, 99]",10191,10202,721.6,510.0,726.5,490.5,-93.91,DOWN,1.2,A10,S10.wav,A10.png,3,24290542,preview,,,,,,,,,,,,,,,,,
p8,Trial: 6,p8.edf,.,19,Fixation: 10203 ms,873,10203,11075,"[ 22, 99]",6,1091,2676,719.5,486.3,3,5,35.3,36.7,25,Saccade: 10191 ms,UP,12,0.55,45.76,47.01,"[ 22, 99]",10191,10202,721.6,510,726.5,490.5,26,Saccade: 11076 ms,DOWN,21,1.34,63.62,71.87,"[ 22, 99]",11076,11096,719.7,490.2,700.4,535.0,-80.32,DOWN,0.69,A10,S10.wav,A10.png,3,24290542,preview,,,,,,,,,,,,,,,,,
p8,Trial: 6,p8.edf,.,20,Fixation: 11097 ms,964,11097,12060,"[ 22, 99]",6,1093,2676,705.3,539.9,4,5,35.35,36.8,26,Saccade: 11076 ms,DOWN,21,1.34,63.62,71.87,"[ 22, 99]",11076,11096,719.7,490.2,700.4,535,27,Saccade: 12061 ms,DOWN,113,0.92,8.1,341.23,"[ 22, 99]",12061,12173,710.4,543.7,720.1,575.9,74.59,UP,1.51,A10,S10.wav,A10.png,3,24290542,preview,,,,,,,,,,,,,,,,,
p8,Trial: 6,p8.edf,.,21,Fixation: 12174 ms,258,12174,12431,"[ 22, 99]",6,1081,2676,723.8,595.2,5,5,35.45,36.95,27,Saccade: 12061 ms,DOWN,113,0.92,8.1,341.23,"[ 22, 99]",12061,12173,710.4,543.7,720.1,575.9,28,Saccade: 12432 ms,LEFT,51,10.02,196.55,324.2,"[ 23, 99]",12432,12482,721.5,596.7,384.9,472.3,109.21,UP,1.59,A10,S10.wav,A10.png,3,24290542,preview,,,,,,,,,,,,,,,,,
p8,Trial: 6,p8.edf,.,22,Fixation: 12483 ms,327,12483,12809,"[ 23, 99]",1,1119,327,391.7,471.9,1,1,35.8,36.9,28,Saccade: 12432 ms,LEFT,51,10.02,196.55,324.2,"[ 22, 99]",12432,12482,721.5,596.7,384.9,472.3,29,Saccade: 12810 ms,RIGHT,39,3.93,100.7,182.04,[ 99],12810,12848,390.4,477.8,517.1,539.0,-19.71,RIGHT,9.9,A10,S10.wav,A10.png,3,24290542,preview,,,,,,,,,,,,,,,,,
p8,Trial: 6,p8.edf,13032,23,Fixation: 12849 ms,515,12849,13363,[ 99],50,1062,20167,521.6,546.2,23,49,35.4,36.85,29,Saccade: 12810 ms,RIGHT,39,3.93,100.7,182.04,"[ 23, 99]",12810,12848,390.4,477.8,517.1,539,30,Saccade: 13364 ms,UP,81,0.71,8.76,308.75,[ 99],13364,13444,530.2,548.5,530.8,522.4,151.09,LEFT,4.17,A10,S10.wav,A10.png,3,24290542,preview,,,,,,,,,,,,,,,,,
p8,Trial: 6,p8.edf,.,24,Fixation: 13445 ms,460,13445,13904,[ 99],50,1154,20167,552.4,544.0,24,49,35.4,36.8,30,Saccade: 13364 ms,UP,81,0.71,8.76,308.75,[ 99],13364,13444,530.2,548.5,530.8,522.4,31,Saccade: 13905 ms,UP,42,4.8,114.24,169.74,"[ 2, 99]",13905,13946,552.5,540.1,556.4,364.3,-176.07,LEFT,0.87,A10,S10.wav,A10.png,3,24290542,task,"[2, 3]","[Verb, Determiner_1]","[240, 465]","[435, 617]","[195, 152]","[0, 0]","[ist, ein]","[is, a]","[0.0, 0.0]","[0.0, 0.0]","[nan, nan]","[nan, nan]","[sein, eine]","[nan, nan]","[nan, nan]","[nan, nan]","[nan, nan]"
p8,Trial: 6,p8.edf,13965,25,Fixation: 13947 ms,201,13947,14147,"[ 2, 99]",6,1239,201,554.7,367.2,1,1,35.2,36.5,31,Saccade: 13905 ms,UP,42,4.8,114.24,169.74,[ 99],13905,13946,552.5,540.1,556.4,364.3,32,Saccade: 14148 ms,LEFT,22,2.56,116.47,199.59,"[ 17, 99]",14148,14169,553.2,369.1,475.3,321.5,-90.77,DOWN,4.82,A10,S10.wav,A10.png,3,24290542,task,[4],[Noun_1],[765],[1067],[302],[0],[Ball],[ball],[0.0],[1.0],[ball_1],[S01_I010_E015],[Ball],[nan],[nan],[nan],[nan]
p8,Trial: 6,p8.edf,.,26,Fixation: 14170 ms,325,14170,14494,"[ 17, 99]",2,1297,325,471.9,305.1,1,1,35.4,36.6,32,Saccade: 14148 ms,LEFT,22,2.56,116.47,199.59,"[ 2, 99]",14148,14169,553.2,369.1,475.3,321.5,33,Saccade: 14495 ms,LEFT,54,7.34,135.92,187.79,"[ 4, 15, 99]",14495,14548,471.2,305.3,217.6,382.7,-35.92,RIGHT,2.9,A10,S10.wav,A10.png,3,24290542,task,[4],[Noun_1],[765],[1067],[302],[0],[Ball],[ball],[0.0],[1.0],[ball_1],[S01_I010_E015],[Ball],[nan],[nan],[nan],[nan]
p8,Trial: 6,p8.edf,.,27,Fixation: 14549 ms,377,14549,14925,"[ 4, 99]",4,1227,377,221.1,389.8,1,1,36.7,37.3,33,Saccade: 14495 ms,LEFT,54,7.34,135.92,187.79,"[ 17, 99]",14495,14548,471.2,305.3,217.6,382.7,34,Saccade: 14926 ms,RIGHT,45,6.59,146.41,222.92,"[ 9, 99]",14926,14970,222.0,393.3,447.0,314.4,18.24,RIGHT,7.32,A10,S10.wav,A10.png,3,24290542,task,[5],[Preposition_1],[1477],[1660],[183],[0],[auf],[on],[0.0],[0.0],[nan],[nan],[auf],[nan],[nan],[nan],[nan]
p8,Trial: 6,p8.edf,15235,28,Fixation: 14971 ms,527,14971,15497,[ 99],50,1204,20167,450.7,307.2,28,49,35.5,36.6,34,Saccade: 14926 ms,RIGHT,45,6.59,146.41,222.92,"[ 4, 99]",14926,14970,222,393.3,447,314.4,35,Saccade: 15498 ms,RIGHT,16,1.02,63.59,80.61,"[ 17, 99]",15498,15513,449.2,306.6,484.9,301.3,-160.64,LEFT,6.74,A10,S10.wav,A10.png,3,24290542,task,"[6, 7]","[Determiner_2, Noun_2]","[1704, 2035]","[1940, 2450]","[236, 415]","[0, 0]","[einem, Tisch]","[a, table]","[0.0, 0.0]","[0.0, 0.0]","[nan, tablepart_1]","[nan, S01_I010_E007]","[eine, Tisch]","[nan, nan]","[nan, nan]","[nan, nan]","[nan, nan]"
p8,Trial: 6,p8.edf,.,29,Fixation: 15958 ms,520,15958,16477,"[ 4, 12, 99]",4,1350,654,228.4,397.6,1,2,36.65,37.25,37,Saccade: 15912 ms,LEFT,46,7.57,164.51,275.92,[ 99],15912,15957,468.8,289.8,215.8,394.4,38,Saccade: 16478 ms,LEFT,9,0.58,64.19,50.98,"[ 4, 15, 99]",16478,16486,226.6,399.6,206.0,394.4,21.67,RIGHT,6.63,A10,S10.wav,A10.png,3,24290542,task,"[8, 9]","[Relative Clause Pronoun, Relative Clause Pers. Pronoun]","[2890, 3100]","[3090, 3275]","[200, 175]","[1, 0]","[den, sie]","[that, she]","[0.0, 0.0]","[0.0, 0.0]","[nan, woman_1]","[nan, S01_I010_E001]","[die, sie]","[nan, nan]","[nan, nan]","[nan, nan]","[nan, nan]"
p8,Trial: 6,p8.edf,16490,30,Fixation: 16487 ms,134,16487,16620,"[ 4, 15, 99]",4,1323,654,208.0,395.8,2,2,36.8,37.3,38,Saccade: 16478 ms,LEFT,9,0.58,64.19,50.98,"[ 4, 12, 99]",16478,16486,226.6,399.6,206,394.4,39,Saccade: 16621 ms,RIGHT,40,7.55,188.66,303.76,"[ 17, 99]",16621,16660,206.0,397.7,462.9,304.9,-4.97,RIGHT,0.56,A10,S10.wav,A10.png,3,24290542,task,,break,,,,,,,,,,,,,,,
p8,Trial: 6,p8.edf,.,31,Fixation: 16661 ms,288,16661,16948,"[ 17, 99]",2,1309,288,477.4,297.4,1,1,35.4,36.6,39,Saccade: 16621 ms,RIGHT,40,7.55,188.66,303.76,"[ 4, 15, 99]",16621,16660,206,397.7,462.9,304.9,40,Saccade: 16949 ms,UP,15,0.73,48.99,53.6,"[ 2, 99]",16949,16963,475.9,297.5,490.3,275.1,-160.36,LEFT,7.92,A10,S10.wav,A10.png,3,24290542,task,[10],[Relative Clause Adverb],[3290],[3780],[490],[0],[langsam],[slowly],[0.0],[0.0],[nan],[nan],[langsam],[nan],[nan],[nan],[nan]
p8,Trial: 6,p8.edf,17145,32,Fixation: 16964 ms,1627,16964,18590,"[ 2, 99]",6,1387,1627,481.2,275.6,1,1,35.4,36.65,40,Saccade: 16949 ms,UP,15,0.73,48.99,53.6,"[ 17, 99]",16949,16963,475.9,297.5,490.3,275.1,41,Saccade: 18591 ms,LEFT,11,0.73,66.42,63.01,"[ 9, 99]",18591,18601,470.8,270.3,444.9,270.2,-100.22,DOWN,0.6,A10,S10.wav,A10.png,3,24290542,task,[11],[Relative Clause Verb],[3945],[4540],[595],[0],[aufhebt],[picks up],[1.0],[0.0],[nan],[nan],[aufheben],[nan],[nan],[nan],[nan]
