RECORDING_SESSION_LABEL,TRIAL_LABEL,DATA_FILE,CURRENT_FIX_MSG_TIME_1,CURRENT_FIX_INDEX,CURRENT_FIX_LABEL,CURRENT_FIX_DURATION,CURRENT_FIX_START,CURRENT_FIX_END,CURRENT_FIX_INTEREST_AREAS,CURRENT_FIX_INTEREST_AREA_FIX_COUNT,CURRENT_FIX_PUPIL,CURRENT_FIX_RUN_DWELL_TIME,CURRENT_FIX_X,CURRENT_FIX_Y,CURRENT_FIX_RUN_INDEX,CURRENT_FIX_RUN_SIZE,CURRENT_FIX_X_RESOLUTION,CURRENT_FIX_Y_RESOLUTION,PREVIOUS_SAC_INDEX,PREVIOUS_SAC_LABEL,PREVIOUS_SAC_DIRECTION,PREVIOUS_SAC_DURATION,PREVIOUS_SAC_AMPLITUDE,PREVIOUS_SAC_AVG_VELOCITY,PREVIOUS_SAC_PEAK_VELOCITY,PREVIOUS_SAC_START_INTEREST_AREAS,PREVIOUS_SAC_START_TIME,PREVIOUS_SAC_END_TIME,PREVIOUS_SAC_START_X,PREVIOUS_SAC_START_Y,PREVIOUS_SAC_END_X,PREVIOUS_SAC_END_Y,NEXT_SAC_INDEX,NEXT_SAC_LABEL,NEXT_SAC_DIRECTION,NEXT_SAC_DURATION,NEXT_SAC_AMPLITUDE,NEXT_SAC_AVG_VELOCITY,NEXT_SAC_PEAK_VELOCITY,NEXT_SAC_END_INTEREST_AREAS,NEXT_SAC_START_TIME,NEXT_SAC_END_TIME,NEXT_SAC_START_X,NEXT_SAC_START_Y,NEXT_SAC_END_X,NEXT_SAC_END_Y,PREVIOUS_FIX_ANGLE,PREVIOUS_FIX_DIRECTION,PREVIOUS_FIX_DISTANCE,ItemNO,audiofilename,imagefilename,TRIAL_INDEX,TRIAL_START_TIME,viewtype,word_index,Label,word_onset,word_offset,word_duration,Continuation,wordDE,wordEN,REFWord,TargetObj,ObjectLabel,ObjectID,LemmaDE,LingIndex,DepS,pos_1,pos_2
p12,Trial: 3,p12.edf,.,1,Fixation: 3848 ms,120,3848,3967,"[ 2, 99]",5,1111,1053,537.1,344.3,1,4,35.3,36.5,5,Saccade: 3781 ms,UP,67,15.36,229.26,520.9,[ ],3781,3847,675.5,907.9,540.9,344.9,6,Saccade: 3968 ms,UP,27,3.97,147.11,252.04,"[ 2, 99]",3968,3994,538.0,345.9,499.5,206.1,-75.82,DOWN,15.23,A13,S13.wav,A13.png,1,15793720,preview,,,,,,,,,,,,,,,,,
p12,Trial: 3,p12.edf,.,2,Fixation: 3995 ms,129,3995,4123,"[ 2, 99]",5,1077,1053,493.7,195.6,2,4,35.4,36.75,6,Saccade: 3968 ms,UP,27,3.97,147.11,252.04,"[ 2, 99]",3968,3994,538,345.9,499.5,206.1,7,Saccade: 4124 ms,UP,23,2.78,120.68,186.09,"[ 2, 99]",4124,4146,495.0,196.8,445.8,107.9,-73.18,DOWN,4.24,A13,S13.wav,A13.png,1,15793720,preview,,,,,,,,,,,,,,,,,
p12,Trial: 3,p12.edf,.,3,Fixation: 4147 ms,415,4147,4561,"[ 2, 99]",5,1011,1053,446.2,108.6,3,4,35.7,37.1,7,Saccade: 4124 ms,UP,23,2.78,120.68,186.09,"[ 2, 99]",4124,4146,495,196.8,445.8,107.9,8,Saccade: 4562 ms,UP,13,0.69,53.09,55.12,"[ 2, 99]",4562,4574,450.3,121.2,439.2,98.3,-60.44,DOWN,2.71,A13,S13.wav,A13.png,1,15793720,preview,,,,,,,,,,,,,,,,,
p12,Trial: 3,p12.edf,.,4,Fixation: 4575 ms,389,4575,4963,"[ 2, 99]",5,977,1053,440.0,95.3,4,4,35.75,37.15,8,Saccade: 4562 ms,UP,13,0.69,53.09,55.12,"[ 2, 99]",4562,4574,450.3,121.2,439.2,98.3,9,Saccade: 4964 ms,DOWN,41,5.19,126.49,195.79,"[ 4, 9, 99]",4964,5004,441.5,107.5,338.0,266.9,-64.15,.,0.4,A13,S13.wav,A13.png,1,15793720,preview,,,,,,,,,,,,,,,,,
p12,Trial: 3,p12.edf,.,5,Fixation: 5005 ms,373,5005,5377,"[ 4, 9, 99]",8,1088,592,345.4,278.3,1,2,35.95,36.9,9,Saccade: 4964 ms,DOWN,41,5.19,126.49,195.79,"[ 2, 99]",4964,5004,441.5,107.5,338,266.9,10,Saccade: 5378 ms,RIGHT,25,2.31,92.59,140.43,"[ 9, 99]",5378,5402,348.5,288.0,429.8,272.1,61.9,UP,5.6,A13,S13.wav,A13.png,1,15793720,preview,,,,,,,,,,,,,,,,,
p12,Trial: 3,p12.edf,.,6,Fixation: 5403 ms,219,5403,5621,"[ 4, 9, 99]",8,1134,592,424.4,269.0,2,2,35.6,36.7,10,Saccade: 5378 ms,RIGHT,25,2.31,92.59,140.43,"[ 4, 9, 99]",5378,5402,348.5,288,429.8,272.1,11,Saccade: 5622 ms,RIGHT,24,2.39,99.66,150.75,"[ 2, 99]",5622,5645,424.6,272.1,509.3,268.1,-173.47,LEFT,2.22,A13,S13.wav,A13.png,1,15793720,preview,,,,,,,,,,,,,,,,,
p12,Trial: 3,p12.edf,.,7,Fixation: 5646 ms,318,5646,5963,"[ 2, 99]",5,1031,318,512.0,265.4,1,1,35.3,36.6,11,Saccade: 5622 ms,RIGHT,24,2.39,99.66,150.75,"[ 4, 9, 99]",5622,5645,424.6,272.1,509.3,268.1,12,Saccade: 5964 ms,RIGHT,57,12.65,221.96,335.71,"[ 3, 99]",5964,6020,512.9,267.2,964.5,275.1,-177.72,LEFT,2.47,A13,S13.wav,A13.png,1,15793720,preview,,,,,,,,,,,,,,,,,
p12,Trial: 3,p12.edf,.,8,Fixation: 6021 ms,167,6021,6187,"[ 3, 99]",6,1002,826,958.9,271.9,1,3,36.1,37.0,12,Saccade: 5964 ms,RIGHT,57,12.65,221.96,335.71,"[ 2, 99]",5964,6020,512.9,267.2,964.5,275.1,13,Saccade: 6188 ms,UP,16,0.89,55.34,63.18,"[ 3, 99]",6188,6203,962.3,273.5,943.8,246.8,179.19,LEFT,12.52,A13,S13.wav,A13.png,1,15793720,preview,,,,,,,,,,,,,,,,,
p12,Trial: 3,p12.edf,.,9,Fixation: 6204 ms,326,6204,6529,"[ 3, 99]",6,995,826,945.2,242.1,2,3,36.0,37.0,13,Saccade: 6188 ms,UP,16,0.89,55.34,63.18,"[ 3, 99]",6188,6203,962.3,273.5,943.8,246.8,14,Saccade: 6530 ms,DOWN,45,6.07,134.93,266.8,"[ 3, 99]",6530,6574,944.7,241.9,854.4,445.7,-64.74,DOWN,0.89,A13,S13.wav,A13.png,1,15793720,preview,,,,,,,,,,,,,,,,,
p12,Trial: 3,p12.edf,.,10,Fixation: 6575 ms,333,6575,6907,"[ 3, 99]",6,1010,826,860.8,441.8,3,3,35.6,36.8,14,Saccade: 6530 ms,DOWN,45,6.07,134.93,266.8,"[ 3, 99]",6530,6574,944.7,241.9,854.4,445.7,15,Saccade: 6908 ms,RIGHT,32,3.43,107.31,193.48,"[ 22, 99]",6908,6939,858.6,443.7,978.4,413.8,66.46,UP,5.9,A13,S13.wav,A13.png,1,15793720,preview,,,,,,,,,,,,,,,,,
p12,Trial: 3,p12.edf,.,11,Fixation: 6940 ms,124,6940,7063,[ 99],53,1037,20295,969.0,416.2,11,52,36.15,37.0,15,Saccade: 6908 ms,RIGHT,32,3.43,107.31,193.48,"[ 3, 99]",6908,6939,858.6,443.7,978.4,413.8,16,Saccade: 7064 ms,UP,21,1.53,73.01,107.45,"[ 3, 99]",7064,7084,968.9,419.3,932.4,376.8,-167.05,LEFT,3.09,A13,S13.wav,A13.png,1,15793720,preview,,,,,,,,,,,,,,,,,
p12,Trial: 3,p12.edf,.,12,Fixation: 7085 ms,354,7085,7438,"[ 3, 99]",6,1055,493,931.9,375.3,1,2,35.9,36.9,16,Saccade: 7064 ms,UP,21,1.53,73.01,107.45,[ 99],7064,7084,968.9,419.3,932.4,376.8,17,Saccade: 7439 ms,.,5,0.22,43.25,29.68,"[ 3, 99]",7439,7443,931.3,374.1,939.0,373.0,-47.07,DOWN,1.51,A13,S13.wav,A13.png,1,15793720,preview,,,,,,,,,,,,,,,,,
p12,Trial: 3,p12.edf,.,13,Fixation: 7444 ms,139,7444,7582,"[ 3, 99]",6,1064,493,941.1,377.4,2,2,36.0,36.9,17,Saccade: 7439 ms,.,5,0.22,43.25,29.68,"[ 3, 99]",7439,7443,931.3,374.1,939,373,18,Saccade: 7583 ms,RIGHT,26,2.49,95.9,163.46,"[ 7, 99]",7583,7608,941.0,376.3,1007.3,438.9,167.46,.,0.26,A13,S13.wav,A13.png,1,15793720,preview,,,,,,,,,,,,,,,,,
p12,Trial: 3,p12.edf,.,14,Fixation: 7609 ms,608,7609,8216,"[ 5, 7, 99]",5,1038,608,1005.8,440.1,1,1,36.4,37.1,18,Saccade: 7583 ms,RIGHT,26,2.49,95.9,163.46,"[ 3, 99]",7583,7608,941,376.3,1007.3,438.9,19,Saccade: 8217 ms,RIGHT,36,4.55,126.48,216.51,"[ 6, 14, 99]",8217,8252,1006.3,445.6,1168.7,491.8,136.53,LEFT,2.46,A13,S13.wav,A13.png,1,15793720,preview,,,,,,,,,,,,,,,,,
p12,Trial: 3,p12.edf,.,15,Fixation: 8253 ms,280,8253,8532,"[ 6, 14, 99]",1,969,280,1165.5,489.8,1,1,37.7,37.9,19,Saccade: 8217 ms,RIGHT,36,4.55,126.48,216.51,"[ 5, 7, 99]",8217,8252,1006.3,445.6,1168.7,491.8,20,Saccade: 8533 ms,UP,24,1.83,76.43,102.98,"[ 21, 99]",8533,8556,1167.1,493.0,1125.1,438.2,162.91,LEFT,4.51,A13,S13.wav,A13.png,1,15793720,preview,,,,,,,,,,,,,,,,,
p12,Trial: 3,p12.edf,.,16,Fixation: 8557 ms,166,8557,8722,"[ 21, 99]",2,984,349,1120.0,432.8,1,2,37.2,37.55,20,Saccade: 8533 ms,UP,24,1.83,76.43,102.98,"[ 6, 14, 99]",8533,8556,1167.1,493,1125.1,438.2,21,Saccade: 8723 ms,UP,14,0.86,61.38,63.78,"[ 21, 99]",8723,8736,1119.9,436.3,1105.7,407.4,-51.2,DOWN,1.94,A13,S13.wav,A13.png,1,15793720,preview,,,,,,,,,,,,,,,,,
p12,Trial: 3,p12.edf,.,17,Fixation: 8737 ms,183,8737,8919,"[ 21, 99]",2,964,349,1110.1,411.9,2,2,37.2,37.55,21,Saccade: 8723 ms,UP,14,0.86,61.38,63.78,"[ 21, 99]",8723,8736,1119.9,436.3,1105.7,407.4,22,Saccade: 8920 ms,LEFT,91,15.75,173.11,1867.53,"[ 15, 99]",8920,9010,1127.7,422.9,627.0,714.1,-64.45,DOWN,0.62,A13,S13.wav,A13.png,1,15793720,preview,,,,,,,,,,,,,,,,,
p12,Trial: 3,p12.edf,.,18,Fixation: 9011 ms,210,9011,9220,"[ 15, 99]",2,1083,210,625.8,692.1,1,1,35.7,37.55,22,Saccade: 8920 ms,LEFT,91,15.75,173.11,1867.53,"[ 21, 99]",8920,9010,1127.7,422.9,627,714.1,23,Saccade: 9221 ms,LEFT,157,0.52,3.28,1094.5,"[ 15, 99]",9221,9377,628.6,701.5,615.3,688.2,29.32,RIGHT,15.24,A13,S13.wav,A13.png,1,15793720,preview,,,,,,,,,,,,,,,,,
p12,Trial: 3,p12.edf,.,19,Fixation: 9551 ms,202,9551,9752,"[ 20, 99]",4,1215,335,302.3,480.4,1,2,36.25,37.1,24,Saccade: 9502 ms,LEFT,49,10.54,215.07,382.93,"[ 7, 99]",9502,9550,625.8,674.3,295.5,482.3,25,Saccade: 9753 ms,RIGHT,25,2.28,91.01,145.13,"[ 19, 20, 99]",9753,9777,299.7,481.3,359.7,423.9,-32.24,RIGHT,10.63,A13,S13.wav,A13.png,1,15793720,preview,,,,,,,,,,,,,,,,,
p12,Trial: 3,p12.edf,.,20,Fixation: 9778 ms,133,9778,9910,"[ 20, 99]",4,1225,335,364.8,422.8,2,2,35.85,36.9,25,Saccade: 9753 ms,RIGHT,25,2.28,91.01,145.13,"[ 20, 99]",9753,9777,299.7,481.3,359.7,423.9,26,Saccade: 9911 ms,UP,36,4.5,124.94,220.88,"[ 4, 9, 99]",9911,9946,365.2,426.2,347.8,261.2,-138.08,LEFT,2.33,A13,S13.wav,A13.png,1,15793720,preview,,,,,,,,,,,,,,,,,
p12,Trial: 3,p12.edf,.,21,Fixation: 9947 ms,339,9947,10285,"[ 4, 9, 99]",8,1192,339,355.2,274.2,1,1,35.9,36.9,26,Saccade: 9911 ms,UP,36,4.5,124.94,220.88,"[ 20, 99]",9911,9946,365.2,426.2,347.8,261.2,27,Saccade: 10286 ms,LEFT,28,3.53,125.95,227.92,"[ 9, 16, 99]",10286,10313,356.7,281.3,262.5,193.0,-86.2,DOWN,4.04,A13,S13.wav,A13.png,1,15793720,preview,,,,,,,,,,,,,,,,,
p12,Trial: 3,p12.edf,.,22,Fixation: 10314 ms,317,10314,10630,"[ 9, 16, 99]",14,1143,1467,258.7,195.7,2,5,36.5,37.3,27,Saccade: 10286 ms,LEFT,28,3.53,125.95,227.92,"[ 4, 9, 99]",10286,10313,356.7,281.3,262.5,193,28,Saccade: 10631 ms,LEFT,18,0.74,40.98,69.34,"[ 9, 16, 99]",10631,10648,254.4,194.2,227.4,194.1,-38.44,RIGHT,3.4,A13,S13.wav,A13.png,1,15793720,preview,,,,,,,,,,,,,,,,,
p12,Trial: 3,p12.edf,.,23,Fixation: 10649 ms,377,10649,11025,"[ 9, 16, 99]",14,1101,1467,228.1,193.0,3,5,36.7,37.4,28,Saccade: 10631 ms,LEFT,18,0.74,40.98,69.34,"[ 9, 16, 99]",10631,10648,254.4,194.2,227.4,194.1,29,Saccade: 11026 ms,.,9,0.44,49.24,41.28,"[ 9, 16, 99]",11026,11034,228.7,192.2,212.7,189.1,-4.94,RIGHT,0.84,A13,S13.wav,A13.png,1,15793720,preview,,,,,,,,,,,,,,,,,
p12,Trial: 3,p12.edf,.,24,Fixation: 11035 ms,211,11035,11245,"[ 9, 16, 99]",14,1130,1467,215.5,190.2,4,5,36.85,37.5,29,Saccade: 11026 ms,.,9,0.44,49.24,41.28,"[ 9, 16, 99]",11026,11034,228.7,192.2,212.7,189.1,30,Saccade: 11246 ms,UP,16,0.97,60.4,73.26,"[ 9, 16, 99]",11246,11261,217.9,195.3,212.7,159.4,-12.31,.,0.35,A13,S13.wav,A13.png,1,15793720,preview,,,,,,,,,,,,,,,,,
p12,Trial: 3,p12.edf,.,25,Fixation: 11262 ms,223,11262,11484,"[ 9, 16, 99]",14,1123,1467,220.2,165.4,5,5,36.85,37.55,30,Saccade: 11246 ms,UP,16,0.97,60.4,73.26,"[ 9, 16, 99]",11246,11261,217.9,195.3,212.7,159.4,31,Saccade: 11485 ms,DOWN,44,7.87,178.97,372.7,"[ 8, 99]",11485,11528,219.9,159.2,168.8,450.3,-100.92,DOWN,0.67,A13,S13.wav,A13.png,1,15793720,preview,,,,,,,,,,,,,,,,,
p12,Trial: 3,p12.edf,.,26,Fixation: 11529 ms,181,11529,11709,"[ 8, 99]",5,1166,1912,166.9,444.6,1,4,37.1,37.5,31,Saccade: 11485 ms,DOWN,44,7.87,178.97,372.7,"[ 9, 16, 99]",11485,11528,219.9,159.2,168.8,450.3,32,Saccade: 11710 ms,DOWN,13,0.72,55.12,55.85,"[ 8, 99]",11710,11722,169.9,443.1,170.4,470.0,79.04,UP,7.58,A13,S13.wav,A13.png,1,15793720,preview,,,,,,,,,,,,,,,,,
p12,Trial: 3,p12.edf,.,27,Fixation: 11723 ms,623,11723,12345,"[ 8, 99]",5,1186,1912,163.5,466.7,2,4,37.15,37.6,32,Saccade: 11710 ms,DOWN,13,0.72,55.12,55.85,"[ 8, 99]",11710,11722,169.9,443.1,170.4,470,33,Saccade: 12346 ms,LEFT,22,1.72,78.37,120.73,"[ 8, 99]",12346,12367,166.4,472.2,113.7,434.8,81.16,UP,0.6,A13,S13.wav,A13.png,1,15793720,preview,,,,,,,,,,,,,,,,,
p12,Trial: 3,p12.edf,.,28,Fixation: 12368 ms,384,12368,12751,"[ 8, 99]",5,1141,1912,115.6,433.2,3,4,37.6,37.7,33,Saccade: 12346 ms,LEFT,22,1.72,78.37,120.73,"[ 8, 99]",12346,12367,166.4,472.2,113.7,434.8,34,Saccade: 12752 ms,RIGHT,10,0.58,58.25,50.86,"[ 8, 99]",12752,12761,115.6,431.0,137.4,432.4,-34.77,RIGHT,1.56,A13,S13.wav,A13.png,1,15793720,preview,,,,,,,,,,,,,,,,,
p12,Trial: 3,p12.edf,13143,29,Fixation: 12762 ms,724,12762,13485,"[ 8, 99]",5,1262,1912,135.4,435.7,4,4,37.4,37.65,34,Saccade: 12752 ms,RIGHT,10,0.58,58.25,50.86,"[ 8, 99]",12752,12761,115.6,431,137.4,432.4,35,Saccade: 13486 ms,RIGHT,51,7.59,148.84,290.76,"[ 4, 9, 99]",13486,13536,136.7,440.2,354.4,263.9,172.84,LEFT,0.53,A13,S13.wav,A13.png,1,15793720,preview,,,,,,,,,,,,,,,,,
p12,Trial: 3,p12.edf,.,30,Fixation: 13537 ms,200,13537,13736,"[ 4, 9, 99]",8,1283,1641,349.4,242.3,1,3,35.9,36.9,35,Saccade: 13486 ms,RIGHT,51,7.59,148.84,290.76,"[ 8, 99]",13486,13536,136.7,440.2,354.4,263.9,36,Saccade: 13737 ms,RIGHT,114,3.85,33.79,907.61,"[ 2, 99]",13737,13850,347.5,254.1,456.2,166.8,-138.38,LEFT,7.81,A13,S13.wav,A13.png,1,15793720,task,[1],[Adverb],[120],[280],[160],[0],[Da],[It],[0.0],[0.0],[nan],[nan],[da],[nan],[nan],[nan],[nan]
p12,Trial: 3,p12.edf,.,31,Fixation: 14290 ms,419,14290,14708,"[ 4, 9, 99]",8,1202,1641,345.1,253.4,2,3,36.0,36.9,37,Saccade: 14261 ms,LEFT,29,3.62,124.92,224.01,"[ 2, 99]",14261,14289,475.2,216.3,348.1,241.9,38,Saccade: 14709 ms,DOWN,15,0.94,62.59,70.29,"[ 4, 9, 99]",14709,14723,342.7,262.4,331.0,294.9,68.32,.,0.32,A13,S13.wav,A13.png,1,15793720,task,[4],[Noun_1],[660],[1245],[585],[0],[Kasten],[box],[0.0],[1.0],[box_1],[S01_I013_E004],[Kaste],[nan],[nan],[nan],[nan]
p12,Trial: 3,p12.edf,15240,32,Fixation: 14724 ms,1022,14724,15745,"[ 4, 9, 99]",8,1209,1641,335.9,299.3,3,3,36.0,36.9,38,Saccade: 14709 ms,DOWN,15,0.94,62.59,70.29,"[ 4, 9, 99]",14709,14723,342.7,262.4,331,294.9,39,Saccade: 15746 ms,RIGHT,48,7.69,160.14,258.18,[ 99],15746,15793,335.5,306.6,598.5,384.5,78.39,UP,1.27,A13,S13.wav,A13.png,1,15793720,task,"[5, 6, 7]","[Preposition_1, Determiner_2, Noun_2]","[1610, 1770, 2040]","[1755, 1990, 2630]","[145, 220, 590]","[0, 0, 0]","[auf, einem, Tresen]","[on, a, counter]","[0.0, 0.0, 0.0]","[0.0, 0.0, 0.0]","[nan, nan, counter_1]","[nan, nan, S01_I013_E006]","[auf, eine, Tresen]","[nan, nan, nan]","[nan, nan, nan]","[nan, nan, nan]","[nan, nan, nan]"
p12,Trial: 3,p12.edf,.,33,Fixation: 15794 ms,156,15794,15949,[ 99],53,1238,20295,589.9,380.8,33,52,35.2,36.5,39,Saccade: 15746 ms,RIGHT,48,7.69,160.14,258.18,"[ 4, 9, 99]",15746,15793,335.5,306.6,598.5,384.5,40,Saccade: 15950 ms,LEFT,37,6.12,165.5,299.03,"[ 4, 9, 99]",15950,15986,592.6,382.3,382.0,327.9,162.71,LEFT,7.47,A13,S13.wav,A13.png,1,15793720,task,[7],[Noun_2],[2040],[2630],[590],[0],[Tresen],[counter],[0.0],[0.0],[counter_1],[S01_I013_E006],[Tresen],[nan],[nan],[nan],[nan]
p12,Trial: 3,p12.edf,.,34,Fixation: 15987 ms,358,15987,16344,"[ 9, 99]",14,1265,1036,391.2,329.5,1,3,35.7,36.8,40,Saccade: 15950 ms,LEFT,37,6.12,165.5,299.03,[ 99],15950,15986,592.6,382.3,382,327.9,41,Saccade: 16345 ms,LEFT,146,1.54,10.56,924.33,"[ 4, 9, 99]",16345,16490,390.3,333.0,345.1,300.4,-14.02,RIGHT,5.78,A13,S13.wav,A13.png,1,15793720,task,,break,,,,,,,,,,,,,,,
p12,Trial: 3,p12.edf,17207,35,Fixation: 16848 ms,498,16848,17345,"[ 4, 9, 99]",8,1223,498,312.5,261.1,1,1,36.15,37.0,42,Saccade: 16826 ms,LEFT,22,0.9,40.84,84.38,"[ 4, 9, 99]",16826,16847,336.4,262.9,306.6,249.8,43,Saccade: 17346 ms,UP,26,1.86,71.67,106.62,"[ 9, 16, 99]",17346,17371,318.6,274.3,273.1,223.2,-40.24,RIGHT,2.87,A13,S13.wav,A13.png,1,15793720,task,[10],[Relative Clause Adverb],[3310],[3940],[630],[0],[vorsichtig],[cautiously],[0.0],[0.0],[nan],[nan],[ig],[nan],[nan],[nan],[nan]
p12,Trial: 3,p12.edf,.,36,Fixation: 17372 ms,180,17372,17551,"[ 9, 16, 99]",14,1269,1036,282.7,231.7,3,3,36.35,37.15,43,Saccade: 17346 ms,UP,26,1.86,71.67,106.62,"[ 4, 9, 99]",17346,17371,318.6,274.3,273.1,223.2,44,Saccade: 17552 ms,RIGHT,79,18.14,229.67,520.52,"[ 5, 7, 99]",17552,17630,286.5,236.6,900.0,469.4,-43.97,RIGHT,1.14,A13,S13.wav,A13.png,1,15793720,task,[11],[Relative Clause Verb],[4007],[4532],[525],[0],[bemalt],[paints],[1.0],[0.0],[nan],[nan],[bemalen],[nan],[nan],[nan],[nan]
p12,Trial: 3,p12.edf,.,37,Fixation: 17631 ms,169,17631,17799,[ 99],53,1320,20295,894.8,464.3,37,52,35.8,36.9,44,Saccade: 17552 ms,RIGHT,79,18.14,229.67,520.52,"[ 9, 16, 99]",17552,17630,286.5,236.6,900,469.4,45,Saccade: 17800 ms,RIGHT,28,2.63,93.97,182.86,"[ 5, 7, 99]",17800,17827,896.5,465.0,989.7,446.9,159.68,LEFT,18.09,A13,S13.wav,A13.png,1,15793720,task,[11],[Relative Clause Verb],[4007],[4532],[525],[0],[bemalt],[paints],[1.0],[0.0],[nan],[nan],[bemalen],[nan],[nan],[nan],[nan]
p12,Trial: 3,p12.edf,.,38,Fixation: 17828 ms,337,17828,18164,"[ 5, 7, 99]",5,1376,1709,975.2,445.4,1,4,36.25,37.1,45,Saccade: 17800 ms,RIGHT,28,2.63,93.97,182.86,"[ 7, 99]",17800,17827,896.5,465,989.7,446.9,46,Saccade: 18165 ms,RIGHT,17,1.02,60.14,78.49,"[ 5, 7, 99]",18165,18181,976.0,448.1,1013.1,447.2,-167.11,LEFT,2.29,A13,S13.wav,A13.png,1,15793720,task,,break,,,,,,,,,,,,,,,
p12,Trial: 3,p12.edf,18400,39,Fixation: 18182 ms,427,18182,18608,"[ 5, 7, 99]",5,1133,1709,1007.2,448.1,2,4,36.45,37.2,46,Saccade: 18165 ms,RIGHT,17,1.02,60.14,78.49,"[ 5, 7, 99]",18165,18181,976,448.1,1013.1,447.2,47,Saccade: 18609 ms,DOWN,128,0.66,5.15,1054.26,"[ 5, 7, 99]",18609,18736,1018.9,454.5,1008.7,476.7,175.28,LEFT,0.88,A13,S13.wav,A13.png,1,15793720,post,,,,,,,,,,,,,,,,,
