RECORDING_SESSION_LABEL,TRIAL_LABEL,DATA_FILE,CURRENT_FIX_MSG_TIME_1,CURRENT_FIX_INDEX,CURRENT_FIX_LABEL,CURRENT_FIX_DURATION,CURRENT_FIX_START,CURRENT_FIX_END,CURRENT_FIX_INTEREST_AREAS,CURRENT_FIX_INTEREST_AREA_FIX_COUNT,CURRENT_FIX_PUPIL,CURRENT_FIX_RUN_DWELL_TIME,CURRENT_FIX_X,CURRENT_FIX_Y,CURRENT_FIX_RUN_INDEX,CURRENT_FIX_RUN_SIZE,CURRENT_FIX_X_RESOLUTION,CURRENT_FIX_Y_RESOLUTION,PREVIOUS_SAC_INDEX,PREVIOUS_SAC_LABEL,PREVIOUS_SAC_DIRECTION,PREVIOUS_SAC_DURATION,PREVIOUS_SAC_AMPLITUDE,PREVIOUS_SAC_AVG_VELOCITY,PREVIOUS_SAC_PEAK_VELOCITY,PREVIOUS_SAC_START_INTEREST_AREAS,PREVIOUS_SAC_START_TIME,PREVIOUS_SAC_END_TIME,PREVIOUS_SAC_START_X,PREVIOUS_SAC_START_Y,PREVIOUS_SAC_END_X,PREVIOUS_SAC_END_Y,NEXT_SAC_INDEX,NEXT_SAC_LABEL,NEXT_SAC_DIRECTION,NEXT_SAC_DURATION,NEXT_SAC_AMPLITUDE,NEXT_SAC_AVG_VELOCITY,NEXT_SAC_PEAK_VELOCITY,NEXT_SAC_END_INTEREST_AREAS,NEXT_SAC_START_TIME,NEXT_SAC_END_TIME,NEXT_SAC_START_X,NEXT_SAC_START_Y,NEXT_SAC_END_X,NEXT_SAC_END_Y,PREVIOUS_FIX_ANGLE,PREVIOUS_FIX_DIRECTION,PREVIOUS_FIX_DISTANCE,ItemNO,audiofilename,imagefilename,TRIAL_INDEX,TRIAL_START_TIME,viewtype,word_index,Label,word_onset,word_offset,word_duration,Continuation,wordDE,wordEN,REFWord,TargetObj,ObjectLabel,ObjectID,LemmaDE,LingIndex,DepS,pos_1,pos_2
p14,Trial: 41,p14.edf,.,1,Fixation: 3362 ms,187,3362,3548,[ 99],67,838,18140,432.4,766.2,2,67,36.2,38.05,8,Saccade: 3278 ms,UP,84,8.97,106.73,319.7,[ ],3278,3361,488.9,1116.6,426.1,766.7,9,Saccade: 3549 ms,UP,173,11.01,63.65,851.06,"[ 5, 99]",3549,3721,437.8,746.8,368,341.4,47.78,UP,7.76,A16,S16.wav,A16.png,21,26091782,preview,,,,,,,,,,,,,,,,,
p14,Trial: 41,p14.edf,.,2,Fixation: 3931 ms,302,3931,4232,"[ 10, 99]",20,1002,669,503.6,127.9,1,3,35.5,37.0,11,Saccade: 3895 ms,RIGHT,36,6.29,174.85,330.97,"[ 5, 99]",3895,3930,335.6,273.7,507,123,12,Saccade: 4233 ms,RIGHT,35,4.65,132.77,242.09,"[ 10, 99]",4233,4267,504,129.1,630.5,238.2,-96.66,DOWN,17.13,A16,S16.wav,A16.png,21,26091782,preview,,,,,,,,,,,,,,,,,
p14,Trial: 41,p14.edf,.,3,Fixation: 4268 ms,173,4268,4440,"[ 10, 99]",20,951,669,627.5,241.6,2,3,35.2,36.6,12,Saccade: 4233 ms,RIGHT,35,4.65,132.77,242.09,"[ 10, 99]",4233,4267,504,129.1,630.5,238.2,13,Saccade: 4441 ms,RIGHT,22,1.72,78.01,112.37,"[ 6, 99]",4441,4462,629.5,241.7,679.5,276.9,138.6,LEFT,4.67,A16,S16.wav,A16.png,21,26091782,preview,,,,,,,,,,,,,,,,,
p14,Trial: 41,p14.edf,.,4,Fixation: 4463 ms,194,4463,4656,"[ 10, 99]",20,936,669,671.3,273.4,3,3,35.2,36.5,13,Saccade: 4441 ms,RIGHT,22,1.72,78.01,112.37,"[ 10, 99]",4441,4462,629.5,241.7,679.5,276.9,14,Saccade: 4657 ms,RIGHT,12,0.51,42.9,48.06,"[ 6, 15, 99]",4657,4668,673.7,274,687.8,285.8,145.04,LEFT,1.52,A16,S16.wav,A16.png,21,26091782,preview,,,,,,,,,,,,,,,,,
p14,Trial: 41,p14.edf,.,5,Fixation: 4669 ms,259,4669,4927,"[ 6, 15, 99]",3,952,259,688.3,290.5,1,1,35.2,36.5,14,Saccade: 4657 ms,RIGHT,12,0.51,42.9,48.06,"[ 10, 99]",4657,4668,673.7,274,687.8,285.8,15,Saccade: 4928 ms,LEFT,56,17.24,307.78,521.21,"[ 9, 99]",4928,4983,691.2,294.4,69.4,181.1,135.87,LEFT,0.67,A16,S16.wav,A16.png,21,26091782,preview,,,,,,,,,,,,,,,,,
p14,Trial: 41,p14.edf,.,6,Fixation: 4984 ms,180,4984,5163,"[ 9, 99]",8,1101,180,79.0,182.2,1,1,38.05,38.1,15,Saccade: 4928 ms,LEFT,56,17.24,307.78,521.21,"[ 6, 15, 99]",4928,4983,691.2,294.4,69.4,181.1,16,Saccade: 5164 ms,RIGHT,52,13.92,267.67,466.35,"[ 10, 99]",5164,5215,79.8,185,586.5,238.7,-9.9,RIGHT,16.89,A16,S16.wav,A16.png,21,26091782,preview,,,,,,,,,,,,,,,,,
p14,Trial: 41,p14.edf,.,7,Fixation: 5216 ms,232,5216,5447,"[ 10, 99]",20,1001,232,590.8,237.0,1,1,35.2,36.6,16,Saccade: 5164 ms,RIGHT,52,13.92,267.67,466.35,"[ 9, 99]",5164,5215,79.8,185,586.5,238.7,17,Saccade: 5448 ms,LEFT,55,15.03,273.34,475.52,"[ 9, 99]",5448,5502,591.6,240.6,42.3,173.5,174.01,LEFT,14.05,A16,S16.wav,A16.png,21,26091782,preview,,,,,,,,,,,,,,,,,
p14,Trial: 41,p14.edf,.,8,Fixation: 5503 ms,242,5503,5744,"[ 9, 99]",8,1092,477,52.2,175.0,1,2,38.35,38.25,17,Saccade: 5448 ms,LEFT,55,15.03,273.34,475.52,"[ 10, 99]",5448,5502,591.6,240.6,42.3,173.5,18,Saccade: 5745 ms,.,12,0.49,40.74,42.13,"[ 9, 99]",5745,5756,50.2,174,40.5,158,-6.45,RIGHT,14.74,A16,S16.wav,A16.png,21,26091782,preview,,,,,,,,,,,,,,,,,
p14,Trial: 41,p14.edf,.,9,Fixation: 5757 ms,235,5757,5991,"[ 9, 99]",8,1138,477,42.2,152.7,2,2,38.4,38.35,18,Saccade: 5745 ms,.,12,0.49,40.74,42.13,"[ 9, 99]",5745,5756,50.2,174,40.5,158,19,Saccade: 5992 ms,RIGHT,54,6.96,128.81,336.99,"[ 5, 99]",5992,6045,41.8,150.3,254,302.6,-65.89,DOWN,0.64,A16,S16.wav,A16.png,21,26091782,preview,,,,,,,,,,,,,,,,,
p14,Trial: 41,p14.edf,.,10,Fixation: 6046 ms,189,6046,6234,"[ 5, 99]",3,1190,189,267.1,309.3,1,1,36.45,37.1,19,Saccade: 5992 ms,RIGHT,54,6.96,128.81,336.99,"[ 9, 99]",5992,6045,41.8,150.3,254,302.6,20,Saccade: 6235 ms,DOWN,56,9.5,169.6,484.42,"[ 13, 99]",6235,6290,270.2,311.8,136,642.8,145.36,LEFT,7.3,A16,S16.wav,A16.png,21,26091782,preview,,,,,,,,,,,,,,,,,
p14,Trial: 41,p14.edf,.,11,Fixation: 6291 ms,155,6291,6445,"[ 13, 99]",2,1168,155,137.8,656.0,1,1,37.7,38.3,20,Saccade: 6235 ms,DOWN,56,9.5,169.6,484.42,"[ 5, 99]",6235,6290,270.2,311.8,136,642.8,21,Saccade: 6446 ms,RIGHT,74,23.03,311.26,634.44,"[ 18, 99]",6446,6519,139.9,661.1,971.3,475.2,69.23,UP,9.84,A16,S16.wav,A16.png,21,26091782,preview,,,,,,,,,,,,,,,,,
p14,Trial: 41,p14.edf,.,12,Fixation: 6520 ms,145,6520,6664,"[ 18, 99]",14,889,318,987.3,470.0,1,2,36.25,37.1,21,Saccade: 6446 ms,RIGHT,74,23.03,311.26,634.44,"[ 13, 99]",6446,6519,139.9,661.1,971.3,475.2,22,Saccade: 6665 ms,UP,24,2.3,95.83,151.03,"[ 17, 18, 99]",6665,6688,992.5,471.3,960.6,392.7,-167.88,LEFT,23.5,A16,S16.wav,A16.png,21,26091782,preview,,,,,,,,,,,,,,,,,
p14,Trial: 41,p14.edf,.,13,Fixation: 6689 ms,173,6689,6861,"[ 17, 18, 99]",7,861,173,964.0,396.3,1,1,36.1,36.95,22,Saccade: 6665 ms,UP,24,2.3,95.83,151.03,"[ 18, 99]",6665,6688,992.5,471.3,960.6,392.7,23,Saccade: 6862 ms,RIGHT,37,5.13,138.75,286.57,"[ 21, 22, 99]",6862,6898,961.8,397.1,1136.7,469,-72.07,DOWN,2.09,A16,S16.wav,A16.png,21,26091782,preview,,,,,,,,,,,,,,,,,
p14,Trial: 41,p14.edf,.,14,Fixation: 6899 ms,319,6899,7217,"[ 21, 22, 99]",1,782,319,1124.7,472.3,1,1,37.35,37.65,23,Saccade: 6862 ms,RIGHT,37,5.13,138.75,286.57,"[ 17, 18, 99]",6862,6898,961.8,397.1,1136.7,469,24,Saccade: 7218 ms,RIGHT,26,1.76,67.71,101.4,"[ 22, 99]",7218,7243,1122.5,481,1171.3,436.3,155.03,LEFT,4.83,A16,S16.wav,A16.png,21,26091782,preview,,,,,,,,,,,,,,,,,
p14,Trial: 41,p14.edf,.,15,Fixation: 7244 ms,172,7244,7415,"[ 22, 99]",2,794,491,1170.5,417.5,2,2,37.65,37.8,24,Saccade: 7218 ms,RIGHT,26,1.76,67.71,101.4,"[ 21, 22, 99]",7218,7243,1122.5,481,1171.3,436.3,25,Saccade: 7416 ms,DOWN,50,8.95,178.93,388.26,"[ 19, 99]",7416,7465,1171.1,416.7,993.5,703.3,-130.06,DOWN,1.9,A16,S16.wav,A16.png,21,26091782,preview,,,,,,,,,,,,,,,,,
p14,Trial: 41,p14.edf,.,16,Fixation: 7466 ms,369,7466,7834,"[ 19, 99]",1,741,369,997.2,711.4,1,1,36.75,38.1,25,Saccade: 7416 ms,DOWN,50,8.95,178.93,388.26,"[ 22, 99]",7416,7465,1171.1,416.7,993.5,703.3,26,Saccade: 7835 ms,UP,45,7.37,163.71,356.48,"[ 18, 20, 99]",7835,7879,1001.5,719.6,874.1,476.8,58.97,UP,9.04,A16,S16.wav,A16.png,21,26091782,preview,,,,,,,,,,,,,,,,,
p14,Trial: 41,p14.edf,.,17,Fixation: 7880 ms,379,7880,8258,"[ 18, 20, 99]",14,907,379,882.6,479.0,1,1,35.7,36.9,26,Saccade: 7835 ms,UP,45,7.37,163.71,356.48,"[ 19, 99]",7835,7879,1001.5,719.6,874.1,476.8,27,Saccade: 8259 ms,UP,40,6.79,169.86,315.48,"[ 16, 99]",8259,8298,880.4,472.7,1045.9,286.7,-62.96,DOWN,6.96,A16,S16.wav,A16.png,21,26091782,preview,,,,,,,,,,,,,,,,,
p14,Trial: 41,p14.edf,.,18,Fixation: 8299 ms,243,8299,8541,"[ 16, 99]",1,1012,243,1044.4,289.5,1,1,36.6,37.2,27,Saccade: 8259 ms,UP,40,6.79,169.86,315.48,"[ 18, 20, 99]",8259,8298,880.4,472.7,1045.9,286.7,28,Saccade: 8542 ms,RIGHT,24,2.09,87.14,145.94,[ 99],8542,8565,1044.8,288.8,1118.7,311.3,-131.19,DOWN,6.8,A16,S16.wav,A16.png,21,26091782,preview,,,,,,,,,,,,,,,,,
p14,Trial: 41,p14.edf,.,19,Fixation: 8566 ms,184,8566,8749,[ 99],67,983,18140,1111.4,309.8,20,67,37.15,37.5,28,Saccade: 8542 ms,RIGHT,24,2.09,87.14,145.94,"[ 16, 99]",8542,8565,1044.8,288.8,1118.7,311.3,29,Saccade: 8750 ms,LEFT,49,11.76,239.9,438.85,"[ 10, 99]",8750,8798,1113.6,312,697.1,222.7,163.35,LEFT,1.9,A16,S16.wav,A16.png,21,26091782,preview,,,,,,,,,,,,,,,,,
p14,Trial: 41,p14.edf,.,20,Fixation: 8799 ms,215,8799,9013,"[ 10, 99]",20,1049,356,706.0,221.0,1,2,35.3,36.6,29,Saccade: 8750 ms,LEFT,49,11.76,239.9,438.85,[ 99],8750,8798,1113.6,312,697.1,222.7,30,Saccade: 9014 ms,LEFT,24,2.44,101.63,181.37,"[ 10, 99]",9014,9037,703.3,221.6,620.2,244.5,-12.09,RIGHT,11.44,A16,S16.wav,A16.png,21,26091782,preview,,,,,,,,,,,,,,,,,
p14,Trial: 41,p14.edf,.,21,Fixation: 9038 ms,141,9038,9178,"[ 10, 99]",20,1069,356,633.6,247.6,2,2,35.2,36.6,30,Saccade: 9014 ms,LEFT,24,2.44,101.63,181.37,"[ 10, 99]",9014,9037,703.3,221.6,620.2,244.5,31,Saccade: 9179 ms,RIGHT,23,2.38,103.48,160.38,"[ 10, 99]",9179,9201,635.9,250.4,713.1,216.3,19.49,RIGHT,2.18,A16,S16.wav,A16.png,21,26091782,preview,,,,,,,,,,,,,,,,,
p14,Trial: 41,p14.edf,.,22,Fixation: 9202 ms,201,9202,9402,[ 99],67,996,18140,721.3,208.3,23,67,35.3,36.65,31,Saccade: 9179 ms,RIGHT,23,2.38,103.48,160.38,"[ 10, 99]",9179,9201,635.9,250.4,713.1,216.3,32,Saccade: 9403 ms,LEFT,50,12.16,243.27,428.67,"[ 5, 99]",9403,9452,719.7,209.7,292.7,294.5,-156.67,LEFT,2.71,A16,S16.wav,A16.png,21,26091782,preview,,,,,,,,,,,,,,,,,
p14,Trial: 41,p14.edf,.,23,Fixation: 9453 ms,192,9453,9644,"[ 5, 99]",3,1107,192,295.3,285.8,1,1,36.2,37.0,32,Saccade: 9403 ms,LEFT,50,12.16,243.27,428.67,[ 99],9403,9452,719.7,209.7,292.7,294.5,33,Saccade: 9645 ms,LEFT,41,8.06,196.5,385.19,"[ 9, 99]",9645,9685,295.5,286.7,38.2,129.2,10.02,RIGHT,12.1,A16,S16.wav,A16.png,21,26091782,preview,,,,,,,,,,,,,,,,,
p14,Trial: 41,p14.edf,.,24,Fixation: 9686 ms,217,9686,9902,"[ 9, 99]",8,1168,345,42.7,126.1,1,2,38.45,38.45,33,Saccade: 9645 ms,LEFT,41,8.06,196.5,385.19,"[ 5, 99]",9645,9685,295.5,286.7,38.2,129.2,34,Saccade: 9903 ms,DOWN,19,1.35,71.25,94.43,"[ 9, 99]",9903,9921,43.7,128.5,27.2,177.8,-32.03,RIGHT,7.98,A16,S16.wav,A16.png,21,26091782,preview,,,,,,,,,,,,,,,,,
p14,Trial: 41,p14.edf,.,25,Fixation: 9922 ms,128,9922,10049,"[ 9, 99]",8,1129,345,32.0,180.5,2,2,38.5,38.3,34,Saccade: 9903 ms,DOWN,19,1.35,71.25,94.43,"[ 9, 99]",9903,9921,43.7,128.5,27.2,177.8,35,Saccade: 10050 ms,DOWN,65,13.49,207.55,475.89,"[ 13, 99]",10050,10114,32.7,182.8,185.6,675.2,78.9,UP,1.44,A16,S16.wav,A16.png,21,26091782,preview,,,,,,,,,,,,,,,,,
p14,Trial: 41,p14.edf,.,26,Fixation: 10115 ms,123,10115,10237,"[ 13, 99]",2,1152,123,191.3,687.0,1,1,37.35,38.25,35,Saccade: 10050 ms,DOWN,65,13.49,207.55,475.89,"[ 9, 99]",10050,10114,32.7,182.8,185.6,675.2,36,Saccade: 10238 ms,RIGHT,25,2.67,106.91,169.08,"[ 12, 99]",10238,10262,192.4,686,280.1,639.3,107.61,UP,13.88,A16,S16.wav,A16.png,21,26091782,preview,,,,,,,,,,,,,,,,,
p14,Trial: 41,p14.edf,.,27,Fixation: 10263 ms,207,10263,10469,"[ 12, 99]",1,1116,207,281.6,645.5,1,1,36.6,37.7,36,Saccade: 10238 ms,RIGHT,25,2.67,106.91,169.08,"[ 13, 99]",10238,10262,192.4,686,280.1,639.3,37,Saccade: 10470 ms,RIGHT,61,14.62,239.68,385.89,"[ 6, 99]",10470,10530,286.5,647.7,757,405.6,-155.89,LEFT,2.68,A16,S16.wav,A16.png,21,26091782,preview,,,,,,,,,,,,,,,,,
p14,Trial: 41,p14.edf,.,28,Fixation: 10531 ms,170,10531,10700,"[ 6, 99]",3,847,170,762.9,403.6,1,1,35.3,36.6,37,Saccade: 10470 ms,RIGHT,61,14.62,239.68,385.89,"[ 12, 99]",10470,10530,286.5,647.7,757,405.6,38,Saccade: 10701 ms,LEFT,48,12.24,254.98,435.19,"[ 5, 99]",10701,10748,764.8,404.2,329.4,375,-154.06,LEFT,14.89,A16,S16.wav,A16.png,21,26091782,preview,,,,,,,,,,,,,,,,,
p14,Trial: 41,p14.edf,.,29,Fixation: 10749 ms,175,10749,10923,"[ 5, 99]",3,927,175,340.0,377.5,1,1,36.0,36.9,38,Saccade: 10701 ms,LEFT,48,12.24,254.98,435.19,"[ 6, 99]",10701,10748,764.8,404.2,329.4,375,39,Saccade: 10924 ms,RIGHT,23,1.98,86.21,138.63,"[ 23, 24, 99]",10924,10946,339.8,381.5,405.9,408.1,-3.43,RIGHT,11.88,A16,S16.wav,A16.png,21,26091782,preview,,,,,,,,,,,,,,,,,
p14,Trial: 41,p14.edf,.,30,Fixation: 10947 ms,157,10947,11103,"[ 23, 24, 99]",1,943,157,408.3,408.6,1,1,35.65,36.7,39,Saccade: 10924 ms,RIGHT,23,1.98,86.21,138.63,"[ 5, 99]",10924,10946,339.8,381.5,405.9,408.1,40,Saccade: 11104 ms,UP,41,8.23,200.67,335.74,"[ 10, 11, 99]",11104,11144,413.4,412.3,554.9,147.8,156.09,LEFT,2.09,A16,S16.wav,A16.png,21,26091782,preview,,,,,,,,,,,,,,,,,
p14,Trial: 41,p14.edf,.,31,Fixation: 11145 ms,189,11145,11333,"[ 10, 11, 99]",20,871,269,569.9,149.6,1,2,35.4,36.8,40,Saccade: 11104 ms,UP,41,8.23,200.67,335.74,"[ 23, 24, 99]",11104,11144,413.4,412.3,554.9,147.8,41,Saccade: 11334 ms,LEFT,10,0.51,50.58,49.26,"[ 10, 11, 99]",11334,11343,570.8,150.5,553,148.5,-122.84,DOWN,8.39,A16,S16.wav,A16.png,21,26091782,preview,,,,,,,,,,,,,,,,,
p14,Trial: 41,p14.edf,.,32,Fixation: 11344 ms,80,11344,11423,"[ 10, 11, 99]",20,849,269,551.7,148.0,2,2,35.4,36.8,41,Saccade: 11334 ms,LEFT,10,0.51,50.58,49.26,"[ 10, 11, 99]",11334,11343,570.8,150.5,553,148.5,42,Saccade: 11424 ms,RIGHT,51,13.44,263.46,437.59,"[ 18, 99]",11424,11474,553.2,149.2,986.7,364.1,-4.83,RIGHT,0.52,A16,S16.wav,A16.png,21,26091782,preview,,,,,,,,,,,,,,,,,
p14,Trial: 41,p14.edf,.,33,Fixation: 11475 ms,271,11475,11745,"[ 18, 99]",14,761,743,986.1,364.6,1,3,36.2,37.0,42,Saccade: 11424 ms,RIGHT,51,13.44,263.46,437.59,"[ 10, 11, 99]",11424,11474,553.2,149.2,986.7,364.1,43,Saccade: 11746 ms,DOWN,16,0.86,53.72,59.43,"[ 18, 99]",11746,11761,985.6,369.5,997.8,398.8,154.18,LEFT,13.48,A16,S16.wav,A16.png,21,26091782,preview,,,,,,,,,,,,,,,,,
p14,Trial: 41,p14.edf,.,34,Fixation: 11762 ms,269,11762,12030,"[ 18, 99]",14,802,743,992.3,393.2,2,3,36.3,37.05,43,Saccade: 11746 ms,DOWN,16,0.86,53.72,59.43,"[ 18, 99]",11746,11761,985.6,369.5,997.8,398.8,44,Saccade: 12031 ms,DOWN,26,2.63,101.3,153.34,"[ 18, 99]",12031,12056,991.6,394.3,936.4,473.7,102.49,UP,0.79,A16,S16.wav,A16.png,21,26091782,preview,,,,,,,,,,,,,,,,,
p14,Trial: 41,p14.edf,.,35,Fixation: 12057 ms,203,12057,12259,"[ 18, 99]",14,834,743,938.3,468.3,3,3,36.0,37.0,44,Saccade: 12031 ms,DOWN,26,2.63,101.3,153.34,"[ 18, 99]",12031,12056,991.6,394.3,936.4,473.7,45,Saccade: 12260 ms,DOWN,52,11.8,226.89,372.4,"[ 3, 99]",12260,12311,936.3,464.2,663.7,804.4,53.63,UP,2.52,A16,S16.wav,A16.png,21,26091782,preview,,,,,,,,,,,,,,,,,
p14,Trial: 41,p14.edf,.,36,Fixation: 12312 ms,150,12312,12461,"[ 3, 99]",1,753,150,655.5,810.0,1,1,36.0,38.2,45,Saccade: 12260 ms,DOWN,52,11.8,226.89,372.4,"[ 18, 99]",12260,12311,936.3,464.2,663.7,804.4,46,Saccade: 12462 ms,LEFT,26,2.09,80.41,139.54,[ 99],12462,12487,654.9,805.6,582.2,826.7,49.16,UP,12.01,A16,S16.wav,A16.png,21,26091782,preview,,,,,,,,,,,,,,,,,
p14,Trial: 41,p14.edf,.,37,Fixation: 12488 ms,338,12488,12825,[ 99],67,725,18140,587.2,834.2,38,67,36.1,38.45,46,Saccade: 12462 ms,LEFT,26,2.09,80.41,139.54,"[ 3, 99]",12462,12487,654.9,805.6,582.2,826.7,47,Saccade: 12826 ms,.,7,0.4,56.76,40.6,[ 99],12826,12832,590.4,842.7,595.7,828.5,18.43,RIGHT,2,A16,S16.wav,A16.png,21,26091782,preview,,,,,,,,,,,,,,,,,
p14,Trial: 41,p14.edf,.,38,Fixation: 12833 ms,248,12833,13080,[ 99],67,700,18140,601.7,837.0,39,67,36.1,38.45,47,Saccade: 12826 ms,.,7,0.4,56.76,40.6,[ 99],12826,12832,590.4,842.7,595.7,828.5,48,Saccade: 13081 ms,.,252,0.34,1.36,1048.24,"[ 3, 99]",13081,13332,610.4,843.8,619.6,852.7,169.72,.,0.41,A16,S16.wav,A16.png,21,26091782,preview,,,,,,,,,,,,,,,,,
p14,Trial: 41,p14.edf,.,39,Fixation: 14456 ms,319,14456,14774,[ 99],67,899,18140,594.5,771.8,40,67,35.9,38.0,49,Saccade: 14433 ms,UP,23,0.87,37.84,82.06,[ 99],14433,14455,610.9,799.4,592.6,772.5,50,Saccade: 14775 ms,RIGHT,42,7.2,171.52,274.56,[ 99],14775,14816,591.9,775.7,832.4,675.7,-83.31,DOWN,1.72,A16,S16.wav,A16.png,21,26091782,task,[4],[Determiner_1],[1275],[1560],[285],[0],[eine],[a],[0.0],[0.0],[nan],[nan],[eine],[nan],[nan],[nan],[nan]
p14,Trial: 41,p14.edf,.,40,Fixation: 14817 ms,136,14817,14952,[ 99],67,937,18140,835.6,682.9,41,67,35.95,37.55,50,Saccade: 14775 ms,RIGHT,42,7.2,171.52,274.56,[ 99],14775,14816,591.9,775.7,832.4,675.7,51,Saccade: 14953 ms,UP,535,12.69,23.72,531.28,"[ 16, 99]",14953,15487,839.6,682.7,996,237.2,-160.68,LEFT,7.11,A16,S16.wav,A16.png,21,26091782,task,[4],[Determiner_1],[1275],[1560],[285],[0],[eine],[a],[0.0],[0.0],[nan],[nan],[eine],[nan],[nan],[nan],[nan]
p14,Trial: 41,p14.edf,.,41,Fixation: 15679 ms,117,15679,15795,"[ 10, 11, 99]",20,1187,2734,575.5,167.6,1,8,35.35,36.8,52,Saccade: 15630 ms,LEFT,49,11.92,243.22,466.46,[ 99],15630,15678,983.3,248.1,564.2,165.6,53,Saccade: 15796 ms,LEFT,17,1.13,66.18,84.52,"[ 10, 11, 99]",15796,15812,570.9,168.1,535.7,148.8,-62.24,DOWN,15.66,A16,S16.wav,A16.png,21,26091782,task,,break,,,,,,,,,,,,,,,
p14,Trial: 41,p14.edf,16110,42,Fixation: 15813 ms,1198,15813,17010,"[ 10, 11, 99]",20,1059,2734,541.2,140.6,2,8,35.4,36.9,53,Saccade: 15796 ms,LEFT,17,1.13,66.18,84.52,"[ 10, 11, 99]",15796,15812,570.9,168.1,535.7,148.8,54,Saccade: 17011 ms,LEFT,20,0.95,47.36,89.06,"[ 10, 11, 99]",17011,17030,543.5,140.2,511,131.4,-37.08,RIGHT,1.22,A16,S16.wav,A16.png,21,26091782,task,"[6, 7, 8]","[Preposition_1, Determiner_2, Noun_2]","[2450, 2580, 2910]","[2570, 2835, 3260]","[120, 255, 350]","[0, 0, 0]","[an, einer, Wand]","[on, a, wall]","[0.0, 0.0, 0.0]","[0.0, 0.0, 1.0]","[nan, nan, wall_1]","[nan, nan, S01_I016_E007]","[an, eine, Wand]","[nan, nan, nan]","[nan, nan, nan]","[nan, nan, nan]","[nan, nan, nan]"
p14,Trial: 41,p14.edf,17110,43,Fixation: 17031 ms,103,17031,17133,"[ 10, 11, 99]",20,1090,2734,519.9,131.4,3,8,35.5,36.9,54,Saccade: 17011 ms,LEFT,20,0.95,47.36,89.06,"[ 10, 11, 99]",17011,17030,543.5,140.2,511,131.4,55,Saccade: 17134 ms,RIGHT,15,0.81,54.01,65.27,"[ 10, 11, 99]",17134,17148,522.1,131.6,549.3,141.2,-22.54,RIGHT,0.65,A16,S16.wav,A16.png,21,26091782,task,,break,,,,,,,,,,,,,,,
p14,Trial: 41,p14.edf,.,44,Fixation: 17149 ms,270,17149,17418,"[ 10, 11, 99]",20,1086,2734,542.9,144.2,4,8,35.4,36.9,55,Saccade: 17134 ms,RIGHT,15,0.81,54.01,65.27,"[ 10, 11, 99]",17134,17148,522.1,131.6,549.3,141.2,56,Saccade: 17419 ms,RIGHT,11,0.56,50.74,53.3,"[ 10, 11, 99]",17419,17429,547,145.2,565.9,151.2,151.87,LEFT,0.74,A16,S16.wav,A16.png,21,26091782,task,"[10, 11]","[Relative Clause Pers. Pronoun, Relative Clause Adverb]","[3750, 3910]","[3880, 4630]","[130, 720]","[0, 0]","[er, sorgfältig]","[he, carefully]","[0.0, 0.0]","[0.0, 0.0]","[man_1, nan]","[S01_I016_E005, nan]","[er, sorgfältig]","[nan, nan]","[nan, nan]","[nan, nan]","[nan, nan]"
p14,Trial: 41,p14.edf,.,45,Fixation: 17430 ms,269,17430,17698,"[ 10, 11, 99]",20,1097,2734,572.1,162.0,5,8,35.35,36.8,56,Saccade: 17419 ms,RIGHT,11,0.56,50.74,53.3,"[ 10, 11, 99]",17419,17429,547,145.2,565.9,151.2,57,Saccade: 17699 ms,LEFT,12,0.83,69.09,66.05,"[ 10, 11, 99]",17699,17710,574,164.9,548.7,149.5,149.66,LEFT,0.96,A16,S16.wav,A16.png,21,26091782,task,[11],[Relative Clause Adverb],[3910],[4630],[720],[0],[sorgfältig],[carefully],[0.0],[0.0],[nan],[nan],[sorgfältig],[nan],[nan],[nan],[nan]
p14,Trial: 41,p14.edf,17870,46,Fixation: 17711 ms,326,17711,18036,"[ 10, 11, 99]",20,1121,2734,552.9,146.1,6,8,35.4,36.8,57,Saccade: 17699 ms,LEFT,12,0.83,69.09,66.05,"[ 10, 11, 99]",17699,17710,574,164.9,548.7,149.5,58,Saccade: 18037 ms,LEFT,12,0.58,48.26,47.11,"[ 10, 11, 99]",18037,18048,553.8,147,534.4,140.1,-38.52,RIGHT,0.69,A16,S16.wav,A16.png,21,26091782,task,[11],[Relative Clause Adverb],[3910],[4630],[720],[0],[sorgfältig],[carefully],[0.0],[0.0],[nan],[nan],[sorgfältig],[nan],[nan],[nan],[nan]
p14,Trial: 41,p14.edf,.,47,Fixation: 18049 ms,280,18049,18328,"[ 10, 11, 99]",20,1147,2734,540.9,139.8,7,8,35.4,36.9,58,Saccade: 18037 ms,LEFT,12,0.58,48.26,47.11,"[ 10, 11, 99]",18037,18048,553.8,147,534.4,140.1,59,Saccade: 18329 ms,.,8,0.4,50.23,39.16,"[ 10, 11, 99]",18329,18336,541.3,137,555.1,133.4,-26.76,.,0.38,A16,S16.wav,A16.png,21,26091782,task,[12],[Relative Clause Verb],[4670],[5260],[590],[0],[repariert],[repairs],[1.0],[0.0],[nan],[nan],[reparieren],[nan],[nan],[nan],[nan]
p14,Trial: 41,p14.edf,.,48,Fixation: 18337 ms,171,18337,18507,"[ 10, 11, 99]",20,1187,2734,554.1,133.2,8,8,35.4,36.9,59,Saccade: 18329 ms,.,8,0.4,50.23,39.16,"[ 10, 11, 99]",18329,18336,541.3,137,555.1,133.4,60,Saccade: 18508 ms,LEFT,41,7.28,177.62,332.68,[ 99],18508,18548,554,135.9,293,120.3,-154.37,.,0.41,A16,S16.wav,A16.png,21,26091782,task,[12],[Relative Clause Verb],[4670],[5260],[590],[0],[repariert],[repairs],[1.0],[0.0],[nan],[nan],[reparieren],[nan],[nan],[nan],[nan]
p14,Trial: 41,p14.edf,.,49,Fixation: 18637 ms,163,18637,18799,"[ 9, 14, 99]",8,1273,163,92.8,94.7,1,1,37.95,38.3,61,Saccade: 18598 ms,LEFT,39,5.65,144.89,341.04,[ 99],18598,18636,305.5,119.3,97.1,93.6,62,Saccade: 18800 ms,RIGHT,238,13.24,55.63,1153.3,"[ 10, 11, 99]",18800,19037,89.8,95.1,576.4,93.7,-4.65,RIGHT,12.62,A16,S16.wav,A16.png,21,26091782,post,,,,,,,,,,,,,,,,,
p14,Trial: 41,p14.edf,19250,50,Fixation: 19166 ms,458,19166,19623,"[ 10, 11, 99]",20,1293,458,542.7,140.4,1,1,35.4,36.9,63,Saccade: 19148 ms,LEFT,18,1.13,62.85,83.46,"[ 10, 11, 99]",19148,19165,580.4,143.9,540.4,141.8,64,Saccade: 19624 ms,LEFT,47,11.2,238.21,406.98,"[ 9, 99]",19624,19670,539.3,143.9,131.3,152.5,174.34,LEFT,12.33,A16,S16.wav,A16.png,21,26091782,post,,,,,,,,,,,,,,,,,
