RECORDING_SESSION_LABEL,TRIAL_LABEL,DATA_FILE,CURRENT_FIX_MSG_TIME_1,CURRENT_FIX_INDEX,CURRENT_FIX_LABEL,CURRENT_FIX_DURATION,CURRENT_FIX_START,CURRENT_FIX_END,CURRENT_FIX_INTEREST_AREAS,CURRENT_FIX_INTEREST_AREA_FIX_COUNT,CURRENT_FIX_PUPIL,CURRENT_FIX_RUN_DWELL_TIME,CURRENT_FIX_X,CURRENT_FIX_Y,CURRENT_FIX_RUN_INDEX,CURRENT_FIX_RUN_SIZE,CURRENT_FIX_X_RESOLUTION,CURRENT_FIX_Y_RESOLUTION,PREVIOUS_SAC_INDEX,PREVIOUS_SAC_LABEL,PREVIOUS_SAC_DIRECTION,PREVIOUS_SAC_DURATION,PREVIOUS_SAC_AMPLITUDE,PREVIOUS_SAC_AVG_VELOCITY,PREVIOUS_SAC_PEAK_VELOCITY,PREVIOUS_SAC_START_INTEREST_AREAS,PREVIOUS_SAC_START_TIME,PREVIOUS_SAC_END_TIME,PREVIOUS_SAC_START_X,PREVIOUS_SAC_START_Y,PREVIOUS_SAC_END_X,PREVIOUS_SAC_END_Y,NEXT_SAC_INDEX,NEXT_SAC_LABEL,NEXT_SAC_DIRECTION,NEXT_SAC_DURATION,NEXT_SAC_AMPLITUDE,NEXT_SAC_AVG_VELOCITY,NEXT_SAC_PEAK_VELOCITY,NEXT_SAC_END_INTEREST_AREAS,NEXT_SAC_START_TIME,NEXT_SAC_END_TIME,NEXT_SAC_START_X,NEXT_SAC_START_Y,NEXT_SAC_END_X,NEXT_SAC_END_Y,PREVIOUS_FIX_ANGLE,PREVIOUS_FIX_DIRECTION,PREVIOUS_FIX_DISTANCE,ItemNO,audiofilename,imagefilename,TRIAL_INDEX,TRIAL_START_TIME,viewtype,word_index,Label,word_onset,word_offset,word_duration,Continuation,wordDE,wordEN,REFWord,TargetObj,ObjectLabel,ObjectID,LemmaDE,LingIndex,DepS,pos_1,pos_2
p3,Trial: 44,p3.edf,.,1,Fixation: 3444 ms,224,3444,3667,[ 99],24,644,11851,478.2,598.3,1,23,35.65,37.15,6,Saccade: 3388 ms,UP,56,9.13,163.1,459.29,[ ],3388,3443,613.9,930,477.8,611.8,7,Saccade: 3668 ms,LEFT,54,9.55,176.78,431.21,"[ 5, 99]",3668,3721,476.7,598.3,134.1,530.5,-66.06,DOWN,9.24,A24,S24.wav,A24.png,22,2577993,preview,,,,,,,,,,,,,,,,,
p3,Trial: 44,p3.edf,.,2,Fixation: 3722 ms,187,3722,3908,"[ 5, 99]",3,707,401,125.9,531.8,1,2,37.5,37.9,7,Saccade: 3668 ms,LEFT,54,9.55,176.78,431.21,[ 99],3668,3721,476.7,598.3,134.1,530.5,8,Saccade: 3909 ms,UP,23,1.8,78.24,126.55,"[ 5, 99]",3909,3931,132.9,536.3,104.7,474.3,-10.42,RIGHT,9.79,A24,S24.wav,A24.png,22,2577993,preview,,,,,,,,,,,,,,,,,
p3,Trial: 44,p3.edf,.,3,Fixation: 3932 ms,214,3932,4145,"[ 5, 99]",3,685,401,109.9,483.5,2,2,37.65,37.85,8,Saccade: 3909 ms,UP,23,1.8,78.24,126.55,"[ 5, 99]",3909,3931,132.9,536.3,104.7,474.3,9,Saccade: 4146 ms,RIGHT,65,12.98,199.7,509.06,"[ 12, 15, 99]",4146,4210,111.1,483.6,565,349.7,-71.54,DOWN,1.34,A24,S24.wav,A24.png,22,2577993,preview,,,,,,,,,,,,,,,,,
p3,Trial: 44,p3.edf,.,4,Fixation: 4211 ms,961,4211,5171,"[ 12, 15, 99]",3,684,961,560.1,355.1,1,1,35.2,36.5,9,Saccade: 4146 ms,RIGHT,65,12.98,199.7,509.06,"[ 5, 99]",4146,4210,111.1,483.6,565,349.7,10,Saccade: 5172 ms,UP,51,6.67,130.71,395,"[ 18, 99]",5172,5222,559.5,358.1,459.9,136,-164.39,LEFT,12.83,A24,S24.wav,A24.png,22,2577993,preview,,,,,,,,,,,,,,,,,
p3,Trial: 44,p3.edf,.,5,Fixation: 5223 ms,450,5223,5672,"[ 18, 99]",1,739,450,460.7,118.1,1,1,35.65,37.05,10,Saccade: 5172 ms,UP,51,6.67,130.71,395,"[ 12, 15, 99]",5172,5222,559.5,358.1,459.9,136,11,Saccade: 5673 ms,RIGHT,75,18.41,245.47,671.92,"[ 31, 99]",5673,5747,460.5,118.1,1058.5,420.4,-66.47,DOWN,7.03,A24,S24.wav,A24.png,22,2577993,preview,,,,,,,,,,,,,,,,,
p3,Trial: 44,p3.edf,.,6,Fixation: 5748 ms,283,5748,6030,"[ 31, 99]",3,701,283,1058.2,430.6,1,1,36.75,37.3,11,Saccade: 5673 ms,RIGHT,75,18.41,245.47,671.92,"[ 18, 99]",5673,5747,460.5,118.1,1058.5,420.4,12,Saccade: 6031 ms,LEFT,73,15.75,215.74,570.51,"[ 7, 15, 99]",6031,6103,1063.8,432.3,499.2,371,153.01,LEFT,18.52,A24,S24.wav,A24.png,22,2577993,preview,,,,,,,,,,,,,,,,,
p3,Trial: 44,p3.edf,.,7,Fixation: 6104 ms,215,6104,6318,"[ 7, 15, 99]",2,725,215,504.7,374.6,1,1,35.3,36.6,12,Saccade: 6031 ms,LEFT,73,15.75,215.74,570.51,"[ 31, 99]",6031,6103,1063.8,432.3,499.2,371,13,Saccade: 6319 ms,UP,253,2.29,9.04,539.77,"[ 2, 12, 15, 99]",6319,6571,506.5,380.1,559.1,316.7,-5.63,RIGHT,15.44,A24,S24.wav,A24.png,22,2577993,preview,,,,,,,,,,,,,,,,,
p3,Trial: 44,p3.edf,.,8,Fixation: 16268 ms,974,16268,17241,"[ 2, 12, 15, 99]",2,811,974,554.8,325.9,1,1,35.25,36.5,15,Saccade: 16222 ms,RIGHT,46,6.48,140.94,374.95,"[ 15, 99]",16222,16267,370.6,481.3,542.3,322.3,16,Saccade: 17242 ms,LEFT,48,6.08,126.64,406.49,[ 99],17242,17289,557.8,328.3,345.2,368.3,-136.83,LEFT,1.95,A24,S24.wav,A24.png,22,2577993,task,"[7, 8]","[Determiner_2, Noun_2]","[2870, 3180]","[3100, 3720]","[230, 540]","[0, 0]","[einem, Kissen]","[a, pillow]","[0.0, 0.0]","[0.0, 1.0]","[nan, pillow_1]","[nan, S01_I024_E010]","[eine, Kissen]","[nan, nan]","[nan, nan]","[nan, nan]","[nan, nan]"
p3,Trial: 44,p3.edf,19590,9,Fixation: 17290 ms,4687,17290,21976,"[ 15, 99]",8,905,6995,348.4,370.3,3,7,35.9,36.85,16,Saccade: 17242 ms,LEFT,48,6.08,126.64,406.49,"[ 2, 12, 15, 99]",17242,17289,557.8,328.3,345.2,368.3,17,Saccade: 21977 ms,UP,222,0.61,2.73,1185.07,[ 99],21977,22198,351,358.3,348.6,336.1,11.79,RIGHT,5.93,A24,S24.wav,A24.png,22,2577993,task,"[9, 10, 11, 12, 13]","[Preposition_2_of_RC, Relative Clause Pronoun, Relative Clause Pers. Pronoun, Relative Clause Adverb, Relative Clause Verb]","[4045, 4270, 4440, 4580, 5360]","[4210, 4430, 4580, 5220, 5840]","[165, 160, 140, 640, 480]","[0, 1, 0, 0, 0]","[auf, dem, sie, fröhlich, sitzt]","[on, that, she, cheerfully, sits]","[0.0, 0.0, 0.0, 0.0, 1.0]","[0.0, 0.0, 0.0, 0.0, 0.0]","[nan, nan, kid_1, nan, nan]","[nan, nan, S01_I024_E004, nan, nan]","[auf, die, sie, fröhlich, sitzen]","[nan, nan, nan, nan, nan]","[nan, nan, nan, nan, nan]","[nan, nan, nan, nan, nan]","[nan, nan, nan, nan, nan]"
