RECORDING_SESSION_LABEL,TRIAL_LABEL,DATA_FILE,CURRENT_FIX_MSG_TIME_1,CURRENT_FIX_INDEX,CURRENT_FIX_LABEL,CURRENT_FIX_DURATION,CURRENT_FIX_START,CURRENT_FIX_END,CURRENT_FIX_INTEREST_AREAS,CURRENT_FIX_INTEREST_AREA_FIX_COUNT,CURRENT_FIX_PUPIL,CURRENT_FIX_RUN_DWELL_TIME,CURRENT_FIX_X,CURRENT_FIX_Y,CURRENT_FIX_RUN_INDEX,CURRENT_FIX_RUN_SIZE,CURRENT_FIX_X_RESOLUTION,CURRENT_FIX_Y_RESOLUTION,PREVIOUS_SAC_INDEX,PREVIOUS_SAC_LABEL,PREVIOUS_SAC_DIRECTION,PREVIOUS_SAC_DURATION,PREVIOUS_SAC_AMPLITUDE,PREVIOUS_SAC_AVG_VELOCITY,PREVIOUS_SAC_PEAK_VELOCITY,PREVIOUS_SAC_START_INTEREST_AREAS,PREVIOUS_SAC_START_TIME,PREVIOUS_SAC_END_TIME,PREVIOUS_SAC_START_X,PREVIOUS_SAC_START_Y,PREVIOUS_SAC_END_X,PREVIOUS_SAC_END_Y,NEXT_SAC_INDEX,NEXT_SAC_LABEL,NEXT_SAC_DIRECTION,NEXT_SAC_DURATION,NEXT_SAC_AMPLITUDE,NEXT_SAC_AVG_VELOCITY,NEXT_SAC_PEAK_VELOCITY,NEXT_SAC_END_INTEREST_AREAS,NEXT_SAC_START_TIME,NEXT_SAC_END_TIME,NEXT_SAC_START_X,NEXT_SAC_START_Y,NEXT_SAC_END_X,NEXT_SAC_END_Y,PREVIOUS_FIX_ANGLE,PREVIOUS_FIX_DIRECTION,PREVIOUS_FIX_DISTANCE,ItemNO,audiofilename,imagefilename,TRIAL_INDEX,TRIAL_START_TIME,viewtype,word_index,Label,word_onset,word_offset,word_duration,Continuation,wordDE,wordEN,REFWord,TargetObj,ObjectLabel,ObjectID,LemmaDE,LingIndex,DepS,pos_1,pos_2,CURRENT_FIX_INTEREST_AREAS_Labelled,PREVIOUS_SAC_START_INTEREST_AREAS_Labelled,NEXT_SAC_END_INTEREST_AREAS_Labelled,NORMALIZED_CURRENT_FIX_DURATION,NORMALIZED_CURRENT_FIX_PUPIL,NORMALIZED_PREVIOUS_SAC_DURATION,NORMALIZED_PREVIOUS_SAC_AMPLITUDE,NORMALIZED_PREVIOUS_SAC_AVG_VELOCITY,NORMALIZED_PREVIOUS_SAC_PEAK_VELOCITY,NORMALIZED_NEXT_SAC_DURATION,NORMALIZED_NEXT_SAC_AMPLITUDE,NORMALIZED_NEXT_SAC_AVG_VELOCITY,NORMALIZED_NEXT_SAC_PEAK_VELOCITY
p3,Trial: 43,p3.edf,.,1,Fixation: 3845 ms,123,3845,3967,[],.,643,.,588.7,852.5,.,.,36.2,38.55,6,Saccade: 3782 ms,DOWN,63,8.76,139.09,410.21,[ 99],3782,3844,722.1,555.1,588.7,854.1,7,Saccade: 3968 ms,LEFT,75,18.25,243.31,571.66,[ ],3968,4042,588.8,849.4,-23.8,530.5,-69.78,DOWN,2.15,A23,S23.wav,A23.png,21,2549606,preview,,,,,,,,,,,,,,,,,,[],,,0.07299703264094956,0.7889570552147239,0.7875,0.46300211416490483,0.5220508201028413,0.604610373340015,0.20491803278688525,1.0,0.913222985399542,0.6001490766695012
p3,Trial: 43,p3.edf,.,2,Fixation: 4264 ms,101,4264,4364,[],52,712,14188,484.6,158.8,1,51,35.5,36.9,8,Saccade: 4188 ms,RIGHT,76,16.82,221.37,462.39,[ ],4188,4263,-11.2,539.3,485.7,152.3,9,Saccade: 4365 ms,RIGHT,65,12.74,195.98,507.12,"[ 2, 99]",4365,4429,481.9,162.7,937.8,175.0,-81.03,DOWN,18.62,A23,S23.wav,A23.png,21,2549606,preview,,,,,,,,,,,,,,,,,,[],,,0.0599406528189911,0.8736196319018404,0.95,0.8890063424947146,0.8308749014750592,0.6815187112178872,0.17759562841530055,1.0,0.7355778253199714,0.5323926805454946
p3,Trial: 43,p3.edf,.,3,Fixation: 4430 ms,170,4430,4599,[2],6,716,170,936.9,182.3,1,1,36.05,37.1,9,Saccade: 4365 ms,RIGHT,65,12.74,195.98,507.12,[ 99],4365,4429,481.9,162.7,937.8,175.0,10,Saccade: 4600 ms,RIGHT,25,2.75,109.84,195.55,"[ 3, 99]",4600,4624,934.8,180.4,1031.2,206.4,177.12,LEFT,12.66,A23,S23.wav,A23.png,21,2549606,preview,,,,,,,,,,,,,,,,,,[woman_1],,,0.10089020771513353,0.8785276073619632,0.8125,0.6733615221987315,0.7355778253199714,0.7474464604182941,0.06830601092896176,1.0,0.41226588597380176,0.20529537127439557
p3,Trial: 43,p3.edf,.,4,Fixation: 4625 ms,335,4625,4959,[],52,724,14188,1017.6,202.3,3,51,36.55,37.3,10,Saccade: 4600 ms,RIGHT,25,2.75,109.84,195.55,"[ 2, 99]",4600,4624,934.8,180.4,1031.2,206.4,11,Saccade: 4960 ms,LEFT,22,1.41,63.93,102.32,"[ 2, 11, 99]",4960,4981,1017.4,202.5,966.5,197.6,166.41,LEFT,2.29,A23,S23.wav,A23.png,21,2549606,preview,,,,,,,,,,,,,,,,,,[],,,0.19881305637982197,0.8883435582822086,0.3125,0.1453488372093023,0.41226588597380176,0.28822202897696286,0.060109289617486336,1.0,0.23995045602972637,0.10741918889693762
p3,Trial: 43,p3.edf,.,5,Fixation: 4982 ms,313,4982,5294,"[2, 11]",6,705,921,977.5,195.4,1,2,36.25,37.15,11,Saccade: 4960 ms,LEFT,22,1.41,63.93,102.32,[ 99],4960,4981,1017.4,202.5,966.5,197.6,12,Saccade: 5295 ms,LEFT,20,1.07,53.7,77.59,"[ 2, 99]",5295,5314,977.0,194.1,938.6,200.0,-9.55,RIGHT,1.12,A23,S23.wav,A23.png,21,2549606,preview,,,,,,,,,,,,,,,,,,"[woman_1, screwdriver_1]",,,0.18575667655786351,0.8650306748466258,0.275,0.0745243128964059,0.23995045602972637,0.1508099105339956,0.0546448087431694,1.0,0.20155387906767255,0.08145675201830914
p3,Trial: 43,p3.edf,.,6,Fixation: 5315 ms,608,5315,5922,[2],6,695,921,948.5,199.4,2,2,36.05,37.1,12,Saccade: 5295 ms,LEFT,20,1.07,53.7,77.59,"[ 2, 11, 99]",5295,5314,977.0,194.1,938.6,200.0,13,Saccade: 5923 ms,RIGHT,41,2.16,52.78,156.02,[ 99],5923,5963,947.2,196.5,1025.5,204.2,7.65,RIGHT,0.81,A23,S23.wav,A23.png,21,2549606,preview,,,,,,,,,,,,,,,,,,[woman_1],,,0.3608308605341246,0.852760736196319,0.25,0.05655391120507399,0.20155387906767255,0.11436025174289209,0.11202185792349727,1.0,0.19810081447284464,0.16379536602521708
p3,Trial: 43,p3.edf,.,7,Fixation: 5964 ms,334,5964,6297,[3],1,686,334,1030.5,200.4,1,1,36.6,37.3,13,Saccade: 5923 ms,RIGHT,41,2.16,52.78,156.02,"[ 2, 99]",5923,5963,947.2,196.5,1025.5,204.2,14,Saccade: 6298 ms,LEFT,226,17.68,78.25,660.82,[ 99],6298,6523,1034.9,203.9,412.4,349.0,179.32,LEFT,2.26,A23,S23.wav,A23.png,21,2549606,preview,,,,,,,,,,,,,,,,,,[hook_1],,,0.19821958456973293,0.841717791411043,0.5125,0.11416490486257928,0.19810081447284464,0.22995858328297494,0.6174863387978142,1.0,0.2936981571144391,0.693752427745058
p3,Trial: 43,p3.edf,.,8,Fixation: 7255 ms,165,7255,7419,[12],2,815,165,435.6,493.0,1,1,35.6,36.8,16,Saccade: 7194 ms,DOWN,61,7.93,130.04,465.66,"[ 9, 99]",7194,7254,290.4,237.8,433.4,491.4,17,Saccade: 7420 ms,DOWN,63,8.02,127.22,432.39,"[ 1, 99]",7420,7482,438.3,495.9,623.9,722.6,25.61,RIGHT,18.27,A23,S23.wav,A23.png,21,2549606,preview,,,,,,,,,,,,,,,,,,[basket_1],,,0.09792284866468842,1.0,0.7625,0.4191331923890063,0.48808317381676236,0.6863383789998084,0.1721311475409836,1.0,0.47749878016739855,0.45393845863122423
p3,Trial: 43,p3.edf,.,9,Fixation: 7483 ms,142,7483,7624,[1],3,712,142,621.9,721.4,1,1,35.7,37.6,17,Saccade: 7420 ms,DOWN,63,8.02,127.22,432.39,"[ 12, 99]",7420,7482,438.3,495.9,623.9,722.6,18,Saccade: 7625 ms,RIGHT,70,13.15,187.9,430.55,"[ 5, 18, 99]",7625,7694,622.2,724.9,1077.9,575.1,130.4,UP,8.06,A23,S23.wav,A23.png,21,2549606,preview,,,,,,,,,,,,,,,,,,[man_1],,,0.08427299703264095,0.8736196319018404,0.7875,0.42389006342494706,0.47749878016739855,0.6373015756039323,0.1912568306010929,1.0,0.7052509101827872,0.4520067609419126
p3,Trial: 43,p3.edf,.,10,Fixation: 7695 ms,370,7695,8064,"[5, 18]",4,666,732,1071.8,575.2,1,2,36.95,37.7,18,Saccade: 7625 ms,RIGHT,70,13.15,187.9,430.55,"[ 1, 99]",7625,7694,622.2,724.9,1077.9,575.1,19,Saccade: 8065 ms,RIGHT,24,1.93,80.33,141.52,"[ 5, 18, 99]",8065,8088,1064.8,574.7,1130.1,544.8,-162.59,LEFT,12.98,A23,S23.wav,A23.png,21,2549606,preview,,,,,,,,,,,,,,,,,,"[bathrobe_3, bathtub_1]",,,0.2195845697329377,0.8171779141104294,0.875,0.6950317124735729,0.7052509101827872,0.6345895912862765,0.06557377049180328,1.0,0.3015050857636152,0.1485727483648809
p3,Trial: 43,p3.edf,.,11,Fixation: 8089 ms,362,8089,8450,"[5, 18]",4,660,732,1121.8,547.1,2,2,37.4,37.8,19,Saccade: 8065 ms,RIGHT,24,1.93,80.33,141.52,"[ 5, 18, 99]",8065,8088,1064.8,574.7,1130.1,544.8,20,Saccade: 8451 ms,LEFT,80,17.66,220.8,521.47,[ 99],8451,8530,1124.2,548.6,480.0,575.6,-151.04,LEFT,1.54,A23,S23.wav,A23.png,21,2549606,preview,,,,,,,,,,,,,,,,,,"[bathrobe_3, bathtub_1]",,,0.21483679525222552,0.8098159509202454,0.3,0.10200845665961944,0.3015050857636152,0.20858696773623006,0.2185792349726776,1.0,0.8287355027586983,0.5474578228507239
p3,Trial: 43,p3.edf,.,12,Fixation: 8531 ms,204,8531,8734,[],52,700,14188,487.3,575.3,11,51,35.6,37.0,20,Saccade: 8451 ms,LEFT,80,17.66,220.8,521.47,"[ 5, 18, 99]",8451,8530,1124.2,548.6,480.0,575.6,21,Saccade: 8735 ms,DOWN,51,5.0,97.98,302.93,"[ 1, 99]",8735,8785,482.0,571.8,573.2,732.2,2.48,RIGHT,17.4,A23,S23.wav,A23.png,21,2549606,preview,,,,,,,,,,,,,,,,,,[],,,0.12106824925816023,0.8588957055214724,1.0,0.9334038054968287,0.8287355027586983,0.7685969902869693,0.13934426229508196,1.0,0.3677513793491724,0.31802672881694016
p3,Trial: 43,p3.edf,.,13,Fixation: 8786 ms,132,8786,8917,[1],3,682,132,580.4,750.2,1,1,35.8,37.75,21,Saccade: 8735 ms,DOWN,51,5.0,97.98,302.93,[ 99],8735,8785,482.0,571.8,573.2,732.2,22,Saccade: 8918 ms,DOWN,71,12.04,169.56,502.24,[ ],8918,8988,582.1,750.4,399.6,1192.1,119.13,UP,5.36,A23,S23.wav,A23.png,21,2549606,preview,,,,,,,,,,,,,,,,,,[man_1],,,0.07833827893175074,0.8368098159509203,0.6375,0.2642706131078224,0.3677513793491724,0.4464898963845122,0.19398907103825136,1.0,0.6364148181511091,0.527269482326016
p3,Trial: 43,p3.edf,.,14,Fixation: 10839 ms,333,10839,11171,[],52,778,14188,377.0,116.7,13,51,36.0,37.25,27,Saccade: 10809 ms,UP,30,4.03,134.36,277.91,"[ 6, 99]",10809,10838,371.5,250.2,377.8,100.8,28,Saccade: 11172 ms,DOWN,47,4.85,103.17,292.59,"[ 9, 99]",11172,11218,378.5,114.7,316.5,282.9,-71.46,DOWN,17.82,A23,S23.wav,A23.png,21,2549606,preview,,,,,,,,,,,,,,,,,,[],,,0.19762611275964392,0.9546012269938651,0.375,0.21300211416490486,0.5042975640881282,0.40961280528247385,0.1284153005464481,1.0,0.3872311676612994,0.3071714276715694
p3,Trial: 43,p3.edf,.,15,Fixation: 11219 ms,158,11219,11376,[],52,739,14188,316.4,294.4,14,51,36.1,37.0,28,Saccade: 11172 ms,DOWN,47,4.85,103.17,292.59,[ 99],11172,11218,378.5,114.7,316.5,282.9,29,Saccade: 11377 ms,UP,28,2.89,103.05,181.83,"[ 9, 99]",11377,11404,314.3,293.3,305.9,186.6,70.65,UP,5.07,A23,S23.wav,A23.png,21,2549606,preview,,,,,,,,,,,,,,,,,,[],,,0.09376854599406528,0.9067484662576687,0.5875,0.2563424947145877,0.3872311676612994,0.43124972364290237,0.07650273224043716,1.0,0.3867807679315392,0.19089162546061544
p3,Trial: 43,p3.edf,.,16,Fixation: 11405 ms,557,11405,11961,[9],4,704,557,307.7,199.5,1,1,36.2,37.2,29,Saccade: 11377 ms,UP,28,2.89,103.05,181.83,"[ 9, 99]",11377,11404,314.3,293.3,305.9,186.6,30,Saccade: 11962 ms,DOWN,49,7.8,159.18,470.41,"[ 12, 99]",11962,12010,306.0,200.4,418.9,464.5,-84.63,DOWN,2.57,A23,S23.wav,A23.png,21,2549606,preview,,,,,,,,,,,,,,,,,,[woman_2],,,0.3305637982195846,0.8638036809815951,0.35,0.15274841437632133,0.3867807679315392,0.26800005895618084,0.13387978142076504,1.0,0.5974552415268551,0.49385321197232634
p3,Trial: 43,p3.edf,13182,17,Fixation: 12011 ms,1685,12011,13695,[12],2,693,1685,428.5,482.9,1,1,35.6,36.8,30,Saccade: 11962 ms,DOWN,49,7.8,159.18,470.41,"[ 9, 99]",11962,12010,306.0,200.4,418.9,464.5,31,Saccade: 13696 ms,UP,333,5.89,17.68,632.29,"[ 21, 99]",13696,14028,435.3,481.8,545.8,298.8,113.72,UP,8.37,A23,S23.wav,A23.png,21,2549606,preview,[1],[Adverb],[105],[250],[145],[0],[Da],[It],[0.0],[0.0],[nan],[nan],[da],[nan],[nan],[nan],[nan],[basket_1],,,1.0,0.8503067484662576,0.6125,0.4122621564482029,0.5974552415268551,0.6933394254720179,0.9098360655737705,1.0,0.06635889351799722,0.6638006152037206
p3,Trial: 43,p3.edf,.,18,Fixation: 14373 ms,469,14373,14841,[15],3,760,469,760.2,389.4,1,1,35.3,36.55,32,Saccade: 14324 ms,RIGHT,49,5.43,110.89,362.82,"[ 21, 99]",14324,14372,558.7,326.3,743.4,378.8,33,Saccade: 14842 ms,LEFT,52,7.1,136.45,348.74,"[ 19, 21, 99]",14842,14893,766.5,395.3,530.4,308.7,-164.76,LEFT,9.7,A23,S23.wav,A23.png,21,2549606,task,[4],[Noun_1],[970],[1750],[780],[0],[Bademantel],[bathrobe],[0.0],[0.0],[bathrobe_1],[S01_I023_E004],[Bademantel],[nan],[nan],[nan],[nan],[toilet_1],,,0.2783382789317507,0.9325153374233128,0.6125,0.2869978858350951,0.41620688360920316,0.5347620381151709,0.14207650273224043,1.0,0.5121420260481176,0.3661197022665953
p3,Trial: 43,p3.edf,.,19,Fixation: 14894 ms,113,14894,15006,"[19, 21]",2,728,113,520.3,305.9,1,1,35.3,36.55,33,Saccade: 14842 ms,LEFT,52,7.1,136.45,348.74,"[ 15, 99]",14842,14893,766.5,395.3,530.4,308.7,34,Saccade: 15007 ms,RIGHT,69,13.94,202.05,471.49,"[ 4, 99]",15007,15075,520.2,305.9,1019.6,285.4,-18.58,RIGHT,7.17,A23,S23.wav,A23.png,21,2549606,task,[4],[Noun_1],[970],[1750],[780],[0],[Bademantel],[bathrobe],[0.0],[0.0],[bathrobe_1],[S01_I023_E004],[Bademantel],[nan],[nan],[nan],[nan],"[towel_2, cabinet_1]",,,0.06706231454005934,0.8932515337423312,0.65,0.37526427061310774,0.5121420260481176,0.5140094624670214,0.1885245901639344,1.0,0.758360544983673,0.4949870345290962
p3,Trial: 43,p3.edf,.,20,Fixation: 15076 ms,140,15076,15215,[4],7,713,140,1011.9,290.3,1,1,36.4,37.1,34,Saccade: 15007 ms,RIGHT,69,13.94,202.05,471.49,"[ 19, 21, 99]",15007,15075,520.2,305.9,1019.6,285.4,35,Saccade: 15216 ms,LEFT,71,18.92,266.43,678.47,"[ 6, 99]",15216,15286,1011.1,288.3,326.6,246.5,-178.23,LEFT,13.72,A23,S23.wav,A23.png,21,2549606,task,[4],[Noun_1],[970],[1750],[780],[0],[Bademantel],[bathrobe],[0.0],[0.0],[bathrobe_1],[S01_I023_E004],[Bademantel],[nan],[nan],[nan],[nan],[bathrobe_1],,,0.0830860534124629,0.8748466257668711,0.8625,0.7367864693446088,0.758360544983673,0.6949312423541203,0.19398907103825136,1.0,1.0,0.7122820278626395
p3,Trial: 43,p3.edf,.,21,Fixation: 15287 ms,357,15287,15643,[6],1,768,357,337.3,258.3,1,1,36.05,37.0,35,Saccade: 15216 ms,LEFT,71,18.92,266.43,678.47,"[ 4, 99]",15216,15286,1011.1,288.3,326.6,246.5,36,Saccade: 15644 ms,UP,24,2.3,95.69,157.0,"[ 9, 99]",15644,15667,333.0,263.0,314.7,179.9,-2.66,RIGHT,18.64,A23,S23.wav,A23.png,21,2549606,task,,break,,,,,,,,,,,,,,,,[bathrobe_2],,,0.21186943620178042,0.9423312883435583,0.8875,1.0,1.0,1.0,0.06557377049180328,1.0,0.35915625117291594,0.16482420501191564
p3,Trial: 43,p3.edf,15724,22,Fixation: 15668 ms,429,15668,16096,[9],4,764,429,317.2,184.7,1,1,36.2,37.2,36,Saccade: 15644 ms,UP,24,2.3,95.69,157.0,"[ 6, 99]",15644,15667,333.0,263.0,314.7,179.9,37,Saccade: 16097 ms,RIGHT,41,5.58,136.1,230.35,"[ 20, 21, 99]",16097,16137,319.8,180.2,508.5,247.8,-74.33,DOWN,2.06,A23,S23.wav,A23.png,21,2549606,task,"[5, 6]","[Preposition_1, Determiner_2]","[2135, 2280]","[2260, 2533]","[125, 253]","[0, 0]","[an, einem]","[on, a]","[0.0, 0.0]","[0.0, 0.0]","[nan, nan]","[nan, nan]","[an, eine]","[nan, nan]","[nan, nan]","[nan, nan]","[nan, nan]",[woman_2],,,0.2545994065281899,0.9374233128834356,0.3,0.12156448202959828,0.35915625117291594,0.2314030097130308,0.11202185792349727,1.0,0.5108283601696505,0.24182965365920234
p3,Trial: 43,p3.edf,.,23,Fixation: 16138 ms,96,16138,16233,"[20, 21]",3,776,96,502.9,246.8,1,1,35.4,36.65,37,Saccade: 16097 ms,RIGHT,41,5.58,136.1,230.35,"[ 7, 99]",16097,16137,319.8,180.2,508.5,247.8,38,Saccade: 16234 ms,RIGHT,366,4.39,12.0,952.53,[ 99],16234,16599,502.0,243.1,654.7,271.1,162.04,LEFT,5.45,A23,S23.wav,A23.png,21,2549606,task,[7],[Noun_2],[2524],[3110],[586],[0],[Haken],[hook],[0.0],[1.0],[hook_1],[S01_I023_E003],[Haken],[nan],[nan],[nan],[nan],"[faucet_1, cabinet_1]",,,0.05697329376854599,0.9521472392638037,0.5125,0.29492600422832976,0.5108283601696505,0.33951390628915057,1.0,1.0,0.04503997297601621,1.0
p3,Trial: 43,p3.edf,.,24,Fixation: 17799 ms,150,17799,17948,[],52,779,14188,1015.3,204.9,23,51,36.5,37.3,40,Saccade: 17782 ms,UP,17,0.93,54.72,76.64,[ 99],17782,17798,1002.5,227.9,1016.2,196.2,41,Saccade: 17949 ms,LEFT,21,1.07,50.79,92.98,"[ 2, 11, 99]",17949,17969,1013.5,203.2,975.3,196.4,-175.45,LEFT,14.3,A23,S23.wav,A23.png,21,2549606,task,[10],[Relative Clause Adverb],[3820],[4690],[870],[0],[vorsichtig],[carefully],[0.0],[0.0],[nan],[nan],[vorsichtig],[nan],[nan],[nan],[nan],[],,,0.08902077151335312,0.9558282208588957,0.2125,0.04915433403805497,0.20538227677063392,0.11296004244845019,0.05737704918032787,1.0,0.19063168562098862,0.09761372345227973
p3,Trial: 43,p3.edf,18110,25,Fixation: 17970 ms,268,17970,18237,"[2, 11]",6,765,268,979.7,196.1,1,1,36.3,37.2,41,Saccade: 17949 ms,LEFT,21,1.07,50.79,92.98,[ 99],17949,17969,1013.5,203.2,975.3,196.4,42,Saccade: 18238 ms,RIGHT,17,1.12,65.78,79.99,"[ 11, 99]",18238,18254,978.7,195.1,1019.4,194.7,-13.58,RIGHT,1.01,A23,S23.wav,A23.png,21,2549606,task,[10],[Relative Clause Adverb],[3820],[4690],[870],[0],[vorsichtig],[carefully],[0.0],[0.0],[nan],[nan],[vorsichtig],[nan],[nan],[nan],[nan],"[woman_1, screwdriver_1]",,,0.15905044510385757,0.9386503067484663,0.2625,0.05655391120507399,0.19063168562098862,0.13704364231285096,0.04644808743169399,1.0,0.24689411853019555,0.08397635770001995
p3,Trial: 43,p3.edf,.,26,Fixation: 18255 ms,320,18255,18574,[11],6,734,588,1015.1,195.0,2,2,36.5,37.3,42,Saccade: 18238 ms,RIGHT,17,1.12,65.78,79.99,"[ 2, 11, 99]",18238,18254,978.7,195.1,1019.4,194.7,43,Saccade: 18575 ms,DOWN,13,0.78,60.07,60.26,"[ 4, 99]",18575,18587,1017.9,198.4,1012.7,227.0,-178.26,LEFT,0.97,A23,S23.wav,A23.png,21,2549606,task,[11],[Relative Clause Verb],[4910],[5660],[750],[0],[befestigt],[fixes],[1.0],[0.0],[nan],[nan],[befestigen],[nan],[nan],[nan],[nan],[screwdriver_1],,,0.18991097922848665,0.9006134969325154,0.2125,0.05919661733615222,0.24689411853019555,0.11789762259200848,0.03551912568306011,1.0,0.22546259805577448,0.06326309932495565
p3,Trial: 43,p3.edf,.,27,Fixation: 18588 ms,216,18588,18803,[4],7,758,486,1011.6,225.3,1,2,36.4,37.2,43,Saccade: 18575 ms,DOWN,13,0.78,60.07,60.26,"[ 11, 99]",18575,18587,1017.9,198.4,1012.7,227.0,44,Saccade: 18804 ms,LEFT,250,19.24,76.97,627.59,[ 99],18804,19053,1014.3,232.3,317.9,176.9,83.27,UP,0.82,A23,S23.wav,A23.png,21,2549606,task,[11],[Relative Clause Verb],[4910],[5660],[750],[0],[befestigt],[fixes],[1.0],[0.0],[nan],[nan],[befestigen],[nan],[nan],[nan],[nan],[bathrobe_1],,,0.1281899109792285,0.9300613496932515,0.1625,0.04122621564482029,0.22546259805577448,0.0888174864032308,0.6830601092896175,1.0,0.28889389333033066,0.6588663874103703
