RECORDING_SESSION_LABEL,TRIAL_LABEL,DATA_FILE,CURRENT_FIX_MSG_TIME_1,CURRENT_FIX_INDEX,CURRENT_FIX_LABEL,CURRENT_FIX_DURATION,CURRENT_FIX_START,CURRENT_FIX_END,CURRENT_FIX_INTEREST_AREAS,CURRENT_FIX_INTEREST_AREA_FIX_COUNT,CURRENT_FIX_PUPIL,CURRENT_FIX_RUN_DWELL_TIME,CURRENT_FIX_X,CURRENT_FIX_Y,CURRENT_FIX_RUN_INDEX,CURRENT_FIX_RUN_SIZE,CURRENT_FIX_X_RESOLUTION,CURRENT_FIX_Y_RESOLUTION,PREVIOUS_SAC_INDEX,PREVIOUS_SAC_LABEL,PREVIOUS_SAC_DIRECTION,PREVIOUS_SAC_DURATION,PREVIOUS_SAC_AMPLITUDE,PREVIOUS_SAC_AVG_VELOCITY,PREVIOUS_SAC_PEAK_VELOCITY,PREVIOUS_SAC_START_INTEREST_AREAS,PREVIOUS_SAC_START_TIME,PREVIOUS_SAC_END_TIME,PREVIOUS_SAC_START_X,PREVIOUS_SAC_START_Y,PREVIOUS_SAC_END_X,PREVIOUS_SAC_END_Y,NEXT_SAC_INDEX,NEXT_SAC_LABEL,NEXT_SAC_DIRECTION,NEXT_SAC_DURATION,NEXT_SAC_AMPLITUDE,NEXT_SAC_AVG_VELOCITY,NEXT_SAC_PEAK_VELOCITY,NEXT_SAC_END_INTEREST_AREAS,NEXT_SAC_START_TIME,NEXT_SAC_END_TIME,NEXT_SAC_START_X,NEXT_SAC_START_Y,NEXT_SAC_END_X,NEXT_SAC_END_Y,PREVIOUS_FIX_ANGLE,PREVIOUS_FIX_DIRECTION,PREVIOUS_FIX_DISTANCE,ItemNO,audiofilename,imagefilename,TRIAL_INDEX,TRIAL_START_TIME,viewtype,word_index,Label,word_onset,word_offset,word_duration,Continuation,wordDE,wordEN,REFWord,TargetObj,ObjectLabel,ObjectID,LemmaDE,LingIndex,DepS,pos_1,pos_2,CURRENT_FIX_INTEREST_AREAS_Labelled,PREVIOUS_SAC_START_INTEREST_AREAS_Labelled,NEXT_SAC_END_INTEREST_AREAS_Labelled,NORMALIZED_CURRENT_FIX_DURATION,NORMALIZED_CURRENT_FIX_PUPIL,NORMALIZED_PREVIOUS_SAC_DURATION,NORMALIZED_PREVIOUS_SAC_AMPLITUDE,NORMALIZED_PREVIOUS_SAC_AVG_VELOCITY,NORMALIZED_PREVIOUS_SAC_PEAK_VELOCITY,NORMALIZED_NEXT_SAC_DURATION,NORMALIZED_NEXT_SAC_AMPLITUDE,NORMALIZED_NEXT_SAC_AVG_VELOCITY,NORMALIZED_NEXT_SAC_PEAK_VELOCITY
p11,Trial: 36,p11.edf,.,1,Fixation: 3368 ms,201,3368,3568,[3],6,882,201,673.3,763.2,1,1,35.85,37.8,4,Saccade: 3335 ms,UP,33,4.62,140.0,290.57,[ ],3335,3367,623.9,907.9,666.6,736.4,5,Saccade: 3569 ms,UP,29,2.77,95.54,186.69,[ 99],3569,3597,673.6,766.8,684.9,663.3,-107.74,DOWN,4.25,A16,S16.wav,A16.png,17,14400011,preview,,,,,,,,,,,,,,,,,,[woman_1],,,0.31211180124223603,0.6146341463414634,0.44,0.25468577728776187,0.5479023168440826,0.43148406640729414,0.13004484304932734,1.0,0.33565205171444634,0.2528646891507517
p11,Trial: 36,p11.edf,.,2,Fixation: 3598 ms,183,3598,3780,[],75,946,19261,690.1,683.0,2,74,35.6,37.35,5,Saccade: 3569 ms,UP,29,2.77,95.54,186.69,"[ 3, 99]",3569,3597,673.6,766.8,684.9,663.3,6,Saccade: 3781 ms,UP,75,11.51,153.41,401.97,"[ 6, 99]",3781,3855,693.3,681.9,735.7,258.5,-102.43,DOWN,2.19,A16,S16.wav,A16.png,17,14400011,preview,,,,,,,,,,,,,,,,,,[],,,0.2841614906832298,0.659233449477352,0.38666666666666666,0.15270121278941565,0.37390419536631186,0.27722669359389385,0.336322869955157,1.0,0.5389614952220348,0.5444534741974808
p11,Trial: 36,p11.edf,.,3,Fixation: 3856 ms,223,3856,4078,[6],8,998,405,747.9,241.7,1,2,35.3,36.6,6,Saccade: 3781 ms,UP,75,11.51,153.41,401.97,[ 99],3781,3855,693.3,681.9,735.7,258.5,7,Saccade: 4079 ms,LEFT,22,2.05,93.23,131.97,"[ 6, 15, 99]",4079,4100,751.2,242.6,696.9,292.1,-97.78,DOWN,12.05,A16,S16.wav,A16.png,17,14400011,preview,,,,,,,,,,,,,,,,,,[man_1],,,0.34627329192546585,0.6954703832752613,1.0,0.6345093715545755,0.6003835316217908,0.5969083187312525,0.09865470852017937,1.0,0.3275365373805509,0.17874847622917514
p11,Trial: 36,p11.edf,.,4,Fixation: 4101 ms,182,4101,4282,"[6, 15]",8,950,405,706.6,287.1,2,2,35.2,36.5,7,Saccade: 4079 ms,LEFT,22,2.05,93.23,131.97,"[ 6, 99]",4079,4100,751.2,242.6,696.9,292.1,8,Saccade: 4283 ms,LEFT,21,1.57,74.84,86.31,"[ 10, 99]",4283,4303,710.4,290.4,655.4,284.2,46.67,UP,1.71,A16,S16.wav,A16.png,17,14400011,preview,,,,,,,,,,,,,,,,,,"[man_1, tool_1]",,,0.2826086956521739,0.662020905923345,0.29333333333333333,0.11300992282249171,0.36486380713838445,0.1959698256660034,0.09417040358744394,1.0,0.2629286115795391,0.11690369768386835
p11,Trial: 36,p11.edf,.,5,Fixation: 4304 ms,175,4304,4478,[10],20,939,175,659.4,283.1,1,1,35.2,36.5,8,Saccade: 4283 ms,LEFT,21,1.57,74.84,86.31,"[ 6, 15, 99]",4283,4303,710.4,290.4,655.4,284.2,9,Saccade: 4479 ms,RIGHT,18,0.87,48.22,69.25,"[ 6, 15, 99]",4479,4496,659.8,286.9,689.7,280.4,-4.67,RIGHT,1.35,A16,S16.wav,A16.png,17,14400011,preview,,,,,,,,,,,,,,,,,,[wall_1],,,0.2717391304347826,0.6543554006968642,0.28,0.08654906284454245,0.2928929242329368,0.12816667161652462,0.08071748878923767,1.0,0.169406970207982,0.0937965596640932
p11,Trial: 36,p11.edf,.,6,Fixation: 4497 ms,369,4497,4865,[6],8,894,369,679.3,276.7,1,1,35.2,36.5,9,Saccade: 4479 ms,RIGHT,18,0.87,48.22,69.25,"[ 10, 99]",4479,4496,659.8,286.9,689.7,280.4,10,Saccade: 4866 ms,LEFT,64,10.62,166.01,399.26,"[ 5, 99]",4866,4929,675.6,279.6,297.1,304.8,-162.77,LEFT,0.59,A16,S16.wav,A16.png,17,14400011,preview,,,,,,,,,,,,,,,,,,[man_1],,,0.5729813664596274,0.6229965156794425,0.24,0.047960308710033074,0.18871321227301188,0.10283329868432776,0.28699551569506726,1.0,0.5832279370432827,0.5407828795882433
p11,Trial: 36,p11.edf,.,7,Fixation: 4930 ms,144,4930,5073,[5],8,872,144,275.5,301.1,1,1,36.25,37.05,10,Saccade: 4866 ms,LEFT,64,10.62,166.01,399.26,"[ 6, 99]",4866,4929,675.6,279.6,297.1,304.8,11,Saccade: 5074 ms,UP,22,0.84,38.23,70.05,[ 99],5074,5095,274.8,304.1,271.3,273.1,3.36,RIGHT,11.32,A16,S16.wav,A16.png,17,14400011,preview,,,,,,,,,,,,,,,,,,[man_2],,,0.2236024844720497,0.6076655052264809,0.8533333333333334,0.5854465270121278,0.6496947401377582,0.5928840842267827,0.09865470852017937,1.0,0.13431000562113546,0.09488013002844373
p11,Trial: 36,p11.edf,.,8,Fixation: 5096 ms,251,5096,5346,[],75,911,19261,279.9,283.8,8,74,36.35,37.1,11,Saccade: 5074 ms,UP,22,0.84,38.23,70.05,"[ 5, 99]",5074,5095,274.8,304.1,271.3,273.1,12,Saccade: 5347 ms,LEFT,46,5.67,123.31,262.26,"[ 9, 14, 99]",5347,5392,286.8,289.1,113.6,168.8,-104.56,.,0.48,A16,S16.wav,A16.png,17,14400011,preview,,,,,,,,,,,,,,,,,,[],,,0.38975155279503104,0.6348432055749129,0.29333333333333333,0.04630650496141124,0.14961646837820913,0.10402126458970627,0.2062780269058296,1.0,0.4332138842046094,0.35522145469321414
p11,Trial: 36,p11.edf,.,9,Fixation: 5393 ms,220,5393,5612,"[9, 14]",11,946,693,121.1,181.6,1,2,37.65,37.95,12,Saccade: 5347 ms,LEFT,46,5.67,123.31,262.26,"[ 5, 99]",5347,5392,286.8,289.1,113.6,168.8,13,Saccade: 5613 ms,LEFT,23,1.93,83.7,126.9,"[ 9, 99]",5613,5635,123.9,178.8,59.2,144.9,-32.4,RIGHT,5.08,A16,S16.wav,A16.png,17,14400011,preview,,,,,,,,,,,,,,,,,,"[wall_2, rolle_1]",,,0.3416149068322981,0.659233449477352,0.6133333333333333,0.3125689084895259,0.48258453350031305,0.3894449229307119,0.1031390134529148,1.0,0.29405564924114674,0.17188134904510363
p11,Trial: 36,p11.edf,.,10,Fixation: 5636 ms,473,5636,6108,[9],11,946,693,77.0,152.9,2,2,38.1,38.2,13,Saccade: 5613 ms,LEFT,23,1.93,83.7,126.9,"[ 2, 9, 14, 99]",5613,5635,123.9,178.8,59.2,144.9,14,Saccade: 6109 ms,RIGHT,65,9.73,149.73,390.12,"[ 5, 99]",6109,6173,82.1,157.4,364.4,382.7,-32.92,RIGHT,1.39,A16,S16.wav,A16.png,17,14400011,preview,,,,,,,,,,,,,,,,,,[wall_2],,,0.734472049689441,0.659233449477352,0.30666666666666664,0.1063947078280044,0.3275673137132123,0.18844109174066706,0.2914798206278027,1.0,0.5260328836424958,0.5284030881755384
p11,Trial: 36,p11.edf,.,11,Fixation: 6174 ms,225,6174,6398,[5],8,1043,225,371.9,395.9,1,1,35.8,36.8,14,Saccade: 6109 ms,RIGHT,65,9.73,149.73,390.12,"[ 9, 99]",6109,6173,82.1,157.4,364.4,382.7,15,Saccade: 6399 ms,RIGHT,57,7.46,130.89,394.61,"[ 10, 99]",6399,6455,373.2,395.2,617.1,288.6,140.93,LEFT,10.28,A16,S16.wav,A16.png,17,14400011,preview,,,,,,,,,,,,,,,,,,[man_2],,,0.34937888198757766,0.7268292682926829,0.8666666666666667,0.5363836824696803,0.5859815278647463,0.5793115737578332,0.2556053811659193,1.0,0.4598440134907251,0.5344846268454558
p11,Trial: 36,p11.edf,.,12,Fixation: 6456 ms,251,6456,6706,[10],20,1055,531,625.6,281.5,1,2,35.2,36.5,15,Saccade: 6399 ms,RIGHT,57,7.46,130.89,394.61,[ 99],6399,6455,373.2,395.2,617.1,288.6,16,Saccade: 6707 ms,UP,20,1.48,73.97,116.79,"[ 10, 99]",6707,6726,624.3,282.0,657.1,240.0,-156.41,LEFT,7.8,A16,S16.wav,A16.png,17,14400011,preview,,,,,,,,,,,,,,,,,,[wall_1],,,0.38975155279503104,0.735191637630662,0.76,0.4112458654906284,0.5122495303694427,0.5859790324017701,0.08968609865470852,1.0,0.25987211916807196,0.15818772856562374
p11,Trial: 36,p11.edf,.,13,Fixation: 6727 ms,280,6727,7006,[10],20,1000,531,656.3,253.6,2,2,35.2,36.6,16,Saccade: 6707 ms,UP,20,1.48,73.97,116.79,"[ 10, 99]",6707,6726,624.3,282.0,657.1,240.0,17,Saccade: 7007 ms,DOWN,33,1.04,31.57,137.01,"[ 6, 15, 99]",7007,7039,663.9,249.7,680.4,283.7,-138.81,LEFT,1.16,A16,S16.wav,A16.png,17,14400011,preview,,,,,,,,,,,,,,,,,,[wall_1],,,0.43478260869565216,0.6968641114982579,0.26666666666666666,0.08158765159867695,0.2894881026925485,0.17342817261144608,0.14798206278026907,1.0,0.11091202922990445,0.1855749695245835
p11,Trial: 36,p11.edf,.,14,Fixation: 7040 ms,144,7040,7183,[6],8,969,144,680.3,290.4,1,1,35.2,36.5,17,Saccade: 7007 ms,DOWN,33,1.04,31.57,137.01,"[ 10, 99]",7007,7039,663.9,249.7,680.4,283.7,18,Saccade: 7184 ms,DOWN,197,11.3,57.34,738.3,[ 99],7184,7380,683.3,289.1,883.0,651.9,124.11,UP,1.22,A16,S16.wav,A16.png,17,14400011,preview,,,,,,,,,,,,,,,,,,[man_1],,,0.2236024844720497,0.6752613240418118,0.44,0.05733186328555678,0.12355197244834064,0.20345401086988804,0.8834080717488789,1.0,0.20144744238336146,1.0
p11,Trial: 36,p11.edf,.,15,Fixation: 7547 ms,260,7547,7806,[19],1,1038,260,1010.1,657.2,1,1,36.7,37.85,19,Saccade: 7520 ms,RIGHT,27,3.61,133.56,245.85,[ 99],7520,7546,883.9,661.6,1014.6,649.0,20,Saccade: 7807 ms,UP,58,5.19,89.53,316.66,"[ 21, 22, 99]",7807,7864,1013.2,657.7,1108.9,487.8,132.92,UP,13.47,A16,S16.wav,A16.png,17,14400011,preview,,,,,,,,,,,,,,,,,,[ box_1],,,0.40372670807453415,0.7233449477351916,0.36,0.1990077177508269,0.5226988102692548,0.3650767722966351,0.2600896860986547,1.0,0.31453766160764474,0.4289042394690506
p11,Trial: 36,p11.edf,.,16,Fixation: 7865 ms,484,7865,8348,"[21, 22]",1,1104,484,1110.4,466.9,1,1,37.15,37.55,20,Saccade: 7807 ms,UP,58,5.19,89.53,316.66,"[ 19, 99]",7807,7864,1013.2,657.7,1108.9,487.8,21,Saccade: 8349 ms,LEFT,65,8.68,133.58,388.3,"[ 6, 99]",8349,8413,1107.4,463.1,793.9,496.3,-118.29,DOWN,5.73,A16,S16.wav,A16.png,17,14400011,preview,,,,,,,,,,,,,,,,,,"[towel_1, heater_1]",,,0.7515527950310559,0.7693379790940766,0.7733333333333333,0.2861080485115766,0.35038353162179087,0.47022660449645104,0.2914798206278027,1.0,0.4692945474985948,0.525937965596641
p11,Trial: 36,p11.edf,.,17,Fixation: 8414 ms,336,8414,8749,[6],8,1224,336,773.6,504.4,1,1,35.45,36.7,21,Saccade: 8349 ms,LEFT,65,8.68,133.58,388.3,"[ 21, 22, 99]",8349,8413,1107.4,463.1,793.9,496.3,22,Saccade: 8750 ms,LEFT,56,4.91,87.71,315.27,[ 99],8750,8805,773.0,504.1,632.2,610.3,6.21,RIGHT,9.33,A16,S16.wav,A16.png,17,14400011,preview,,,,,,,,,,,,,,,,,,[man_1],,,0.5217391304347826,0.8529616724738676,0.8666666666666667,0.4785005512679162,0.522777082028804,0.5766089513230971,0.25112107623318386,1.0,0.30814362001124224,0.42702153596099146
p11,Trial: 36,p11.edf,.,18,Fixation: 8806 ms,141,8806,8946,[],75,1317,19261,626.6,617.5,18,74,35.45,37.05,22,Saccade: 8750 ms,LEFT,56,4.91,87.71,315.27,"[ 6, 99]",8750,8805,773.0,504.1,632.2,610.3,23,Saccade: 8947 ms,UP,71,8.72,122.87,519.11,[ 99],8947,9017,625.7,625.2,444.1,364.8,36.49,RIGHT,5.16,A16,S16.wav,A16.png,17,14400011,preview,,,,,,,,,,,,,,,,,,[],,,0.21894409937888198,0.9177700348432056,0.7466666666666667,0.27067254685777287,0.34326080150281774,0.46816251373585577,0.3183856502242152,1.0,0.431668071950534,0.7031152647975079
p11,Trial: 36,p11.edf,.,19,Fixation: 9277 ms,300,9277,9576,[5],8,1363,300,298.5,339.6,1,1,36.25,37.0,24,Saccade: 9237 ms,LEFT,40,4.51,112.72,244.34,[ 99],9237,9276,441.6,361.8,281.8,335.4,25,Saccade: 9577 ms,UP,52,8.61,165.48,345.24,"[ 9, 14, 99]",9577,9628,293.4,343.2,84.8,97.7,-39.36,RIGHT,11.84,A16,S16.wav,A16.png,17,14400011,preview,,,,,,,,,,,,,,,,,,[man_2],,,0.4658385093167702,0.9498257839721255,0.5333333333333333,0.24862183020948178,0.4411396368190357,0.36283448665023316,0.23318385650224216,1.0,0.5813659359190556,0.4676147907354734
p11,Trial: 36,p11.edf,.,20,Fixation: 9629 ms,196,9629,9824,"[9, 14]",11,1276,938,97.4,118.1,1,3,38.0,38.25,25,Saccade: 9577 ms,UP,52,8.61,165.48,345.24,"[ 5, 99]",9577,9628,293.4,343.2,84.8,97.7,26,Saccade: 9825 ms,LEFT,23,1.35,58.54,98.04,"[ 9, 14, 99]",9825,9847,96.7,119.7,49.6,99.1,-47.38,DOWN,8.0,A16,S16.wav,A16.png,17,14400011,preview,,,,,,,,,,,,,,,,,,"[wall_2, rolle_1]",,,0.30434782608695654,0.889198606271777,0.6933333333333334,0.4746416758544652,0.6476205385097056,0.5126666864660985,0.1031390134529148,1.0,0.20566329398538505,0.1327915481511581
p11,Trial: 36,p11.edf,.,21,Fixation: 9848 ms,384,9848,10231,"[9, 14]",11,1233,938,60.2,122.1,2,3,38.3,38.4,26,Saccade: 9825 ms,LEFT,23,1.35,58.54,98.04,"[ 9, 14, 99]",9825,9847,96.7,119.7,49.6,99.1,27,Saccade: 10232 ms,LEFT,11,0.6,54.43,50.54,"[ 9, 99]",10232,10242,63.5,132.3,40.6,133.5,6.11,RIGHT,0.98,A16,S16.wav,A16.png,17,14400011,preview,,,,,,,,,,,,,,,,,,"[wall_2, rolle_1]",,,0.5962732919254659,0.8592334494773519,0.30666666666666664,0.07442116868798236,0.2291014402003757,0.1455852217041371,0.04932735426008968,1.0,0.1912240022484542,0.06845455776784505
p11,Trial: 36,p11.edf,.,22,Fixation: 10243 ms,358,10243,10600,[9],11,1266,938,49.3,131.3,3,3,38.45,38.4,27,Saccade: 10232 ms,LEFT,11,0.6,54.43,50.54,"[ 9, 14, 99]",10232,10242,63.5,132.3,40.6,133.5,28,Saccade: 10601 ms,RIGHT,223,20.23,90.7,179.15,[ 99],10601,10823,47.9,119.7,589.2,646.8,40.15,.,0.37,A16,S16.wav,A16.png,17,14400011,preview,,,,,,,,,,,,,,,,,,[wall_2],,,0.5559006211180124,0.8822299651567944,0.14666666666666667,0.0330760749724366,0.2130165936130244,0.07504974607228773,1.0,1.0,0.3186481169196178,0.24265203846674796
p11,Trial: 36,p11.edf,.,23,Fixation: 10944 ms,260,10944,11203,[3],6,1401,260,666.0,745.4,1,1,35.8,37.75,29,Saccade: 10907 ms,RIGHT,37,2.75,74.25,273.21,[ 99],10907,10943,594.8,672.3,665.4,743.9,30,Saccade: 11204 ms,UP,65,8.73,134.33,673.42,"[ 18, 99]",11204,11268,666.3,747.7,872.2,502.6,135.85,LEFT,23.15,A16,S16.wav,A16.png,17,14400011,preview,,,,,,,,,,,,,,,,,,[woman_1],,,0.40372670807453415,0.9763066202090592,0.49333333333333335,0.1515986769570011,0.2905839073262367,0.4057052062605803,0.2914798206278027,1.0,0.47192945474985953,0.9121224434511717
p11,Trial: 36,p11.edf,.,24,Fixation: 11269 ms,644,11269,11912,"[18, 20]",11,1378,644,877.9,478.5,1,1,35.7,36.9,30,Saccade: 11204 ms,UP,65,8.73,134.33,673.42,"[ 3, 99]",11204,11268,666.3,747.7,872.2,502.6,31,Saccade: 11913 ms,LEFT,73,14.34,196.48,490.71,"[ 5, 99]",11913,11985,878.7,481.7,366.2,514.5,-129.66,DOWN,9.29,A16,S16.wav,A16.png,17,14400011,preview,,,,,,,,,,,,,,,,,,"[cabinet_1,  box_2]",,,1.0,0.9602787456445993,0.8666666666666667,0.4812568908489526,0.5257122730118974,1.0,0.3273542600896861,1.0,0.6902754356379989,0.6646485168630638
p11,Trial: 36,p11.edf,.,25,Fixation: 11986 ms,332,11986,12317,[5],8,1435,332,346.2,524.0,1,1,36.0,37.05,31,Saccade: 11913 ms,LEFT,73,14.34,196.48,490.71,"[ 18, 20, 99]",11913,11985,878.7,481.7,366.2,514.5,32,Saccade: 12318 ms,UP,64,6.97,108.86,372.85,[ 99],12318,12381,337.7,526.0,215.5,298.9,4.74,RIGHT,14.88,A16,S16.wav,A16.png,17,14400011,preview,,,,,,,,,,,,,,,,,,[man_2],,,0.515527950310559,1.0,0.9733333333333334,0.7905181918412348,0.7689417658108954,0.7286834367853643,0.28699551569506726,1.0,0.3824480044969084,0.5050115129351213
p11,Trial: 36,p11.edf,.,26,Fixation: 12602 ms,230,12602,12831,"[9, 14]",11,1257,385,83.5,150.1,1,2,37.95,38.15,33,Saccade: 12552 ms,UP,50,4.74,94.88,372.45,[ 99],12552,12601,206.8,298.2,90.7,163.1,34,Saccade: 12832 ms,LEFT,13,0.7,53.55,59.67,"[ 9, 99]",12832,12844,77.9,149.6,51.5,146.7,-54.46,DOWN,12.22,A16,S16.wav,A16.png,17,14400011,preview,,,,,,,,,,,,,,,,,,"[wall_2, rolle_1]",,,0.35714285714285715,0.8759581881533101,0.6666666666666666,0.2613009922822492,0.3713212273011897,0.5530723768227852,0.05829596412556054,1.0,0.18813237774030353,0.08082080455099554
p11,Trial: 36,p11.edf,.,27,Fixation: 12845 ms,155,12845,12999,[9],11,1158,385,54.6,145.7,2,2,38.3,38.3,34,Saccade: 12832 ms,LEFT,13,0.7,53.55,59.67,"[ 9, 99]",12832,12844,77.9,149.6,51.5,146.7,35,Saccade: 13000 ms,RIGHT,58,8.6,148.23,519.29,"[ 5, 99]",13000,13057,53.5,149.6,306.9,347.1,-8.63,RIGHT,0.77,A16,S16.wav,A16.png,17,14400011,preview,,,,,,,,,,,,,,,,,,[wall_2],,,0.2406832298136646,0.8069686411149826,0.17333333333333334,0.038588754134509365,0.2095726361928616,0.08860740696742005,0.2600896860986547,1.0,0.5207630691399663,0.7033590681294867
p11,Trial: 36,p11.edf,13153,28,Fixation: 13058 ms,345,13058,13402,[5],8,1122,345,319.3,369.5,1,1,36.05,36.95,35,Saccade: 13000 ms,RIGHT,58,8.6,148.23,519.29,"[ 9, 99]",13000,13057,53.5,149.6,306.9,347.1,36,Saccade: 13403 ms,RIGHT,198,12.83,64.79,284.23,[ 99],13403,13600,322.6,369.2,708.6,625.5,140.13,LEFT,9.28,A16,S16.wav,A16.png,17,14400011,preview,,,,,,,,,,,,,,,,,,[man_2],,,0.5357142857142857,0.7818815331010452,0.7733333333333333,0.47409040793825796,0.5801111458985597,0.7711235187550117,0.8878923766816144,1.0,0.2276208544125914,0.38497900582419076
p11,Trial: 36,p11.edf,.,29,Fixation: 13764 ms,395,13764,14158,[3],6,1323,395,649.1,745.7,1,1,35.8,37.75,37,Saccade: 13725 ms,DOWN,39,2.78,71.27,316.27,[ 99],13725,13763,697.6,638.8,661.4,735.7,38,Saccade: 14159 ms,UP,70,10.26,146.63,376.37,"[ 18, 20, 99]",14159,14228,650.0,753.2,895.0,467.5,132.35,UP,13.63,A16,S16.wav,A16.png,17,14400011,task,[2],[Verb],[290],[820],[530],[0],[befindet],[is],[0.0],[0.0],[nan],[nan],[befinden],[nan],[nan],[nan],[nan],[woman_1],,,0.6133540372670807,0.9219512195121952,0.52,0.15325248070562292,0.2789214151534126,0.46964747111757893,0.31390134529147984,1.0,0.5151419336706015,0.5097792225382636
p11,Trial: 36,p11.edf,.,30,Fixation: 14229 ms,150,14229,14378,[18],11,1386,436,900.2,444.0,1,2,35.8,36.85,38,Saccade: 14159 ms,UP,70,10.26,146.63,376.37,"[ 3, 99]",14159,14228,650.0,753.2,895.0,467.5,39,Saccade: 14379 ms,UP,36,1.65,45.83,179.12,"[ 18, 99]",14379,14414,898.2,440.3,914.0,381.8,-130.93,DOWN,10.71,A16,S16.wav,A16.png,17,14400011,task,[3],[Pronoun_ref],[880],[1110],[230],[0],[sich],[nan],[0.0],[0.0],[nan],[nan],[sie],[nan],[nan],[nan],[nan],[cabinet_1],,,0.2329192546583851,0.9658536585365853,0.9333333333333333,0.5656008820286659,0.5738494051346273,0.5588934097591399,0.16143497757847533,1.0,0.16101039910061832,0.2426114045780848
p11,Trial: 36,p11.edf,.,31,Fixation: 14415 ms,286,14415,14700,[18],11,1313,436,908.8,378.9,2,2,35.8,36.8,39,Saccade: 14379 ms,UP,36,1.65,45.83,179.12,"[ 18, 99]",14379,14414,898.2,440.3,914.0,381.8,40,Saccade: 14701 ms,LEFT,56,6.26,111.82,349.35,"[ 6, 15, 99]",14701,14756,908.8,379.0,702.2,294.3,-97.74,DOWN,1.78,A16,S16.wav,A16.png,17,14400011,task,,break,,,,,,,,,,,,,,,,[cabinet_1],,,0.4440993788819876,0.9149825783972125,0.48,0.09095920617420065,0.1793597370068879,0.2659855662142497,0.25112107623318386,1.0,0.3928471051152333,0.47318163348232434
p11,Trial: 36,p11.edf,14800,32,Fixation: 14757 ms,262,14757,15018,"[6, 15]",8,1193,262,688.6,290.2,1,1,35.2,36.5,40,Saccade: 14701 ms,LEFT,56,6.26,111.82,349.35,"[ 18, 99]",14701,14756,908.8,379.0,702.2,294.3,41,Saccade: 15019 ms,LEFT,23,1.24,53.96,111.3,"[ 10, 99]",15019,15041,686.6,295.0,643.5,302.4,-21.31,RIGHT,6.66,A16,S16.wav,A16.png,17,14400011,task,[4],[Determiner_1],[1275],[1560],[285],[0],[eine],[a],[0.0],[0.0],[nan],[nan],[eine],[nan],[nan],[nan],[nan],"[man_1, tool_1]",,,0.40683229813664595,0.8313588850174216,0.7466666666666667,0.34509371554575524,0.43761740763932366,0.5187698613049806,0.1031390134529148,1.0,0.18957279370432828,0.1507517269402682
p11,Trial: 36,p11.edf,.,33,Fixation: 15042 ms,293,15042,15334,[10],20,1225,840,645.6,298.7,1,3,35.2,36.5,41,Saccade: 15019 ms,LEFT,23,1.24,53.96,111.3,"[ 6, 15, 99]",15019,15041,686.6,295.0,643.5,302.4,42,Saccade: 15335 ms,LEFT,42,5.18,123.37,305.06,"[ 10, 11, 99]",15335,15376,646.0,294.7,516.2,160.9,10.79,RIGHT,1.24,A16,S16.wav,A16.png,17,14400011,task,[5],[Noun_1],[1600],[2045],[445],[0],[Lampe],[lamp],[0.0],[0.0],[lamp_1],[S01_I016_E008],[Lampe],[nan],[nan],[nan],[nan],[wall_1],,,0.4549689440993789,0.8536585365853658,0.30666666666666664,0.06835722160970231,0.21117720726361927,0.165275756585786,0.18834080717488788,1.0,0.4334246767847105,0.4131924691859678
p11,Trial: 36,p11.edf,.,34,Fixation: 15377 ms,224,15377,15600,"[10, 11]",20,1309,840,530.1,168.8,2,3,35.4,36.8,42,Saccade: 15335 ms,LEFT,42,5.18,123.37,305.06,"[ 10, 99]",15335,15376,646.0,294.7,516.2,160.9,43,Saccade: 15601 ms,UP,20,0.94,47.05,76.31,"[ 10, 11, 99]",15601,15620,535.1,169.4,526.5,135.9,-47.29,DOWN,4.82,A16,S16.wav,A16.png,17,14400011,task,,break,,,,,,,,,,,,,,,,"[wall_1, lamp_1]",,,0.34782608695652173,0.9121951219512195,0.56,0.2855567805953693,0.48281934877896054,0.4530010988684625,0.08968609865470852,1.0,0.165296514896009,0.10335906812948667
p11,Trial: 36,p11.edf,.,35,Fixation: 15621 ms,323,15621,15943,"[10, 11]",20,1227,840,527.5,144.5,3,3,35.5,36.9,43,Saccade: 15601 ms,UP,20,0.94,47.05,76.31,"[ 10, 11, 99]",15601,15620,535.1,169.4,526.5,135.9,44,Saccade: 15944 ms,RIGHT,40,6.27,156.79,277.51,"[ 6, 99]",15944,15983,527.6,143.2,748.1,172.8,-83.65,DOWN,0.66,A16,S16.wav,A16.png,17,14400011,task,[6],[Preposition_1],[2450],[2570],[120],[0],[an],[on],[0.0],[0.0],[nan],[nan],[an],[nan],[nan],[nan],[nan],"[wall_1, lamp_1]",,,0.5015527950310559,0.8550522648083624,0.26666666666666666,0.05181918412348401,0.18413431433938632,0.11331709779929316,0.17937219730941703,1.0,0.550836143901068,0.3758770147636462
p11,Trial: 36,p11.edf,16110,36,Fixation: 15984 ms,215,15984,16198,[6],8,1043,215,749.2,165.7,1,1,35.4,36.8,44,Saccade: 15944 ms,RIGHT,40,6.27,156.79,277.51,"[ 10, 11, 99]",15944,15983,527.6,143.2,748.1,172.8,45,Saccade: 16199 ms,LEFT,71,18.14,255.52,626.69,"[ 9, 14, 99]",16199,16269,753.1,165.3,88.6,122.6,174.74,LEFT,6.28,A16,S16.wav,A16.png,17,14400011,task,[7],[Determiner_2],[2580],[2835],[255],[0],[einer],[a],[0.0],[0.0],[nan],[nan],[eine],[nan],[nan],[nan],[nan],[man_1],,,0.3338509316770186,0.7268292682926829,0.5333333333333333,0.3456449834619625,0.613611458985598,0.41209052300198984,0.3183856502242152,1.0,0.8976953344575606,0.8488283895435461
p11,Trial: 36,p11.edf,.,37,Fixation: 16270 ms,138,16270,16407,"[9, 14]",11,1040,340,82.3,124.7,1,2,38.0,38.25,45,Saccade: 16199 ms,LEFT,71,18.14,255.52,626.69,"[ 6, 99]",16199,16269,753.1,165.3,88.6,122.6,46,Saccade: 16408 ms,LEFT,25,1.27,50.83,125.98,"[ 9, 99]",16408,16432,82.6,122.8,34.5,115.8,-3.44,RIGHT,18.2,A16,S16.wav,A16.png,17,14400011,task,[8],[Noun_2],[2910],[3260],[350],[0],[Wand],[wall],[0.0],[1.0],[wall_1],[S01_I016_E007],[Wand],[nan],[nan],[nan],[nan],"[wall_2, rolle_1]",,,0.21428571428571427,0.7247386759581882,0.9466666666666667,1.0,1.0,0.9306079415520776,0.11210762331838565,1.0,0.17857644744238335,0.1706352431261005
p11,Trial: 36,p11.edf,.,38,Fixation: 16433 ms,202,16433,16634,"[9, 14]",11,1118,340,43.5,120.5,2,2,38.45,38.45,46,Saccade: 16408 ms,LEFT,25,1.27,50.83,125.98,"[ 9, 14, 99]",16408,16432,82.6,122.8,34.5,115.8,47,Saccade: 16635 ms,RIGHT,69,19.64,284.64,640.01,"[ 6, 99]",16635,16703,47.1,126.3,769.4,186.6,-6.16,RIGHT,1.02,A16,S16.wav,A16.png,17,14400011,task,[8],[Noun_2],[2910],[3260],[350],[0],[Wand],[wall],[0.0],[1.0],[wall_1],[S01_I016_E007],[Wand],[nan],[nan],[nan],[nan],"[wall_2, rolle_1]",,,0.3136645962732919,0.7790940766550523,0.3333333333333333,0.07001102535832414,0.19892767689417656,0.18707493094948177,0.3094170403587444,1.0,1.0,0.8668698361099825
p11,Trial: 36,p11.edf,.,39,Fixation: 16799 ms,294,16799,17092,[],75,1216,19261,931.8,194.6,39,74,35.95,37.05,48,Saccade: 16759 ms,RIGHT,40,3.17,79.36,336.36,[ 99],16759,16798,800.4,184.1,913.0,197.3,49,Saccade: 17093 ms,LEFT,25,2.39,95.72,165.89,[ 99],17093,17117,929.9,189.7,844.3,193.3,175.3,LEFT,23.96,A16,S16.wav,A16.png,17,14400011,task,,break,,,,,,,,,,,,,,,,[],,,0.45652173913043476,0.8473867595818816,0.5333333333333333,0.1747519294377067,0.3105823418910457,0.49948026491639697,0.11210762331838565,1.0,0.33628442945474984,0.2246918596776378
p11,Trial: 36,p11.edf,.,40,Fixation: 17118 ms,176,17118,17293,[4],1,1317,176,860.1,190.1,1,1,35.65,36.9,49,Saccade: 17093 ms,LEFT,25,2.39,95.72,165.89,[ 99],17093,17117,929.9,189.7,844.3,193.3,50,Saccade: 17294 ms,LEFT,58,7.93,136.69,436.01,"[ 10, 11, 99]",17294,17351,859.1,187.8,580.6,142.9,-3.48,RIGHT,2.01,A16,S16.wav,A16.png,17,14400011,task,[10],[Relative Clause Pers. Pronoun],[3750],[3880],[130],[0],[er],[he],[0.0],[0.0],[man_1],[S01_I016_E005],[er],[nan],[nan],[nan],[nan],[lamp_3],,,0.2732919254658385,0.9177700348432056,0.3333333333333333,0.13175303197353913,0.37460864120225423,0.24633958005405243,0.2600896860986547,1.0,0.4802206295671726,0.590559393200596
p11,Trial: 36,p11.edf,.,41,Fixation: 17352 ms,258,17352,17609,"[10, 11]",20,1393,1508,568.6,144.6,1,6,35.4,36.85,50,Saccade: 17294 ms,LEFT,58,7.93,136.69,436.01,"[ 4, 99]",17294,17351,859.1,187.8,580.6,142.9,51,Saccade: 17610 ms,DOWN,26,1.92,73.7,133.54,"[ 10, 99]",17610,17635,570.2,142.3,596.7,207.2,-8.55,RIGHT,8.3,A16,S16.wav,A16.png,17,14400011,task,[11],[Relative Clause Adverb],[3910],[4630],[720],[0],[sorgfältig],[carefully],[0.0],[0.0],[nan],[nan],[sorgfältig],[nan],[nan],[nan],[nan],"[wall_1, lamp_1]",,,0.40062111801242234,0.9707317073170731,0.7733333333333333,0.4371554575523704,0.5349483406386976,0.6474562680051082,0.11659192825112108,1.0,0.2589235525576167,0.18087498306921307
p11,Trial: 36,p11.edf,.,42,Fixation: 17636 ms,199,17636,17834,[10],20,1354,1508,591.5,189.5,2,6,35.3,36.7,51,Saccade: 17610 ms,DOWN,26,1.92,73.7,133.54,"[ 10, 11, 99]",17610,17635,570.2,142.3,596.7,207.2,52,Saccade: 17835 ms,DOWN,28,2.42,86.45,175.18,"[ 10, 99]",17835,17862,588.8,189.6,645.5,255.8,117.95,UP,1.38,A16,S16.wav,A16.png,17,14400011,task,[11],[Relative Clause Adverb],[3910],[4630],[720],[0],[sorgfältig],[carefully],[0.0],[0.0],[nan],[nan],[sorgfältig],[nan],[nan],[nan],[nan],[wall_1],,,0.3090062111801242,0.9435540069686411,0.3466666666666667,0.10584343991179712,0.28843143393863496,0.1983012087553087,0.12556053811659193,1.0,0.3037169758291175,0.23727482053365842
p11,Trial: 36,p11.edf,17870,43,Fixation: 17863 ms,279,17863,18141,[10],20,1327,1508,636.1,240.7,3,6,35.2,36.55,52,Saccade: 17835 ms,DOWN,28,2.42,86.45,175.18,"[ 10, 99]",17835,17862,588.8,189.6,645.5,255.8,53,Saccade: 18142 ms,DOWN,20,1.1,55.17,78.42,"[ 10, 99]",18142,18161,634.3,234.9,656.9,267.7,132.15,UP,1.89,A16,S16.wav,A16.png,17,14400011,task,"[11, 12]","[Relative Clause Adverb, Relative Clause Verb]","[3910, 4670]","[4630, 5260]","[720, 590]","[0, 0]","[sorgfältig, repariert]","[carefully, repairs]","[0.0, 1.0]","[0.0, 0.0]","[nan, nan]","[nan, nan]","[sorgfältig, reparieren]","[nan, nan]","[nan, nan]","[nan, nan]","[nan, nan]",[wall_1],,,0.4332298136645963,0.9247386759581881,0.37333333333333335,0.13340683572216097,0.33832968065122104,0.2601348341302605,0.08968609865470852,1.0,0.19382377740303544,0.1062169849654612
p11,Trial: 36,p11.edf,.,44,Fixation: 18162 ms,163,18162,18324,[10],20,1293,1508,650.4,262.6,4,6,35.2,36.5,53,Saccade: 18142 ms,DOWN,20,1.1,55.17,78.42,"[ 10, 99]",18142,18161,634.3,234.9,656.9,267.7,54,Saccade: 18325 ms,RIGHT,20,0.9,44.77,77.76,"[ 6, 99]",18325,18344,651.0,262.0,678.9,277.2,124.12,UP,0.72,A16,S16.wav,A16.png,17,14400011,task,[12],[Relative Clause Verb],[4670],[5260],[590],[0],[repariert],[repairs],[1.0],[0.0],[nan],[nan],[reparieren],[nan],[nan],[nan],[nan],[wall_1],,,0.2531055900621118,0.9010452961672474,0.26666666666666666,0.06063947078280044,0.21591264871634314,0.116450357874729,0.08968609865470852,1.0,0.15728639685216417,0.10532303941487202
p11,Trial: 36,p11.edf,.,45,Fixation: 18345 ms,239,18345,18583,[10],20,1283,1508,671.9,271.8,5,6,35.2,36.5,54,Saccade: 18325 ms,RIGHT,20,0.9,44.77,77.76,"[ 10, 99]",18325,18344,651.0,262.0,678.9,277.2,55,Saccade: 18584 ms,LEFT,11,0.59,53.67,50.13,"[ 10, 99]",18584,18594,668.8,272.0,648.4,267.9,157.58,LEFT,0.66,A16,S16.wav,A16.png,17,14400011,task,[12],[Relative Clause Verb],[4670],[5260],[590],[0],[repariert],[repairs],[1.0],[0.0],[nan],[nan],[reparieren],[nan],[nan],[nan],[nan],[wall_1],,,0.37111801242236025,0.8940766550522649,0.26666666666666666,0.04961411245865491,0.1752113337507827,0.11547028600279173,0.04932735426008968,1.0,0.1885539629005059,0.0678992279561154
p11,Trial: 36,p11.edf,.,46,Fixation: 18595 ms,370,18595,18964,[10],20,1246,1508,658.2,267.2,6,6,35.2,36.5,55,Saccade: 18584 ms,LEFT,11,0.59,53.67,50.13,"[ 10, 99]",18584,18594,668.8,272.0,648.4,267.9,56,Saccade: 18965 ms,LEFT,57,8.88,155.74,418.89,"[ 5, 99]",18965,19021,662.2,266.9,367.7,382.7,-17.94,.,0.41,A16,S16.wav,A16.png,17,14400011,task,,break,,,,,,,,,,,,,,,,[wall_1],,,0.5745341614906833,0.8682926829268293,0.14666666666666667,0.03252480705622932,0.21004226675015655,0.07444091354578125,0.2556053811659193,1.0,0.5471472737492974,0.5673709874034946
p11,Trial: 36,p11.edf,19250,47,Fixation: 19022 ms,331,19022,19352,[5],8,1173,439,359.6,393.2,1,2,35.8,36.8,56,Saccade: 18965 ms,LEFT,57,8.88,155.74,418.89,"[ 10, 99]",18965,19021,662.2,266.9,367.7,382.7,57,Saccade: 19353 ms,UP,38,4.1,107.95,270.75,"[ 5, 99]",19353,19390,364.7,396.2,309.1,256.0,22.23,RIGHT,9.09,A16,S16.wav,A16.png,17,14400011,post,,,,,,,,,,,,,,,,,,[man_2],,,0.5139751552795031,0.8174216027874565,0.76,0.48952590959206177,0.6095021916092674,0.622033797630008,0.17040358744394618,1.0,0.3792509836987072,0.36672084518488424
p11,Trial: 36,p11.edf,.,48,Fixation: 19391 ms,108,19391,19498,[5],8,1195,439,316.6,265.7,2,2,36.1,37.0,57,Saccade: 19353 ms,UP,38,4.1,107.95,270.75,"[ 5, 99]",19353,19390,364.7,396.2,309.1,256.0,58,Saccade: 19499 ms,RIGHT,53,6.91,130.44,409.72,"[ 10, 11, 99]",19499,19551,316.0,263.1,546.0,169.7,-70.91,DOWN,3.66,A16,S16.wav,A16.png,17,14400011,post,,,,,,,,,,,,,,,,,,[man_2],,,0.16770186335403728,0.8327526132404182,0.5066666666666667,0.22601984564498342,0.4224718221665623,0.40205221110154143,0.23766816143497757,1.0,0.4582630691399663,0.5549505621021266
