RECORDING_SESSION_LABEL,TRIAL_LABEL,DATA_FILE,CURRENT_FIX_MSG_TIME_1,CURRENT_FIX_INDEX,CURRENT_FIX_LABEL,CURRENT_FIX_DURATION,CURRENT_FIX_START,CURRENT_FIX_END,CURRENT_FIX_INTEREST_AREAS,CURRENT_FIX_INTEREST_AREA_FIX_COUNT,CURRENT_FIX_PUPIL,CURRENT_FIX_RUN_DWELL_TIME,CURRENT_FIX_X,CURRENT_FIX_Y,CURRENT_FIX_RUN_INDEX,CURRENT_FIX_RUN_SIZE,CURRENT_FIX_X_RESOLUTION,CURRENT_FIX_Y_RESOLUTION,PREVIOUS_SAC_INDEX,PREVIOUS_SAC_LABEL,PREVIOUS_SAC_DIRECTION,PREVIOUS_SAC_DURATION,PREVIOUS_SAC_AMPLITUDE,PREVIOUS_SAC_AVG_VELOCITY,PREVIOUS_SAC_PEAK_VELOCITY,PREVIOUS_SAC_START_INTEREST_AREAS,PREVIOUS_SAC_START_TIME,PREVIOUS_SAC_END_TIME,PREVIOUS_SAC_START_X,PREVIOUS_SAC_START_Y,PREVIOUS_SAC_END_X,PREVIOUS_SAC_END_Y,NEXT_SAC_INDEX,NEXT_SAC_LABEL,NEXT_SAC_DIRECTION,NEXT_SAC_DURATION,NEXT_SAC_AMPLITUDE,NEXT_SAC_AVG_VELOCITY,NEXT_SAC_PEAK_VELOCITY,NEXT_SAC_END_INTEREST_AREAS,NEXT_SAC_START_TIME,NEXT_SAC_END_TIME,NEXT_SAC_START_X,NEXT_SAC_START_Y,NEXT_SAC_END_X,NEXT_SAC_END_Y,PREVIOUS_FIX_ANGLE,PREVIOUS_FIX_DIRECTION,PREVIOUS_FIX_DISTANCE,ItemNO,audiofilename,imagefilename,TRIAL_INDEX,TRIAL_START_TIME,viewtype,word_index,Label,word_onset,word_offset,word_duration,Continuation,wordDE,wordEN,REFWord,TargetObj,ObjectLabel,ObjectID,LemmaDE,LingIndex,DepS,pos_1,pos_2,CURRENT_FIX_INTEREST_AREAS_Labelled,PREVIOUS_SAC_START_INTEREST_AREAS_Labelled,NEXT_SAC_END_INTEREST_AREAS_Labelled,NORMALIZED_CURRENT_FIX_DURATION,NORMALIZED_CURRENT_FIX_PUPIL,NORMALIZED_PREVIOUS_SAC_DURATION,NORMALIZED_PREVIOUS_SAC_AMPLITUDE,NORMALIZED_PREVIOUS_SAC_AVG_VELOCITY,NORMALIZED_PREVIOUS_SAC_PEAK_VELOCITY,NORMALIZED_NEXT_SAC_DURATION,NORMALIZED_NEXT_SAC_AMPLITUDE,NORMALIZED_NEXT_SAC_AVG_VELOCITY,NORMALIZED_NEXT_SAC_PEAK_VELOCITY
p4,Trial: 38,p4.edf,.,1,Fixation: 3331 ms,160,3331,3490,[],78,679,15037,598.8,477.3,1,59,35.2,36.6,7,Saccade: 3262 ms,UP,69,14.68,212.7,485.77,[ ],3262,3330,657.6,1028.5,598.7,467.7,8,Saccade: 3491 ms,RIGHT,53,9.13,172.21,296.91,"[ 3, 24, 99]",3491,3543,597.6,473.7,908.7,380.1,-83.18,DOWN,13.41,A18,S18.wav,A18.png,17,6549623,preview,,,,,,,,,,,,,,,,,,[],,,0.21534320323014805,0.6046304541406946,0.8625,0.716447047340166,0.6434535333978703,0.7760400025560737,0.6625,1.0,0.5209644240077445,0.47432743306281555
p4,Trial: 38,p4.edf,.,2,Fixation: 3544 ms,124,3544,3667,"[3, 24]",13,711,272,908.2,382.4,1,2,35.8,36.8,8,Saccade: 3491 ms,RIGHT,53,9.13,172.21,296.91,"[ 6, 99]",3491,3543,597.6,473.7,908.7,380.1,9,Saccade: 3668 ms,RIGHT,31,1.66,53.53,152.23,"[ 3, 99]",3668,3698,908.7,380.3,962.0,407.8,-163.48,LEFT,9.09,A18,S18.wav,A18.png,17,6549623,preview,,,,,,,,,,,,,,,,,,"[girl_1, backpack_1]",,,0.16689098250336473,0.6331255565449688,0.6625,0.4455832113225965,0.5209644240077445,0.47432743306281555,0.3875,1.0,0.16193731848983545,0.2431944533197009
p4,Trial: 38,p4.edf,.,3,Fixation: 3699 ms,148,3699,3846,[3],13,748,272,966.4,416.2,2,2,36.1,37.0,9,Saccade: 3668 ms,RIGHT,31,1.66,53.53,152.23,"[ 3, 24, 99]",3668,3698,908.7,380.3,962.0,407.8,10,Saccade: 3847 ms,DOWN,65,12.04,185.27,607.5,"[ 12, 99]",3847,3911,970.0,417.6,686.4,758.7,150.5,LEFT,1.86,A18,S18.wav,A18.png,17,6549623,preview,,,,,,,,,,,,,,,,,,[girl_1],,,0.19919246298788695,0.666073018699911,0.3875,0.08101512933138116,0.16193731848983545,0.2431944533197009,0.8125,1.0,0.5604731364956438,0.970509297718704
p4,Trial: 38,p4.edf,.,4,Fixation: 3912 ms,131,3912,4042,[12],4,740,131,691.5,755.8,1,1,35.85,37.85,10,Saccade: 3847 ms,DOWN,65,12.04,185.27,607.5,"[ 3, 99]",3847,3911,970.0,417.6,686.4,758.7,11,Saccade: 4043 ms,LEFT,80,17.59,219.84,520.57,"[ 2, 99]",4043,4122,692.8,753.2,241.7,287.8,49.9,UP,11.86,A18,S18.wav,A18.png,17,6549623,preview,,,,,,,,,,,,,,,,,,[man_1],,,0.17631224764468373,0.6589492430988424,0.8125,0.5876037091264031,0.5604731364956438,0.970509297718704,1.0,1.0,0.665053242981607,0.831634609240207
p4,Trial: 38,p4.edf,.,5,Fixation: 4123 ms,135,4123,4257,[2],5,769,391,237.3,296.3,1,2,36.6,37.2,11,Saccade: 4043 ms,LEFT,80,17.59,219.84,520.57,"[ 12, 99]",4043,4122,692.8,753.2,241.7,287.8,12,Saccade: 4258 ms,UP,47,2.61,55.63,140.47,"[ 2, 99]",4258,4304,238.5,302.5,218.6,207.1,-44.32,RIGHT,17.53,A18,S18.wav,A18.png,17,6549623,preview,,,,,,,,,,,,,,,,,,[woman_1],,,0.1816958277254374,0.684772929652716,1.0,0.8584675451439727,0.665053242981607,0.831634609240207,0.5875,1.0,0.168290174249758,0.2244073103712697
p4,Trial: 38,p4.edf,.,6,Fixation: 4305 ms,256,4305,4560,[2],5,790,391,220.5,204.3,2,2,36.8,37.4,12,Saccade: 4258 ms,UP,47,2.61,55.63,140.47,"[ 2, 99]",4258,4304,238.5,302.5,218.6,207.1,13,Saccade: 4561 ms,DOWN,50,8.97,179.42,432.28,"[ 14, 99]",4561,4610,217.9,207.0,339.0,517.4,-79.49,DOWN,2.51,A18,S18.wav,A18.png,17,6549623,preview,,,,,,,,,,,,,,,,,,[woman_1],,,0.3445491251682369,0.703472840605521,0.5875,0.1273792093704246,0.168290174249758,0.2244073103712697,0.625,1.0,0.5427758954501452,0.6905872579717554
p4,Trial: 38,p4.edf,.,7,Fixation: 4611 ms,260,4611,4870,[6],4,838,260,333.1,537.4,1,1,36.1,37.15,13,Saccade: 4561 ms,DOWN,50,8.97,179.42,432.28,"[ 2, 99]",4561,4610,217.9,207.0,339.0,517.4,14,Saccade: 4871 ms,LEFT,46,4.06,88.28,207.17,"[ 20, 99]",4871,4916,329.8,543.2,183.9,573.3,109.07,UP,9.46,A18,S18.wav,A18.png,17,6549623,preview,,,,,,,,,,,,,,,,,,[carpet_2],,,0.34993270524899056,0.7462154942119323,0.625,0.43777452415812595,0.5427758954501452,0.6905872579717554,0.575,1.0,0.2670619554695063,0.3309636398491916
p4,Trial: 38,p4.edf,.,8,Fixation: 4917 ms,133,4917,5049,[20],10,818,1073,176.7,577.0,1,4,37.2,37.8,14,Saccade: 4871 ms,LEFT,46,4.06,88.28,207.17,"[ 6, 99]",4871,4916,329.8,543.2,183.9,573.3,15,Saccade: 5050 ms,DOWN,37,2.43,65.75,244.8,"[ 15, 20, 99]",5050,5086,177.7,581.6,125.2,657.4,13.91,RIGHT,4.4,A18,S18.wav,A18.png,17,6549623,preview,,,,,,,,,,,,,,,,,,[drawer_1],,,0.17900403768506057,0.7284060552092609,0.575,0.19814543679843827,0.2670619554695063,0.3309636398491916,0.4625,1.0,0.19890488867376574,0.39107930219183334
p4,Trial: 38,p4.edf,.,9,Fixation: 5087 ms,424,5087,5510,"[15, 20]",5,851,424,114.6,669.3,1,1,37.85,38.45,15,Saccade: 5050 ms,DOWN,37,2.43,65.75,244.8,"[ 15, 20, 99]",5050,5086,177.7,581.6,125.2,657.4,16,Saccade: 5511 ms,UP,44,3.67,83.34,219.47,"[ 16, 20, 99]",5511,5554,115.9,671.6,134.5,532.8,55.65,UP,2.93,A18,S18.wav,A18.png,17,6549623,preview,,,,,,,,,,,,,,,,,,"[game_1, drawer_1]",,,0.5706594885598923,0.7577916295636687,0.4625,0.11859443631039533,0.19890488867376574,0.39107930219183334,0.55,1.0,0.25211761858664083,0.3506134577289283
p4,Trial: 38,p4.edf,.,10,Fixation: 5555 ms,283,5555,5837,"[16, 20]",3,858,516,140.5,526.7,1,2,37.45,37.85,16,Saccade: 5511 ms,UP,44,3.67,83.34,219.47,"[ 15, 20, 99]",5511,5554,115.9,671.6,134.5,532.8,17,Saccade: 5838 ms,DOWN,14,0.69,49.24,59.25,"[ 16, 20, 99]",5838,5851,139.7,526.0,146.0,551.3,-100.43,DOWN,3.8,A18,S18.wav,A18.png,17,6549623,preview,,,,,,,,,,,,,,,,,,"[magazine_1, drawer_1]",,,0.38088829071332436,0.7640249332146037,0.55,0.1791117618350415,0.25211761858664083,0.3506134577289283,0.175,1.0,0.1489593417231365,0.09465461051824398
p4,Trial: 38,p4.edf,.,11,Fixation: 5852 ms,233,5852,6084,"[16, 20]",3,842,516,151.3,543.2,2,2,37.35,37.85,17,Saccade: 5838 ms,DOWN,14,0.69,49.24,59.25,"[ 16, 20, 99]",5838,5851,139.7,526.0,146.0,551.3,18,Saccade: 6085 ms,UP,53,4.79,90.45,223.48,"[ 2, 99]",6085,6137,153.7,538.6,235.8,379.3,123.52,UP,0.52,A18,S18.wav,A18.png,17,6549623,preview,,,,,,,,,,,,,,,,,,"[magazine_1, drawer_1]",,,0.3135935397039031,0.7497773820124666,0.175,0.03367496339677892,0.1489593417231365,0.09465461051824398,0.6625,1.0,0.27362657308809296,0.3570196178669563
p4,Trial: 38,p4.edf,.,12,Fixation: 6138 ms,164,6138,6301,[2],5,852,164,242.9,369.2,1,1,36.55,37.2,18,Saccade: 6085 ms,UP,53,4.79,90.45,223.48,"[ 16, 20, 99]",6085,6137,153.7,538.6,235.8,379.3,19,Saccade: 6302 ms,RIGHT,65,19.94,306.84,521.16,"[ 3, 99]",6302,6366,245.9,368.8,965.5,450.1,-118.13,DOWN,5.26,A18,S18.wav,A18.png,17,6549623,preview,,,,,,,,,,,,,,,,,,[woman_1],,,0.22072678331090176,0.7586821015138023,0.6625,0.2337725719863348,0.27362657308809296,0.3570196178669563,0.8125,1.0,0.9282429816069699,0.8325771614799666
p4,Trial: 38,p4.edf,.,13,Fixation: 6367 ms,236,6367,6602,[3],13,841,236,956.8,450.6,1,1,36.1,37.0,19,Saccade: 6302 ms,RIGHT,65,19.94,306.84,521.16,"[ 2, 99]",6302,6366,245.9,368.8,965.5,450.1,20,Saccade: 6603 ms,RIGHT,29,5.08,175.13,376.38,"[ 11, 18, 99]",6603,6631,954.9,450.5,1104.8,563.1,173.63,LEFT,19.78,A18,S18.wav,A18.png,17,6549623,preview,,,,,,,,,,,,,,,,,,[girl_1],,,0.31763122476446837,0.748886910062333,0.8125,0.9731576378721328,0.9282429816069699,0.8325771614799666,0.3625,1.0,0.5297979186834463,0.6012844271199437
p4,Trial: 38,p4.edf,.,14,Fixation: 6632 ms,349,6632,6980,"[11, 18]",10,840,349,1095.1,558.0,1,1,37.15,37.8,20,Saccade: 6603 ms,RIGHT,29,5.08,175.13,376.38,"[ 3, 99]",6603,6631,954.9,450.5,1104.8,563.1,21,Saccade: 6981 ms,UP,51,5.22,102.28,290.88,"[ 3, 99]",6981,7031,1097.1,560.3,1003.9,389.6,142.75,LEFT,4.74,A18,S18.wav,A18.png,17,6549623,preview,,,,,,,,,,,,,,,,,,"[sidetable_1, flower_1]",,,0.4697173620457604,0.7479964381121995,0.3625,0.24792581747193757,0.5297979186834463,0.6012844271199437,0.6375,1.0,0.3094143272023233,0.46469422966323726
p4,Trial: 38,p4.edf,.,15,Fixation: 7032 ms,149,7032,7180,[3],13,850,621,1002.0,380.2,1,3,36.3,37.1,21,Saccade: 6981 ms,UP,51,5.22,102.28,290.88,"[ 11, 18, 99]",6981,7031,1097.1,560.3,1003.9,389.6,22,Saccade: 7181 ms,LEFT,29,0.78,26.75,88.76,"[ 3, 99]",7181,7209,1003.1,380.7,977.0,391.4,-61.9,DOWN,5.38,A18,S18.wav,A18.png,17,6549623,preview,,,,,,,,,,,,,,,,,,[girl_1],,,0.20053835800807537,0.7569011576135352,0.6375,0.2547584187408492,0.3094143272023233,0.46469422966323726,0.3625,1.0,0.08092328170377541,0.14179819796792129
p4,Trial: 38,p4.edf,.,16,Fixation: 7210 ms,222,7210,7431,[3],13,849,621,975.9,390.7,2,3,36.2,37.0,22,Saccade: 7181 ms,LEFT,29,0.78,26.75,88.76,"[ 3, 99]",7181,7209,1003.1,380.7,977.0,391.4,23,Saccade: 7432 ms,.,17,0.37,21.86,54.53,"[ 3, 99]",7432,7448,979.0,388.9,989.0,398.1,21.49,RIGHT,0.77,A18,S18.wav,A18.png,17,6549623,preview,,,,,,,,,,,,,,,,,,[girl_1],,,0.29878869448183043,0.7560106856634016,0.3625,0.03806734992679356,0.08092328170377541,0.14179819796792129,0.2125,1.0,0.06613020329138432,0.08711419260016615
p4,Trial: 38,p4.edf,.,17,Fixation: 7449 ms,250,7449,7698,[3],13,860,621,990.2,393.7,3,3,36.25,37.0,23,Saccade: 7432 ms,.,17,0.37,21.86,54.53,"[ 3, 99]",7432,7448,979.0,388.9,989.0,398.1,24,Saccade: 7699 ms,LEFT,22,0.85,38.68,90.91,"[ 3, 99]",7699,7720,993.9,394.2,963.7,388.0,168.39,.,0.4,A18,S18.wav,A18.png,17,6549623,preview,,,,,,,,,,,,,,,,,,[girl_1],,,0.3364737550471063,0.7658058771148709,0.2125,0.01805758906783797,0.06613020329138432,0.08711419260016615,0.275,1.0,0.1170135527589545,0.14523292223145248
p4,Trial: 38,p4.edf,.,18,Fixation: 8201 ms,301,8201,8501,[],78,842,15037,540.1,634.7,18,59,35.6,37.2,26,Saccade: 8146 ms,DOWN,55,8.86,161.14,395.43,"[ 9, 99]",8146,8200,390.9,355.7,548.4,639.6,27,Saccade: 8502 ms,DOWN,38,2.89,75.99,236.7,"[ 7, 99]",8502,8539,540.3,637.6,594.8,729.4,27.41,RIGHT,14.11,A18,S18.wav,A18.png,17,6549623,preview,,,,,,,,,,,,,,,,,,[],,,0.40511440107671604,0.7497773820124666,0.6875,0.4324060517325525,0.48747579864472407,0.6317176816409994,0.475,1.0,0.2298826234269119,0.37813917822225057
p4,Trial: 38,p4.edf,.,19,Fixation: 8540 ms,141,8540,8680,[7],3,891,141,593.1,740.1,1,1,35.8,37.75,27,Saccade: 8502 ms,DOWN,38,2.89,75.99,236.7,[ 99],8502,8539,540.3,637.6,594.8,729.4,28,Saccade: 8681 ms,RIGHT,50,5.2,103.94,267.96,"[ 8, 99]",8681,8730,590.6,742.2,776.4,727.7,117.83,UP,3.18,A18,S18.wav,A18.png,17,6549623,preview,,,,,,,,,,,,,,,,,,[carpetpart_1],,,0.18977119784656796,0.7934105075690115,0.475,0.14104441190824793,0.2298826234269119,0.37813917822225057,0.625,1.0,0.31443610842207165,0.42807847146782535
p4,Trial: 38,p4.edf,.,20,Fixation: 8731 ms,258,8731,8988,[8],1,897,258,778.9,730.8,1,1,35.9,37.75,28,Saccade: 8681 ms,RIGHT,50,5.2,103.94,267.96,"[ 7, 99]",8681,8730,590.6,742.2,776.4,727.7,29,Saccade: 8989 ms,RIGHT,43,6.15,143.0,315.4,"[ 11, 17, 99]",8989,9031,773.9,738.6,967.4,624.5,-177.28,LEFT,5.19,A18,S18.wav,A18.png,17,6549623,preview,,,,,,,,,,,,,,,,,,[carpetpart_2],,,0.3472409152086137,0.798753339269813,0.625,0.2537823328452904,0.31443610842207165,0.42807847146782535,0.5375,1.0,0.43259922555663116,0.5038660617291839
p4,Trial: 38,p4.edf,.,21,Fixation: 9032 ms,169,9032,9200,"[11, 17]",10,893,169,965.9,631.9,1,1,36.4,37.6,29,Saccade: 8989 ms,RIGHT,43,6.15,143.0,315.4,"[ 8, 99]",8989,9031,773.9,738.6,967.4,624.5,30,Saccade: 9201 ms,LEFT,55,9.35,170.06,472.9,"[ 12, 99]",9201,9255,968.7,628.8,658.7,769.8,-153.09,LEFT,5.8,A18,S18.wav,A18.png,17,6549623,preview,,,,,,,,,,,,,,,,,,"[sidetable_1, magazine_2]",,,0.2274562584118439,0.7951914514692787,0.5375,0.30014641288433386,0.43259922555663116,0.5038660617291839,0.6875,1.0,0.5144603097773476,0.755479583359959
p4,Trial: 38,p4.edf,.,22,Fixation: 9256 ms,303,9256,9558,[12],4,883,303,654.8,775.3,1,1,35.9,37.95,30,Saccade: 9201 ms,LEFT,55,9.35,170.06,472.9,"[ 11, 17, 99]",9201,9255,968.7,628.8,658.7,769.8,31,Saccade: 9559 ms,LEFT,29,3.27,112.59,231.78,"[ 7, 99]",9559,9587,655.6,767.8,541.9,799.3,23.8,RIGHT,9.41,A18,S18.wav,A18.png,17,6549623,preview,,,,,,,,,,,,,,,,,,[man_1],,,0.4078061911170929,0.786286731967943,0.6875,0.45632015617374333,0.5144603097773476,0.755479583359959,0.3625,1.0,0.3406038238141336,0.3702792510703559
p4,Trial: 38,p4.edf,.,23,Fixation: 9588 ms,468,9588,10055,[7],3,884,572,544.7,800.0,1,2,36.05,38.2,31,Saccade: 9559 ms,LEFT,29,3.27,112.59,231.78,"[ 12, 99]",9559,9587,655.6,767.8,541.9,799.3,32,Saccade: 10056 ms,UP,31,2.93,94.38,136.76,"[ 7, 99]",10056,10086,544.3,803.3,547.3,692.6,11.97,RIGHT,3.13,A18,S18.wav,A18.png,17,6549623,preview,,,,,,,,,,,,,,,,,,[carpetpart_1],,,0.629878869448183,0.7871772039180766,0.3625,0.1595900439238653,0.3406038238141336,0.3702792510703559,0.3875,1.0,0.28551548886737654,0.218480414083967
p4,Trial: 38,p4.edf,.,24,Fixation: 10087 ms,104,10087,10190,[7],3,843,572,547.6,696.8,2,2,35.7,37.5,32,Saccade: 10056 ms,UP,31,2.93,94.38,136.76,"[ 7, 99]",10056,10086,544.3,803.3,547.3,692.6,33,Saccade: 10191 ms,UP,50,5.66,113.25,341.09,[ 99],10191,10240,547.5,695.3,623.0,500.6,-91.7,DOWN,2.73,A18,S18.wav,A18.png,17,6549623,preview,,,,,,,,,,,,,,,,,,[carpetpart_1],,,0.13997308209959622,0.7506678539626002,0.3875,0.14299658369936558,0.28551548886737654,0.218480414083967,0.625,1.0,0.34260043562439496,0.5449070228129592
p4,Trial: 38,p4.edf,.,25,Fixation: 10241 ms,204,10241,10444,[],78,827,15037,609.8,497.8,25,59,35.3,36.7,33,Saccade: 10191 ms,UP,50,5.66,113.25,341.09,"[ 7, 99]",10191,10240,547.5,695.3,623.0,500.6,34,Saccade: 10445 ms,LEFT,52,10.57,203.23,357.74,"[ 9, 99]",10445,10496,606.6,501.0,311.4,258.5,-108.09,DOWN,5.64,A18,S18.wav,A18.png,17,6549623,preview,,,,,,,,,,,,,,,,,,[],,,0.27456258411843876,0.736420302760463,0.625,0.276232308443143,0.34260043562439496,0.5449070228129592,0.65,1.0,0.614805179090029,0.5715061665282126
p4,Trial: 38,p4.edf,.,26,Fixation: 10497 ms,116,10497,10612,[],78,780,15037,300.6,259.0,26,59,36.15,37.05,34,Saccade: 10445 ms,LEFT,52,10.57,203.23,357.74,[ 99],10445,10496,606.6,501.0,311.4,258.5,35,Saccade: 10613 ms,LEFT,35,2.8,79.98,199.84,"[ 2, 99]",10613,10647,300.4,258.9,219.3,195.4,-36.81,RIGHT,10.81,A18,S18.wav,A18.png,17,6549623,preview,,,,,,,,,,,,,,,,,,[],,,0.15612382234185734,0.6945681211041852,0.65,0.5158613958028307,0.614805179090029,0.5715061665282126,0.4375,1.0,0.24195304937076478,0.3192536264298038
p4,Trial: 38,p4.edf,.,27,Fixation: 10648 ms,263,10648,10910,[2],5,765,263,215.0,201.1,1,1,36.8,37.45,35,Saccade: 10613 ms,LEFT,35,2.8,79.98,199.84,[ 99],10613,10647,300.4,258.9,219.3,195.4,36,Saccade: 10911 ms,RIGHT,50,8.17,163.34,422.8,"[ 25, 99]",10911,10960,216.7,200.8,504.5,266.4,-33.52,RIGHT,2.81,A18,S18.wav,A18.png,17,6549623,preview,,,,,,,,,,,,,,,,,,[woman_1],,,0.35397039030955585,0.6812110418521816,0.4375,0.1366520253782333,0.24195304937076478,0.3192536264298038,0.625,1.0,0.49413117134559537,0.6754425202888363
p4,Trial: 38,p4.edf,.,28,Fixation: 10961 ms,131,10961,11091,[25],8,777,131,511.6,269.4,1,1,35.35,36.6,36,Saccade: 10911 ms,RIGHT,50,8.17,163.34,422.8,"[ 2, 99]",10911,10960,216.7,200.8,504.5,266.4,37,Saccade: 11092 ms,RIGHT,37,4.06,109.74,194.7,[ 99],11092,11128,511.0,266.2,620.6,170.3,167.35,LEFT,8.43,A18,S18.wav,A18.png,17,6549623,preview,,,,,,,,,,,,,,,,,,[desk_1],,,0.17631224764468373,0.6918967052537845,0.625,0.3987310883357736,0.49413117134559537,0.6754425202888363,0.4625,1.0,0.3319820909970958,0.31104223912071055
p4,Trial: 38,p4.edf,.,29,Fixation: 11129 ms,199,11129,11327,[],78,735,15037,615.6,170.4,29,59,35.3,36.75,37,Saccade: 11092 ms,RIGHT,37,4.06,109.74,194.7,"[ 25, 99]",11092,11128,511.0,266.2,620.6,170.3,38,Saccade: 11328 ms,LEFT,27,4.45,164.64,299.14,"[ 25, 99]",11328,11354,614.3,166.4,457.5,182.7,-137.48,LEFT,3.99,A18,S18.wav,A18.png,17,6549623,preview,,,,,,,,,,,,,,,,,,[],,,0.26783310901749663,0.6544968833481746,0.4625,0.19814543679843827,0.3319820909970958,0.31104223912071055,0.3375,1.0,0.4980638915779283,0.4778899610198734
p4,Trial: 38,p4.edf,.,30,Fixation: 11355 ms,228,11355,11582,"[22, 25]",1,723,228,439.8,187.6,1,1,35.6,36.9,38,Saccade: 11328 ms,LEFT,27,4.45,164.64,299.14,[ 99],11328,11354,614.3,166.4,457.5,182.7,39,Saccade: 11583 ms,RIGHT,65,14.23,218.97,455.96,"[ 3, 24, 99]",11583,11647,438.4,188.9,902.0,403.6,5.38,RIGHT,4.98,A18,S18.wav,A18.png,17,6549623,preview,,,,,,,,,,,,,,,,,,"[steteskop_1, desk_1]",,,0.30686406460296095,0.6438112199465716,0.3375,0.21717911176183508,0.4980638915779283,0.4778899610198734,0.8125,1.0,0.6624213455953534,0.7284171512556712
p4,Trial: 38,p4.edf,.,31,Fixation: 11648 ms,217,11648,11864,"[3, 24]",13,785,333,898.6,417.3,1,2,35.8,36.8,39,Saccade: 11583 ms,RIGHT,65,14.23,218.97,455.96,"[ 22, 25, 99]",11583,11647,438.4,188.9,902.0,403.6,40,Saccade: 11865 ms,RIGHT,32,2.39,74.59,165.05,"[ 3, 99]",11865,11896,895.9,420.5,978.0,394.5,154.13,LEFT,14.28,A18,S18.wav,A18.png,17,6549623,preview,,,,,,,,,,,,,,,,,,"[girl_1, backpack_1]",,,0.2920592193808883,0.699020480854853,0.8125,0.6944851146900928,0.6624213455953534,0.7284171512556712,0.4,1.0,0.2256473862536302,0.2636749952073615
p4,Trial: 38,p4.edf,.,32,Fixation: 11897 ms,116,11897,12012,[3],13,782,333,975.2,405.1,2,2,36.2,37.0,40,Saccade: 11865 ms,RIGHT,32,2.39,74.59,165.05,"[ 3, 24, 99]",11865,11896,895.9,420.5,978.0,394.5,41,Saccade: 12013 ms,DOWN,36,6.91,192.05,343.77,"[ 11, 99]",12013,12048,977.5,406.1,1099.2,634.0,-171.17,LEFT,2.15,A18,S18.wav,A18.png,17,6549623,preview,,,,,,,,,,,,,,,,,,[girl_1],,,0.15612382234185734,0.6963490650044524,0.4,0.11664226451927771,0.2256473862536302,0.2636749952073615,0.45,1.0,0.5809837850919651,0.5491884465461051
p4,Trial: 38,p4.edf,.,33,Fixation: 12049 ms,173,12049,12221,[11],10,760,874,1090.4,625.4,1,3,37.25,38.0,41,Saccade: 12013 ms,DOWN,36,6.91,192.05,343.77,"[ 3, 99]",12013,12048,977.5,406.1,1099.2,634.0,42,Saccade: 12222 ms,LEFT,36,2.63,73.16,229.45,"[ 11, 17, 99]",12222,12257,1089.1,625.7,992.9,639.9,118.1,UP,6.66,A18,S18.wav,A18.png,17,6549623,preview,,,,,,,,,,,,,,,,,,[sidetable_1],,,0.23283983849259757,0.6767586821015138,0.45,0.3372376769155686,0.5809837850919651,0.5491884465461051,0.45,1.0,0.2213213939980639,0.3665569684963895
p4,Trial: 38,p4.edf,.,34,Fixation: 12258 ms,194,12258,12451,"[11, 17]",10,763,874,984.1,646.1,2,3,36.6,37.7,42,Saccade: 12222 ms,LEFT,36,2.63,73.16,229.45,"[ 11, 99]",12222,12257,1089.1,625.7,992.9,639.9,43,Saccade: 12452 ms,RIGHT,34,4.74,139.52,148.28,"[ 11, 18, 99]",12452,12485,987.2,647.1,1112.2,521.9,10.76,RIGHT,2.93,A18,S18.wav,A18.png,17,6549623,preview,,,,,,,,,,,,,,,,,,"[sidetable_1, magazine_2]",,,0.2611036339165545,0.6794300979519146,0.45,0.1283552952659834,0.2213213939980639,0.3665569684963895,0.425,1.0,0.4220716360116167,0.236884145951818
p4,Trial: 38,p4.edf,13119,35,Fixation: 13037 ms,507,13037,13543,"[11, 17]",10,797,874,984.7,697.7,3,3,36.6,37.95,45,Saccade: 13016 ms,RIGHT,21,1.95,92.99,164.55,"[ 11, 99]",13016,13036,913.4,694.1,984.2,686.5,46,Saccade: 13544 ms,LEFT,54,10.03,185.83,406.0,[ 99],13544,13597,979.6,696.8,632.5,592.5,90.69,UP,1.36,A18,S18.wav,A18.png,17,6549623,preview,[1],[Adverb],[100],[260],[160],[0],[Da],[It],[0.0],[0.0],[nan],[nan],[da],[nan],[nan],[nan],[nan],"[sidetable_1, magazine_2]",,,0.6823687752355316,0.709706144256456,0.2625,0.0951683748169839,0.28131050338818975,0.26287622212281936,0.675,1.0,0.5621672313649565,0.6486037446482203
p4,Trial: 38,p4.edf,.,36,Fixation: 13598 ms,230,13598,13827,[6],4,823,230,612.9,592.4,1,1,35.4,37.0,46,Saccade: 13544 ms,LEFT,54,10.03,185.83,406.0,"[ 11, 17, 99]",13544,13597,979.6,696.8,632.5,592.5,47,Saccade: 13828 ms,LEFT,37,7.32,197.78,339.89,"[ 14, 99]",13828,13864,611.6,597.0,352.2,561.8,-15.22,RIGHT,10.7,A18,S18.wav,A18.png,17,6549623,task,[2],[Verb],[280],[820],[540],[0],[befindet],[is],[0.0],[0.0],[nan],[nan],[befinden],[nan],[nan],[nan],[nan],[carpet_2],,,0.30955585464333785,0.7328584149599288,0.675,0.4895070766227428,0.5621672313649565,0.6486037446482203,0.4625,1.0,0.5983180058083253,0.5429899674100581
p4,Trial: 38,p4.edf,.,37,Fixation: 13865 ms,181,13865,14045,[14],2,816,181,346.6,559.8,1,1,36.1,37.2,47,Saccade: 13828 ms,LEFT,37,7.32,197.78,339.89,"[ 6, 99]",13828,13864,611.6,597.0,352.2,561.8,48,Saccade: 14046 ms,LEFT,39,2.94,75.5,217.78,[ 99],14046,14084,347.4,558.4,254.2,504.7,-6.73,RIGHT,7.5,A18,S18.wav,A18.png,17,6549623,task,[2],[Verb],[280],[820],[540],[0],[befindet],[is],[0.0],[0.0],[nan],[nan],[befinden],[nan],[nan],[nan],[nan],[vacuumcleanerp_2],,,0.24360699865410498,0.7266251113089938,0.4625,0.3572474377745242,0.5983180058083253,0.5429899674100581,0.4875,1.0,0.2284002904162633,0.3479136047031759
p4,Trial: 38,p4.edf,.,38,Fixation: 14085 ms,173,14085,14257,[],78,811,15037,261.0,509.4,38,59,36.5,37.3,48,Saccade: 14046 ms,LEFT,39,2.94,75.5,217.78,"[ 14, 99]",14046,14084,347.4,558.4,254.2,504.7,49,Saccade: 14258 ms,RIGHT,54,6.94,128.51,292.25,"[ 25, 99]",14258,14311,265.5,511.7,457.3,347.4,-29.85,RIGHT,2.72,A18,S18.wav,A18.png,17,6549623,task,[2],[Verb],[280],[820],[540],[0],[befindet],[is],[0.0],[0.0],[nan],[nan],[befinden],[nan],[nan],[nan],[nan],[],,,0.23283983849259757,0.7221727515583259,0.4875,0.14348462664714495,0.2284002904162633,0.3479136047031759,0.675,1.0,0.3887645208131655,0.4668828679148827
p4,Trial: 38,p4.edf,.,39,Fixation: 14312 ms,151,14312,14462,[25],8,847,734,463.1,341.7,1,3,35.45,36.6,49,Saccade: 14258 ms,RIGHT,54,6.94,128.51,292.25,[ 99],14258,14311,265.5,511.7,457.3,347.4,50,Saccade: 14463 ms,RIGHT,40,4.34,108.59,230.78,"[ 25, 99]",14463,14502,463.8,340.6,585.2,243.5,-141.07,LEFT,7.22,A18,S18.wav,A18.png,17,6549623,task,[3],[Pronoun_ref],[890],[1190],[300],[0],[sich],[nan],[0.0],[0.0],[nan],[nan],[sie],[nan],[nan],[nan],[nan],[desk_1],,,0.2032301480484522,0.7542297417631345,0.675,0.33870180575890685,0.3887645208131655,0.4668828679148827,0.5,1.0,0.32850314617618587,0.3686817049012716
p4,Trial: 38,p4.edf,14670,40,Fixation: 14503 ms,227,14503,14729,[25],8,842,734,582.1,249.8,2,3,35.2,36.6,50,Saccade: 14463 ms,RIGHT,40,4.34,108.59,230.78,"[ 25, 99]",14463,14502,463.8,340.6,585.2,243.5,51,Saccade: 14730 ms,LEFT,36,3.43,95.32,261.53,"[ 25, 99]",14730,14765,584.9,253.0,463.6,252.9,-143.3,LEFT,4.2,A18,S18.wav,A18.png,17,6549623,task,,break,,,,,,,,,,,,,,,,[desk_1],,,0.30551816958277256,0.7497773820124666,0.5,0.2118106393362616,0.32850314617618587,0.3686817049012716,0.45,1.0,0.28835914811229424,0.4178062496006134
p4,Trial: 38,p4.edf,.,41,Fixation: 14766 ms,356,14766,15121,[25],8,925,734,457.5,262.8,3,3,35.5,36.7,51,Saccade: 14730 ms,LEFT,36,3.43,95.32,261.53,"[ 25, 99]",14730,14765,584.9,253.0,463.6,252.9,52,Saccade: 15122 ms,DOWN,58,13.74,236.84,625.96,"[ 15, 20, 99]",15122,15179,456.2,270.0,162.3,688.2,5.75,RIGHT,3.54,A18,S18.wav,A18.png,17,6549623,task,[5],[Noun_1],[1470],[2111],[641],[0],[Stuhl],[chair],[0.0],[0.0],[chair_1],[S01_I018_E003],[Stuhl],[nan],[nan],[nan],[nan],[desk_1],,,0.4791386271870794,0.8236865538735529,0.45,0.1673987310883358,0.28835914811229424,0.4178062496006134,0.725,1.0,0.7164811229428848,1.0
p4,Trial: 38,p4.edf,.,42,Fixation: 15180 ms,133,15180,15312,[20],10,1019,133,152.6,706.4,1,1,37.65,38.5,52,Saccade: 15122 ms,DOWN,58,13.74,236.84,625.96,"[ 25, 99]",15122,15179,456.2,270.0,162.3,688.2,53,Saccade: 15313 ms,UP,56,8.8,157.15,321.72,"[ 14, 99]",15313,15368,153.5,713.4,283.7,408.1,54.76,UP,14.45,A18,S18.wav,A18.png,17,6549623,task,[5],[Noun_1],[1470],[2111],[641],[0],[Stuhl],[chair],[0.0],[0.0],[chair_1],[S01_I018_E003],[Stuhl],[nan],[nan],[nan],[nan],[drawer_1],,,0.17900403768506057,0.9073909171861086,0.725,0.670571010248902,0.7164811229428848,1.0,0.7,1.0,0.47540537270087124,0.5139625535177966
p4,Trial: 38,p4.edf,.,43,Fixation: 15369 ms,152,15369,15520,[14],2,1083,152,286.4,404.6,1,1,36.3,37.1,53,Saccade: 15313 ms,UP,56,8.8,157.15,321.72,"[ 20, 99]",15313,15368,153.5,713.4,283.7,408.1,54,Saccade: 15521 ms,RIGHT,62,20.49,330.56,620.27,[ 99],15521,15582,283.4,410.0,1025.6,487.0,-114.38,DOWN,8.77,A18,S18.wav,A18.png,17,6549623,task,[5],[Noun_1],[1470],[2111],[641],[0],[Stuhl],[chair],[0.0],[0.0],[chair_1],[S01_I018_E003],[Stuhl],[nan],[nan],[nan],[nan],[vacuumcleanerp_2],,,0.20457604306864063,0.9643811219946572,0.7,0.4294777940458761,0.47540537270087124,0.5139625535177966,0.775,1.0,1.0,0.9909099622979103
p4,Trial: 38,p4.edf,.,44,Fixation: 15583 ms,91,15583,15673,[],78,1088,15037,1023.7,495.6,44,59,36.5,37.3,54,Saccade: 15521 ms,RIGHT,62,20.49,330.56,620.27,"[ 14, 99]",15521,15582,283.4,410.0,1025.6,487.0,55,Saccade: 15674 ms,LEFT,54,10.16,188.19,386.28,"[ 5, 99]",15674,15727,1021.1,496.4,673.9,382.8,173.11,LEFT,20.4,A18,S18.wav,A18.png,17,6549623,task,,break,,,,,,,,,,,,,,,,[],,,0.1224764468371467,0.968833481745325,0.775,1.0,1.0,0.9909099622979103,0.675,1.0,0.5693066311713456,0.6171001341938781
p4,Trial: 38,p4.edf,.,45,Fixation: 15728 ms,224,15728,15951,[5],1,1106,224,666.6,382.8,1,1,35.2,36.5,55,Saccade: 15674 ms,LEFT,54,10.16,188.19,386.28,[ 99],15674,15727,1021.1,496.4,673.9,382.8,56,Saccade: 15952 ms,RIGHT,23,2.67,116.18,206.6,"[ 4, 99]",15952,15974,669.6,387.9,760.0,360.5,-17.06,RIGHT,10.42,A18,S18.wav,A18.png,17,6549623,task,[6],[Preposition_1],[2462],[2654],[192],[0],[auf],[on],[0.0],[0.0],[nan],[nan],[auf],[nan],[nan],[nan],[nan],[carpet_1],,,0.30148048452220727,0.9848619768477292,0.675,0.49585163494387513,0.5693066311713456,0.6171001341938781,0.2875,1.0,0.3514641819941917,0.3300530385328136
p4,Trial: 38,p4.edf,.,46,Fixation: 15975 ms,155,15975,16129,[4],6,1113,155,765.3,363.0,1,1,35.3,36.5,56,Saccade: 15952 ms,RIGHT,23,2.67,116.18,206.6,"[ 5, 99]",15952,15974,669.6,387.9,760.0,360.5,57,Saccade: 16130 ms,LEFT,57,11.76,206.34,446.37,"[ 9, 99]",16130,16186,766.7,366.5,348.0,370.0,-169.04,LEFT,2.85,A18,S18.wav,A18.png,17,6549623,task,[7],[Determiner_2],[2680],[2943],[263],[0],[einem],[the],[0.0],[0.0],[nan],[nan],[eine],[nan],[nan],[nan],[nan],[chair_1],,,0.20861372812920592,0.9910952804986642,0.2875,0.13030746705710103,0.3514641819941917,0.3300530385328136,0.7125,1.0,0.6242134559535334,0.7130966834941529
p4,Trial: 38,p4.edf,16260,47,Fixation: 16187 ms,411,16187,16597,[9],2,1123,411,330.2,380.2,1,1,35.95,36.9,57,Saccade: 16130 ms,LEFT,57,11.76,206.34,446.37,"[ 4, 99]",16130,16186,766.7,366.5,348.0,370.0,58,Saccade: 16598 ms,RIGHT,33,5.29,160.35,298.46,"[ 6, 99]",16598,16630,330.1,385.0,466.6,520.0,2.2,RIGHT,12.22,A18,S18.wav,A18.png,17,6549623,task,"[7, 8]","[Determiner_2, Noun_2]","[2680, 3060]","[2943, 3550]","[263, 490]","[0, 0]","[einem, Teppich]","[the, carpet]","[0.0, 0.0]","[0.0, 1.0]","[nan, carpet_1]","[nan, S01_I018_E004]","[eine, Teppich]","[nan, nan]","[nan, nan]","[nan, nan]","[nan, nan]",[chair_2],,,0.5531628532974427,1.0,0.7125,0.5739385065885798,0.6242134559535334,0.7130966834941529,0.4125,1.0,0.4850859148112294,0.4768036296248961
p4,Trial: 38,p4.edf,.,48,Fixation: 16631 ms,162,16631,16792,[6],4,1102,162,458.3,517.1,1,1,35.55,36.85,58,Saccade: 16598 ms,RIGHT,33,5.29,160.35,298.46,"[ 9, 99]",16598,16630,330.1,385.0,466.6,520.0,59,Saccade: 16793 ms,RIGHT,52,8.78,168.85,277.04,"[ 4, 99]",16793,16844,457.0,520.4,743.1,393.5,133.98,UP,5.16,A18,S18.wav,A18.png,17,6549623,task,[8],[Noun_2],[3060],[3550],[490],[0],[Teppich],[carpet],[0.0],[1.0],[carpet_1],[S01_I018_E004],[Teppich],[nan],[nan],[nan],[nan],[carpet_2],,,0.2180349932705249,0.981300089047195,0.4125,0.25817471937530506,0.4850859148112294,0.4768036296248961,0.65,1.0,0.5107998547918683,0.4425841906831107
p4,Trial: 38,p4.edf,.,49,Fixation: 16845 ms,392,16845,17236,[4],6,1072,392,739.3,389.5,1,1,35.3,36.5,59,Saccade: 16793 ms,RIGHT,52,8.78,168.85,277.04,"[ 6, 99]",16793,16844,457.0,520.4,743.1,393.5,60,Saccade: 17237 ms,LEFT,44,3.63,82.47,208.66,"[ 5, 99]",17237,17280,744.9,383.5,617.1,377.8,-156.32,LEFT,8.66,A18,S18.wav,A18.png,17,6549623,task,,break,,,,,,,,,,,,,,,,[chair_1],,,0.5275908479138627,0.9545859305431879,0.65,0.42850170815031724,0.5107998547918683,0.4425841906831107,0.55,1.0,0.24948572120038723,0.3333439836411272
p4,Trial: 38,p4.edf,.,50,Fixation: 17281 ms,136,17281,17416,[],78,1087,15037,608.6,373.7,50,59,35.2,36.5,60,Saccade: 17237 ms,LEFT,44,3.63,82.47,208.66,"[ 4, 99]",17237,17280,744.9,383.5,617.1,377.8,61,Saccade: 17417 ms,RIGHT,29,4.26,146.73,261.3,"[ 4, 99]",17417,17445,608.9,372.9,758.7,380.8,-6.66,RIGHT,3.73,A18,S18.wav,A18.png,17,6549623,task,[9],[Preposition_2],[3915],[4240],[325],[0],[auf],[on],[0.0],[0.0],[nan],[nan],[auf],[nan],[nan],[nan],[nan],[],,,0.18304172274562583,0.9679430097951914,0.55,0.17715959004392387,0.24948572120038723,0.3333439836411272,0.3625,1.0,0.4438831074540174,0.41743881398172406
p4,Trial: 38,p4.edf,.,51,Fixation: 17446 ms,178,17446,17623,[4],6,1086,178,754.3,379.5,1,1,35.3,36.5,61,Saccade: 17417 ms,RIGHT,29,4.26,146.73,261.3,[ 99],17417,17445,608.9,372.9,758.7,380.8,62,Saccade: 17624 ms,RIGHT,31,5.17,166.87,345.13,"[ 3, 24, 99]",17624,17654,751.5,377.9,929.9,425.0,177.8,LEFT,4.14,A18,S18.wav,A18.png,17,6549623,task,"[9, 10]","[Preposition_2, Relative Clause Pronoun]","[3915, 4130]","[4240, 4250]","[325, 120]","[0, 1]","[auf, dem]","[on, that]","[0.0, 0.0]","[0.0, 0.0]","[nan, nan]","[nan, nan]","[auf, die]","[nan, nan]","[nan, nan]","[nan, nan]","[nan, nan]",[chair_1],,,0.2395693135935397,0.9670525378450578,0.3625,0.20790629575402636,0.4438831074540174,0.41743881398172406,0.3875,1.0,0.5048100193610843,0.5513611093360598
p4,Trial: 38,p4.edf,18300,52,Fixation: 17655 ms,727,17655,18381,"[3, 24]",13,1106,727,916.8,435.0,1,1,35.85,36.9,62,Saccade: 17624 ms,RIGHT,31,5.17,166.87,345.13,"[ 4, 99]",17624,17654,751.5,377.9,929.9,425.0,63,Saccade: 18382 ms,LEFT,33,2.28,69.11,164.19,"[ 4, 99]",18382,18414,908.1,436.5,845.7,382.7,161.68,LEFT,4.81,A18,S18.wav,A18.png,17,6549623,task,"[11, 12]","[Relative Clause Pers. Pronoun, Relative Clause Adverb]","[4260, 4430]","[4400, 4900]","[140, 470]","[1, 0]","[sie, ruhig]","[she, silently]","[0.0, 0.0]","[0.0, 0.0]","[girl_1, nan]","[S01_I018_E002, nan]","[sie, ruhig]","[nan, nan]","[nan, nan]","[nan, nan]","[nan, nan]","[girl_1, backpack_1]",,,0.9784656796769852,0.9848619768477292,0.3875,0.2523182040019522,0.5048100193610843,0.5513611093360598,0.4125,1.0,0.20906945788964182,0.26230110550194896
p4,Trial: 38,p4.edf,.,53,Fixation: 18415 ms,483,18415,18897,[4],6,1019,483,848.8,387.2,1,1,35.55,36.7,63,Saccade: 18382 ms,LEFT,33,2.28,69.11,164.19,"[ 3, 24, 99]",18382,18414,908.1,436.5,845.7,382.7,64,Saccade: 18898 ms,RIGHT,31,3.93,126.68,225.15,"[ 3, 99]",18898,18928,854.7,382.4,993.0,411.5,-34.29,RIGHT,2.31,A18,S18.wav,A18.png,17,6549623,task,[13],[Relative Clause Verb],[5100],[5590],[490],[0],[sitzt],[sits],[1.0],[0.0],[nan],[nan],[sitzen],[nan],[nan],[nan],[nan],[chair_1],,,0.6500672947510094,0.9073909171861086,0.4125,0.11127379209370425,0.20906945788964182,0.26230110550194896,0.3875,1.0,0.38322846079380446,0.3596875199693271
p4,Trial: 38,p4.edf,19530,54,Fixation: 18929 ms,743,18929,19671,[3],13,940,1998,985.8,409.7,1,4,36.25,37.05,64,Saccade: 18898 ms,RIGHT,31,3.93,126.68,225.15,"[ 4, 99]",18898,18928,854.7,382.4,993.0,411.5,65,Saccade: 19672 ms,LEFT,26,2.38,91.46,198.32,"[ 3, 24, 99]",19672,19697,984.9,405.6,903.7,433.4,170.92,LEFT,3.86,A18,S18.wav,A18.png,17,6549623,task,,break,,,,,,,,,,,,,,,,[girl_1],,,1.0,0.8370436331255565,0.3875,0.19180087847730604,0.38322846079380446,0.3596875199693271,0.325,1.0,0.2766819941916747,0.3168253562527957
