RECORDING_SESSION_LABEL,TRIAL_LABEL,DATA_FILE,CURRENT_FIX_MSG_TIME_1,CURRENT_FIX_INDEX,CURRENT_FIX_LABEL,CURRENT_FIX_DURATION,CURRENT_FIX_START,CURRENT_FIX_END,CURRENT_FIX_INTEREST_AREAS,CURRENT_FIX_INTEREST_AREA_FIX_COUNT,CURRENT_FIX_PUPIL,CURRENT_FIX_RUN_DWELL_TIME,CURRENT_FIX_X,CURRENT_FIX_Y,CURRENT_FIX_RUN_INDEX,CURRENT_FIX_RUN_SIZE,CURRENT_FIX_X_RESOLUTION,CURRENT_FIX_Y_RESOLUTION,PREVIOUS_SAC_INDEX,PREVIOUS_SAC_LABEL,PREVIOUS_SAC_DIRECTION,PREVIOUS_SAC_DURATION,PREVIOUS_SAC_AMPLITUDE,PREVIOUS_SAC_AVG_VELOCITY,PREVIOUS_SAC_PEAK_VELOCITY,PREVIOUS_SAC_START_INTEREST_AREAS,PREVIOUS_SAC_START_TIME,PREVIOUS_SAC_END_TIME,PREVIOUS_SAC_START_X,PREVIOUS_SAC_START_Y,PREVIOUS_SAC_END_X,PREVIOUS_SAC_END_Y,NEXT_SAC_INDEX,NEXT_SAC_LABEL,NEXT_SAC_DIRECTION,NEXT_SAC_DURATION,NEXT_SAC_AMPLITUDE,NEXT_SAC_AVG_VELOCITY,NEXT_SAC_PEAK_VELOCITY,NEXT_SAC_END_INTEREST_AREAS,NEXT_SAC_START_TIME,NEXT_SAC_END_TIME,NEXT_SAC_START_X,NEXT_SAC_START_Y,NEXT_SAC_END_X,NEXT_SAC_END_Y,PREVIOUS_FIX_ANGLE,PREVIOUS_FIX_DIRECTION,PREVIOUS_FIX_DISTANCE,ItemNO,audiofilename,imagefilename,TRIAL_INDEX,TRIAL_START_TIME,viewtype,word_index,Label,word_onset,word_offset,word_duration,Continuation,wordDE,wordEN,REFWord,TargetObj,ObjectLabel,ObjectID,LemmaDE,LingIndex,DepS,pos_1,pos_2,CURRENT_FIX_INTEREST_AREAS_Labelled,PREVIOUS_SAC_START_INTEREST_AREAS_Labelled,NEXT_SAC_END_INTEREST_AREAS_Labelled,NORMALIZED_CURRENT_FIX_DURATION,NORMALIZED_CURRENT_FIX_PUPIL,NORMALIZED_PREVIOUS_SAC_DURATION,NORMALIZED_PREVIOUS_SAC_AMPLITUDE,NORMALIZED_PREVIOUS_SAC_AVG_VELOCITY,NORMALIZED_PREVIOUS_SAC_PEAK_VELOCITY,NORMALIZED_NEXT_SAC_DURATION,NORMALIZED_NEXT_SAC_AMPLITUDE,NORMALIZED_NEXT_SAC_AVG_VELOCITY,NORMALIZED_NEXT_SAC_PEAK_VELOCITY
p14,Trial: 34,p14.edf,.,1,Fixation: 4687 ms,139,4687,4825,[],.,793,.,452.1,948.2,.,.,36.95,39.65,5,Saccade: 4662 ms,UP,25,2.61,104.31,141.49,[ ],4662,4686,458.5,1069.6,441.0,966.1,6,Saccade: 4826 ms,UP,16,0.86,53.48,61.13,[ ],4826,4841,454.4,947.2,451.4,913.6,87.51,UP,20.53,A21,S21.wav,A21.png,18,25894098,preview,,,,,,,,,,,,,,,,,,[],,,0.29018789144050106,0.5152696556205328,0.36231884057971014,0.15535714285714283,0.4097497741289233,0.2832519218449712,0.08888888888888889,1.0,0.2100797423105629,0.1129109715552272
p14,Trial: 34,p14.edf,.,2,Fixation: 4842 ms,354,4842,5195,[],.,785,.,457.2,912.6,.,.,36.7,39.25,6,Saccade: 4826 ms,UP,16,0.86,53.48,61.13,[ ],4826,4841,454.4,947.2,451.4,913.6,7,Saccade: 5196 ms,.,6,0.29,48.83,37.31,[ ],5196,5201,465.6,914.9,469.7,904.3,-98.73,DOWN,0.91,A21,S21.wav,A21.png,18,25894098,preview,,,,,,,,,,,,,,,,,,[],,,0.7390396659707724,0.5100714749837557,0.2318840579710145,0.05119047619047619,0.2100797423105629,0.12237748238308778,0.03333333333333333,1.0,0.19181364654122637,0.06891392685629849
p14,Trial: 34,p14.edf,.,3,Fixation: 5202 ms,207,5202,5408,[],.,780,.,469.8,892.8,.,.,36.6,39.05,7,Saccade: 5196 ms,.,6,0.29,48.83,37.31,[ ],5196,5201,465.6,914.9,469.7,904.3,8,Saccade: 5409 ms,UP,65,15.41,237.03,356.53,"[ 26, 99]",5409,5473,467.8,893.8,383.1,315.9,-124.21,DOWN,0.61,A21,S21.wav,A21.png,18,25894098,preview,,,,,,,,,,,,,,,,,,[],,,0.4321503131524008,0.50682261208577,0.08695652173913043,0.01726190476190476,0.19181364654122637,0.07469170403587444,0.3611111111111111,1.0,0.9310995011195349,0.658533431843369
p14,Trial: 34,p14.edf,.,4,Fixation: 5565 ms,192,5565,5756,[2],2,869,192,286.3,229.2,1,1,36.35,37.15,9,Saccade: 5539 ms,LEFT,26,3.56,136.99,240.88,"[ 26, 99]",5539,5564,388.9,297.1,279.9,227.7,10,Saccade: 5757 ms,LEFT,29,3.86,133.26,219.75,"[ 11, 99]",5757,5785,287.6,228.9,163.4,298.5,-73.89,DOWN,18.13,A21,S21.wav,A21.png,18,25894098,preview,,,,,,,,,,,,,,,,,,[woman_1],,,0.40083507306889354,0.5646523716699156,0.37681159420289856,0.2119047619047619,0.5381231095572927,0.482222934016656,0.16111111111111112,1.0,0.5234709510154377,0.4058921315108977
p14,Trial: 34,p14.edf,.,5,Fixation: 5786 ms,173,5786,5958,[11],12,900,614,150.0,308.1,1,3,37.25,37.5,10,Saccade: 5757 ms,LEFT,29,3.86,133.26,219.75,"[ 2, 99]",5757,5785,287.6,228.9,163.4,298.5,11,Saccade: 5959 ms,RIGHT,18,1.17,65.08,85.94,"[ 11, 99]",5959,5976,149.1,306.7,185.0,331.5,29.71,RIGHT,4.26,A21,S21.wav,A21.png,18,25894098,preview,,,,,,,,,,,,,,,,,,[desk_1],,,0.36116910229645094,0.5847953216374269,0.42028985507246375,0.22976190476190475,0.5234709510154377,0.43992232543241516,0.1,1.0,0.2556467769179401,0.1587366087920207
p14,Trial: 34,p14.edf,.,6,Fixation: 5977 ms,120,5977,6096,[11],12,953,614,180.0,335.3,2,3,37.0,37.4,11,Saccade: 5959 ms,RIGHT,18,1.17,65.08,85.94,"[ 11, 99]",5959,5976,149.1,306.7,185.0,331.5,12,Saccade: 6097 ms,LEFT,29,3.87,133.47,233.0,"[ 11, 99]",6097,6125,179.9,334.0,75.7,435.3,138.05,LEFT,1.09,A21,S21.wav,A21.png,18,25894098,preview,,,,,,,,,,,,,,,,,,[desk_1],,,0.25052192066805845,0.6192332683560754,0.2608695652173913,0.06964285714285713,0.2556467769179401,0.17204516335682254,0.16111111111111112,1.0,0.5242958714695368,0.430365718507573
p14,Trial: 34,p14.edf,.,7,Fixation: 6126 ms,321,6126,6446,[11],12,1048,614,74.2,439.6,3,3,37.95,37.9,12,Saccade: 6097 ms,LEFT,29,3.87,133.47,233.0,"[ 11, 99]",6097,6125,179.9,334.0,75.7,435.3,13,Saccade: 6447 ms,DOWN,27,3.24,120.06,205.33,"[ 24, 99]",6447,6473,82.0,443.4,32.6,556.8,44.46,RIGHT,3.96,A21,S21.wav,A21.png,18,25894098,preview,,,,,,,,,,,,,,,,,,[desk_1],,,0.6701461377870563,0.6809616634178037,0.42028985507246375,0.23035714285714284,0.5242958714695368,0.46644778987828317,0.15,1.0,0.4716188081863535,0.37925748060583675
p14,Trial: 34,p14.edf,.,8,Fixation: 6474 ms,176,6474,6649,[24],2,1110,176,32.8,558.4,1,1,38.5,38.4,13,Saccade: 6447 ms,DOWN,27,3.24,120.06,205.33,"[ 11, 99]",6447,6473,82.0,443.4,32.6,556.8,14,Saccade: 6650 ms,RIGHT,66,16.8,254.57,499.52,"[ 3, 99]",6650,6715,33.9,559.4,578.5,259.7,70.82,UP,3.3,A21,S21.wav,A21.png,18,25894098,preview,,,,,,,,,,,,,,,,,,[flower_1],,,0.3674321503131524,0.7212475633528265,0.391304347826087,0.19285714285714287,0.4716188081863535,0.41105461242793084,0.36666666666666664,1.0,1.0,0.9226449944588105
p14,Trial: 34,p14.edf,.,9,Fixation: 6716 ms,179,6716,6894,[3],4,897,320,593.7,255.8,1,2,35.2,36.6,14,Saccade: 6650 ms,RIGHT,66,16.8,254.57,499.52,"[ 24, 99]",6650,6715,33.9,559.4,578.5,259.7,15,Saccade: 6895 ms,UP,21,1.65,78.77,119.16,"[ 3, 22, 99]",6895,6915,593.7,257.7,634.2,214.2,-152.07,LEFT,17.23,A21,S21.wav,A21.png,18,25894098,preview,,,,,,,,,,,,,,,,,,[woman_2],,,0.3736951983298539,0.5828460038986355,0.9565217391304348,1.0,1.0,1.0,0.11666666666666667,1.0,0.3094237341399222,0.22009604728481713
p14,Trial: 34,p14.edf,.,10,Fixation: 6916 ms,141,6916,7056,"[3, 22]",4,838,320,631.1,216.1,2,2,35.2,36.6,15,Saccade: 6895 ms,UP,21,1.65,78.77,119.16,"[ 3, 99]",6895,6915,593.7,257.7,634.2,214.2,16,Saccade: 7057 ms,RIGHT,31,4.9,158.17,276.65,"[ 7, 14, 99]",7057,7087,630.6,213.6,803.9,217.0,-134.41,DOWN,1.52,A21,S21.wav,A21.png,18,25894098,preview,,,,,,,,,,,,,,,,,,"[woman_2, scissors_1]",,,0.29436325678496866,0.5445094217024041,0.30434782608695654,0.0982142857142857,0.3094237341399222,0.2385490070467649,0.17222222222222222,1.0,0.6213222296421416,0.5109900258588843
p14,Trial: 34,p14.edf,.,11,Fixation: 7088 ms,247,7088,7334,"[7, 14]",1,778,247,813.7,212.3,1,1,35.5,36.75,16,Saccade: 7057 ms,RIGHT,31,4.9,158.17,276.65,"[ 3, 22, 99]",7057,7087,630.6,213.6,803.9,217.0,17,Saccade: 7335 ms,LEFT,41,7.36,179.56,354.95,"[ 3, 99]",7335,7375,815.4,212.1,555.8,188.3,-178.85,LEFT,5.17,A21,S21.wav,A21.png,18,25894098,preview,,,,,,,,,,,,,,,,,,"[cabinet_1, phone_1]",,,0.5156576200417536,0.5055230669265757,0.4492753623188406,0.2916666666666667,0.6213222296421416,0.5538316784112748,0.22777777777777777,1.0,0.7053462701810898,0.6556150720354637
p14,Trial: 34,p14.edf,.,12,Fixation: 7376 ms,320,7376,7695,[3],4,899,320,561.3,186.1,1,1,35.3,36.7,17,Saccade: 7335 ms,LEFT,41,7.36,179.56,354.95,"[ 7, 14, 99]",7335,7375,815.4,212.1,555.8,188.3,18,Saccade: 7696 ms,DOWN,28,3.72,132.93,224.36,"[ 5, 12, 99]",7696,7723,558.4,189.0,651.0,285.5,-5.71,RIGHT,7.17,A21,S21.wav,A21.png,18,25894098,preview,,,,,,,,,,,,,,,,,,[woman_2],,,0.6680584551148225,0.5841455490578298,0.5942028985507246,0.4380952380952381,0.7053462701810898,0.7105821588725176,0.15555555555555556,1.0,0.5221746474447108,0.41440709272257115
p14,Trial: 34,p14.edf,.,13,Fixation: 7724 ms,144,7724,7867,"[5, 12]",1,870,144,650.8,282.5,1,1,35.2,36.5,18,Saccade: 7696 ms,DOWN,28,3.72,132.93,224.36,"[ 3, 99]",7696,7723,558.4,189.0,651.0,285.5,19,Saccade: 7868 ms,RIGHT,95,5.59,58.84,261.71,"[ 7, 14, 99]",7868,7962,653.8,281.6,849.1,248.6,133.95,UP,3.66,A21,S21.wav,A21.png,18,25894098,preview,,,,,,,,,,,,,,,,,,"[paper_2, desk_2]",,,0.30062630480167013,0.5653021442495126,0.4057971014492754,0.22142857142857142,0.5221746474447108,0.4491511851377323,0.5277777777777778,1.0,0.23113485485328203,0.483394902105652
p14,Trial: 34,p14.edf,.,14,Fixation: 9332 ms,85,9332,9416,[],32,750,7474,1064.6,179.7,11,31,36.85,37.5,24,Saccade: 9272 ms,UP,60,0.57,9.56,45.49,[ 99],9272,9331,1066.1,198.3,1059.7,177.8,25,Saccade: 9417 ms,LEFT,106,5.36,50.6,311.5,[ 99],9417,9522,1067.5,185.9,877.0,227.1,-166.4,LEFT,11.82,A21,S21.wav,A21.png,18,25894098,preview,,,,,,,,,,,,,,,,,,[],,,0.17745302713987474,0.4873294346978557,0.8695652173913043,0.033928571428571426,0.03755352162470048,0.09106742472773864,0.5888888888888889,1.0,0.19876654751148998,0.5753601773180643
p14,Trial: 34,p14.edf,.,15,Fixation: 10771 ms,156,10771,10926,[3],4,1055,156,535.7,250.6,1,1,35.3,36.6,29,Saccade: 10702 ms,LEFT,69,10.92,158.3,460.69,[ 99],10702,10770,904.5,222.3,516.9,246.6,30,Saccade: 10927 ms,RIGHT,29,3.17,109.25,204.96,"[ 5, 12, 99]",10927,10955,536.4,253.1,641.8,291.4,7.44,RIGHT,14.79,A21,S21.wav,A21.png,18,25894098,preview,,,,,,,,,,,,,,,,,,[woman_2],,,0.325678496868476,0.6855100714749838,1.0,0.65,0.6218328946851555,0.9222653747597694,0.16111111111111112,1.0,0.42915504576344427,0.3785740672330994
p14,Trial: 34,p14.edf,.,16,Fixation: 10956 ms,146,10956,11101,[12],2,979,146,638.4,286.5,1,1,35.2,36.5,30,Saccade: 10927 ms,RIGHT,29,3.17,109.25,204.96,"[ 3, 99]",10927,10955,536.4,253.1,641.8,291.4,31,Saccade: 11102 ms,LEFT,61,13.16,215.77,451.48,"[ 11, 99]",11102,11162,636.7,287.3,165.9,357.7,161.37,LEFT,3.07,A21,S21.wav,A21.png,18,25894098,preview,,,,,,,,,,,,,,,,,,[desk_2],,,0.3048016701461378,0.6361273554256011,0.42028985507246375,0.1886904761904762,0.42915504576344427,0.4103139013452915,0.3388888888888889,1.0,0.8475861256236007,0.833912079793129
p14,Trial: 34,p14.edf,.,17,Fixation: 11163 ms,140,11163,11302,[11],12,1195,1190,158.2,360.7,1,5,37.15,37.5,31,Saccade: 11102 ms,LEFT,61,13.16,215.77,451.48,"[ 12, 99]",11102,11162,636.7,287.3,165.9,357.7,32,Saccade: 11303 ms,RIGHT,20,1.35,67.44,104.7,"[ 8, 11, 99]",11303,11322,157.5,362.4,207.4,363.3,8.59,RIGHT,13.42,A21,S21.wav,A21.png,18,25894098,preview,,,,,,,,,,,,,,,,,,[desk_1],,,0.29227557411273486,0.7764782326185835,0.8840579710144928,0.7833333333333333,0.8475861256236007,0.903827674567585,0.1111111111111111,1.0,0.2649173115449582,0.19338751385297379
p14,Trial: 34,p14.edf,.,18,Fixation: 11323 ms,380,11323,11702,"[8, 11]",4,1207,563,204.3,358.9,1,2,36.8,37.3,32,Saccade: 11303 ms,RIGHT,20,1.35,67.44,104.7,"[ 11, 99]",11303,11322,157.5,362.4,207.4,363.3,33,Saccade: 11703 ms,.,12,0.47,39.55,41.05,"[ 8, 11, 99]",11703,11714,203.4,352.8,199.7,335.5,-177.79,LEFT,1.25,A21,S21.wav,A21.png,18,25894098,preview,,,,,,,,,,,,,,,,,,"[paper_1, desk_1]",,,0.7933194154488518,0.7842755035737492,0.2898550724637681,0.08035714285714286,0.2649173115449582,0.20960121716848176,0.06666666666666667,1.0,0.15536001885532466,0.07582194311045437
p14,Trial: 34,p14.edf,.,19,Fixation: 11715 ms,183,11715,11897,"[8, 11]",4,1220,563,201.0,329.0,2,2,36.8,37.3,33,Saccade: 11703 ms,.,12,0.47,39.55,41.05,"[ 8, 11, 99]",11703,11714,203.4,352.8,199.7,335.5,34,Saccade: 11898 ms,LEFT,40,4.13,103.17,221.66,"[ 11, 99]",11898,11937,204.5,326.4,77.2,413.9,-83.62,DOWN,0.81,A21,S21.wav,A21.png,18,25894098,preview,,,,,,,,,,,,,,,,,,"[paper_1, desk_1]",,,0.38204592901878914,0.792722547108512,0.17391304347826086,0.027976190476190474,0.15536001885532466,0.08217889173606661,0.2222222222222222,1.0,0.40527163452095694,0.40942002216475804
p14,Trial: 34,p14.edf,.,20,Fixation: 11938 ms,198,11938,12135,[11],12,1245,1190,79.7,411.0,4,5,37.9,37.9,34,Saccade: 11898 ms,LEFT,40,4.13,103.17,221.66,"[ 8, 11, 99]",11898,11937,204.5,326.4,77.2,413.9,35,Saccade: 12136 ms,LEFT,17,1.05,61.83,79.32,"[ 11, 99]",12136,12152,81.7,413.2,51.0,438.8,33.88,RIGHT,3.91,A21,S21.wav,A21.png,18,25894098,preview,,,,,,,,,,,,,,,,,,[desk_1],,,0.4133611691022965,0.8089668615984406,0.5797101449275363,0.24583333333333332,0.40527163452095694,0.44374599615631005,0.09444444444444444,1.0,0.24288015084259731,0.14650905060953084
p14,Trial: 34,p14.edf,.,21,Fixation: 12153 ms,289,12153,12441,[11],12,1307,1190,57.2,438.1,5,5,38.15,38.05,35,Saccade: 12136 ms,LEFT,17,1.05,61.83,79.32,"[ 11, 13, 99]",12136,12152,81.7,413.2,51.0,438.8,36,Saccade: 12442 ms,DOWN,23,2.06,89.38,137.82,"[ 24, 99]",12442,12464,61.2,436.4,114.0,493.7,50.34,UP,0.93,A21,S21.wav,A21.png,18,25894098,preview,,,,,,,,,,,,,,,,,,[desk_1],,,0.6033402922755741,0.8492527615334633,0.2463768115942029,0.0625,0.24288015084259731,0.15879244074311338,0.12777777777777777,1.0,0.351101858035118,0.25456224602881417
p14,Trial: 34,p14.edf,.,22,Fixation: 12465 ms,106,12465,12570,[24],2,1320,106,106.4,491.5,1,1,37.65,37.9,36,Saccade: 12442 ms,DOWN,23,2.06,89.38,137.82,"[ 11, 99]",12442,12464,61.2,436.4,114.0,493.7,37,Saccade: 12571 ms,RIGHT,180,11.97,66.47,541.4,[ 99],12571,12750,106.9,491.5,434.7,797.9,132.71,UP,1.91,A21,S21.wav,A21.png,18,25894098,preview,,,,,,,,,,,,,,,,,,[flower_1],,,0.22129436325678498,0.8576998050682261,0.3333333333333333,0.12261904761904761,0.351101858035118,0.27590486867392694,1.0,1.0,0.26110696468554817,1.0
p14,Trial: 34,p14.edf,.,23,Fixation: 19225 ms,221,19225,19445,[11],12,1539,221,208.1,317.5,1,1,36.8,37.3,39,Saccade: 19209 ms,UP,16,0.87,54.14,61.69,"[ 8, 11, 99]",19209,19224,197.3,343.6,210.1,314.0,40,Saccade: 19446 ms,RIGHT,21,1.42,67.6,98.5,[ 99],19446,19466,202.1,325.8,239.8,289.3,-120.56,DOWN,5.37,A21,S21.wav,A21.png,18,25894098,task,[11],[Relative Clause Verb],[5330],[6130],[800],[0],[vollschreibt],[writes on],[1.0],[0.0],[nan],[nan],[vollschreiben],[nan],[nan],[nan],[nan],[desk_1],,,0.4613778705636743,1.0,0.2318840579710145,0.05178571428571428,0.21267234945201713,0.12349855861627163,0.11666666666666667,1.0,0.26554582236712887,0.18193572220169932
p14,Trial: 34,p14.edf,.,24,Fixation: 19467 ms,156,19467,19622,[2],2,1326,156,241.7,292.3,1,1,36.55,37.2,40,Saccade: 19446 ms,RIGHT,21,1.42,67.6,98.5,"[ 11, 99]",19446,19466,202.1,325.8,239.8,289.3,41,Saccade: 19623 ms,LEFT,29,0.99,34.02,117.73,"[ 11, 99]",19623,19651,248.1,293.3,222.1,318.8,-143.56,LEFT,1.14,A21,S21.wav,A21.png,18,25894098,task,,break,,,,,,,,,,,,,,,,[woman_1],,,0.325678496868476,0.8615984405458089,0.30434782608695654,0.08452380952380951,0.26554582236712887,0.19718930172966048,0.16111111111111112,1.0,0.1336371135640492,0.2174547469523458
p14,Trial: 34,p14.edf,19680,25,Fixation: 19652 ms,479,19652,20130,[11],12,1202,863,228.7,318.4,1,3,36.65,37.2,41,Saccade: 19623 ms,LEFT,29,0.99,34.02,117.73,"[ 2, 23, 99]",19623,19651,248.1,293.3,222.1,318.8,42,Saccade: 20131 ms,LEFT,18,0.59,32.55,60.83,"[ 8, 11, 99]",20131,20148,228.7,321.9,207.6,326.1,63.15,UP,0.79,A21,S21.wav,A21.png,18,25894098,post,,,,,,,,,,,,,,,,,,[desk_1],,,1.0,0.7810266406757634,0.42028985507246375,0.05892857142857143,0.1336371135640492,0.23568625880845614,0.1,1.0,0.1278626703853557,0.11235685260435907
