RECORDING_SESSION_LABEL,TRIAL_LABEL,DATA_FILE,CURRENT_FIX_MSG_TIME_1,CURRENT_FIX_INDEX,CURRENT_FIX_LABEL,CURRENT_FIX_DURATION,CURRENT_FIX_START,CURRENT_FIX_END,CURRENT_FIX_INTEREST_AREAS,CURRENT_FIX_INTEREST_AREA_FIX_COUNT,CURRENT_FIX_PUPIL,CURRENT_FIX_RUN_DWELL_TIME,CURRENT_FIX_X,CURRENT_FIX_Y,CURRENT_FIX_RUN_INDEX,CURRENT_FIX_RUN_SIZE,CURRENT_FIX_X_RESOLUTION,CURRENT_FIX_Y_RESOLUTION,PREVIOUS_SAC_INDEX,PREVIOUS_SAC_LABEL,PREVIOUS_SAC_DIRECTION,PREVIOUS_SAC_DURATION,PREVIOUS_SAC_AMPLITUDE,PREVIOUS_SAC_AVG_VELOCITY,PREVIOUS_SAC_PEAK_VELOCITY,PREVIOUS_SAC_START_INTEREST_AREAS,PREVIOUS_SAC_START_TIME,PREVIOUS_SAC_END_TIME,PREVIOUS_SAC_START_X,PREVIOUS_SAC_START_Y,PREVIOUS_SAC_END_X,PREVIOUS_SAC_END_Y,NEXT_SAC_INDEX,NEXT_SAC_LABEL,NEXT_SAC_DIRECTION,NEXT_SAC_DURATION,NEXT_SAC_AMPLITUDE,NEXT_SAC_AVG_VELOCITY,NEXT_SAC_PEAK_VELOCITY,NEXT_SAC_END_INTEREST_AREAS,NEXT_SAC_START_TIME,NEXT_SAC_END_TIME,NEXT_SAC_START_X,NEXT_SAC_START_Y,NEXT_SAC_END_X,NEXT_SAC_END_Y,PREVIOUS_FIX_ANGLE,PREVIOUS_FIX_DIRECTION,PREVIOUS_FIX_DISTANCE,ItemNO,audiofilename,imagefilename,TRIAL_INDEX,TRIAL_START_TIME,viewtype,word_index,Label,word_onset,word_offset,word_duration,Continuation,wordDE,wordEN,REFWord,TargetObj,ObjectLabel,ObjectID,LemmaDE,LingIndex,DepS,pos_1,pos_2,CURRENT_FIX_INTEREST_AREAS_Labelled,PREVIOUS_SAC_START_INTEREST_AREAS_Labelled,NEXT_SAC_END_INTEREST_AREAS_Labelled,NORMALIZED_CURRENT_FIX_DURATION,NORMALIZED_CURRENT_FIX_PUPIL,NORMALIZED_PREVIOUS_SAC_DURATION,NORMALIZED_PREVIOUS_SAC_AMPLITUDE,NORMALIZED_PREVIOUS_SAC_AVG_VELOCITY,NORMALIZED_PREVIOUS_SAC_PEAK_VELOCITY,NORMALIZED_NEXT_SAC_DURATION,NORMALIZED_NEXT_SAC_AMPLITUDE,NORMALIZED_NEXT_SAC_AVG_VELOCITY,NORMALIZED_NEXT_SAC_PEAK_VELOCITY
p8,Trial: 2,p8.edf,.,1,Fixation: 3367 ms,196,3367,3562,[],52,1452,17724,685.8,652.0,1,52,35.6,37.2,8,Saccade: 3321 ms,UP,46,7.2,156.52,234.94,[ ],3321,3366,677.6,925.5,692.2,650.9,9,Saccade: 3563 ms,UP,45,7.17,159.37,249.12,"[ 9, 24, 99]",3563,3607,681.1,654.4,747.5,399.3,-89.58,DOWN,7.2,A19,S19.wav,A19.png,1,24203750,preview,,,,,,,,,,,,,,,,,,[],,,0.2153846153846154,0.8601895734597157,0.8070175438596491,0.44389642416769426,0.5016666666666667,0.4010241529401724,0.189873417721519,1.0,0.5108012820512821,0.1739336856877544
p8,Trial: 2,p8.edf,.,2,Fixation: 3608 ms,152,3608,3759,"[9, 24]",3,1477,347,739.5,395.4,1,2,35.3,36.5,9,Saccade: 3563 ms,UP,45,7.17,159.37,249.12,[ 99],3563,3607,681.1,654.4,747.5,399.3,10,Saccade: 3760 ms,UP,26,2.46,94.48,155.72,"[ 9, 99]",3760,3785,735.3,394.8,796.0,330.6,-102.27,DOWN,7.13,A19,S19.wav,A19.png,1,24203750,preview,,,,,,,,,,,,,,,,,,"[shelf_3, book_7]",,,0.16703296703296702,0.875,0.7894736842105263,0.44204685573366215,0.5108012820512821,0.42522830075958007,0.10970464135021098,1.0,0.3028205128205128,0.10872251740244507
p8,Trial: 2,p8.edf,.,3,Fixation: 3786 ms,195,3786,3980,[9],3,1445,347,804.9,306.4,2,2,35.4,36.6,10,Saccade: 3760 ms,UP,26,2.46,94.48,155.72,"[ 9, 24, 99]",3760,3785,735.3,394.8,796.0,330.6,11,Saccade: 3981 ms,LEFT,43,8.87,206.31,366.19,"[ 5, 99]",3981,4023,805.1,308.2,492.9,273.0,-127.23,DOWN,3.06,A19,S19.wav,A19.png,1,24203750,preview,,,,,,,,,,,,,,,,,,[shelf_3],,,0.21428571428571427,0.856042654028436,0.45614035087719296,0.15166461159062886,0.3028205128205128,0.26580182640607664,0.18143459915611815,1.0,0.66125,0.25567106760596814
p8,Trial: 2,p8.edf,.,4,Fixation: 4024 ms,402,4024,4425,[5],8,1398,402,515.2,281.2,1,1,35.35,36.6,11,Saccade: 3981 ms,LEFT,43,8.87,206.31,366.19,"[ 9, 99]",3981,4023,805.1,308.2,492.9,273.0,12,Saccade: 4426 ms,LEFT,27,3.02,111.97,176.51,"[ 4, 99]",4426,4452,515.5,280.1,409.3,264.1,-4.81,RIGHT,8.22,A19,S19.wav,A19.png,1,24203750,preview,,,,,,,,,,,,,,,,,,[kid_1],,,0.44175824175824174,0.8281990521327014,0.7543859649122807,0.5468557336621455,0.66125,0.6250576086028846,0.11392405063291139,1.0,0.3588782051282051,0.12323793698115579
p8,Trial: 2,p8.edf,.,5,Fixation: 4453 ms,467,4453,4919,[4],7,1333,467,399.0,266.0,1,1,35.7,36.8,12,Saccade: 4426 ms,LEFT,27,3.02,111.97,176.51,"[ 5, 99]",4426,4452,515.5,280.1,409.3,264.1,13,Saccade: 4920 ms,LEFT,43,7.07,164.53,259.62,"[ 3, 99]",4920,4962,396.2,270.4,137.9,282.6,-7.22,RIGHT,3.3,A19,S19.wav,A19.png,1,24203750,preview,,,,,,,,,,,,,,,,,,[cat_1],,,0.5131868131868131,0.7896919431279621,0.47368421052631576,0.18618988902589398,0.3588782051282051,0.3012887257830502,0.18143459915611815,1.0,0.5273397435897436,0.18126470567700226
p8,Trial: 2,p8.edf,.,6,Fixation: 4963 ms,317,4963,5279,[3],4,1373,654,144.0,285.0,1,2,37.35,37.6,13,Saccade: 4920 ms,LEFT,43,7.07,164.53,259.62,"[ 4, 99]",4920,4962,396.2,270.4,137.9,282.6,14,Saccade: 5280 ms,RIGHT,18,1.09,60.61,86.27,"[ 3, 99]",5280,5297,144.3,282.7,183.6,292.7,4.18,RIGHT,7.0,A19,S19.wav,A19.png,1,24203750,preview,,,,,,,,,,,,,,,,,,[cat_3],,,0.34835164835164834,0.8133886255924171,0.7543859649122807,0.435881627620222,0.5273397435897436,0.44315097721259705,0.0759493670886076,1.0,0.1942628205128205,0.06023305661642009
p8,Trial: 2,p8.edf,.,7,Fixation: 5298 ms,337,5298,5634,[3],4,1435,654,183.1,288.1,2,2,36.95,37.4,14,Saccade: 5280 ms,RIGHT,18,1.09,60.61,86.27,"[ 3, 99]",5280,5297,144.3,282.7,183.6,292.7,15,Saccade: 5635 ms,DOWN,144,18.78,130.44,717.06,"[ 11, 99]",5635,5778,192.2,292.7,671.4,799.1,175.51,LEFT,1.06,A19,S19.wav,A19.png,1,24203750,preview,,,,,,,,,,,,,,,,,,[cat_3],,,0.37032967032967035,0.8501184834123223,0.3157894736842105,0.06720098643649816,0.1942628205128205,0.14725612358112145,0.6075949367088608,1.0,0.41807692307692307,0.5006458279514338
p8,Trial: 2,p8.edf,.,8,Fixation: 6142 ms,225,6142,6366,[6],3,1322,405,903.8,381.2,1,2,35.85,36.8,16,Saccade: 6085 ms,UP,57,12.92,226.6,349.9,"[ 11, 99]",6085,6141,651.5,784.5,919.8,390.5,17,Saccade: 6367 ms,UP,27,2.77,102.65,159.15,"[ 6, 99]",6367,6393,900.7,388.3,921.8,288.5,172.78,LEFT,19.96,A19,S19.wav,A19.png,1,24203750,preview,,,,,,,,,,,,,,,,,,[man_1],,,0.24725274725274726,0.783175355450237,1.0,0.7965474722564735,0.7262820512820513,0.597251856277204,0.11392405063291139,1.0,0.32900641025641025,0.11111731726559937
p8,Trial: 2,p8.edf,.,9,Fixation: 6394 ms,180,6394,6573,[6],3,1333,405,918.0,272.3,2,2,35.9,36.9,17,Saccade: 6367 ms,UP,27,2.77,102.65,159.15,"[ 6, 99]",6367,6393,900.7,388.3,921.8,288.5,18,Saccade: 6574 ms,RIGHT,30,4.51,150.18,248.03,"[ 7, 99]",6574,6603,917.4,275.8,1078.2,307.5,-97.63,DOWN,2.98,A19,S19.wav,A19.png,1,24203750,preview,,,,,,,,,,,,,,,,,,[man_1],,,0.1978021978021978,0.7896919431279621,0.47368421052631576,0.17077681874229347,0.32900641025641025,0.27165656738072885,0.12658227848101267,1.0,0.48134615384615387,0.1731726559936325
p8,Trial: 2,p8.edf,.,10,Fixation: 6604 ms,193,6604,6796,[7],4,1293,420,1091.3,305.2,1,2,36.9,37.35,18,Saccade: 6574 ms,RIGHT,30,4.51,150.18,248.03,"[ 6, 99]",6574,6603,917.4,275.8,1078.2,307.5,19,Saccade: 6797 ms,RIGHT,11,0.75,67.83,58.91,"[ 7, 99]",6797,6807,1088.6,305.1,1115.9,300.7,169.46,LEFT,4.84,A19,S19.wav,A19.png,1,24203750,preview,,,,,,,,,,,,,,,,,,[shelf_2],,,0.21208791208791208,0.7659952606635071,0.5263157894736842,0.2780517879161529,0.48134615384615387,0.4233677562516002,0.046413502109704644,1.0,0.21740384615384614,0.04113051310158001
p8,Trial: 2,p8.edf,.,11,Fixation: 6808 ms,227,6808,7034,[7],4,1259,420,1114.5,300.9,2,2,37.15,37.5,19,Saccade: 6797 ms,RIGHT,11,0.75,67.83,58.91,"[ 7, 99]",6797,6807,1088.6,305.1,1115.9,300.7,20,Saccade: 7035 ms,LEFT,52,16.22,312.0,585.85,"[ 5, 99]",7035,7086,1114.1,304.2,526.8,308.5,-169.61,LEFT,0.64,A19,S19.wav,A19.png,1,24203750,preview,,,,,,,,,,,,,,,,,,[shelf_2],,,0.24945054945054945,0.7458530805687204,0.19298245614035087,0.04623921085080148,0.21740384615384614,0.10055474950926004,0.21940928270042195,1.0,1.0,0.40903600578103294
p8,Trial: 2,p8.edf,.,12,Fixation: 7087 ms,252,7087,7338,[5],8,1327,516,559.0,308.7,1,2,35.25,36.5,20,Saccade: 7035 ms,LEFT,52,16.22,312.0,585.85,"[ 7, 99]",7035,7086,1114.1,304.2,526.8,308.5,21,Saccade: 7339 ms,LEFT,22,1.6,72.93,130.96,"[ 5, 99]",7339,7360,557.9,305.6,503.3,290.3,0.79,RIGHT,15.35,A19,S19.wav,A19.png,1,24203750,preview,,,,,,,,,,,,,,,,,,[kid_1],,,0.27692307692307694,0.7861374407582938,0.9122807017543859,1.0,1.0,1.0,0.09282700421940929,1.0,0.23375,0.09143527407541875
p8,Trial: 2,p8.edf,.,13,Fixation: 7361 ms,264,7361,7624,[5],8,1305,516,505.6,290.6,2,2,35.3,36.6,21,Saccade: 7339 ms,LEFT,22,1.6,72.93,130.96,"[ 5, 99]",7339,7360,557.9,305.6,503.3,290.3,22,Saccade: 7625 ms,LEFT,31,3.06,98.71,158.85,"[ 4, 99]",7625,7655,504.2,295.2,396.3,282.2,-18.11,RIGHT,1.59,A19,S19.wav,A19.png,1,24203750,preview,,,,,,,,,,,,,,,,,,[kid_1],,,0.29010989010989013,0.7731042654028436,0.38596491228070173,0.09864364981504317,0.23375,0.22353844840829565,0.1308016877637131,1.0,0.3163782051282051,0.11090785955162086
p8,Trial: 2,p8.edf,.,14,Fixation: 7656 ms,208,7656,7863,[4],7,1285,208,398.5,282.4,1,1,35.7,36.8,22,Saccade: 7625 ms,LEFT,31,3.06,98.71,158.85,"[ 5, 99]",7625,7655,504.2,295.2,396.3,282.2,23,Saccade: 7864 ms,RIGHT,26,2.61,100.48,156.86,[ 99],7864,7889,398.8,283.1,489.1,305.5,-4.24,RIGHT,3.03,A19,S19.wav,A19.png,1,24203750,preview,,,,,,,,,,,,,,,,,,[cat_1],,,0.22857142857142856,0.7612559241706162,0.543859649122807,0.18865598027127006,0.3163782051282051,0.27114449091064263,0.10970464135021098,1.0,0.3220512820512821,0.10951845671556341
p8,Trial: 2,p8.edf,.,15,Fixation: 7890 ms,395,7890,8284,[5],8,1262,395,511.8,308.9,1,1,35.35,36.55,23,Saccade: 7864 ms,RIGHT,26,2.61,100.48,156.86,"[ 4, 99]",7864,7889,398.8,283.1,489.1,305.5,24,Saccade: 8285 ms,RIGHT,147,8.67,58.95,733.39,"[ 9, 25, 99]",8285,8431,518.8,314.9,823.5,351.4,167.24,LEFT,3.27,A19,S19.wav,A19.png,1,24203750,preview,,,,,,,,,,,,,,,,,,[kid_1],,,0.4340659340659341,0.7476303317535545,0.45614035087719296,0.16091245376078916,0.3220512820512821,0.26774771699240424,0.620253164556962,1.0,0.18894230769230771,0.5120473095156639
p8,Trial: 2,p8.edf,.,16,Fixation: 9326 ms,910,9326,10235,[],52,1260,17724,667.0,587.7,16,52,35.4,37.0,26,Saccade: 9308 ms,RIGHT,18,1.22,67.76,88.88,[ 99],9308,9325,627.8,612.8,669.0,599.3,27,Saccade: 10236 ms,UP,190,2.68,14.13,1050.16,[ 99],10236,10425,670.6,590.3,620.5,506.3,120.06,UP,8.76,A19,S19.wav,A19.png,1,24203750,preview,,,,,,,,,,,,,,,,,,[],,,1.0,0.7464454976303317,0.3157894736842105,0.07521578298397041,0.2171794871794872,0.15171118887087137,0.8016877637130801,1.0,0.04528846153846154,0.7332137097055723
p8,Trial: 2,p8.edf,.,17,Fixation: 11364 ms,89,11364,11452,[],52,1293,17724,647.2,514.2,17,52,35.3,36.7,28,Saccade: 11350 ms,RIGHT,14,0.76,54.4,56.86,[ 99],11350,11363,620.0,535.7,642.7,520.7,29,Saccade: 11453 ms,UP,146,1.04,7.15,1147.01,[ 99],11453,11598,650.6,517.0,630.6,484.9,-74.31,DOWN,2.07,A19,S19.wav,A19.png,1,24203750,preview,,,,,,,,,,,,,,,,,,[],,,0.0978021978021978,0.7659952606635071,0.24561403508771928,0.0468557336621455,0.17435897435897435,0.09705556029700435,0.6160337552742616,1.0,0.02291666666666667,0.8008336417016345
p8,Trial: 2,p8.edf,.,18,Fixation: 11893 ms,260,11893,12152,[17],1,1354,260,589.6,325.1,1,1,35.2,36.5,30,Saccade: 11850 ms,UP,43,5.37,124.82,213.48,[ 99],11850,11892,631.9,523.8,598.2,330.5,31,Saccade: 12153 ms,LEFT,27,2.63,97.41,146.88,"[ 5, 99]",12153,12179,587.0,327.0,500.2,292.9,-72.45,DOWN,5.42,A19,S19.wav,A19.png,1,24203750,preview,,,,,,,,,,,,,,,,,,[flower_2],,,0.2857142857142857,0.8021327014218009,0.7543859649122807,0.3310727496917386,0.4000641025641025,0.36439361611333954,0.11392405063291139,1.0,0.31221153846153843,0.10255049676387831
p8,Trial: 2,p8.edf,.,19,Fixation: 12180 ms,243,12180,12422,[5],8,1268,243,488.4,292.3,1,1,35.4,36.6,31,Saccade: 12153 ms,LEFT,27,2.63,97.41,146.88,"[ 17, 99]",12153,12179,587.0,327.0,500.2,292.9,32,Saccade: 12423 ms,RIGHT,53,13.93,262.79,444.19,"[ 7, 27, 99]",12423,12475,488.4,298.5,986.9,287.1,-17.38,RIGHT,3.0,A19,S19.wav,A19.png,1,24203750,preview,,,,,,,,,,,,,,,,,,[kid_1],,,0.26703296703296703,0.7511848341232228,0.47368421052631576,0.1621454993834772,0.31221153846153843,0.25071263975420327,0.22362869198312235,1.0,0.8422756410256411,0.31013007324038067
p8,Trial: 2,p8.edf,.,20,Fixation: 12476 ms,235,12476,12710,"[7, 27]",4,1118,469,986.0,287.3,1,2,36.2,37.0,32,Saccade: 12423 ms,RIGHT,53,13.93,262.79,444.19,"[ 5, 99]",12423,12475,488.4,298.5,986.9,287.1,33,Saccade: 12711 ms,RIGHT,29,3.06,105.36,170.37,"[ 7, 99]",12711,12739,981.3,289.3,1091.8,306.8,-179.44,LEFT,13.9,A19,S19.wav,A19.png,1,24203750,preview,,,,,,,,,,,,,,,,,,"[shelf_2, book_10]",,,0.25824175824175827,0.6623222748815166,0.9298245614035088,0.8588162762022196,0.8422756410256411,0.7581974908252965,0.12236286919831224,1.0,0.3376923076923077,0.11895103576839562
p8,Trial: 2,p8.edf,.,21,Fixation: 12740 ms,234,12740,12973,[7],4,1096,469,1091.2,309.7,2,2,37.0,37.4,33,Saccade: 12711 ms,RIGHT,29,3.06,105.36,170.37,"[ 7, 27, 99]",12711,12739,981.3,289.3,1091.8,306.8,34,Saccade: 12974 ms,DOWN,181,18.54,102.43,1302.97,"[ 11, 99]",12974,13154,1091.7,310.8,633.7,828.7,168.17,LEFT,2.94,A19,S19.wav,A19.png,1,24203750,preview,,,,,,,,,,,,,,,,,,[shelf_2],,,0.2571428571428571,0.6492890995260664,0.5087719298245614,0.18865598027127006,0.3376923076923077,0.2908082273619527,0.7637130801687764,1.0,0.32830128205128206,0.9097237252752624
p8,Trial: 2,p8.edf,.,22,Fixation: 13458 ms,161,13458,13618,[11],7,1365,161,635.2,759.6,1,1,35.8,37.85,35,Saccade: 13432 ms,UP,26,1.4,53.9,60.8,"[ 11, 99]",13432,13457,622.6,810.1,633.3,758.0,36,Saccade: 13619 ms,LEFT,45,8.81,195.89,330.77,"[ 14, 99]",13619,13663,633.6,756.5,368.3,576.3,43.67,RIGHT,17.32,A19,S19.wav,A19.png,1,24203750,task,[1],[Adverb],[80],[250],[170],[0],[Da],[It],[0.0],[0.0],[nan],[nan],[da],[nan],[nan],[nan],[nan],[woman_1],,,0.17692307692307693,0.808649289099526,0.45614035087719296,0.08631319358816276,0.17275641025641025,0.10378083127080309,0.189873417721519,1.0,0.6278525641025641,0.23094109350890543
p8,Trial: 2,p8.edf,.,23,Fixation: 13664 ms,614,13664,14277,[14],7,1534,614,376.6,575.8,1,1,36.0,37.2,36,Saccade: 13619 ms,LEFT,45,8.81,195.89,330.77,"[ 11, 99]",13619,13663,633.6,756.5,368.3,576.3,37,Saccade: 14278 ms,LEFT,37,5.79,156.4,253.62,"[ 10, 99]",14278,14314,372.8,575.1,182.0,482.4,-34.21,RIGHT,8.71,A19,S19.wav,A19.png,1,24203750,task,[2],[Verb],[270],[800],[530],[0],[befindet],[is],[0.0],[0.0],[nan],[nan],[befinden],[nan],[nan],[nan],[nan],[sidetable_1],,,0.6747252747252748,0.9087677725118484,0.7894736842105263,0.5431565967940815,0.6278525641025641,0.564598446701374,0.15611814345991562,1.0,0.5012820512820513,0.17707555139743206
p8,Trial: 2,p8.edf,.,24,Fixation: 14315 ms,252,14315,14566,[10],1,1660,252,182.6,465.8,1,1,37.05,37.5,37,Saccade: 14278 ms,LEFT,37,5.79,156.4,253.62,"[ 14, 99]",14278,14314,372.8,575.1,182.0,482.4,38,Saccade: 14567 ms,UP,40,5.05,126.28,190.83,[ 99],14567,14606,181.1,462.9,172.0,273.7,-29.01,RIGHT,6.07,A19,S19.wav,A19.png,1,24203750,task,[3],[Pronoun_ref],[870],[1170],[300],[0],[sich],[nan],[0.0],[0.0],[nan],[nan],[sie],[nan],[nan],[nan],[nan],[cattree_1],,,0.27692307692307694,0.9834123222748815,0.6491228070175439,0.35696670776818745,0.5012820512820513,0.4329094478108731,0.16877637130801687,1.0,0.40474358974358976,0.13323605186173
p8,Trial: 2,p8.edf,14730,25,Fixation: 14607 ms,267,14607,14873,[],52,1688,17724,176.2,272.9,25,52,37.05,37.5,38,Saccade: 14567 ms,UP,40,5.05,126.28,190.83,"[ 10, 99]",14567,14606,181.1,462.9,172.0,273.7,39,Saccade: 14874 ms,RIGHT,42,6.89,164.1,232.29,"[ 4, 99]",14874,14915,177.5,268.9,426.8,247.3,-88.08,DOWN,5.15,A19,S19.wav,A19.png,1,24203750,task,[4],[Determiner_1],[1300],[1490],[190],[0],[ein],[a],[0.0],[0.0],[nan],[nan],[eine],[nan],[nan],[nan],[nan],[],,,0.2934065934065934,1.0,0.7017543859649122,0.31134401972873,0.40474358974358976,0.3257318426218315,0.17721518987341772,1.0,0.5259615384615385,0.16218310793356
p8,Trial: 2,p8.edf,.,26,Fixation: 14916 ms,455,14916,15370,[4],7,1584,455,433.0,241.5,1,1,35.6,36.75,39,Saccade: 14874 ms,RIGHT,42,6.89,164.1,232.29,[ 99],14874,14915,177.5,268.9,426.8,247.3,40,Saccade: 15371 ms,LEFT,179,7.22,40.35,1315.12,"[ 10, 99]",15371,15549,440.7,250.0,178.5,249.1,-173.18,LEFT,7.12,A19,S19.wav,A19.png,1,24203750,task,[5],[Noun_1],[1530],[2280],[750],[0],[Kätzchen],[cat(small)],[0.0],[1.0],[cat_1],[S01_I019_E003],[Kätzchen],[nan],[nan],[nan],[nan],[cat_1],,,0.5,0.9383886255924171,0.7368421052631579,0.4247842170160296,0.5259615384615385,0.3965008107877443,0.7552742616033755,1.0,0.1293269230769231,0.9182067626913919
p8,Trial: 2,p8.edf,16280,27,Fixation: 16059 ms,574,16059,16632,[3],4,1568,705,188.9,279.2,1,2,37.0,37.4,41,Saccade: 16045 ms,RIGHT,14,0.87,62.37,68.43,"[ 3, 99]",16045,16058,152.2,288.3,184.2,283.2,42,Saccade: 16633 ms,LEFT,19,1.19,62.88,94.77,"[ 3, 99]",16633,16651,188.7,275.0,145.3,284.1,8.6,RIGHT,6.8,A19,S19.wav,A19.png,1,24203750,task,"[7, 8]","[Determiner_2, Noun_2]","[2790, 3080]","[3075, 3650]","[285, 570]","[0, 0]","[einem, Regal]","[a, shelf]","[0.0, 0.0]","[0.0, 0.0]","[nan, shelf_1]","[nan, S01_I019_E007]","[eine, Regal]","[nan, nan]","[nan, nan]","[nan, nan]","[nan, nan]",[cat_3],,,0.6307692307692307,0.9289099526066351,0.24561403508771928,0.05363748458692972,0.19990384615384615,0.11680464282666213,0.08016877637130802,1.0,0.20153846153846156,0.0661676918458112
p8,Trial: 2,p8.edf,.,28,Fixation: 16652 ms,131,16652,16782,[3],4,1575,705,152.8,283.0,2,2,37.25,37.55,42,Saccade: 16633 ms,LEFT,19,1.19,62.88,94.77,"[ 3, 99]",16633,16651,188.7,275.0,145.3,284.1,43,Saccade: 16783 ms,RIGHT,237,6.97,29.42,1432.27,"[ 8, 99]",16783,17019,159.4,287.4,400.7,206.1,5.95,RIGHT,0.98,A19,S19.wav,A19.png,1,24203750,task,[8],[Noun_2],[3080],[3650],[570],[0],[Regal],[shelf],[0.0],[0.0],[shelf_1],[S01_I019_E007],[Regal],[nan],[nan],[nan],[nan],[cat_3],,,0.14395604395604394,0.9330568720379147,0.3333333333333333,0.07336621454993834,0.20153846153846156,0.16176495690023043,1.0,1.0,0.0942948717948718,1.0
p8,Trial: 2,p8.edf,17595,29,Fixation: 17388 ms,346,17388,17733,[8],2,1644,346,475.4,256.3,1,1,35.45,36.7,44,Saccade: 17366 ms,RIGHT,22,2.1,95.67,139.46,"[ 8, 99]",17366,17387,395.8,231.2,467.1,255.0,45,Saccade: 17734 ms,RIGHT,9,0.56,62.58,52.89,"[ 5, 99]",17734,17742,476.2,253.9,496.1,252.6,-175.37,LEFT,8.9,A19,S19.wav,A19.png,1,24203750,task,"[9, 10]","[Relative Clause Pronoun, Relative Clause Pers. Pronoun]","[4035, 4260]","[4240, 4380]","[205, 120]","[1, 0]","[das, er]","[that, he]","[0.0, 0.0]","[0.0, 0.0]","[nan, kid_1]","[nan, S01_I019_E004]","[die, er]","[nan, nan]","[nan, nan]","[nan, nan]","[nan, nan]",[shelf_1],,,0.3802197802197802,0.9739336492890995,0.38596491228070173,0.12946979038224415,0.3066346153846154,0.23804728172740464,0.0379746835443038,1.0,0.20057692307692307,0.03692739497441125
p8,Trial: 2,p8.edf,.,30,Fixation: 17743 ms,312,17743,18054,[5],8,1637,312,494.5,251.4,1,1,35.4,36.6,45,Saccade: 17734 ms,RIGHT,9,0.56,62.58,52.89,"[ 8, 99]",17734,17742,476.2,253.9,496.1,252.6,46,Saccade: 18055 ms,LEFT,28,3.36,119.93,188.87,"[ 4, 99]",18055,18082,498.7,257.5,380.4,239.7,-166.07,LEFT,0.56,A19,S19.wav,A19.png,1,24203750,task,[11],[Relative Clause Adverb],[4395],[5090],[695],[0],[unbeschwert],[playfully],[0.0],[0.0],[nan],[nan],[unbeschwert],[nan],[nan],[nan],[nan],[kid_1],,,0.34285714285714286,0.9697867298578199,0.15789473684210525,0.03452527743526511,0.20057692307692307,0.09027908167619697,0.11814345991561181,1.0,0.3843910256410257,0.1318675947970704
p8,Trial: 2,p8.edf,18370,31,Fixation: 18083 ms,519,18083,18601,[4],7,1603,968,382.1,248.0,1,2,35.8,36.9,46,Saccade: 18055 ms,LEFT,28,3.36,119.93,188.87,"[ 5, 99]",18055,18082,498.7,257.5,380.4,239.7,47,Saccade: 18602 ms,RIGHT,17,0.98,57.5,74.95,"[ 4, 99]",18602,18618,378.7,251.6,412.2,261.7,-1.68,RIGHT,3.16,A19,S19.wav,A19.png,1,24203750,task,"[11, 12]","[Relative Clause Adverb, Relative Clause Verb]","[4395, 5170]","[5090, 5780]","[695, 610]","[0, 0]","[unbeschwert, jagt]","[playfully, chases]","[0.0, 1.0]","[0.0, 0.0]","[nan, nan]","[nan, nan]","[unbeschwert, jagen]","[nan, nan]","[nan, nan]","[nan, nan]","[nan, nan]",[cat_1],,,0.5703296703296703,0.9496445497630331,0.49122807017543857,0.20715166461159062,0.3843910256410257,0.3223862763506017,0.07172995780590717,1.0,0.1842948717948718,0.052329518875631
p8,Trial: 2,p8.edf,.,32,Fixation: 18619 ms,449,18619,19067,[4],7,1588,968,418.5,269.2,2,2,35.6,36.75,47,Saccade: 18602 ms,RIGHT,17,0.98,57.5,74.95,"[ 4, 99]",18602,18618,378.7,251.6,412.2,261.7,48,Saccade: 19068 ms,RIGHT,35,3.36,96.04,125.27,"[ 5, 99]",19068,19102,418.5,273.2,536.2,292.4,150.55,LEFT,1.17,A19,S19.wav,A19.png,1,24203750,task,[12],[Relative Clause Verb],[5170],[5780],[610],[0],[jagt],[chases],[1.0],[0.0],[nan],[nan],[jagen],[nan],[nan],[nan],[nan],[cat_1],,,0.49340659340659343,0.9407582938388626,0.2982456140350877,0.06041923551171394,0.1842948717948718,0.12793377144320217,0.14767932489451477,1.0,0.3078205128205128,0.08746255943362634
p8,Trial: 2,p8.edf,.,33,Fixation: 19103 ms,173,19103,19275,[5],8,1532,982,541.1,295.1,1,2,35.3,36.5,48,Saccade: 19068 ms,RIGHT,35,3.36,96.04,125.27,"[ 4, 99]",19068,19102,418.5,273.2,536.2,292.4,49,Saccade: 19276 ms,LEFT,18,1.26,69.96,93.63,"[ 5, 99]",19276,19293,540.3,298.7,499.8,279.6,168.44,LEFT,3.53,A19,S19.wav,A19.png,1,24203750,task,,break,,,,,,,,,,,,,,,,[kid_1],,,0.1901098901098901,0.9075829383886256,0.6140350877192983,0.20715166461159062,0.3078205128205128,0.21382606469232737,0.0759493670886076,1.0,0.2242307692307692,0.06537175253269285
p8,Trial: 2,p8.edf,19645,34,Fixation: 19294 ms,809,19294,20102,[5],8,1448,982,497.0,284.9,2,2,35.35,36.6,49,Saccade: 19276 ms,LEFT,18,1.26,69.96,93.63,"[ 5, 99]",19276,19293,540.3,298.7,499.8,279.6,50,Saccade: 20103 ms,UP,156,1.84,11.8,1123.17,"[ 8, 20, 99]",20103,20258,505.9,305.5,517.5,239.2,-12.6,RIGHT,1.28,A19,S19.wav,A19.png,1,24203750,post,,,,,,,,,,,,,,,,,,[kid_1],,,0.889010989010989,0.8578199052132701,0.3157894736842105,0.0776818742293465,0.2242307692307692,0.15981906631390286,0.6582278481012658,1.0,0.037820512820512825,0.7841887353641422
