RECORDING_SESSION_LABEL,TRIAL_LABEL,DATA_FILE,CURRENT_FIX_MSG_TIME_1,CURRENT_FIX_INDEX,CURRENT_FIX_LABEL,CURRENT_FIX_DURATION,CURRENT_FIX_START,CURRENT_FIX_END,CURRENT_FIX_INTEREST_AREAS,CURRENT_FIX_INTEREST_AREA_FIX_COUNT,CURRENT_FIX_PUPIL,CURRENT_FIX_RUN_DWELL_TIME,CURRENT_FIX_X,CURRENT_FIX_Y,CURRENT_FIX_RUN_INDEX,CURRENT_FIX_RUN_SIZE,CURRENT_FIX_X_RESOLUTION,CURRENT_FIX_Y_RESOLUTION,PREVIOUS_SAC_INDEX,PREVIOUS_SAC_LABEL,PREVIOUS_SAC_DIRECTION,PREVIOUS_SAC_DURATION,PREVIOUS_SAC_AMPLITUDE,PREVIOUS_SAC_AVG_VELOCITY,PREVIOUS_SAC_PEAK_VELOCITY,PREVIOUS_SAC_START_INTEREST_AREAS,PREVIOUS_SAC_START_TIME,PREVIOUS_SAC_END_TIME,PREVIOUS_SAC_START_X,PREVIOUS_SAC_START_Y,PREVIOUS_SAC_END_X,PREVIOUS_SAC_END_Y,NEXT_SAC_INDEX,NEXT_SAC_LABEL,NEXT_SAC_DIRECTION,NEXT_SAC_DURATION,NEXT_SAC_AMPLITUDE,NEXT_SAC_AVG_VELOCITY,NEXT_SAC_PEAK_VELOCITY,NEXT_SAC_END_INTEREST_AREAS,NEXT_SAC_START_TIME,NEXT_SAC_END_TIME,NEXT_SAC_START_X,NEXT_SAC_START_Y,NEXT_SAC_END_X,NEXT_SAC_END_Y,PREVIOUS_FIX_ANGLE,PREVIOUS_FIX_DIRECTION,PREVIOUS_FIX_DISTANCE,ItemNO,audiofilename,imagefilename,TRIAL_INDEX,TRIAL_START_TIME,viewtype,word_index,Label,word_onset,word_offset,word_duration,Continuation,wordDE,wordEN,REFWord,TargetObj,ObjectLabel,ObjectID,LemmaDE,LingIndex,DepS,pos_1,pos_2,CURRENT_FIX_INTEREST_AREAS_Labelled,PREVIOUS_SAC_START_INTEREST_AREAS_Labelled,NEXT_SAC_END_INTEREST_AREAS_Labelled,NORMALIZED_CURRENT_FIX_DURATION,NORMALIZED_CURRENT_FIX_PUPIL,NORMALIZED_PREVIOUS_SAC_DURATION,NORMALIZED_PREVIOUS_SAC_AMPLITUDE,NORMALIZED_PREVIOUS_SAC_AVG_VELOCITY,NORMALIZED_PREVIOUS_SAC_PEAK_VELOCITY,NORMALIZED_NEXT_SAC_DURATION,NORMALIZED_NEXT_SAC_AMPLITUDE,NORMALIZED_NEXT_SAC_AVG_VELOCITY,NORMALIZED_NEXT_SAC_PEAK_VELOCITY
p12,Trial: 41,p12.edf,.,1,Fixation: 3382 ms,201,3382,3582,[4],6,1141,201,612.4,772.8,1,1,35.9,37.95,6,Saccade: 3346 ms,UP,36,4.38,121.6,244.22,[ ],3346,3381,653.3,925.5,610.2,763.1,7,Saccade: 3583 ms,UP,52,10.83,208.29,404.83,"[ 9, 99]",3583,3634,613.4,777.4,629.6,374.3,-73.32,DOWN,4.19,A24,S24.wav,A24.png,19,16763885,preview,,,,,,,,,,,,,,,,,,[man_1],,,0.0703535176758838,0.8703279938977879,0.4864864864864865,0.3062937062937063,0.5409974640743871,0.5069013470599224,0.2653061224489796,1.0,0.92668060684255,0.44477526670255657
p12,Trial: 41,p12.edf,.,2,Fixation: 3635 ms,152,3635,3786,[9],7,1204,784,629.3,365.3,1,2,35.2,36.5,7,Saccade: 3583 ms,UP,52,10.83,208.29,404.83,"[ 4, 99]",3583,3634,613.4,777.4,629.6,374.3,8,Saccade: 3787 ms,UP,21,1.9,90.48,136.95,"[ 9, 99]",3787,3807,630.9,362.4,665.1,302.8,-92.49,DOWN,10.96,A24,S24.wav,A24.png,19,16763885,preview,,,,,,,,,,,,,,,,,,[woman_1],,,0.05320266013300665,0.9183829138062548,0.7027027027027027,0.7573426573426573,0.92668060684255,0.840262354967932,0.10714285714285714,1.0,0.4025448235974552,0.15046309012404002
p12,Trial: 41,p12.edf,.,3,Fixation: 3808 ms,632,3808,4439,[9],7,1157,784,669.5,294.5,2,2,35.2,36.5,8,Saccade: 3787 ms,UP,21,1.9,90.48,136.95,"[ 9, 99]",3787,3807,630.9,362.4,665.1,302.8,9,Saccade: 4440 ms,RIGHT,30,4.6,153.44,258.42,"[ 23, 28, 99]",4440,4469,673.4,296.1,826.5,353.1,-120.49,DOWN,2.25,A24,S24.wav,A24.png,19,16763885,preview,,,,,,,,,,,,,,,,,,[woman_1],,,0.22121106055302764,0.8825324180015256,0.28378378378378377,0.13286713286713286,0.4025448235974552,0.2842524751447726,0.15306122448979592,1.0,0.6826533790096543,0.2839187422406311
p12,Trial: 41,p12.edf,.,4,Fixation: 4470 ms,319,4470,4788,[28],4,1115,319,842.9,373.9,1,1,35.5,36.65,9,Saccade: 4440 ms,RIGHT,30,4.6,153.44,258.42,"[ 9, 99]",4440,4469,673.4,296.1,826.5,353.1,10,Saccade: 4789 ms,LEFT,29,4.1,141.51,247.96,[ 99],4789,4817,846.7,376.7,718.2,307.0,156.13,LEFT,5.36,A24,S24.wav,A24.png,19,16763885,preview,,,,,,,,,,,,,,,,,,[shelves_1],,,0.11165558277913895,0.8504958047292144,0.40540540540540543,0.3216783216783216,0.6826533790096543,0.5363747690902676,0.14795918367346939,1.0,0.6295769008319615,0.272426636196838
p12,Trial: 41,p12.edf,.,5,Fixation: 4818 ms,156,4818,4973,[],52,1213,21268,713.4,312.8,5,51,35.2,36.5,10,Saccade: 4789 ms,LEFT,29,4.1,141.51,247.96,"[ 28, 99]",4789,4817,846.7,376.7,718.2,307.0,11,Saccade: 4974 ms,LEFT,18,1.26,69.76,91.68,"[ 9, 99]",4974,4991,711.9,313.4,675.7,287.1,-24.51,RIGHT,4.03,A24,S24.wav,A24.png,19,16763885,preview,,,,,,,,,,,,,,,,,,[],,,0.05460273013650683,0.9252479023646072,0.3918918918918919,0.28671328671328666,0.6295769008319615,0.5146640652566471,0.09183673469387756,1.0,0.3103617030742537,0.10072622199760489
p12,Trial: 41,p12.edf,.,6,Fixation: 4992 ms,280,4992,5271,[9],7,1127,280,674.9,287.9,1,1,35.2,36.5,11,Saccade: 4974 ms,LEFT,18,1.26,69.76,91.68,[ 99],4974,4991,711.9,313.4,675.7,287.1,12,Saccade: 5272 ms,LEFT,24,2.94,122.53,211.73,"[ 2, 12, 15, 99]",5272,5295,673.4,286.6,572.6,311.0,-31.95,RIGHT,1.29,A24,S24.wav,A24.png,19,16763885,preview,,,,,,,,,,,,,,,,,,[woman_1],,,0.09800490024501225,0.8596491228070176,0.24324324324324326,0.08811188811188811,0.3103617030742537,0.19029037547479194,0.12244897959183673,1.0,0.5451350269164034,0.23262176029180717
p12,Trial: 41,p12.edf,.,7,Fixation: 5296 ms,345,5296,5640,"[2, 12, 15]",7,1058,702,572.2,306.3,1,2,35.2,36.5,12,Saccade: 5272 ms,LEFT,24,2.94,122.53,211.73,"[ 9, 99]",5272,5295,673.4,286.6,572.6,311.0,13,Saccade: 5641 ms,.,18,0.45,25.14,48.0,"[ 2, 12, 15, 99]",5641,5658,573.9,309.0,560.8,299.6,9.8,RIGHT,2.96,A24,S24.wav,A24.png,19,16763885,preview,,,,,,,,,,,,,,,,,,"[radio_2, box_1, cabinet_1]",,,0.12075603780189009,0.8070175438596491,0.32432432432432434,0.2055944055944056,0.5451350269164034,0.4394653272172523,0.09183673469387756,1.0,0.11184766650353695,0.05273624188356277
p12,Trial: 41,p12.edf,.,8,Fixation: 5659 ms,357,5659,6015,"[2, 12, 15]",7,1110,702,564.7,302.2,2,2,35.2,36.5,13,Saccade: 5641 ms,.,18,0.45,25.14,48.0,"[ 2, 12, 15, 99]",5641,5658,573.9,309.0,560.8,299.6,14,Saccade: 6016 ms,UP,37,4.17,112.76,195.94,[ 99],6016,6052,567.0,305.0,473.2,187.0,-27.8,.,0.24,A24,S24.wav,A24.png,19,16763885,preview,,,,,,,,,,,,,,,,,,"[radio_2, box_1, cabinet_1]",,,0.12495624781239062,0.8466819221967964,0.24324324324324326,0.031468531468531465,0.11184766650353695,0.09962846883496959,0.18877551020408162,1.0,0.5016683721137163,0.21527373405552686
p12,Trial: 41,p12.edf,.,9,Fixation: 6053 ms,642,6053,6694,[],52,1082,21268,474.8,196.7,9,51,35.5,36.8,14,Saccade: 6016 ms,UP,37,4.17,112.76,195.94,"[ 2, 12, 15, 99]",6016,6052,567.0,305.0,473.2,187.0,15,Saccade: 6695 ms,LEFT,60,9.16,152.65,344.25,[ 99],6695,6754,477.4,193.1,171.5,326.2,-48.54,DOWN,3.84,A24,S24.wav,A24.png,19,16763885,preview,,,,,,,,,,,,,,,,,,[],,,0.22471123556177808,0.8253241800152555,0.5,0.2916083916083916,0.5016683721137163,0.40669171215674876,0.30612244897959184,1.0,0.6791386750900921,0.37821773475867676
p12,Trial: 41,p12.edf,.,10,Fixation: 6755 ms,122,6755,6876,[],52,1043,21268,170.4,330.1,10,51,37.1,37.4,15,Saccade: 6695 ms,LEFT,60,9.16,152.65,344.25,[ 99],6695,6754,477.4,193.1,171.5,326.2,16,Saccade: 6877 ms,LEFT,25,2.23,89.06,149.22,[ 99],6877,6901,170.5,331.8,104.6,382.8,23.21,RIGHT,9.12,A24,S24.wav,A24.png,19,16763885,preview,,,,,,,,,,,,,,,,,,[],,,0.042702135106755336,0.7955758962623951,0.8108108108108109,0.6405594405594406,0.6791386750900921,0.7145229249257975,0.12755102040816327,1.0,0.39622725452684965,0.16394379195552575
p12,Trial: 41,p12.edf,.,11,Fixation: 6902 ms,571,6902,7472,[],52,1090,21268,112.5,385.9,11,51,37.6,37.7,16,Saccade: 6877 ms,LEFT,25,2.23,89.06,149.22,[ 99],6877,6901,170.5,331.8,104.6,382.8,17,Saccade: 7473 ms,RIGHT,27,4.61,170.61,322.92,[ 99],7473,7499,109.6,381.0,237.7,495.5,43.79,RIGHT,2.15,A24,S24.wav,A24.png,19,16763885,preview,,,,,,,,,,,,,,,,,,[],,,0.19985999299965,0.8314263920671243,0.33783783783783783,0.15594405594405594,0.39622725452684965,0.3097200024907117,0.1377551020408163,1.0,0.759042576856342,0.35478306727166853
p12,Trial: 41,p12.edf,.,12,Fixation: 7500 ms,285,7500,7784,[],52,1090,21268,238.3,499.6,12,51,36.65,37.4,17,Saccade: 7473 ms,RIGHT,27,4.61,170.61,322.92,[ 99],7473,7499,109.6,381.0,237.7,495.5,18,Saccade: 7785 ms,.,7,0.33,47.56,37.51,[ 99],7785,7791,243.3,502.4,250.0,512.8,138.22,LEFT,4.54,A24,S24.wav,A24.png,19,16763885,preview,,,,,,,,,,,,,,,,,,[],,,0.09975498774938747,0.8314263920671243,0.36486486486486486,0.3223776223776224,0.759042576856342,0.6702505240872579,0.03571428571428571,1.0,0.21159407394225208,0.041211175688592484
p12,Trial: 41,p12.edf,.,13,Fixation: 7792 ms,218,7792,8009,[],52,1190,21268,252.1,516.1,13,51,36.55,37.4,18,Saccade: 7785 ms,.,7,0.33,47.56,37.51,[ 99],7785,7791,243.3,502.4,250.0,512.8,19,Saccade: 8010 ms,LEFT,28,3.2,114.36,200.88,"[ 5, 99]",8010,8037,256.4,517.7,138.9,533.1,130.52,UP,0.58,A24,S24.wav,A24.png,19,16763885,preview,,,,,,,,,,,,,,,,,,[],,,0.07630381519075954,0.9077040427154843,0.0945945945945946,0.023076923076923078,0.21159407394225208,0.07785549720832727,0.14285714285714285,1.0,0.5087867597989055,0.2207011722827102
p12,Trial: 41,p12.edf,.,14,Fixation: 8038 ms,213,8038,8250,[5],1,1230,213,153.0,532.9,1,1,37.4,37.8,19,Saccade: 8010 ms,LEFT,28,3.2,114.36,200.88,[ 99],8010,8037,256.4,517.7,138.9,533.1,20,Saccade: 8251 ms,UP,33,4.39,133.07,260.46,[ 99],8251,8283,153.5,535.6,111.2,375.4,9.46,RIGHT,2.72,A24,S24.wav,A24.png,19,16763885,preview,,,,,,,,,,,,,,,,,,[kid_1],,,0.07455372768638432,0.9382151029748284,0.3783783783783784,0.22377622377622378,0.5087867597989055,0.41694514207434774,0.1683673469387755,1.0,0.592027405792588,0.28616003252068245
p12,Trial: 41,p12.edf,.,15,Fixation: 8284 ms,284,8284,8567,[],52,1223,21268,115.4,390.8,15,51,37.6,37.7,20,Saccade: 8251 ms,UP,33,4.39,133.07,260.46,"[ 5, 99]",8251,8283,153.5,535.6,111.2,375.4,21,Saccade: 8568 ms,.,7,0.3,42.46,33.26,[ 99],8568,8574,112.6,388.6,123.1,392.4,-75.08,DOWN,3.9,A24,S24.wav,A24.png,19,16763885,preview,,,,,,,,,,,,,,,,,,[],,,0.09940497024851243,0.9328756674294432,0.44594594594594594,0.30699300699300697,0.592027405792588,0.5406089790157537,0.03571428571428571,1.0,0.18890421319571116,0.03654182093848537
p12,Trial: 41,p12.edf,.,16,Fixation: 8575 ms,283,8575,8857,[],52,1219,21268,122.1,395.3,16,51,37.5,37.7,21,Saccade: 8568 ms,.,7,0.3,42.46,33.26,[ 99],8568,8574,112.6,388.6,123.1,392.4,22,Saccade: 8858 ms,RIGHT,41,3.76,91.68,289.28,[ 99],8858,8898,120.8,396.9,227.9,487.3,146.22,.,0.21,A24,S24.wav,A24.png,19,16763885,preview,,,,,,,,,,,,,,,,,,[],,,0.09905495274763738,0.9298245614035088,0.0945945945945946,0.020979020979020976,0.18890421319571116,0.069034226530231,0.20918367346938777,1.0,0.4078836143613472,0.31782375108493827
p12,Trial: 41,p12.edf,.,17,Fixation: 8899 ms,281,8899,9179,[],52,1201,21268,239.2,496.5,17,51,36.65,37.4,22,Saccade: 8858 ms,RIGHT,41,3.76,91.68,289.28,[ 99],8858,8898,120.8,396.9,227.9,487.3,23,Saccade: 9180 ms,RIGHT,28,3.53,125.98,243.48,"[ 15, 99]",9180,9207,240.3,498.9,346.1,425.3,139.53,LEFT,4.15,A24,S24.wav,A24.png,19,16763885,preview,,,,,,,,,,,,,,,,,,[],,,0.0983549177458873,0.916094584286804,0.5540540540540541,0.2629370629370629,0.4078836143613472,0.60042757217875,0.14285714285714285,1.0,0.5604840503625929,0.2675045869543721
p12,Trial: 41,p12.edf,.,18,Fixation: 9208 ms,333,9208,9540,[15],9,1284,840,349.8,422.8,1,2,35.9,36.9,23,Saccade: 9180 ms,RIGHT,28,3.53,125.98,243.48,[ 99],9180,9207,240.3,498.9,346.1,425.3,24,Saccade: 9541 ms,LEFT,15,0.73,48.82,56.12,[ 99],9541,9555,351.9,423.4,330.9,407.1,-146.95,LEFT,3.64,A24,S24.wav,A24.png,19,16763885,preview,,,,,,,,,,,,,,,,,,[cabinet_1],,,0.11655582779138957,0.9794050343249427,0.3783783783783784,0.24685314685314683,0.5604840503625929,0.5053654081653832,0.07653061224489796,1.0,0.21719980424433866,0.061657456135532134
p12,Trial: 41,p12.edf,.,19,Fixation: 9556 ms,507,9556,10062,[15],9,1311,840,337.7,411.6,2,2,36.0,36.9,24,Saccade: 9541 ms,LEFT,15,0.73,48.82,56.12,"[ 15, 99]",9541,9555,351.9,423.4,330.9,407.1,25,Saccade: 10063 ms,LEFT,47,5.67,120.6,331.78,"[ 5, 99]",10063,10109,339.2,410.4,131.4,420.3,-42.04,.,0.45,A24,S24.wav,A24.png,19,16763885,preview,,,,,,,,,,,,,,,,,,[cabinet_1],,,0.17745887294364718,1.0,0.20270270270270271,0.05104895104895105,0.21719980424433866,0.11648228481288528,0.23979591836734693,1.0,0.5365484717711437,0.36451729858600945
p12,Trial: 41,p12.edf,.,20,Fixation: 10110 ms,204,10110,10313,[],52,1291,21268,121.4,419.7,20,51,37.45,37.65,25,Saccade: 10063 ms,LEFT,47,5.67,120.6,331.78,"[ 15, 99]",10063,10109,339.2,410.4,131.4,420.3,26,Saccade: 10314 ms,UP,19,1.06,55.57,72.25,[ 99],10314,10332,121.7,420.7,107.6,383.5,2.11,RIGHT,5.89,A24,S24.wav,A24.png,19,16763885,preview,,,,,,,,,,,,,,,,,,[],,,0.07140357017850893,0.984744469870328,0.6351351351351351,0.3965034965034965,0.5365484717711437,0.6886402789597127,0.09693877551020408,1.0,0.24723050229123103,0.07937903075182104
p12,Trial: 41,p12.edf,.,21,Fixation: 10333 ms,165,10333,10497,[],52,1253,21268,104.6,392.2,21,51,37.6,37.7,26,Saccade: 10314 ms,UP,19,1.06,55.57,72.25,[ 99],10314,10332,121.7,420.7,107.6,383.5,27,Saccade: 10498 ms,RIGHT,68,14.3,210.32,393.07,"[ 9, 99]",10498,10565,106.6,394.5,623.2,329.0,-58.48,DOWN,0.86,A24,S24.wav,A24.png,19,16763885,preview,,,,,,,,,,,,,,,,,,[],,,0.05775288764438222,0.9557589626239512,0.25675675675675674,0.07412587412587412,0.24723050229123103,0.14996160152763652,0.3469387755102041,1.0,0.935712061218134,0.4318548874410837
p12,Trial: 41,p12.edf,.,22,Fixation: 10566 ms,397,10566,10962,[9],7,1257,560,650.6,327.4,1,2,35.2,36.5,27,Saccade: 10498 ms,RIGHT,68,14.3,210.32,393.07,[ 99],10498,10565,106.6,394.5,623.2,329.0,28,Saccade: 10963 ms,UP,13,0.8,61.44,63.95,"[ 9, 99]",10963,10975,652.9,325.6,649.2,296.7,-173.36,LEFT,15.1,A24,S24.wav,A24.png,19,16763885,preview,,,,,,,,,,,,,,,,,,[woman_1],,,0.13895694784739238,0.9588100686498856,0.918918918918919,1.0,0.935712061218134,0.8158533801033645,0.0663265306122449,1.0,0.2733460871112693,0.07026005559278832
p12,Trial: 41,p12.edf,.,23,Fixation: 10976 ms,163,10976,11138,[9],7,1267,560,646.1,292.2,2,2,35.2,36.5,28,Saccade: 10963 ms,UP,13,0.8,61.44,63.95,"[ 9, 99]",10963,10975,652.9,325.6,649.2,296.7,29,Saccade: 11139 ms,LEFT,41,4.53,110.41,210.77,[ 99],11139,11179,646.8,293.5,508.0,211.4,-82.45,DOWN,0.97,A24,S24.wav,A24.png,19,16763885,preview,,,,,,,,,,,,,,,,,,[woman_1],,,0.05705285264263213,0.9664378337147216,0.17567567567567569,0.055944055944055944,0.2733460871112693,0.1327341787915897,0.20918367346938777,1.0,0.4912132402010944,0.23156703545413596
p12,Trial: 41,p12.edf,.,24,Fixation: 11180 ms,176,11180,11355,[],52,1240,21268,515.0,218.6,24,51,35.4,36.7,29,Saccade: 11139 ms,LEFT,41,4.53,110.41,210.77,"[ 9, 99]",11139,11179,646.8,293.5,508.0,211.4,30,Saccade: 11356 ms,LEFT,20,1.15,57.35,81.89,[ 99],11356,11375,515.4,220.7,480.6,198.9,-28.43,RIGHT,4.22,A24,S24.wav,A24.png,19,16763885,preview,,,,,,,,,,,,,,,,,,[],,,0.0616030801540077,0.9458428680396643,0.5540540540540541,0.3167832167832168,0.4912132402010944,0.43747275784055295,0.10204081632653061,1.0,0.2551497085910041,0.0899702259967699
p12,Trial: 41,p12.edf,.,25,Fixation: 11376 ms,181,11376,11556,[],52,1264,21268,483.7,209.9,25,51,35.5,36.8,30,Saccade: 11356 ms,LEFT,20,1.15,57.35,81.89,[ 99],11356,11375,515.4,220.7,480.6,198.9,31,Saccade: 11557 ms,RIGHT,30,3.74,124.7,239.17,[ 99],11557,11586,480.0,208.4,583.0,294.4,-15.01,RIGHT,0.91,A24,S24.wav,A24.png,19,16763885,preview,,,,,,,,,,,,,,,,,,[],,,0.06335316765838292,0.9641495041952708,0.2702702702702703,0.0804195804195804,0.2551497085910041,0.16997031901865958,0.15306122448979592,1.0,0.5547893402144414,0.26276931190191055
p12,Trial: 41,p12.edf,.,26,Fixation: 11587 ms,168,11587,11754,"[2, 12, 15]",7,1257,168,567.2,302.9,1,1,35.2,36.5,31,Saccade: 11557 ms,RIGHT,30,3.74,124.7,239.17,[ 99],11557,11586,480.0,208.4,583.0,294.4,32,Saccade: 11755 ms,DOWN,167,1.61,9.66,910.19,"[ 12, 15, 99]",11755,11921,568.2,308.1,568.4,367.0,132.95,UP,3.47,A24,S24.wav,A24.png,19,16763885,preview,,,,,,,,,,,,,,,,,,"[radio_2, box_1, cabinet_1]",,,0.05880294014700735,0.9588100686498856,0.40540540540540543,0.26153846153846155,0.5547893402144414,0.49641960190124323,0.8520408163265306,1.0,0.04297726564933042,1.0
p12,Trial: 41,p12.edf,.,27,Fixation: 12225 ms,221,12225,12445,[],52,1229,21268,1127.6,397.6,27,51,37.15,37.5,33,Saccade: 12151 ms,RIGHT,74,14.23,192.34,412.9,"[ 12, 15, 99]",12151,12224,603.5,319.0,1114.2,383.2,34,Saccade: 12446 ms,DOWN,24,2.11,87.73,159.94,[ 99],12446,12469,1125.0,400.9,1169.7,466.2,170.62,LEFT,15.7,A24,S24.wav,A24.png,19,16763885,preview,,,,,,,,,,,,,,,,,,[],,,0.07735386769338468,0.9374523264683448,1.0,0.9951048951048951,0.8557191796058192,0.8570123912908113,0.12244897959183673,1.0,0.39031009476353606,0.17572155264285477
p12,Trial: 41,p12.edf,.,28,Fixation: 12470 ms,165,12470,12634,[],52,1161,21268,1162.9,462.8,28,51,37.6,37.8,34,Saccade: 12446 ms,DOWN,24,2.11,87.73,159.94,[ 99],12446,12469,1125.0,400.9,1169.7,466.2,35,Saccade: 12635 ms,DOWN,14,0.8,56.79,61.96,[ 99],12635,12648,1163.3,471.4,1175.0,499.1,118.61,UP,1.97,A24,S24.wav,A24.png,19,16763885,preview,,,,,,,,,,,,,,,,,,[],,,0.05775288764438222,0.88558352402746,0.32432432432432434,0.14755244755244754,0.39031009476353606,0.3319703605305216,0.07142857142857142,1.0,0.25265827290118786,0.06807369889803228
p12,Trial: 41,p12.edf,.,29,Fixation: 12649 ms,151,12649,12799,[],52,1106,21268,1170.5,497.5,29,51,37.7,37.9,35,Saccade: 12635 ms,DOWN,14,0.8,56.79,61.96,[ 99],12635,12648,1163.3,471.4,1175.0,499.1,36,Saccade: 12800 ms,LEFT,56,10.01,178.76,481.79,"[ 27, 28, 99]",12800,12855,1174.4,494.4,812.3,554.7,102.42,UP,0.94,A24,S24.wav,A24.png,19,16763885,preview,,,,,,,,,,,,,,,,,,[],,,0.05285264263213161,0.8436308161708619,0.1891891891891892,0.055944055944055944,0.25265827290118786,0.1286037485211399,0.2857142857142857,1.0,0.7953018641277749,0.5293290411892022
p12,Trial: 41,p12.edf,13118,30,Fixation: 12856 ms,362,12856,13217,[28],4,1113,362,799.9,563.2,1,1,35.6,36.95,36,Saccade: 12800 ms,LEFT,56,10.01,178.76,481.79,[ 99],12800,12855,1174.4,494.4,812.3,554.7,37,Saccade: 13218 ms,LEFT,14,0.76,54.61,61.36,[ 99],13218,13231,800.0,566.1,775.0,577.2,9.85,RIGHT,10.26,A24,S24.wav,A24.png,19,16763885,preview,,,,,,,,,,,,,,,,,,[shelves_1],,,0.12670633531676584,0.8489702517162472,0.7567567567567568,0.7,0.7953018641277749,1.0,0.07142857142857142,1.0,0.24295946968011745,0.06741449587448774
p12,Trial: 41,p12.edf,13315,31,Fixation: 13232 ms,221,13232,13452,[],52,1130,21268,779.4,577.0,31,51,35.5,37.0,37,Saccade: 13218 ms,LEFT,14,0.76,54.61,61.36,"[ 28, 99]",13218,13231,800.0,566.1,775.0,577.2,38,Saccade: 13453 ms,UP,39,7.02,180.05,412.42,"[ 9, 99]",13453,13491,779.2,579.2,660.8,352.3,32.91,RIGHT,0.69,A24,S24.wav,A24.png,19,16763885,taskpreview,,,,,,,,,,,,,,,,,,[],,,0.07735386769338468,0.8619374523264683,0.1891891891891892,0.05314685314685314,0.24295946968011745,0.12735839266070278,0.1989795918367347,1.0,0.8010410641989589,0.45311418495039496
p12,Trial: 41,p12.edf,.,32,Fixation: 13492 ms,211,13492,13702,[9],7,1201,444,665.5,348.1,1,2,35.2,36.5,38,Saccade: 13453 ms,UP,39,7.02,180.05,412.42,[ 99],13453,13491,779.2,579.2,660.8,352.3,39,Saccade: 13703 ms,LEFT,21,1.48,70.64,113.03,"[ 9, 99]",13703,13723,667.1,346.9,627.1,312.1,-62.65,DOWN,7.01,A24,S24.wav,A24.png,19,16763885,task,[1],[Adverb],[110],[250],[140],[0],[Da],[It],[0.0],[0.0],[nan],[nan],[da],[nan],[nan],[nan],[nan],[woman_1],,,0.07385369268463424,0.916094584286804,0.527027027027027,0.49090909090909085,0.8010410641989589,0.8560161066024616,0.10714285714285714,1.0,0.31427681630110776,0.12418286291873125
p12,Trial: 41,p12.edf,.,33,Fixation: 13724 ms,233,13724,13956,[9],7,1178,444,633.7,317.9,2,2,35.2,36.5,39,Saccade: 13703 ms,LEFT,21,1.48,70.64,113.03,"[ 9, 99]",13703,13723,667.1,346.9,627.1,312.1,40,Saccade: 13957 ms,LEFT,24,2.05,85.33,150.47,"[ 2, 12, 15, 99]",13957,13980,637.0,317.9,566.1,304.4,-42.49,RIGHT,1.23,A24,S24.wav,A24.png,19,16763885,task,[2],[Verb],[290],[830],[540],[0],[befindet],[is],[0.0],[0.0],[nan],[nan],[befinden],[nan],[nan],[nan],[nan],[woman_1],,,0.08155407770388519,0.8985507246376812,0.28378378378378377,0.1034965034965035,0.31427681630110776,0.2346042881753461,0.12244897959183673,1.0,0.3796325132357521,0.1653171315879102
p12,Trial: 41,p12.edf,.,34,Fixation: 13981 ms,277,13981,14257,"[2, 12, 15]",7,1124,945,571.7,307.0,1,2,35.2,36.5,40,Saccade: 13957 ms,LEFT,24,2.05,85.33,150.47,"[ 9, 99]",13957,13980,637.0,317.9,566.1,304.4,41,Saccade: 14258 ms,LEFT,196,1.09,5.55,805.57,"[ 2, 12, 15, 99]",14258,14453,571.5,309.4,541.9,334.6,-9.62,RIGHT,1.79,A24,S24.wav,A24.png,19,16763885,task,[2],[Verb],[290],[830],[540],[0],[befindet],[is],[0.0],[0.0],[nan],[nan],[befinden],[nan],[nan],[nan],[nan],"[radio_2, box_1, cabinet_1]",,,0.09695484774238712,0.8573607932875668,0.32432432432432434,0.14335664335664333,0.3796325132357521,0.31231449386662236,1.0,1.0,0.0246919072830004,0.8850569661279513
p12,Trial: 41,p12.edf,14790,35,Fixation: 14634 ms,668,14634,15301,"[2, 12, 15]",7,1232,945,562.5,305.7,2,2,35.2,36.5,42,Saccade: 14628 ms,.,6,0.28,46.58,34.66,"[ 2, 12, 15, 99]",14628,14633,562.6,306.2,562.4,316.4,43,Saccade: 15302 ms,DOWN,52,9.09,174.76,311.5,[ 99],15302,15353,558.2,301.1,753.5,565.9,-7.76,.,0.26,A24,S24.wav,A24.png,19,16763885,task,"[4, 5]","[Determiner_1, Noun_1]","[1430, 1590]","[1705, 2350]","[275, 760]","[0, 0]","[ein, Radio]","[a, radio]","[0.0, 0.0]","[0.0, 0.0]","[nan, radio_1]","[nan, S01_I024_E009]","[eine, Radio]","[nan, nan]","[nan, nan]","[nan, nan]","[nan, nan]","[radio_2, box_1, cabinet_1]",,,0.23381169058452922,0.9397406559877955,0.08108108108108109,0.019580419580419582,0.20723406148507362,0.07194005687125095,0.2653061224489796,1.0,0.7775058949148017,0.34223623639020423
p12,Trial: 41,p12.edf,.,36,Fixation: 15354 ms,629,15354,15982,[],52,1194,21268,763.5,573.3,36,51,35.5,36.95,43,Saccade: 15302 ms,DOWN,52,9.09,174.76,311.5,"[ 2, 12, 15, 99]",15302,15353,558.2,301.1,753.5,565.9,44,Saccade: 15983 ms,RIGHT,24,0.93,38.81,93.21,"[ 28, 99]",15983,16006,766.6,576.2,799.7,577.0,127.97,UP,9.24,A24,S24.wav,A24.png,19,16763885,task,[5],[Noun_1],[1590],[2350],[760],[0],[Radio],[radio],[0.0],[0.0],[radio_1],[S01_I024_E009],[Radio],[nan],[nan],[nan],[nan],[],,,0.2201610080504025,0.9107551487414187,0.7027027027027027,0.6356643356643357,0.7775058949148017,0.6465472508769381,0.12244897959183673,1.0,0.17266539128887307,0.10240718970764344
p12,Trial: 41,p12.edf,.,37,Fixation: 16007 ms,135,16007,16141,[],52,1192,21268,797.1,578.0,37,51,35.6,37.0,44,Saccade: 15983 ms,RIGHT,24,0.93,38.81,93.21,[ 99],15983,16006,766.6,576.2,799.7,577.0,45,Saccade: 16142 ms,LEFT,43,9.67,224.77,420.67,"[ 2, 12, 15, 99]",16142,16184,800.4,580.8,558.4,329.7,172.34,LEFT,0.95,A24,S24.wav,A24.png,19,16763885,task,[6],[Preposition_1],[2680],[2820],[140],[0],[auf],[on],[0.0],[0.0],[nan],[nan],[auf],[nan],[nan],[nan],[nan],[],,,0.04725236261813091,0.9092295957284515,0.32432432432432434,0.06503496503496503,0.17266539128887307,0.19346603291890654,0.2193877551020408,1.0,1.0,0.4621782265241323
p12,Trial: 41,p12.edf,16380,38,Fixation: 16185 ms,255,16185,16439,"[2, 12, 15]",7,1199,881,559.7,323.4,1,2,35.2,36.5,45,Saccade: 16142 ms,LEFT,43,9.67,224.77,420.67,[ 99],16142,16184,800.4,580.8,558.4,329.7,46,Saccade: 16440 ms,UP,16,0.74,46.01,60.4,"[ 2, 12, 15, 99]",16440,16455,563.4,324.4,556.5,298.5,-45.93,DOWN,9.64,A24,S24.wav,A24.png,19,16763885,task,[7],[Determiner_2],[2870],[3100],[230],[0],[einem],[a],[0.0],[0.0],[nan],[nan],[eine],[nan],[nan],[nan],[nan],"[radio_2, box_1, cabinet_1]",,,0.08925446272313615,0.9145690312738368,0.581081081081081,0.6762237762237762,1.0,0.8731397496834721,0.08163265306122448,1.0,0.20469813587222493,0.06635977103681648
p12,Trial: 41,p12.edf,.,39,Fixation: 16456 ms,626,16456,17081,"[2, 12, 15]",7,1183,881,558.6,307.4,2,2,35.2,36.5,46,Saccade: 16440 ms,UP,16,0.74,46.01,60.4,"[ 2, 12, 15, 99]",16440,16455,563.4,324.4,556.5,298.5,47,Saccade: 17082 ms,LEFT,61,8.03,131.71,336.27,[ 99],17082,17142,558.7,304.9,294.9,420.8,-85.92,.,0.44,A24,S24.wav,A24.png,19,16763885,task,[8],[Noun_2],[3180],[3720],[540],[0],[Kissen],[pillow],[0.0],[1.0],[pillow_1],[S01_I024_E010],[Kissen],[nan],[nan],[nan],[nan],"[radio_2, box_1, cabinet_1]",,,0.21911095554777738,0.9023646071700991,0.21621621621621623,0.05174825174825175,0.20469813587222493,0.1253658232840034,0.3112244897959184,1.0,0.5859767762601771,0.3694503345455344
p12,Trial: 41,p12.edf,.,40,Fixation: 17143 ms,139,17143,17281,[],52,1172,21268,284.9,436.7,40,51,36.25,37.05,47,Saccade: 17082 ms,LEFT,61,8.03,131.71,336.27,"[ 2, 12, 15, 99]",17082,17142,558.7,304.9,294.9,420.8,48,Saccade: 17282 ms,DOWN,24,2.03,84.4,149.82,[ 99],17282,17305,286.2,445.2,240.8,504.7,24.65,RIGHT,8.43,A24,S24.wav,A24.png,19,16763885,task,,break,,,,,,,,,,,,,,,,[],,,0.04865243262163108,0.8939740655987796,0.8243243243243243,0.5615384615384614,0.5859767762601771,0.6979596919819838,0.12244897959183673,1.0,0.3754949503937358,0.1646029949790703
p12,Trial: 41,p12.edf,17780,41,Fixation: 17306 ms,554,17306,17859,[],52,1232,21268,242.3,510.1,41,51,36.6,37.4,48,Saccade: 17282 ms,DOWN,24,2.03,84.4,149.82,[ 99],17282,17305,286.2,445.2,240.8,504.7,49,Saccade: 17860 ms,RIGHT,10,0.57,57.05,50.87,[ 99],17860,17869,242.5,519.0,263.1,522.3,59.33,UP,2.29,A24,S24.wav,A24.png,19,16763885,task,"[9, 10]","[Preposition_2_of_RC, Relative Clause Pronoun]","[4045, 4270]","[4210, 4430]","[165, 160]","[0, 1]","[auf, dem]","[on, that]","[0.0, 0.0]","[0.0, 0.0]","[nan, nan]","[nan, nan]","[auf, die]","[nan, nan]","[nan, nan]","[nan, nan]","[nan, nan]",[],,,0.19390969548477424,0.9397406559877955,0.32432432432432434,0.14195804195804193,0.3754949503937358,0.3109653583511488,0.05102040816326531,1.0,0.2538150109000311,0.05588942967951746
p12,Trial: 41,p12.edf,.,42,Fixation: 17870 ms,647,17870,18516,[],52,1051,21268,251.1,524.7,42,51,36.55,37.35,49,Saccade: 17860 ms,RIGHT,10,0.57,57.05,50.87,[ 99],17860,17869,242.5,519.0,263.1,522.3,50,Saccade: 18517 ms,LEFT,32,5.23,163.43,297.74,[ 99],18517,18548,244.4,526.2,92.3,403.6,121.63,.,0.46,A24,S24.wav,A24.png,19,16763885,task,[12],[Relative Clause Adverb],[4580],[5220],[640],[0],[fröhlich],[cheerfully],[0.0],[0.0],[nan],[nan],[fröhlich],[nan],[nan],[nan],[nan],[],,,0.2264613230661533,0.8016781083142639,0.13513513513513514,0.03986013986013986,0.2538150109000311,0.10558542103406048,0.16326530612244897,1.0,0.727098812119055,0.32711851371691625
p12,Trial: 41,p12.edf,18560,43,Fixation: 18549 ms,2857,18549,21405,[],52,1100,21268,104.8,391.1,43,51,37.7,37.75,50,Saccade: 18517 ms,LEFT,32,5.23,163.43,297.74,[ 99],18517,18548,244.4,526.2,92.3,403.6,51,Saccade: 21406 ms,DOWN,43,4.31,100.12,335.85,[ 99],21406,21448,114.3,396.2,219.0,518.7,-42.08,RIGHT,5.31,A24,S24.wav,A24.png,19,16763885,task,[13],[Relative Clause Verb],[5360],[5840],[480],[0],[sitzt],[sits],[1.0],[0.0],[nan],[nan],[sitzen],[nan],[nan],[nan],[nan],[],,,1.0,0.8390541571319603,0.43243243243243246,0.36573426573426576,0.727098812119055,0.6179870898109134,0.2193877551020408,1.0,0.44543310940072073,0.36898889242905325
