RECORDING_SESSION_LABEL,TRIAL_LABEL,DATA_FILE,CURRENT_FIX_MSG_TIME_1,CURRENT_FIX_INDEX,CURRENT_FIX_LABEL,CURRENT_FIX_DURATION,CURRENT_FIX_START,CURRENT_FIX_END,CURRENT_FIX_INTEREST_AREAS,CURRENT_FIX_INTEREST_AREA_FIX_COUNT,CURRENT_FIX_PUPIL,CURRENT_FIX_RUN_DWELL_TIME,CURRENT_FIX_X,CURRENT_FIX_Y,CURRENT_FIX_RUN_INDEX,CURRENT_FIX_RUN_SIZE,CURRENT_FIX_X_RESOLUTION,CURRENT_FIX_Y_RESOLUTION,PREVIOUS_SAC_INDEX,PREVIOUS_SAC_LABEL,PREVIOUS_SAC_DIRECTION,PREVIOUS_SAC_DURATION,PREVIOUS_SAC_AMPLITUDE,PREVIOUS_SAC_AVG_VELOCITY,PREVIOUS_SAC_PEAK_VELOCITY,PREVIOUS_SAC_START_INTEREST_AREAS,PREVIOUS_SAC_START_TIME,PREVIOUS_SAC_END_TIME,PREVIOUS_SAC_START_X,PREVIOUS_SAC_START_Y,PREVIOUS_SAC_END_X,PREVIOUS_SAC_END_Y,NEXT_SAC_INDEX,NEXT_SAC_LABEL,NEXT_SAC_DIRECTION,NEXT_SAC_DURATION,NEXT_SAC_AMPLITUDE,NEXT_SAC_AVG_VELOCITY,NEXT_SAC_PEAK_VELOCITY,NEXT_SAC_END_INTEREST_AREAS,NEXT_SAC_START_TIME,NEXT_SAC_END_TIME,NEXT_SAC_START_X,NEXT_SAC_START_Y,NEXT_SAC_END_X,NEXT_SAC_END_Y,PREVIOUS_FIX_ANGLE,PREVIOUS_FIX_DIRECTION,PREVIOUS_FIX_DISTANCE,ItemNO,audiofilename,imagefilename,TRIAL_INDEX,TRIAL_START_TIME,viewtype,word_index,Label,word_onset,word_offset,word_duration,Continuation,wordDE,wordEN,REFWord,TargetObj,ObjectLabel,ObjectID,LemmaDE,LingIndex,DepS,pos_1,pos_2,CURRENT_FIX_INTEREST_AREAS_Labelled,PREVIOUS_SAC_START_INTEREST_AREAS_Labelled,NEXT_SAC_END_INTEREST_AREAS_Labelled,NORMALIZED_CURRENT_FIX_DURATION,NORMALIZED_CURRENT_FIX_PUPIL,NORMALIZED_PREVIOUS_SAC_DURATION,NORMALIZED_PREVIOUS_SAC_AMPLITUDE,NORMALIZED_PREVIOUS_SAC_AVG_VELOCITY,NORMALIZED_PREVIOUS_SAC_PEAK_VELOCITY,NORMALIZED_NEXT_SAC_DURATION,NORMALIZED_NEXT_SAC_AMPLITUDE,NORMALIZED_NEXT_SAC_AVG_VELOCITY,NORMALIZED_NEXT_SAC_PEAK_VELOCITY
p5,Trial: 18,p5.edf,.,1,Fixation: 3484 ms,120,3484,3603,[15],5,706,120,629.1,780.3,1,1,35.9,38.05,7,Saccade: 3437 ms,UP,47,4.49,95.51,239.46,[ ],3437,3483,671.5,960.0,635.6,789.9,8,Saccade: 3604 ms,UP,71,12.92,181.96,457.08,"[ 5, 99]",3604,3674,629.0,773.5,518.2,305.8,-77.41,DOWN,4.62,A22,S22.wav,A22.png,6,2570558,preview,,,,,,,,,,,,,,,,,,[man_1],,,0.20689655172413793,0.8199767711962834,0.6351351351351351,0.22506265664160402,0.3264406316221205,0.41460627467276134,0.3317757009345794,1.0,0.6477058341935714,0.5397796383991308
p5,Trial: 18,p5.edf,.,2,Fixation: 3758 ms,129,3758,3886,"[5, 14]",3,810,129,478.0,225.0,1,1,35.45,36.7,9,Saccade: 3720 ms,UP,38,2.05,54.01,252.66,"[ 5, 99]",3720,3757,521.8,298.7,482.3,235.6,10,Saccade: 3887 ms,DOWN,49,4.47,91.24,320.37,"[ 8, 99]",3887,3935,480.0,225.1,400.1,367.0,-74.09,DOWN,15.45,A22,S22.wav,A22.png,6,2570558,preview,,,,,,,,,,,,,,,,,,"[drawer_1, book_2]",,,0.22241379310344828,0.9407665505226481,0.5135135135135135,0.10275689223057644,0.1845990840112106,0.4374610430085186,0.22897196261682243,1.0,0.32477841455166767,0.37833465203887623
p5,Trial: 18,p5.edf,.,3,Fixation: 3936 ms,156,3936,4091,[8],9,861,156,400.0,384.1,1,1,35.7,36.7,10,Saccade: 3887 ms,DOWN,49,4.47,91.24,320.37,"[ 5, 14, 99]",3887,3935,480.0,225.1,400.1,367.0,11,Saccade: 4092 ms,LEFT,51,7.13,139.75,396.63,"[ 3, 9, 99]",4092,4142,401.5,384.9,141.4,390.0,63.17,UP,4.86,A22,S22.wav,A22.png,6,2570558,preview,,,,,,,,,,,,,,,,,,[dog_3],,,0.2689655172413793,1.0,0.6621621621621622,0.22406015037593985,0.3118463326269738,0.554695616039892,0.2383177570093458,1.0,0.4974548819990745,0.4683923995323516
p5,Trial: 18,p5.edf,.,4,Fixation: 4143 ms,337,4143,4479,"[3, 9]",6,843,337,119.9,393.9,1,1,37.4,37.65,11,Saccade: 4092 ms,LEFT,51,7.13,139.75,396.63,"[ 8, 99]",4092,4142,401.5,384.9,141.4,390.0,12,Saccade: 4480 ms,RIGHT,49,6.74,137.48,388.99,"[ 8, 99]",4480,4528,122.0,397.7,368.9,397.8,1.97,RIGHT,7.67,A22,S22.wav,A22.png,6,2570558,preview,,,,,,,,,,,,,,,,,,"[bed_1, woman_1]",,,0.5810344827586207,0.9790940766550522,0.6891891891891891,0.3573934837092732,0.4776471392439675,0.686733845834199,0.22897196261682243,1.0,0.4893745772968355,0.4593700917582872
p5,Trial: 18,p5.edf,.,5,Fixation: 4529 ms,311,4529,4839,[8],9,776,549,395.6,402.3,1,2,35.75,36.8,12,Saccade: 4480 ms,RIGHT,49,6.74,137.48,388.99,"[ 3, 9, 99]",4480,4528,122.0,397.7,368.9,397.8,13,Saccade: 4840 ms,LEFT,11,0.55,50.43,47.05,"[ 8, 99]",4840,4850,395.2,400.1,376.5,393.3,178.29,LEFT,7.54,A22,S22.wav,A22.png,6,2570558,preview,,,,,,,,,,,,,,,,,,[dog_3],,,0.5362068965517242,0.9012775842044135,0.6621621621621622,0.33784461152882206,0.46988857748308155,0.6735057829489578,0.0514018691588785,1.0,0.1795109101911508,0.05556277235205895
p5,Trial: 18,p5.edf,.,6,Fixation: 4851 ms,238,4851,5088,[8],9,716,549,384.2,396.3,2,2,35.75,36.8,13,Saccade: 4840 ms,LEFT,11,0.55,50.43,47.05,"[ 8, 99]",4840,4850,395.2,400.1,376.5,393.3,14,Saccade: 5089 ms,RIGHT,74,17.06,230.57,521.16,[ 99],5089,5162,384.5,396.6,988.4,286.3,-27.08,.,0.36,A22,S22.wav,A22.png,6,2570558,preview,,,,,,,,,,,,,,,,,,[dog_3],,,0.4103448275862069,0.8315911730545877,0.14864864864864866,0.027568922305764413,0.17236311436188395,0.08146339774222591,0.34579439252336447,1.0,0.8207382622005481,0.6154536543889276
p5,Trial: 18,p5.edf,.,7,Fixation: 5163 ms,113,5163,5275,[],69,644,18963,993.4,284.1,7,67,36.3,37.1,14,Saccade: 5089 ms,RIGHT,74,17.06,230.57,521.16,"[ 8, 99]",5089,5162,384.5,396.6,988.4,286.3,15,Saccade: 5276 ms,RIGHT,26,2.79,107.49,224.72,"[ 2, 99]",5276,5301,993.8,282.9,1096.2,280.4,-169.82,LEFT,17.18,A22,S22.wav,A22.png,6,2570558,preview,,,,,,,,,,,,,,,,,,[],,,0.19482758620689655,0.7479674796747967,1.0,0.8551378446115288,0.7880579670517466,0.902347808019946,0.12149532710280374,1.0,0.3826220054817926,0.26537866531253324
p5,Trial: 18,p5.edf,.,8,Fixation: 5302 ms,138,5302,5439,[2],6,616,138,1081.3,274.9,1,1,36.95,37.4,15,Saccade: 5276 ms,RIGHT,26,2.79,107.49,224.72,[ 99],5276,5301,993.8,282.9,1096.2,280.4,16,Saccade: 5440 ms,LEFT,45,4.12,91.59,319.07,"[ 2, 13, 99]",5440,5484,1083.2,274.6,944.7,333.9,-174.13,LEFT,2.41,A22,S22.wav,A22.png,6,2570558,preview,,,,,,,,,,,,,,,,,,[woman_2],,,0.23793103448275862,0.7154471544715447,0.35135135135135137,0.1398496240601504,0.36738669765534215,0.3890851166978323,0.2102803738317757,1.0,0.3260242765101627,0.376799442600881
p5,Trial: 18,p5.edf,.,9,Fixation: 5485 ms,198,5485,5682,"[6, 13]",5,610,198,931.4,347.5,1,1,35.95,36.85,16,Saccade: 5440 ms,LEFT,45,4.12,91.59,319.07,"[ 2, 99]",5440,5484,1083.2,274.6,944.7,333.9,17,Saccade: 5683 ms,DOWN,53,5.77,108.79,387.41,"[ 2, 99]",5683,5735,930.4,350.7,1067.7,512.7,25.43,RIGHT,4.55,A22,S22.wav,A22.png,6,2570558,preview,,,,,,,,,,,,,,,,,,"[bed_2, pillow_2]",,,0.3413793103448276,0.7084785133565621,0.6081081081081081,0.20651629072681704,0.31304258664296947,0.5524447676431886,0.24766355140186916,1.0,0.38724949275620263,0.4575042218259545
p5,Trial: 18,p5.edf,.,10,Fixation: 5736 ms,229,5736,5964,[2],6,586,229,1071.1,530.8,1,1,36.9,37.5,17,Saccade: 5683 ms,DOWN,53,5.77,108.79,387.41,"[ 6, 13, 99]",5683,5735,930.4,350.7,1067.7,512.7,18,Saccade: 5965 ms,RIGHT,45,3.38,75.22,264.35,"[ 19, 99]",5965,6009,1066.9,529.9,1186.8,571.0,127.88,UP,6.25,A22,S22.wav,A22.png,6,2570558,preview,,,,,,,,,,,,,,,,,,[woman_2],,,0.39482758620689656,0.6806039488966318,0.7162162162162162,0.28922305764411027,0.3718299268576116,0.6707701364360413,0.2102803738317757,1.0,0.26775353290855375,0.31217893456465007
p5,Trial: 18,p5.edf,.,11,Fixation: 6010 ms,204,6010,6213,[19],9,596,322,1197.7,579.2,1,2,38.0,38.2,18,Saccade: 5965 ms,RIGHT,45,3.38,75.22,264.35,"[ 2, 99]",5965,6009,1066.9,529.9,1186.8,571.0,19,Saccade: 6214 ms,LEFT,25,2.46,98.52,163.39,"[ 19, 99]",6214,6238,1196.1,574.7,1105.7,554.4,159.28,LEFT,3.61,A22,S22.wav,A22.png,6,2570558,preview,,,,,,,,,,,,,,,,,,[plate_1],,,0.35172413793103446,0.6922183507549361,0.6081081081081081,0.16942355889724312,0.2570920773805455,0.45770136436041287,0.11682242990654206,1.0,0.35069234328836363,0.19295220774926486
p5,Trial: 18,p5.edf,.,12,Fixation: 6239 ms,118,6239,6356,[19],9,613,322,1116.0,554.3,2,2,37.25,37.8,19,Saccade: 6214 ms,LEFT,25,2.46,98.52,163.39,"[ 19, 99]",6214,6238,1196.1,574.7,1105.7,554.4,20,Saccade: 6357 ms,LEFT,181,6.68,36.92,290.86,"[ 21, 99]",6357,6537,1117.5,559.7,874.1,538.6,-16.79,RIGHT,2.27,A22,S22.wav,A22.png,6,2570558,preview,,,,,,,,,,,,,,,,,,[plate_1],,,0.20344827586206896,0.7119628339140535,0.33783783783783783,0.12330827067669173,0.33672841615968285,0.2828970150287416,0.8457943925233645,1.0,0.13142063859324388,0.34348539779638404
p5,Trial: 18,p5.edf,.,13,Fixation: 6769 ms,155,6769,6923,[6],5,728,155,843.6,498.7,1,1,35.6,36.8,21,Saccade: 6743 ms,UP,26,2.02,77.51,131.53,"[ 21, 99]",6743,6768,877.8,545.3,843.2,480.1,22,Saccade: 6924 ms,LEFT,40,3.61,90.16,299.02,"[ 7, 99]",6924,6963,844.0,496.5,726.6,444.1,-11.27,RIGHT,7.63,A22,S22.wav,A22.png,6,2570558,preview,,,,,,,,,,,,,,,,,,[bed_2],,,0.2672413793103448,0.8455284552845529,0.35135135135135137,0.1012531328320802,0.26491899651377404,0.22773391509107282,0.18691588785046728,1.0,0.32093404050831165,0.3531217893456465
p5,Trial: 18,p5.edf,.,14,Fixation: 6964 ms,220,6964,7183,[7],7,743,500,721.7,442.9,1,2,35.3,36.6,22,Saccade: 6924 ms,LEFT,40,3.61,90.16,299.02,"[ 6, 99]",6924,6963,844.0,496.5,726.6,444.1,23,Saccade: 7184 ms,.,10,0.44,43.89,43.64,"[ 7, 99]",7184,7193,720.5,438.9,705.3,435.9,-23.85,RIGHT,3.76,A22,S22.wav,A22.png,6,2570558,preview,,,,,,,,,,,,,,,,,,[dog_2],,,0.3793103448275862,0.8629500580720093,0.5405405405405406,0.18095238095238095,0.30815503452047305,0.5177297596786481,0.04672897196261682,1.0,0.15623108959527285,0.05153579990316372
p5,Trial: 18,p5.edf,.,15,Fixation: 7194 ms,280,7194,7473,[7],7,741,500,708.8,443.5,2,2,35.25,36.55,23,Saccade: 7184 ms,.,10,0.44,43.89,43.64,"[ 7, 99]",7184,7193,720.5,438.9,705.3,435.9,24,Saccade: 7474 ms,UP,57,8.52,149.51,355.71,"[ 16, 22, 99]",7474,7530,709.8,445.8,774.9,140.0,2.57,.,0.37,A22,S22.wav,A22.png,6,2570558,preview,,,,,,,,,,,,,,,,,,[dog_2],,,0.4827586206896552,0.8606271777003485,0.13513513513513514,0.02205513784461153,0.1500102536058514,0.07555924925548861,0.26635514018691586,1.0,0.5321966326131065,0.4200687301456087
p5,Trial: 18,p5.edf,.,16,Fixation: 7531 ms,254,7531,7784,"[16, 22]",1,669,254,780.0,121.0,1,1,35.55,36.95,24,Saccade: 7474 ms,UP,57,8.52,149.51,355.71,"[ 7, 99]",7474,7530,709.8,445.8,774.9,140.0,25,Saccade: 7785 ms,DOWN,52,5.65,108.66,367.98,"[ 16, 99]",7785,7836,781.7,122.3,921.9,272.6,-102.91,DOWN,9.0,A22,S22.wav,A22.png,6,2570558,preview,,,,,,,,,,,,,,,,,,"[bed_3, pillow_3]",,,0.4379310344827586,0.7770034843205574,0.7702702702702703,0.4270676691729323,0.5110055369471598,0.6158840639933514,0.24299065420560748,1.0,0.38678674402876156,0.4345587453796101
p5,Trial: 18,p5.edf,.,17,Fixation: 7837 ms,280,7837,8116,[],69,680,18963,925.9,299.4,17,67,35.9,36.9,25,Saccade: 7785 ms,DOWN,52,5.65,108.66,367.98,"[ 16, 22, 99]",7785,7836,781.7,122.3,921.9,272.6,26,Saccade: 8117 ms,RIGHT,44,3.75,85.16,200.94,"[ 2, 99]",8117,8160,928.8,304.0,1057.4,258.7,130.21,UP,6.33,A22,S22.wav,A22.png,6,2570558,preview,,,,,,,,,,,,,,,,,,[],,,0.4827586206896552,0.7897793263646922,0.7027027027027027,0.28320802005012535,0.3713856039373847,0.637128610014544,0.205607476635514,1.0,0.3031360125298117,0.23729614190058929
p5,Trial: 18,p5.edf,.,18,Fixation: 8161 ms,264,8161,8424,[2],6,686,737,1063.1,257.1,1,3,36.75,37.3,26,Saccade: 8117 ms,RIGHT,44,3.75,85.16,200.94,[ 99],8117,8160,928.8,304.0,1057.4,258.7,27,Saccade: 8425 ms,DOWN,53,5.3,100.0,286.74,"[ 2, 99]",8425,8477,1062.8,258.8,1070.6,456.6,-163.2,LEFT,3.95,A22,S22.wav,A22.png,6,2570558,preview,,,,,,,,,,,,,,,,,,[woman_2],,,0.45517241379310347,0.7967479674796748,0.5945945945945946,0.1879699248120301,0.29106569143482125,0.34791190525659677,0.24766355140186916,1.0,0.3559605595699996,0.338619964808276
p5,Trial: 18,p5.edf,.,19,Fixation: 8478 ms,223,8478,8700,[2],6,652,737,1065.3,472.5,2,3,36.8,37.4,27,Saccade: 8425 ms,DOWN,53,5.3,100.0,286.74,"[ 2, 99]",8425,8477,1062.8,258.8,1070.6,456.6,28,Saccade: 8701 ms,DOWN,22,1.69,76.84,123.37,"[ 2, 99]",8701,8722,1062.0,471.7,1054.1,534.5,90.59,UP,5.77,A22,S22.wav,A22.png,6,2570558,preview,,,,,,,,,,,,,,,,,,[woman_2],,,0.38448275862068965,0.7572590011614402,0.7162162162162162,0.2656641604010025,0.3417868617130358,0.49646789943901937,0.102803738317757,1.0,0.27352009397358773,0.1456913756657495
p5,Trial: 18,p5.edf,.,20,Fixation: 8723 ms,250,8723,8972,[2],6,631,737,1050.2,518.4,3,3,36.75,37.45,28,Saccade: 8701 ms,DOWN,22,1.69,76.84,123.37,"[ 2, 99]",8701,8722,1062.0,471.7,1054.1,534.5,29,Saccade: 8973 ms,RIGHT,47,3.75,79.69,296.68,"[ 19, 99]",8973,9019,1048.4,511.6,1170.5,580.0,71.49,UP,1.29,A22,S22.wav,A22.png,6,2570558,preview,,,,,,,,,,,,,,,,,,[woman_2],,,0.43103448275862066,0.7328687572590011,0.2972972972972973,0.08471177944862156,0.2626290245402967,0.2136055128471501,0.21962616822429906,1.0,0.2836649699213327,0.35035841235725507
p5,Trial: 18,p5.edf,.,21,Fixation: 9020 ms,179,9020,9198,[19],9,611,179,1189.2,582.1,1,1,37.9,38.2,29,Saccade: 8973 ms,RIGHT,47,3.75,79.69,296.68,"[ 2, 99]",8973,9019,1048.4,511.6,1170.5,580.0,30,Saccade: 9199 ms,RIGHT,187,0.93,4.95,846.79,"[ 19, 99]",9199,9385,1195.1,590.5,1230.5,591.4,155.67,LEFT,4.09,A22,S22.wav,A22.png,6,2570558,preview,,,,,,,,,,,,,,,,,,[plate_1],,,0.3086206896551724,0.7096399535423926,0.6351351351351351,0.1879699248120301,0.2723699500991182,0.5136782325645821,0.8738317757009346,1.0,0.01762004769871498,1.0
p5,Trial: 18,p5.edf,.,22,Fixation: 9614 ms,554,9614,10167,[13],3,621,554,919.3,334.5,1,1,35.95,36.85,31,Saccade: 9558 ms,LEFT,56,9.98,178.23,402.85,"[ 19, 99]",9558,9613,1223.6,590.2,948.0,338.8,32,Saccade: 10168 ms,LEFT,49,5.8,118.36,345.91,"[ 6, 10, 99]",10168,10216,922.1,335.6,718.4,302.8,-42.07,RIGHT,9.85,A22,S22.wav,A22.png,6,2570558,preview,,,,,,,,,,,,,,,,,,[pillow_2],,,0.9551724137931035,0.7212543554006968,0.7567567567567568,0.5002506265664161,0.6091667236311437,0.697503289701503,0.22897196261682243,1.0,0.4213149183070516,0.4084956128437984
p5,Trial: 18,p5.edf,.,23,Fixation: 10217 ms,267,10217,10483,"[6, 10]",5,598,267,702.8,306.2,1,1,35.2,36.5,32,Saccade: 10168 ms,LEFT,49,5.8,118.36,345.91,"[ 2, 13, 99]",10168,10216,922.1,335.6,718.4,302.8,33,Saccade: 10484 ms,LEFT,51,8.11,158.95,380.7,"[ 8, 99]",10484,10534,703.4,310.8,422.8,373.0,-7.23,RIGHT,6.13,A22,S22.wav,A22.png,6,2570558,preview,,,,,,,,,,,,,,,,,,"[bed_2, pillow_1]",,,0.4603448275862069,0.6945412311265969,0.6621621621621622,0.2907268170426065,0.40453892952354914,0.5989161299258953,0.2383177570093458,1.0,0.5657993094365144,0.44958017926522514
p5,Trial: 18,p5.edf,.,24,Fixation: 10535 ms,191,10535,10725,[8],9,623,356,401.1,379.2,1,2,35.65,36.7,33,Saccade: 10484 ms,LEFT,51,8.11,158.95,380.7,"[ 6, 10, 99]",10484,10534,703.4,310.8,422.8,373.0,34,Saccade: 10726 ms,LEFT,19,1.03,54.25,83.04,"[ 8, 99]",10726,10744,399.3,379.2,362.6,382.6,13.18,RIGHT,8.75,A22,S22.wav,A22.png,6,2570558,preview,,,,,,,,,,,,,,,,,,[dog_3],,,0.3293103448275862,0.7235772357723578,0.6891891891891891,0.40651629072681705,0.5432702166928703,0.6591522958653647,0.08878504672897196,1.0,0.1931086035667248,0.09806445517778907
p5,Trial: 18,p5.edf,.,25,Fixation: 10745 ms,165,10745,10909,[8],9,616,356,368.0,378.0,2,2,35.8,36.8,34,Saccade: 10726 ms,LEFT,19,1.03,54.25,83.04,"[ 8, 99]",10726,10744,399.3,379.2,362.6,382.6,35,Saccade: 10910 ms,LEFT,48,6.15,128.2,338.99,"[ 3, 9, 99]",10910,10957,369.8,378.1,144.9,381.3,-2.02,RIGHT,0.93,A22,S22.wav,A22.png,6,2570558,preview,,,,,,,,,,,,,,,,,,[dog_3],,,0.28448275862068967,0.7154471544715447,0.25675675675675674,0.05162907268170426,0.18541937247932191,0.143777269894037,0.22429906542056074,1.0,0.4563414373687395,0.40032357491231596
p5,Trial: 18,p5.edf,.,26,Fixation: 10958 ms,241,10958,11198,"[3, 9]",6,628,439,133.7,386.0,1,2,37.35,37.6,35,Saccade: 10910 ms,LEFT,48,6.15,128.2,338.99,"[ 8, 99]",10910,10957,369.8,378.1,144.9,381.3,36,Saccade: 11199 ms,DOWN,27,2.6,96.22,164.96,"[ 3, 18, 99]",11199,11225,135.8,384.4,185.6,468.0,1.92,RIGHT,6.41,A22,S22.wav,A22.png,6,2570558,preview,,,,,,,,,,,,,,,,,,"[bed_1, woman_1]",,,0.41551724137931034,0.7293844367015099,0.6486486486486487,0.30827067669172936,0.43817075671611183,0.5869346907680588,0.1261682242990654,1.0,0.34250525041825364,0.1948062683782284
p5,Trial: 18,p5.edf,.,27,Fixation: 11226 ms,198,11226,11423,[3],6,627,439,180.5,460.8,2,2,37.0,37.5,36,Saccade: 11199 ms,DOWN,27,2.6,96.22,164.96,"[ 3, 9, 99]",11199,11225,135.8,384.4,185.6,468.0,37,Saccade: 11424 ms,DOWN,46,5.58,121.31,233.44,"[ 11, 99]",11424,11469,180.6,463.6,182.2,674.8,122.29,UP,2.36,A22,S22.wav,A22.png,6,2570558,preview,,,,,,,,,,,,,,,,,,[bed_1],,,0.3413793103448276,0.7282229965156795,0.36486486486486486,0.13032581453634087,0.328867318340283,0.28561534732322186,0.21495327102803738,1.0,0.43181575481436657,0.2756763778504706
p5,Trial: 18,p5.edf,.,28,Fixation: 11470 ms,225,11470,11694,[11],11,654,805,184.5,668.9,1,2,37.35,38.2,37,Saccade: 11424 ms,DOWN,46,5.58,121.31,233.44,"[ 3, 99]",11424,11469,180.6,463.6,182.2,674.8,38,Saccade: 11695 ms,RIGHT,24,1.26,52.59,93.3,"[ 11, 99]",11695,11718,187.7,674.6,222.9,706.6,91.12,UP,5.5,A22,S22.wav,A22.png,6,2570558,preview,,,,,,,,,,,,,,,,,,[dog_1],,,0.3879310344827586,0.759581881533101,0.6216216216216216,0.2796992481203008,0.4146216419440837,0.4041831151741811,0.11214953271028037,1.0,0.1871996582778628,0.11018080043458237
p5,Trial: 18,p5.edf,.,29,Fixation: 11719 ms,580,11719,12298,[11],11,685,805,212.2,690.9,2,2,37.2,38.25,38,Saccade: 11695 ms,RIGHT,24,1.26,52.59,93.3,"[ 11, 99]",11695,11718,187.7,674.6,222.9,706.6,39,Saccade: 12299 ms,UP,29,1.87,64.58,85.75,"[ 3, 99]",12299,12327,209.4,685.4,225.6,616.2,142.24,LEFT,0.94,A22,S22.wav,A22.png,6,2570558,preview,,,,,,,,,,,,,,,,,,[dog_1],,,1.0,0.7955865272938444,0.32432432432432434,0.06315789473684211,0.17974571057488553,0.16154165800955747,0.13551401869158877,1.0,0.22987932937030575,0.10126477639084071
p5,Trial: 18,p5.edf,.,30,Fixation: 12728 ms,236,12728,12963,[8],9,680,236,386.3,386.8,1,1,35.7,36.8,41,Saccade: 12713 ms,LEFT,15,0.81,53.84,62.97,"[ 8, 99]",12713,12727,407.1,400.8,383.3,384.1,42,Saccade: 12964 ms,RIGHT,54,9.07,167.93,457.29,"[ 7, 99]",12964,13017,381.3,380.0,698.8,432.0,-120.52,DOWN,9.41,A22,S22.wav,A22.png,6,2570558,preview,,,,,,,,,,,,,,,,,,[dog_3],,,0.4068965517241379,0.7897793263646922,0.20270270270270271,0.0406015037593985,0.18401804634629848,0.10902763349262415,0.2523364485981308,1.0,0.5977645676859004,0.5400276337698839
p5,Trial: 18,p5.edf,13189,31,Fixation: 13018 ms,427,13018,13444,[7],7,654,606,726.4,447.0,1,2,35.25,36.55,42,Saccade: 12964 ms,RIGHT,54,9.07,167.93,457.29,"[ 8, 99]",12964,13017,381.3,380.0,698.8,432.0,43,Saccade: 13445 ms,LEFT,12,0.58,48.45,46.98,"[ 7, 99]",13445,13456,730.5,447.6,710.4,451.9,170.28,LEFT,9.73,A22,S22.wav,A22.png,6,2570558,preview,,,,,,,,,,,,,,,,,,[dog_2],,,0.7362068965517241,0.759581881533101,0.7297297297297297,0.4546365914786968,0.573962676874701,0.7917618948680658,0.056074766355140186,1.0,0.17246289111166482,0.055480107228474594
p5,Trial: 18,p5.edf,.,32,Fixation: 13457 ms,179,13457,13635,[7],7,652,606,721.0,451.7,2,2,35.3,36.6,43,Saccade: 13445 ms,LEFT,12,0.58,48.45,46.98,"[ 7, 99]",13445,13456,730.5,447.6,710.4,451.9,44,Saccade: 13636 ms,RIGHT,48,4.91,102.23,410.65,"[ 21, 99]",13636,13683,723.1,451.7,885.2,518.4,40.01,.,0.2,A22,S22.wav,A22.png,6,2570558,task,,break,,,,,,,,,,,,,,,,[dog_2],,,0.3086206896551724,0.7572590011614402,0.16216216216216217,0.02907268170426065,0.16559573449996584,0.08134219821317266,0.22429906542056074,1.0,0.36389848004841063,0.4849490428559619
p5,Trial: 18,p5.edf,.,33,Fixation: 13684 ms,281,13684,13964,[21],2,649,281,907.2,527.7,1,1,35.85,37.0,44,Saccade: 13636 ms,RIGHT,48,4.91,102.23,410.65,"[ 7, 99]",13636,13683,723.1,451.7,885.2,518.4,45,Saccade: 13965 ms,LEFT,58,9.49,163.68,488.28,"[ 15, 99]",13965,14022,909.8,522.3,637.0,734.3,158.47,LEFT,5.63,A22,S22.wav,A22.png,6,2570558,task,[2],[Verb],[280],[790],[510],[0],[befindet],[is],[0.0],[0.0],[nan],[nan],[befinden],[nan],[nan],[nan],[nan],[backpack_1],,,0.4844827586206897,0.7537746806039489,0.6486486486486487,0.2461152882205514,0.34940870872923646,0.7110083800817232,0.27102803738317754,1.0,0.5826362439041755,0.5766246649110169
p5,Trial: 18,p5.edf,.,34,Fixation: 14023 ms,337,14023,14359,[15],5,682,337,632.7,754.2,1,1,35.8,37.75,45,Saccade: 13965 ms,LEFT,58,9.49,163.68,488.28,"[ 21, 99]",13965,14022,909.8,522.3,637.0,734.3,46,Saccade: 14360 ms,UP,61,10.49,172.04,360.76,"[ 8, 99]",14360,14420,628.4,749.9,443.6,410.0,38.34,RIGHT,9.77,A22,S22.wav,A22.png,6,2570558,task,[2],[Verb],[280],[790],[510],[0],[befindet],[is],[0.0],[0.0],[nan],[nan],[befinden],[nan],[nan],[nan],[nan],[man_1],,,0.5810344827586207,0.7921022067363531,0.7837837837837838,0.47568922305764416,0.559436735251897,0.8454186578017868,0.2850467289719626,1.0,0.6123945466842273,0.4260324283470518
p5,Trial: 18,p5.edf,.,35,Fixation: 14421 ms,195,14421,14615,[8],9,740,690,432.1,385.8,1,3,35.5,36.7,46,Saccade: 14360 ms,UP,61,10.49,172.04,360.76,"[ 15, 99]",14360,14420,628.4,749.9,443.6,410.0,47,Saccade: 14616 ms,LEFT,22,1.73,78.43,126.62,"[ 8, 99]",14616,14637,432.1,385.7,370.7,389.6,-60.38,DOWN,11.38,A22,S22.wav,A22.png,6,2570558,task,[3],[Pronoun_ref],[870],[1160],[290],[0],[sich],[nan],[0.0],[0.0],[nan],[nan],[sie],[nan],[nan],[nan],[nan],[dog_3],,,0.33620689655172414,0.859465737514518,0.8243243243243243,0.5258145363408522,0.5880101168911067,0.6246277443036222,0.102803738317757,1.0,0.27917986687075075,0.14952939926073763
p5,Trial: 18,p5.edf,14680,36,Fixation: 14638 ms,168,14638,14805,[8],9,721,690,381.5,387.8,2,3,35.75,36.8,47,Saccade: 14616 ms,LEFT,22,1.73,78.43,126.62,"[ 8, 99]",14616,14637,432.1,385.7,370.7,389.6,48,Saccade: 14806 ms,UP,178,2.58,14.49,460.76,"[ 5, 99]",14806,14983,383.6,389.9,366.6,296.6,2.19,RIGHT,1.42,A22,S22.wav,A22.png,6,2570558,task,,break,,,,,,,,,,,,,,,,[dog_3],,,0.2896551724137931,0.8373983739837398,0.2972972972972973,0.08671679197994987,0.26806343564153395,0.21923263383890854,0.8317757009345794,1.0,0.05157868508169295,0.5441254620389944
p5,Trial: 18,p5.edf,.,37,Fixation: 15291 ms,327,15291,15617,[8],9,815,690,396.3,370.8,3,3,35.7,36.7,49,Saccade: 15270 ms,DOWN,21,1.46,69.51,100.75,"[ 5, 99]",15270,15290,390.8,329.1,403.6,381.1,50,Saccade: 15618 ms,DOWN,58,8.01,138.04,369.26,"[ 3, 99]",15618,15675,395.6,376.6,216.9,612.0,-131.85,DOWN,0.62,A22,S22.wav,A22.png,6,2570558,task,[5],[Noun_1],[1480],[1930],[450],[0],[Hund],[dog],[0.0],[0.0],[dog_1],[S01_I022_E009],[Hund],[nan],[nan],[nan],[nan],[dog_3],,,0.5637931034482758,0.9465737514518002,0.28378378378378377,0.07318295739348371,0.23757604757673118,0.1744407507445114,0.27102803738317754,1.0,0.49136795643042747,0.43607033621086694
p5,Trial: 18,p5.edf,.,38,Fixation: 15676 ms,159,15676,15834,[3],6,839,159,216.2,636.3,1,1,37.0,37.85,50,Saccade: 15618 ms,DOWN,58,8.01,138.04,369.26,"[ 8, 99]",15618,15675,395.6,376.6,216.9,612.0,51,Saccade: 15835 ms,DOWN,24,1.57,65.6,120.54,"[ 11, 99]",15835,15858,217.5,638.9,180.5,685.4,55.18,UP,8.68,A22,S22.wav,A22.png,6,2570558,task,,break,,,,,,,,,,,,,,,,[bed_1],,,0.27413793103448275,0.9744483159117305,0.7837837837837838,0.40150375939849625,0.4718025839086745,0.639344829974375,0.11214953271028037,1.0,0.23351012707791974,0.14234934281226752
p5,Trial: 18,p5.edf,.,39,Fixation: 15859 ms,209,15859,16067,[11],11,839,873,183.1,671.1,1,3,37.4,38.25,51,Saccade: 15835 ms,DOWN,24,1.57,65.6,120.54,"[ 3, 99]",15835,15858,217.5,638.9,180.5,685.4,52,Saccade: 16068 ms,RIGHT,21,1.15,54.93,93.89,"[ 11, 99]",16068,16088,179.1,668.9,220.6,680.3,45.79,UP,1.28,A22,S22.wav,A22.png,6,2570558,task,[6],[Preposition_1],[2310],[2615],[305],[0],[unter],[under],[0.0],[0.0],[nan],[nan],[unter],[nan],[nan],[nan],[nan],[dog_1],,,0.3603448275862069,0.9744483159117305,0.32432432432432434,0.0786967418546366,0.22421218128375145,0.20870558902971123,0.09813084112149532,1.0,0.1955291353718008,0.11087754933336483
p5,Trial: 18,p5.edf,16180,40,Fixation: 16089 ms,544,16089,16632,[11],11,841,873,209.4,679.3,2,3,37.15,38.15,52,Saccade: 16068 ms,RIGHT,21,1.15,54.93,93.89,"[ 11, 99]",16068,16088,179.1,668.9,220.6,680.3,53,Saccade: 16633 ms,LEFT,19,0.62,32.37,60.03,"[ 11, 99]",16633,16651,206.3,686.8,183.6,683.4,163.08,LEFT,0.74,A22,S22.wav,A22.png,6,2570558,task,"[7, 8]","[Determiner_2, Noun_2]","[2640, 2980]","[2870, 3320]","[230, 340]","[0, 0]","[einem, Bett]","[a, bed]","[0.0, 0.0]","[0.0, 1.0]","[nan, bed_1]","[nan, S01_I022_E002]","[eine, Bett]","[nan, nan]","[nan, nan]","[nan, nan]","[nan, nan]",[dog_1],,,0.9379310344827586,0.9767711962833914,0.28378378378378377,0.05764411027568922,0.18774352313897055,0.16256319689729207,0.08878504672897196,1.0,0.11522443313280888,0.0708912481252731
p5,Trial: 18,p5.edf,.,41,Fixation: 16898 ms,120,16898,17017,[11],11,792,873,202.5,651.3,3,3,37.15,38.0,55,Saccade: 16878 ms,DOWN,20,5.85,292.58,520.8,"[ 3, 9, 99]",16878,16897,50.6,446.0,193.5,615.4,56,Saccade: 17018 ms,UP,35,4.28,122.17,215.25,[ 99],17018,17052,203.9,658.6,301.1,532.1,-75.83,DOWN,0.76,A22,S22.wav,A22.png,6,2570558,task,,break,,,,,,,,,,,,,,,,[dog_1],,,0.20689655172413793,0.9198606271777003,0.2702702702702703,0.2932330827067669,1.0,0.9017244961562435,0.16355140186915887,1.0,0.4348770156266686,0.25419525502190626
p5,Trial: 18,p5.edf,.,42,Fixation: 17053 ms,231,17053,17283,[],69,833,18963,295.0,539.9,42,67,36.3,37.3,56,Saccade: 17018 ms,UP,35,4.28,122.17,215.25,"[ 11, 99]",17018,17052,203.9,658.6,301.1,532.1,57,Saccade: 17284 ms,DOWN,47,4.2,89.43,316.59,"[ 11, 99]",17284,17330,296.6,540.9,193.5,658.9,-130.41,DOWN,3.89,A22,S22.wav,A22.png,6,2570558,task,[9],[Preposition_2_of_RC],[3700],[3880],[180],[0],[auf],[on],[0.0],[0.0],[nan],[nan],[auf],[nan],[nan],[nan],[nan],[],,,0.39827586206896554,0.967479674796748,0.47297297297297297,0.21453634085213036,0.4175610089548158,0.37268855183877003,0.21962616822429906,1.0,0.3183355284234507,0.3738707353653208
p5,Trial: 18,p5.edf,.,43,Fixation: 17331 ms,159,17331,17489,[11],11,852,159,186.8,675.6,1,1,37.35,38.15,57,Saccade: 17284 ms,DOWN,47,4.2,89.43,316.59,[ 99],17284,17330,296.6,540.9,193.5,658.9,58,Saccade: 17490 ms,RIGHT,71,16.99,239.24,577.56,"[ 6, 99]",17490,17560,183.6,674.2,741.0,401.3,50.76,UP,4.64,A22,S22.wav,A22.png,6,2570558,task,,break,,,,,,,,,,,,,,,,[dog_1],,,0.27413793103448275,0.9895470383275261,0.6351351351351351,0.2105263157894737,0.3056599904299679,0.548150841471016,0.3317757009345794,1.0,0.8516000427152671,0.6820581253911832
p5,Trial: 18,p5.edf,.,44,Fixation: 17561 ms,145,17561,17705,[6],5,844,145,749.4,397.8,1,1,35.3,36.5,58,Saccade: 17490 ms,RIGHT,71,16.99,239.24,577.56,"[ 11, 99]",17490,17560,183.6,674.2,741.0,401.3,59,Saccade: 17706 ms,LEFT,23,1.88,81.66,145.43,"[ 7, 99]",17706,17728,751.6,391.0,692.7,422.3,-154.33,LEFT,17.18,A22,S22.wav,A22.png,6,2570558,task,[10],[Relative Clause Pronoun],[4035],[4380],[345],[1],[dem],[that],[0.0],[0.0],[nan],[nan],[die],[nan],[nan],[nan],[nan],[bed_2],,,0.25,0.9802555168408827,0.9594594594594594,0.8516290726817042,0.8176908879622669,1.0,0.10747663551401869,1.0,0.29067739294486167,0.17174269889819202
p5,Trial: 18,p5.edf,17810,45,Fixation: 17729 ms,199,17729,17927,[7],7,834,456,704.1,414.0,1,2,35.2,36.5,59,Saccade: 17706 ms,LEFT,23,1.88,81.66,145.43,"[ 6, 99]",17706,17728,751.6,391.0,692.7,422.3,60,Saccade: 17928 ms,LEFT,20,0.58,29.05,67.61,"[ 7, 99]",17928,17947,702.7,415.9,682.8,420.8,19.05,RIGHT,1.36,A22,S22.wav,A22.png,6,2570558,task,"[10, 11]","[Relative Clause Pronoun, Relative Clause Pers. Pronoun]","[4035, 4390]","[4380, 4540]","[345, 150]","[1, 1]","[dem, sie]","[that, she]","[0.0, 0.0]","[0.0, 0.0]","[nan, woman_1]","[nan, S01_I022_E007]","[die, sie]","[nan, nan]","[nan, nan]","[nan, nan]","[nan, nan]",[dog_2],,,0.3431034482758621,0.9686411149825784,0.3108108108108108,0.09423558897243108,0.279103151274865,0.2518006787173627,0.09345794392523364,1.0,0.1034065425550849,0.07984270007912234
p5,Trial: 18,p5.edf,.,46,Fixation: 17948 ms,257,17948,18204,[7],7,819,456,685.5,423.7,2,2,35.2,36.5,60,Saccade: 17928 ms,LEFT,20,0.58,29.05,67.61,"[ 7, 99]",17928,17947,702.7,415.9,682.8,420.8,61,Saccade: 18205 ms,RIGHT,50,5.26,105.25,252.1,"[ 6, 13, 99]",18205,18254,683.5,424.4,852.6,343.6,26.7,RIGHT,0.59,A22,S22.wav,A22.png,6,2570558,task,[12],[Relative Clause Adverb],[4610],[5520],[910],[0],[entspannt],[relaxed],[0.0],[0.0],[nan],[nan],[entspannt],[nan],[nan],[nan],[nan],[dog_2],,,0.44310344827586207,0.9512195121951219,0.2702702702702703,0.02907268170426065,0.09928908332763689,0.11706143084701158,0.2336448598130841,1.0,0.37464848894742464,0.29771253793738706
p5,Trial: 18,p5.edf,.,47,Fixation: 18255 ms,219,18255,18473,"[6, 13]",5,796,219,863.7,342.2,1,1,35.6,36.7,61,Saccade: 18205 ms,RIGHT,50,5.26,105.25,252.1,"[ 7, 99]",18205,18254,683.5,424.4,852.6,343.6,62,Saccade: 18474 ms,LEFT,71,19.95,280.93,531.63,"[ 3, 9, 99]",18474,18544,865.2,344.9,142.1,421.8,-156.14,LEFT,5.5,A22,S22.wav,A22.png,6,2570558,task,[12],[Relative Clause Adverb],[4610],[5520],[910],[0],[entspannt],[relaxed],[0.0],[0.0],[nan],[nan],[entspannt],[nan],[nan],[nan],[nan],"[bed_2, pillow_2]",,,0.3775862068965517,0.924506387921022,0.6756756756756757,0.2636591478696742,0.35973067195297015,0.4364914467760926,0.3317757009345794,1.0,1.0,0.627817995016474
p5,Trial: 18,p5.edf,.,48,Fixation: 18545 ms,236,18545,18780,"[3, 9]",6,776,467,120.9,429.0,1,2,37.45,37.65,62,Saccade: 18474 ms,LEFT,71,19.95,280.93,531.63,"[ 6, 13, 99]",18474,18544,865.2,344.9,142.1,421.8,63,Saccade: 18781 ms,UP,12,0.61,50.89,51.91,"[ 3, 9, 99]",18781,18792,119.6,428.2,114.3,405.8,6.55,RIGHT,20.47,A22,S22.wav,A22.png,6,2570558,task,[12],[Relative Clause Adverb],[4610],[5520],[910],[0],[entspannt],[relaxed],[0.0],[0.0],[nan],[nan],[entspannt],[nan],[nan],[nan],[nan],"[bed_1, woman_1]",,,0.4068965517241379,0.9012775842044135,0.9594594594594594,1.0,0.9601818306104314,0.9204757947226263,0.056074766355140186,1.0,0.1811483287651728,0.06130209378948736
p5,Trial: 18,p5.edf,18865,49,Fixation: 18793 ms,231,18793,19023,"[3, 9]",6,779,467,117.1,410.0,2,2,37.55,37.7,63,Saccade: 18781 ms,UP,12,0.61,50.89,51.91,"[ 3, 9, 99]",18781,18792,119.6,428.2,114.3,405.8,64,Saccade: 19024 ms,DOWN,53,6.74,127.26,351.47,"[ 11, 99]",19024,19076,117.0,413.6,188.3,658.8,-78.64,DOWN,0.51,A22,S22.wav,A22.png,6,2570558,task,[12],[Relative Clause Adverb],[4610],[5520],[910],[0],[entspannt],[relaxed],[0.0],[0.0],[nan],[nan],[entspannt],[nan],[nan],[nan],[nan],"[bed_1, woman_1]",,,0.39827586206896554,0.9047619047619048,0.16216216216216217,0.030576441102756893,0.1739353339257639,0.08987810790220929,0.24766355140186916,1.0,0.4529954081087815,0.4150615855170704
p5,Trial: 18,p5.edf,.,50,Fixation: 19077 ms,99,19077,19175,[11],11,794,2554,195.2,685.0,1,5,37.3,38.25,64,Saccade: 19024 ms,DOWN,53,6.74,127.26,351.47,"[ 3, 9, 99]",19024,19076,117.0,413.6,188.3,658.8,65,Saccade: 19176 ms,LEFT,214,1.41,6.6,808.94,"[ 3, 11, 99]",19176,19389,202.6,690.2,165.1,652.1,106.08,UP,7.54,A22,S22.wav,A22.png,6,2570558,task,,break,,,,,,,,,,,,,,,,[dog_1],,,0.1706896551724138,0.9221835075493612,0.7162162162162162,0.33784461152882206,0.43495796021600935,0.6085428353764112,1.0,1.0,0.023493396931619975,0.9553017867475999
p5,Trial: 18,p5.edf,19754,51,Fixation: 19632 ms,481,19632,20112,[11],11,818,2554,190.8,690.2,2,5,37.35,38.3,66,Saccade: 19618 ms,RIGHT,14,0.69,49.09,55.67,"[ 11, 99]",19618,19631,177.4,686.0,202.6,691.0,67,Saccade: 20113 ms,.,6,0.26,42.96,32.56,"[ 11, 99]",20113,20118,190.0,694.1,180.4,693.2,49.05,.,0.18,A22,S22.wav,A22.png,6,2570558,post,,,,,,,,,,,,,,,,,,[dog_1],,,0.8293103448275863,0.9500580720092915,0.1891891891891892,0.03458646616541353,0.16778317041492927,0.0963882540342129,0.028037383177570093,1.0,0.15292065639127184,0.038451091770096486
