RECORDING_SESSION_LABEL,TRIAL_LABEL,DATA_FILE,CURRENT_FIX_MSG_TIME_1,CURRENT_FIX_INDEX,CURRENT_FIX_LABEL,CURRENT_FIX_DURATION,CURRENT_FIX_START,CURRENT_FIX_END,CURRENT_FIX_INTEREST_AREAS,CURRENT_FIX_INTEREST_AREA_FIX_COUNT,CURRENT_FIX_PUPIL,CURRENT_FIX_RUN_DWELL_TIME,CURRENT_FIX_X,CURRENT_FIX_Y,CURRENT_FIX_RUN_INDEX,CURRENT_FIX_RUN_SIZE,CURRENT_FIX_X_RESOLUTION,CURRENT_FIX_Y_RESOLUTION,PREVIOUS_SAC_INDEX,PREVIOUS_SAC_LABEL,PREVIOUS_SAC_DIRECTION,PREVIOUS_SAC_DURATION,PREVIOUS_SAC_AMPLITUDE,PREVIOUS_SAC_AVG_VELOCITY,PREVIOUS_SAC_PEAK_VELOCITY,PREVIOUS_SAC_START_INTEREST_AREAS,PREVIOUS_SAC_START_TIME,PREVIOUS_SAC_END_TIME,PREVIOUS_SAC_START_X,PREVIOUS_SAC_START_Y,PREVIOUS_SAC_END_X,PREVIOUS_SAC_END_Y,NEXT_SAC_INDEX,NEXT_SAC_LABEL,NEXT_SAC_DIRECTION,NEXT_SAC_DURATION,NEXT_SAC_AMPLITUDE,NEXT_SAC_AVG_VELOCITY,NEXT_SAC_PEAK_VELOCITY,NEXT_SAC_END_INTEREST_AREAS,NEXT_SAC_START_TIME,NEXT_SAC_END_TIME,NEXT_SAC_START_X,NEXT_SAC_START_Y,NEXT_SAC_END_X,NEXT_SAC_END_Y,PREVIOUS_FIX_ANGLE,PREVIOUS_FIX_DIRECTION,PREVIOUS_FIX_DISTANCE,ItemNO,audiofilename,imagefilename,TRIAL_INDEX,TRIAL_START_TIME,viewtype,word_index,Label,word_onset,word_offset,word_duration,Continuation,wordDE,wordEN,REFWord,TargetObj,ObjectLabel,ObjectID,LemmaDE,LingIndex,DepS,pos_1,pos_2,CURRENT_FIX_INTEREST_AREAS_Labelled,PREVIOUS_SAC_START_INTEREST_AREAS_Labelled,NEXT_SAC_END_INTEREST_AREAS_Labelled,NORMALIZED_CURRENT_FIX_DURATION,NORMALIZED_CURRENT_FIX_PUPIL,NORMALIZED_PREVIOUS_SAC_DURATION,NORMALIZED_PREVIOUS_SAC_AMPLITUDE,NORMALIZED_PREVIOUS_SAC_AVG_VELOCITY,NORMALIZED_PREVIOUS_SAC_PEAK_VELOCITY,NORMALIZED_NEXT_SAC_DURATION,NORMALIZED_NEXT_SAC_AMPLITUDE,NORMALIZED_NEXT_SAC_AVG_VELOCITY,NORMALIZED_NEXT_SAC_PEAK_VELOCITY
p7,Trial: 22,p7.edf,.,1,Fixation: 3358 ms,136,3358,3493,[6],2,917,256,564.8,594.0,1,2,35.45,37.05,5,Saccade: 3306 ms,UP,52,7.99,153.69,378.47,[ ],3306,3357,617.7,918.8,563.4,619.4,6,Saccade: 3494 ms,UP,56,5.29,94.45,248.57,"[ 6, 99]",3494,3549,568.8,591.2,574.3,396.9,-78.83,DOWN,9.74,A18,S18.wav,A18.png,12,18988952,preview,,,,,,,,,,,,,,,,,,[carpet_2],,,0.2490842490842491,0.7277777777777777,0.6753246753246753,0.4015075376884423,0.5870063402337484,0.6544527062078507,0.25688073394495414,1.0,0.3607440226109541,0.24787347553375016
p7,Trial: 22,p7.edf,.,2,Fixation: 3550 ms,120,3550,3669,[6],2,963,256,576.2,381.9,2,2,35.2,36.5,6,Saccade: 3494 ms,UP,56,5.29,94.45,248.57,"[ 6, 99]",3494,3549,568.8,591.2,574.3,396.9,7,Saccade: 3670 ms,RIGHT,56,8.39,149.83,402.81,[ 99],3670,3725,578.8,381.4,876.1,391.1,-93.2,DOWN,5.78,A18,S18.wav,A18.png,12,18988952,preview,,,,,,,,,,,,,,,,,,[carpet_2],,,0.21978021978021978,0.7642857142857142,0.7272727272727273,0.26582914572864325,0.3607440226109541,0.42982880857686323,0.25688073394495414,1.0,0.5722633870598122,0.4016812756155204
p7,Trial: 22,p7.edf,.,3,Fixation: 3726 ms,223,3726,3948,"[3, 24]",9,997,223,894.2,383.8,1,1,35.7,36.75,7,Saccade: 3670 ms,RIGHT,56,8.39,149.83,402.81,[ 99],3670,3725,578.8,381.4,876.1,391.1,8,Saccade: 3949 ms,UP,24,2.27,94.62,196.1,[ 99],3949,3972,893.0,384.8,948.1,323.2,179.67,LEFT,8.97,A18,S18.wav,A18.png,12,18988952,preview,,,,,,,,,,,,,,,,,,"[girl_1, backpack_1]",,,0.4084249084249084,0.7912698412698412,0.7272727272727273,0.42160804020100506,0.5722633870598122,0.6965415874113783,0.11009174311926606,1.0,0.3613933236574746,0.19555050308632743
p7,Trial: 22,p7.edf,.,4,Fixation: 3973 ms,127,3973,4099,[],51,1041,13533,952.4,327.9,4,50,36.0,36.9,8,Saccade: 3949 ms,UP,24,2.27,94.62,196.1,"[ 3, 24, 99]",3949,3972,893.0,384.8,948.1,323.2,9,Saccade: 4100 ms,LEFT,169,12.09,71.51,1002.81,"[ 25, 99]",4100,4268,953.9,338.5,525.2,294.3,-136.92,LEFT,2.22,A18,S18.wav,A18.png,12,18988952,preview,,,,,,,,,,,,,,,,,,[],,,0.2326007326007326,0.8261904761904761,0.3116883116883117,0.11407035175879397,0.3613933236574746,0.3390973543143697,0.7752293577981652,1.0,0.27312657550989233,1.0
p7,Trial: 22,p7.edf,.,5,Fixation: 4350 ms,165,4350,4514,[2],7,1147,478,245.5,313.4,1,2,36.55,37.2,10,Saccade: 4290 ms,LEFT,60,7.97,132.81,467.12,"[ 25, 99]",4290,4349,525.5,288.4,239.9,311.3,11,Saccade: 4515 ms,UP,47,3.44,73.23,248.82,"[ 2, 99]",4515,4561,245.6,313.7,224.9,186.9,-1.15,RIGHT,19.49,A18,S18.wav,A18.png,12,18988952,preview,,,,,,,,,,,,,,,,,,[woman_1],,,0.3021978021978022,0.9103174603174603,0.7792207792207793,0.4005025125628141,0.5072568940493469,0.807746844198513,0.21559633027522937,1.0,0.2796959743335116,0.2481227750022437
p7,Trial: 22,p7.edf,.,6,Fixation: 4562 ms,313,4562,4874,[2],7,1142,478,219.6,170.4,2,2,36.8,37.5,11,Saccade: 4515 ms,UP,47,3.44,73.23,248.82,"[ 2, 99]",4515,4561,245.6,313.7,224.9,186.9,12,Saccade: 4875 ms,DOWN,59,7.45,126.24,358.5,"[ 9, 99]",4875,4933,223.0,168.7,341.7,417.8,-79.55,DOWN,3.89,A18,S18.wav,A18.png,12,18988952,preview,,,,,,,,,,,,,,,,,,[woman_1],,,0.5732600732600732,0.9063492063492063,0.6103896103896104,0.17286432160804022,0.2796959743335116,0.430261110150441,0.2706422018348624,1.0,0.4821633183102895,0.3574954378197266
p7,Trial: 22,p7.edf,.,7,Fixation: 4934 ms,198,4934,5131,[9],2,1054,198,349.0,437.0,1,1,35.9,36.9,12,Saccade: 4875 ms,DOWN,59,7.45,126.24,358.5,"[ 2, 99]",4875,4933,223.0,168.7,341.7,417.8,13,Saccade: 5132 ms,RIGHT,72,14.75,204.9,455.46,"[ 4, 99]",5132,5203,349.8,436.9,871.5,357.2,116.42,UP,8.0,A18,S18.wav,A18.png,12,18988952,preview,,,,,,,,,,,,,,,,,,[chair_2],,,0.3626373626373626,0.8365079365079365,0.7662337662337663,0.3743718592964824,0.4821633183102895,0.6199204565104618,0.3302752293577982,1.0,0.7825987319532504,0.4541837436802585
p7,Trial: 22,p7.edf,.,8,Fixation: 5204 ms,114,5204,5317,[4],7,995,114,874.1,357.3,1,1,35.65,36.7,13,Saccade: 5132 ms,RIGHT,72,14.75,204.9,455.46,[ 99],5132,5203,349.8,436.9,871.5,357.2,14,Saccade: 5318 ms,RIGHT,24,2.39,99.75,190.42,"[ 3, 99]",5318,5341,875.8,359.8,960.4,344.3,-171.61,LEFT,14.84,A18,S18.wav,A18.png,12,18988952,preview,,,,,,,,,,,,,,,,,,[chair_1],,,0.2087912087912088,0.7896825396825397,0.935064935064935,0.7412060301507538,0.7825987319532504,0.7875842988068477,0.11009174311926606,1.0,0.38098693759071117,0.18988641916215435
p7,Trial: 22,p7.edf,.,9,Fixation: 5342 ms,268,5342,5609,[3],9,1015,268,949.9,349.5,1,1,36.05,36.9,14,Saccade: 5318 ms,RIGHT,24,2.39,99.75,190.42,"[ 4, 99]",5318,5341,875.8,359.8,960.4,344.3,15,Saccade: 5610 ms,DOWN,63,7.62,120.95,398.07,"[ 11, 17, 99]",5610,5672,945.9,349.3,950.5,633.1,-174.28,LEFT,2.12,A18,S18.wav,A18.png,12,18988952,preview,,,,,,,,,,,,,,,,,,[girl_1],,,0.4908424908424908,0.8055555555555556,0.3116883116883117,0.12010050251256282,0.38098693759071117,0.32927546256268375,0.2889908256880734,1.0,0.46195859750973955,0.396954557692883
p7,Trial: 22,p7.edf,.,10,Fixation: 5673 ms,425,5673,6097,"[11, 17]",2,990,714,956.0,629.9,1,2,36.35,37.6,15,Saccade: 5610 ms,DOWN,63,7.62,120.95,398.07,[ 99],5610,5672,945.9,349.3,950.5,633.1,16,Saccade: 6098 ms,RIGHT,34,2.86,84.16,190.94,"[ 11, 18, 99]",6098,6131,960.5,628.5,1046.5,567.1,91.28,UP,7.53,A18,S18.wav,A18.png,12,18988952,preview,,,,,,,,,,,,,,,,,,"[sidetable_1, magazine_2]",,,0.7783882783882784,0.7857142857142857,0.8181818181818182,0.3829145728643216,0.46195859750973955,0.6883451495763445,0.1559633027522936,1.0,0.32144221220685965,0.1904049620566209
p7,Trial: 22,p7.edf,.,11,Fixation: 6132 ms,289,6132,6420,"[11, 18]",2,945,714,1041.0,568.6,2,2,36.75,37.6,16,Saccade: 6098 ms,RIGHT,34,2.86,84.16,190.94,"[ 11, 17, 99]",6098,6131,960.5,628.5,1046.5,567.1,17,Saccade: 6421 ms,UP,41,4.17,101.82,193.19,"[ 3, 99]",6421,6461,1037.6,572.6,962.9,437.0,-144.97,LEFT,2.84,A18,S18.wav,A18.png,12,18988952,preview,,,,,,,,,,,,,,,,,,"[sidetable_1, flower_1]",,,0.5293040293040293,0.75,0.44155844155844154,0.14371859296482412,0.32144221220685965,0.3301746498357254,0.18807339449541285,1.0,0.38889313268657855,0.1926486572730627
p7,Trial: 22,p7.edf,.,12,Fixation: 6462 ms,150,6462,6611,[3],9,948,392,963.7,436.7,1,2,36.1,37.0,17,Saccade: 6421 ms,UP,41,4.17,101.82,193.19,"[ 11, 18, 99]",6421,6461,1037.6,572.6,962.9,437.0,18,Saccade: 6612 ms,LEFT,24,2.28,95.0,173.76,"[ 3, 24, 99]",6612,6635,960.4,439.9,890.1,396.8,-59.03,DOWN,4.12,A18,S18.wav,A18.png,12,18988952,preview,,,,,,,,,,,,,,,,,,[girl_1],,,0.27472527472527475,0.7523809523809524,0.5324675324675324,0.20954773869346735,0.38889313268657855,0.33406536399792497,0.11009174311926606,1.0,0.36284470246734396,0.1732731025817453
p7,Trial: 22,p7.edf,.,13,Fixation: 6636 ms,242,6636,6877,"[3, 24]",9,956,392,888.5,398.6,2,2,35.7,36.8,18,Saccade: 6612 ms,LEFT,24,2.28,95.0,173.76,"[ 3, 99]",6612,6635,960.4,439.9,890.1,396.8,19,Saccade: 6878 ms,LEFT,77,16.74,217.44,578.3,[ 99],6878,6954,887.7,399.3,287.4,354.1,-26.24,RIGHT,2.34,A18,S18.wav,A18.png,12,18988952,preview,,,,,,,,,,,,,,,,,,"[girl_1, backpack_1]",,,0.4432234432234432,0.7587301587301587,0.3116883116883117,0.11457286432160804,0.36284470246734396,0.30046688569946395,0.3532110091743119,1.0,0.8304942326789397,0.5766795305192409
p7,Trial: 22,p7.edf,.,14,Fixation: 6955 ms,142,6955,7096,[],51,1006,13533,293.3,356.8,14,50,36.2,37.0,19,Saccade: 6878 ms,LEFT,77,16.74,217.44,578.3,"[ 3, 24, 99]",6878,6954,887.7,399.3,287.4,354.1,20,Saccade: 7097 ms,UP,36,5.15,143.01,296.55,"[ 2, 99]",7097,7132,291.9,360.1,195.2,195.5,-3.91,RIGHT,16.6,A18,S18.wav,A18.png,12,18988952,preview,,,,,,,,,,,,,,,,,,[],,,0.2600732600732601,0.7984126984126985,1.0,0.8412060301507538,0.8304942326789397,1.0,0.1651376146788991,1.0,0.5462149568405775,0.29571902952702905
p7,Trial: 22,p7.edf,.,15,Fixation: 7133 ms,183,7133,7315,[2],7,985,310,194.6,190.0,1,2,37.0,37.55,20,Saccade: 7097 ms,UP,36,5.15,143.01,296.55,[ 99],7097,7132,291.9,360.1,195.2,195.5,21,Saccade: 7316 ms,.,26,0.43,16.65,71.36,"[ 2, 99]",7316,7341,190.9,186.6,183.2,172.3,-58.93,DOWN,5.22,A18,S18.wav,A18.png,12,18988952,preview,,,,,,,,,,,,,,,,,,[woman_1],,,0.33516483516483514,0.7817460317460317,0.4675324675324675,0.25879396984924624,0.5462149568405775,0.5127961265779009,0.11926605504587157,1.0,0.06359330837980291,0.07116004028679411
p7,Trial: 22,p7.edf,.,16,Fixation: 7342 ms,127,7342,7468,[2],7,938,310,179.5,173.2,2,2,37.1,37.7,21,Saccade: 7316 ms,.,26,0.43,16.65,71.36,"[ 2, 99]",7316,7341,190.9,186.6,183.2,172.3,22,Saccade: 7469 ms,DOWN,62,10.69,172.49,474.48,"[ 20, 99]",7469,7530,177.8,173.7,74.4,565.9,-47.61,DOWN,0.6,A18,S18.wav,A18.png,12,18988952,preview,,,,,,,,,,,,,,,,,,[woman_1],,,0.2326007326007326,0.7444444444444445,0.33766233766233766,0.021608040201005027,0.06359330837980291,0.12339616116202663,0.28440366972477066,1.0,0.6588113971430755,0.4731504472432465
p7,Trial: 22,p7.edf,.,17,Fixation: 7531 ms,229,7531,7759,"[15, 20]",4,922,569,86.4,586.5,1,2,38.05,38.3,22,Saccade: 7469 ms,DOWN,62,10.69,172.49,474.48,"[ 2, 99]",7469,7530,177.8,173.7,74.4,565.9,23,Saccade: 7760 ms,DOWN,19,0.92,48.42,72.75,"[ 15, 20, 99]",7760,7778,88.9,591.4,105.5,622.4,77.17,UP,11.15,A18,S18.wav,A18.png,12,18988952,preview,,,,,,,,,,,,,,,,,,"[game_1, drawer_1]",,,0.4194139194139194,0.7317460317460317,0.8051948051948052,0.5371859296482412,0.6588113971430755,0.8204738025246413,0.0871559633027523,1.0,0.18493621572072416,0.07254614533161816
p7,Trial: 22,p7.edf,.,18,Fixation: 7779 ms,340,7779,8118,"[15, 20]",4,895,569,107.1,619.9,2,2,37.9,38.3,23,Saccade: 7760 ms,DOWN,19,0.92,48.42,72.75,"[ 15, 20, 99]",7760,7778,88.9,591.4,105.5,622.4,24,Saccade: 8119 ms,UP,24,2.57,107.08,168.65,"[ 16, 20, 99]",8119,8142,102.7,622.0,121.8,526.0,122.01,UP,1.03,A18,S18.wav,A18.png,12,18988952,preview,,,,,,,,,,,,,,,,,,"[game_1, drawer_1]",,,0.6227106227106227,0.7103174603174603,0.24675324675324675,0.04623115577889448,0.18493621572072416,0.1257997579111188,0.11009174311926606,1.0,0.4089832709495073,0.1681774214457375
p7,Trial: 22,p7.edf,.,19,Fixation: 8143 ms,454,8143,8596,"[16, 20]",1,895,454,131.0,513.9,1,1,37.55,37.85,24,Saccade: 8119 ms,UP,24,2.57,107.08,168.65,"[ 15, 20, 99]",8119,8142,102.7,622.0,121.8,526.0,25,Saccade: 8597 ms,UP,23,2.64,114.73,170.73,"[ 13, 99]",8597,8619,129.9,516.0,106.8,419.0,-102.82,DOWN,2.86,A18,S18.wav,A18.png,12,18988952,preview,,,,,,,,,,,,,,,,,,"[magazine_1, drawer_1]",,,0.8315018315018315,0.7103174603174603,0.3116883116883117,0.12914572864321608,0.4089832709495073,0.2916306415355352,0.10550458715596331,1.0,0.4382018180429303,0.17025159302360368
p7,Trial: 22,p7.edf,.,20,Fixation: 8620 ms,206,8620,8825,[13],2,877,327,111.1,405.2,1,2,37.6,37.75,25,Saccade: 8597 ms,UP,23,2.64,114.73,170.73,"[ 16, 20, 99]",8597,8619,129.9,516.0,106.8,419.0,26,Saccade: 8826 ms,UP,23,1.9,82.61,133.47,"[ 13, 99]",8826,8848,112.5,403.4,88.0,336.0,-79.57,DOWN,2.92,A18,S18.wav,A18.png,12,18988952,preview,,,,,,,,,,,,,,,,,,[vacuumcleanerp_1],,,0.3772893772893773,0.696031746031746,0.2987012987012987,0.13266331658291458,0.4382018180429303,0.29522739062770187,0.10550458715596331,1.0,0.3155221144297609,0.1330960002393275
p7,Trial: 22,p7.edf,.,21,Fixation: 8849 ms,121,8849,8969,[13],2,864,327,95.1,337.7,2,2,37.75,37.8,26,Saccade: 8826 ms,UP,23,1.9,82.61,133.47,"[ 13, 99]",8826,8848,112.5,403.4,88.0,336.0,27,Saccade: 8970 ms,UP,30,4.36,145.18,283.91,"[ 2, 99]",8970,8999,95.4,337.1,159.8,186.0,-76.63,DOWN,1.84,A18,S18.wav,A18.png,12,18988952,preview,,,,,,,,,,,,,,,,,,[vacuumcleanerp_1],,,0.2216117216117216,0.6857142857142857,0.2987012987012987,0.09547738693467336,0.3155221144297609,0.23079716410167736,0.13761467889908258,1.0,0.5545030937285158,0.28311444839999605
p7,Trial: 22,p7.edf,.,22,Fixation: 9000 ms,185,9000,9184,[2],7,824,422,175.4,183.3,1,2,37.2,37.65,27,Saccade: 8970 ms,UP,30,4.36,145.18,283.91,"[ 13, 99]",8970,8999,95.4,337.1,159.8,186.0,28,Saccade: 9185 ms,UP,18,0.52,29.11,54.81,"[ 2, 99]",9185,9202,177.2,181.0,186.4,163.6,-117.63,DOWN,4.62,A18,S18.wav,A18.png,12,18988952,preview,,,,,,,,,,,,,,,,,,[woman_1],,,0.33882783882783885,0.653968253968254,0.38961038961038963,0.21909547738693472,0.5545030937285158,0.4909389590178109,0.08256880733944955,1.0,0.11118325567183561,0.054656415472522216
p7,Trial: 22,p7.edf,.,23,Fixation: 9203 ms,237,9203,9439,[2],7,809,422,183.6,161.9,2,2,37.1,37.7,28,Saccade: 9185 ms,UP,18,0.52,29.11,54.81,"[ 2, 99]",9185,9202,177.2,181.0,186.4,163.6,29,Saccade: 9440 ms,RIGHT,76,19.9,261.82,489.4,[ 99],9440,9515,182.0,163.6,872.2,385.0,-111.24,DOWN,0.61,A18,S18.wav,A18.png,12,18988952,preview,,,,,,,,,,,,,,,,,,[woman_1],,,0.4340659340659341,0.6420634920634921,0.23376623376623376,0.026130653266331662,0.11118325567183561,0.09477779699118107,0.3486238532110092,1.0,1.0,0.48802863952294057
p7,Trial: 22,p7.edf,.,24,Fixation: 9516 ms,109,9516,9624,"[3, 24]",9,809,303,890.1,385.6,1,2,35.7,36.75,29,Saccade: 9440 ms,RIGHT,76,19.9,261.82,489.4,"[ 2, 99]",9440,9515,182.0,163.6,872.2,385.0,30,Saccade: 9625 ms,RIGHT,23,2.23,96.85,179.95,"[ 3, 99]",9625,9647,894.6,386.4,967.3,352.2,162.8,LEFT,20.32,A18,S18.wav,A18.png,12,18988952,preview,,,,,,,,,,,,,,,,,,"[girl_1, backpack_1]",,,0.19963369963369965,0.6420634920634921,0.987012987012987,1.0,1.0,0.84627356043576,0.10550458715596331,1.0,0.3699106256206554,0.17944575742164517
p7,Trial: 22,p7.edf,.,25,Fixation: 9648 ms,194,9648,9841,[3],9,793,303,960.4,355.9,2,2,36.1,36.9,30,Saccade: 9625 ms,RIGHT,23,2.23,96.85,179.95,"[ 3, 24, 99]",9625,9647,894.6,386.4,967.3,352.2,31,Saccade: 9842 ms,LEFT,58,11.85,204.29,512.26,"[ 10, 99]",9842,9899,961.2,355.9,577.5,172.1,-157.62,LEFT,2.12,A18,S18.wav,A18.png,12,18988952,preview,,,,,,,,,,,,,,,,,,[girl_1],,,0.3553113553113553,0.6293650793650793,0.2987012987012987,0.1120603015075377,0.3699106256206554,0.3111706726612485,0.26605504587155965,1.0,0.7802688870216179,0.5108245829219892
p7,Trial: 22,p7.edf,.,26,Fixation: 9900 ms,341,9900,10240,[10],3,821,341,561.7,178.6,1,1,35.3,36.75,31,Saccade: 9842 ms,LEFT,58,11.85,204.29,512.26,"[ 3, 99]",9842,9899,961.2,355.9,577.5,172.1,32,Saccade: 10241 ms,LEFT,24,3.33,138.72,255.84,"[ 22, 25, 99]",10241,10264,561.1,183.5,443.9,197.9,-23.32,RIGHT,12.16,A18,S18.wav,A18.png,12,18988952,preview,,,,,,,,,,,,,,,,,,[chair_3],,,0.6245421245421245,0.6515873015873016,0.7532467532467533,0.5954773869346733,0.7802688870216179,0.8858032163237075,0.11009174311926606,1.0,0.5298296539607364,0.25512310407754213
p7,Trial: 22,p7.edf,.,27,Fixation: 10265 ms,304,10265,10568,"[22, 25]",1,834,304,440.5,202.7,1,1,35.6,36.8,32,Saccade: 10241 ms,LEFT,24,3.33,138.72,255.84,"[ 10, 99]",10241,10264,561.1,183.5,443.9,197.9,33,Saccade: 10569 ms,RIGHT,183,1.04,5.67,719.01,"[ 25, 99]",10569,10751,445.2,219.1,475.3,241.2,10.85,RIGHT,3.48,A18,S18.wav,A18.png,12,18988952,preview,,,,,,,,,,,,,,,,,,"[steteskop_1, desk_1]",,,0.5567765567765568,0.6619047619047619,0.3116883116883117,0.16733668341708544,0.5298296539607364,0.4424001383365036,0.8394495412844036,1.0,0.021656099610419373,0.7169952433661412
p7,Trial: 22,p7.edf,.,28,Fixation: 10957 ms,267,10957,11223,[25],7,865,1438,645.3,185.6,2,5,35.3,36.7,34,Saccade: 10923 ms,RIGHT,34,4.74,139.48,277.33,"[ 25, 99]",10923,10956,477.9,227.1,641.1,186.3,35,Saccade: 11224 ms,UP,24,1.86,77.69,159.93,"[ 23, 25, 99]",11224,11247,646.9,193.6,665.6,127.8,-175.4,LEFT,5.8,A18,S18.wav,A18.png,12,18988952,preview,,,,,,,,,,,,,,,,,,[desk_1],,,0.489010989010989,0.6865079365079365,0.44155844155844154,0.23819095477386937,0.5327324115804751,0.47956078160124505,0.11009174311926606,1.0,0.2967305782598732,0.15948185598468306
p7,Trial: 22,p7.edf,.,29,Fixation: 11248 ms,261,11248,11508,"[23, 25]",1,877,261,666.5,130.3,1,1,35.4,36.9,35,Saccade: 11224 ms,UP,24,1.86,77.69,159.93,"[ 25, 99]",11224,11247,646.9,193.6,665.6,127.8,36,Saccade: 11509 ms,RIGHT,25,2.65,105.89,202.6,"[ 21, 25, 99]",11509,11533,667.0,127.6,737.9,191.3,-111.76,DOWN,1.62,A18,S18.wav,A18.png,12,18988952,preview,,,,,,,,,,,,,,,,,,"[file_1, desk_1]",,,0.47802197802197804,0.696031746031746,0.3116883116883117,0.0934673366834171,0.2967305782598732,0.27655196264914406,0.11467889908256881,1.0,0.40443816362386376,0.2020322892671593
p7,Trial: 22,p7.edf,.,30,Fixation: 11534 ms,300,11534,11833,"[21, 25]",1,859,300,729.9,188.2,1,1,35.4,36.7,36,Saccade: 11509 ms,RIGHT,25,2.65,105.89,202.6,"[ 23, 25, 99]",11509,11533,667.0,127.6,737.9,191.3,37,Saccade: 11834 ms,LEFT,27,4.8,177.92,322.55,"[ 25, 99]",11834,11860,729.9,188.3,561.0,206.6,138.7,LEFT,2.38,A18,S18.wav,A18.png,12,18988952,preview,,,,,,,,,,,,,,,,,,"[monitor_1, desk_1]",,,0.5494505494505495,0.6817460317460318,0.3246753246753247,0.13316582914572864,0.40443816362386376,0.35033719522739065,0.12385321100917432,1.0,0.6795508364525246,0.3216461742503565
p7,Trial: 22,p7.edf,.,31,Fixation: 11861 ms,306,11861,12166,[25],7,891,1438,551.4,208.4,5,5,35.3,36.7,37,Saccade: 11834 ms,LEFT,27,4.8,177.92,322.55,"[ 21, 25, 99]",11834,11860,729.9,188.3,561.0,206.6,38,Saccade: 12167 ms,UP,23,2.05,89.0,153.6,"[ 10, 99]",12167,12189,547.1,214.7,551.4,139.5,6.22,RIGHT,5.08,A18,S18.wav,A18.png,12,18988952,preview,,,,,,,,,,,,,,,,,,[desk_1],,,0.5604395604395604,0.7071428571428572,0.35064935064935066,0.2412060301507538,0.6795508364525246,0.5577554902299845,0.10550458715596331,1.0,0.3399281949430907,0.15316959344242678
p7,Trial: 22,p7.edf,.,32,Fixation: 12190 ms,235,12190,12424,[10],3,915,235,553.9,146.0,1,1,35.4,36.85,38,Saccade: 12167 ms,UP,23,2.05,89.0,153.6,"[ 25, 99]",12167,12189,547.1,214.7,551.4,139.5,39,Saccade: 12425 ms,DOWN,184,5.68,30.85,792.27,"[ 9, 99]",12425,12608,551.6,163.4,416.6,318.3,-92.39,DOWN,1.7,A18,S18.wav,A18.png,12,18988952,preview,,,,,,,,,,,,,,,,,,[chair_3],,,0.43040293040293043,0.7261904761904762,0.2987012987012987,0.10301507537688442,0.3399281949430907,0.265606086806156,0.8440366972477065,1.0,0.11782904285386908,0.7900499596134861
p7,Trial: 22,p7.edf,13117,33,Fixation: 12955 ms,195,12955,13149,[4],7,945,195,766.6,300.8,1,1,35.3,36.55,40,Saccade: 12897 ms,RIGHT,58,9.59,165.28,395.59,"[ 9, 99]",12897,12954,407.0,316.7,746.6,303.6,41,Saccade: 13150 ms,LEFT,71,15.12,212.95,555.9,"[ 2, 99]",13150,13220,767.1,302.9,228.1,374.9,144.97,LEFT,7.35,A18,S18.wav,A18.png,12,18988952,preview,,,,,,,,,,,,,,,,,,[chair_1],,,0.35714285714285715,0.75,0.7532467532467533,0.4819095477386935,0.6312733939347643,0.6840567179664534,0.3256880733944954,1.0,0.8133450462149568,0.5543422981422204
p7,Trial: 22,p7.edf,13295,34,Fixation: 13221 ms,315,13221,13535,[2],7,1023,315,232.8,381.1,1,1,36.6,37.2,41,Saccade: 13150 ms,LEFT,71,15.12,212.95,555.9,"[ 4, 99]",13150,13220,767.1,302.9,228.1,374.9,42,Saccade: 13536 ms,RIGHT,75,18.32,244.2,568.8,"[ 3, 99]",13536,13610,229.4,378.0,882.6,494.3,8.34,RIGHT,15.01,A18,S18.wav,A18.png,12,18988952,taskpreview,[1],[Adverb],[100],[260],[160],[0],[Da],[It],[0.0],[0.0],[nan],[nan],[da],[nan],[nan],[nan],[nan],[woman_1],,,0.5769230769230769,0.8119047619047619,0.922077922077922,0.7597989949748744,0.8133450462149568,0.9612657790074356,0.3440366972477064,1.0,0.9327018562371094,0.5672061507164866
p7,Trial: 22,p7.edf,.,35,Fixation: 13611 ms,146,13611,13756,[3],9,1045,327,886.1,493.4,1,2,35.8,36.9,42,Saccade: 13536 ms,RIGHT,75,18.32,244.2,568.8,"[ 2, 99]",13536,13610,229.4,378.0,882.6,494.3,43,Saccade: 13757 ms,UP,25,1.81,72.41,159.11,[ 99],13757,13781,890.1,495.7,853.5,440.8,170.47,LEFT,18.3,A18,S18.wav,A18.png,12,18988952,task,[2],[Verb],[280],[820],[540],[0],[befindet],[is],[0.0],[0.0],[nan],[nan],[befinden],[nan],[nan],[nan],[nan],[girl_1],,,0.2673992673992674,0.8293650793650794,0.974025974025974,0.920603015075377,0.9327018562371094,0.9835725402040464,0.11467889908256881,1.0,0.27656405163853026,0.15866415372802428
p7,Trial: 22,p7.edf,.,36,Fixation: 13782 ms,181,13782,13962,[3],9,1078,327,856.5,441.4,2,2,35.6,36.7,43,Saccade: 13757 ms,UP,25,1.81,72.41,159.11,"[ 3, 99]",13757,13781,890.1,495.7,853.5,440.8,44,Saccade: 13963 ms,LEFT,58,8.78,151.31,459.33,"[ 25, 99]",13963,14020,855.4,435.2,634.6,208.6,-59.6,DOWN,1.64,A18,S18.wav,A18.png,12,18988952,task,[2],[Verb],[280],[820],[540],[0],[befindet],[is],[0.0],[0.0],[nan],[nan],[befinden],[nan],[nan],[nan],[nan],[girl_1],,,0.3315018315018315,0.8555555555555555,0.3246753246753247,0.09095477386934674,0.27656405163853026,0.27513401348780914,0.26605504587155965,1.0,0.5779161255824613,0.4580428994525384
p7,Trial: 22,p7.edf,.,37,Fixation: 14021 ms,236,14021,14256,[25],7,1149,236,620.4,200.1,1,1,35.3,36.65,44,Saccade: 13963 ms,LEFT,58,8.78,151.31,459.33,[ 99],13963,14020,855.4,435.2,634.6,208.6,45,Saccade: 14257 ms,UP,24,1.78,74.11,124.17,"[ 10, 99]",14257,14280,615.3,202.1,590.8,141.9,-44.65,RIGHT,9.36,A18,S18.wav,A18.png,12,18988952,task,[2],[Verb],[280],[820],[540],[0],[befindet],[is],[0.0],[0.0],[nan],[nan],[befinden],[nan],[nan],[nan],[nan],[desk_1],,,0.43223443223443225,0.9119047619047619,0.7532467532467533,0.44120603015075377,0.5779161255824613,0.794276327165831,0.11009174311926606,1.0,0.2830570621037354,0.12382206001136807
p7,Trial: 22,p7.edf,.,38,Fixation: 14281 ms,436,14281,14716,[10],3,1231,436,596.4,133.8,1,1,35.4,36.9,45,Saccade: 14257 ms,UP,24,1.78,74.11,124.17,"[ 25, 99]",14257,14280,615.3,202.1,590.8,141.9,46,Saccade: 14717 ms,RIGHT,56,6.82,121.87,331.42,"[ 4, 99]",14717,14772,594.6,136.3,770.1,308.4,-69.36,DOWN,1.93,A18,S18.wav,A18.png,12,18988952,task,[3],[Pronoun_ref],[890],[1190],[300],[0],[sich],[nan],[0.0],[0.0],[nan],[nan],[sie],[nan],[nan],[nan],[nan],[chair_3],,,0.7985347985347986,0.976984126984127,0.3116883116883117,0.08944723618090453,0.2830570621037354,0.21471554556458589,0.25688073394495414,1.0,0.4654724619967917,0.3304913193925071
p7,Trial: 22,p7.edf,.,39,Fixation: 14773 ms,352,14773,15124,[4],7,1229,352,784.4,324.3,1,1,35.35,36.6,46,Saccade: 14717 ms,RIGHT,56,6.82,121.87,331.42,"[ 10, 99]",14717,14772,594.6,136.3,770.1,308.4,47,Saccade: 15125 ms,LEFT,170,4.02,23.63,470.01,"[ 5, 99]",15125,15294,781.6,329.1,644.5,366.5,135.71,LEFT,7.42,A18,S18.wav,A18.png,12,18988952,task,[5],[Noun_1],[1470],[2111],[641],[0],[Stuhl],[chair],[0.0],[0.0],[chair_1],[S01_I018_E003],[Stuhl],[nan],[nan],[nan],[nan],[chair_1],,,0.6446886446886447,0.9753968253968254,0.7272727272727273,0.34271356783919604,0.4654724619967917,0.5730935500605223,0.7798165137614679,1.0,0.09025284546635093,0.4686929727465821
p7,Trial: 22,p7.edf,16280,40,Fixation: 16022 ms,546,16022,16567,[25],7,1260,546,534.3,201.9,1,1,35.4,36.7,49,Saccade: 15999 ms,UP,23,2.0,86.8,157.17,"[ 25, 99]",15999,16021,554.3,278.2,526.6,211.0,50,Saccade: 16568 ms,DOWN,46,4.14,90.06,229.77,[ 99],16568,16613,532.5,200.5,581.1,343.5,-25.29,RIGHT,7.82,A18,S18.wav,A18.png,12,18988952,task,"[7, 8]","[Determiner_2, Noun_2]","[2680, 3060]","[2943, 3550]","[263, 490]","[0, 0]","[einem, Teppich]","[the, carpet]","[0.0, 0.0]","[0.0, 1.0]","[nan, carpet_1]","[nan, S01_I018_E004]","[eine, Teppich]","[nan, nan]","[nan, nan]","[nan, nan]","[nan, nan]",[desk_1],,,1.0,1.0,0.2987012987012987,0.10050251256281408,0.33152547551753114,0.27177935327684594,0.21100917431192662,1.0,0.34397677793904213,0.2291261555030365
p7,Trial: 22,p7.edf,.,41,Fixation: 16614 ms,204,16614,16817,[],51,1219,13533,593.6,351.6,41,50,35.2,36.5,50,Saccade: 16568 ms,DOWN,46,4.14,90.06,229.77,"[ 25, 99]",16568,16613,532.5,200.5,581.1,343.5,51,Saccade: 16818 ms,RIGHT,46,3.98,86.44,275.07,"[ 4, 99]",16818,16863,598.4,351.8,737.0,330.2,112.33,UP,4.42,A18,S18.wav,A18.png,12,18988952,task,[8],[Noun_2],[3060],[3550],[490],[0],[Teppich],[carpet],[0.0],[1.0],[carpet_1],[S01_I018_E004],[Teppich],[nan],[nan],[nan],[nan],[],,,0.37362637362637363,0.9674603174603175,0.5974025974025974,0.20804020100502513,0.34397677793904213,0.3973197302438181,0.21100917431192662,1.0,0.3301504850660759,0.2742992191940647
p7,Trial: 22,p7.edf,.,42,Fixation: 16864 ms,473,16864,17336,[4],7,1225,473,753.6,331.6,1,1,35.3,36.5,51,Saccade: 16818 ms,RIGHT,46,3.98,86.44,275.07,[ 99],16818,16863,598.4,351.8,737.0,330.2,52,Saccade: 17337 ms,LEFT,68,10.18,149.75,426.89,"[ 9, 99]",17337,17404,757.9,333.3,396.5,341.9,-173.12,LEFT,4.57,A18,S18.wav,A18.png,12,18988952,task,,break,,,,,,,,,,,,,,,,[chair_1],,,0.8663003663003663,0.9722222222222222,0.5974025974025974,0.2,0.3301504850660759,0.4756527753761024,0.3119266055045872,1.0,0.5719578336261554,0.4256938004208175
p7,Trial: 22,p7.edf,.,43,Fixation: 17405 ms,108,17405,17512,[9],2,1240,108,397.4,342.3,1,1,35.7,36.7,52,Saccade: 17337 ms,LEFT,68,10.18,149.75,426.89,"[ 4, 99]",17337,17404,757.9,333.3,396.5,341.9,53,Saccade: 17513 ms,RIGHT,218,11.41,52.33,616.92,"[ 4, 99]",17513,17730,395.5,346.3,801.0,352.3,1.67,RIGHT,10.04,A18,S18.wav,A18.png,12,18988952,task,[9],[Preposition_2],[3915],[4240],[325],[0],[auf],[on],[0.0],[0.0],[nan],[nan],[auf],[nan],[nan],[nan],[nan],[chair_2],,,0.1978021978021978,0.9841269841269841,0.8831168831168831,0.5115577889447236,0.5719578336261554,0.7381808749783849,1.0,1.0,0.1998701397906959,0.6151913124121219
p7,Trial: 22,p7.edf,.,44,Fixation: 17911 ms,275,17911,18185,[3],9,1181,275,900.9,371.3,1,1,35.8,36.8,54,Saccade: 17885 ms,RIGHT,26,3.07,117.89,239.5,"[ 4, 99]",17885,17910,804.7,354.8,911.9,375.8,55,Saccade: 18186 ms,RIGHT,24,1.48,61.53,133.32,[ 99],18186,18209,900.6,375.2,944.1,344.1,176.79,LEFT,14.11,A18,S18.wav,A18.png,12,18988952,task,[12],[Relative Clause Adverb],[4430],[4900],[470],[0],[ruhig],[silently],[0.0],[0.0],[nan],[nan],[ruhig],[nan],[nan],[nan],[nan],[girl_1],,,0.5036630036630036,0.9373015873015873,0.33766233766233766,0.1542713567839196,0.4502711786723703,0.4141449074874633,0.11009174311926606,1.0,0.23500878466121763,0.13294642055823136
p7,Trial: 22,p7.edf,18370,45,Fixation: 18210 ms,373,18210,18582,[],51,1214,13533,940.7,351.5,45,50,36.0,36.9,55,Saccade: 18186 ms,RIGHT,24,1.48,61.53,133.32,"[ 3, 24, 99]",18186,18209,900.6,375.2,944.1,344.1,56,Saccade: 18583 ms,LEFT,27,3.89,143.9,272.56,"[ 4, 99]",18583,18609,942.2,355.7,805.5,331.5,-154.14,LEFT,1.23,A18,S18.wav,A18.png,12,18988952,task,[13],[Relative Clause Verb],[5100],[5590],[490],[0],[sitzt],[sits],[1.0],[0.0],[nan],[nan],[sitzen],[nan],[nan],[nan],[nan],[],,,0.6831501831501832,0.9634920634920635,0.3116883116883117,0.07437185929648242,0.23500878466121763,0.2305377831575307,0.12385321100917432,1.0,0.5496142387900085,0.27179625253038964
p7,Trial: 22,p7.edf,.,46,Fixation: 18610 ms,209,18610,18818,[4],7,1193,1658,812.6,323.1,1,3,35.4,36.6,56,Saccade: 18583 ms,LEFT,27,3.89,143.9,272.56,[ 99],18583,18609,942.2,355.7,805.5,331.5,57,Saccade: 18819 ms,LEFT,197,0.67,3.38,835.37,"[ 4, 99]",18819,19015,808.2,329.3,784.7,327.8,-12.15,RIGHT,3.67,A18,S18.wav,A18.png,12,18988952,task,[13],[Relative Clause Verb],[5100],[5590],[490],[0],[sitzt],[sits],[1.0],[0.0],[nan],[nan],[sitzen],[nan],[nan],[nan],[nan],[chair_1],,,0.38278388278388276,0.9468253968253968,0.35064935064935066,0.1954773869346734,0.5496142387900085,0.47131246757738204,0.9036697247706422,1.0,0.012909632571996028,0.8330291879817713
