RECORDING_SESSION_LABEL,TRIAL_LABEL,DATA_FILE,CURRENT_FIX_MSG_TIME_1,CURRENT_FIX_INDEX,CURRENT_FIX_LABEL,CURRENT_FIX_DURATION,CURRENT_FIX_START,CURRENT_FIX_END,CURRENT_FIX_INTEREST_AREAS,CURRENT_FIX_INTEREST_AREA_FIX_COUNT,CURRENT_FIX_PUPIL,CURRENT_FIX_RUN_DWELL_TIME,CURRENT_FIX_X,CURRENT_FIX_Y,CURRENT_FIX_RUN_INDEX,CURRENT_FIX_RUN_SIZE,CURRENT_FIX_X_RESOLUTION,CURRENT_FIX_Y_RESOLUTION,PREVIOUS_SAC_INDEX,PREVIOUS_SAC_LABEL,PREVIOUS_SAC_DIRECTION,PREVIOUS_SAC_DURATION,PREVIOUS_SAC_AMPLITUDE,PREVIOUS_SAC_AVG_VELOCITY,PREVIOUS_SAC_PEAK_VELOCITY,PREVIOUS_SAC_START_INTEREST_AREAS,PREVIOUS_SAC_START_TIME,PREVIOUS_SAC_END_TIME,PREVIOUS_SAC_START_X,PREVIOUS_SAC_START_Y,PREVIOUS_SAC_END_X,PREVIOUS_SAC_END_Y,NEXT_SAC_INDEX,NEXT_SAC_LABEL,NEXT_SAC_DIRECTION,NEXT_SAC_DURATION,NEXT_SAC_AMPLITUDE,NEXT_SAC_AVG_VELOCITY,NEXT_SAC_PEAK_VELOCITY,NEXT_SAC_END_INTEREST_AREAS,NEXT_SAC_START_TIME,NEXT_SAC_END_TIME,NEXT_SAC_START_X,NEXT_SAC_START_Y,NEXT_SAC_END_X,NEXT_SAC_END_Y,PREVIOUS_FIX_ANGLE,PREVIOUS_FIX_DIRECTION,PREVIOUS_FIX_DISTANCE,ItemNO,audiofilename,imagefilename,TRIAL_INDEX,TRIAL_START_TIME,viewtype,word_index,Label,word_onset,word_offset,word_duration,Continuation,wordDE,wordEN,REFWord,TargetObj,ObjectLabel,ObjectID,LemmaDE,LingIndex,DepS,pos_1,pos_2,CURRENT_FIX_INTEREST_AREAS_Labelled,PREVIOUS_SAC_START_INTEREST_AREAS_Labelled,NEXT_SAC_END_INTEREST_AREAS_Labelled,NORMALIZED_CURRENT_FIX_DURATION,NORMALIZED_CURRENT_FIX_PUPIL,NORMALIZED_PREVIOUS_SAC_DURATION,NORMALIZED_PREVIOUS_SAC_AMPLITUDE,NORMALIZED_PREVIOUS_SAC_AVG_VELOCITY,NORMALIZED_PREVIOUS_SAC_PEAK_VELOCITY,NORMALIZED_NEXT_SAC_DURATION,NORMALIZED_NEXT_SAC_AMPLITUDE,NORMALIZED_NEXT_SAC_AVG_VELOCITY,NORMALIZED_NEXT_SAC_PEAK_VELOCITY
p7,Trial: 34,p7.edf,.,1,Fixation: 3349 ms,144,3349,3492,[],47,811,17760,661.2,598.3,1,46,35.45,37.05,3,Saccade: 3308 ms,UP,41,8.32,203.01,340.5,[ ],3308,3348,616.4,932.3,652.8,616.7,4,Saccade: 3493 ms,UP,44,8.33,189.29,386.31,"[ 9, 25, 99]",3493,3536,664.7,594.8,833.6,343.4,-95.01,DOWN,7.85,A19,S19.wav,A19.png,18,19283392,preview,,,,,,,,,,,,,,,,,,[],,,0.06489409643983776,0.7488457987072945,0.43617021276595747,0.41579210394802596,0.9535014794983796,0.6335590949687406,0.2018348623853211,1.0,0.8890611056314874,0.4092093555357824
p7,Trial: 34,p7.edf,.,2,Fixation: 3537 ms,297,3537,3833,[9],4,829,297,839.9,332.4,1,1,35.5,36.65,4,Saccade: 3493 ms,UP,44,8.33,189.29,386.31,[ 99],3493,3536,664.7,594.8,833.6,343.4,5,Saccade: 3834 ms,LEFT,63,9.23,146.59,418.92,"[ 5, 99]",3834,3896,840.3,331.7,513.8,314.6,-124.92,DOWN,8.8,A19,S19.wav,A19.png,18,19283392,preview,,,,,,,,,,,,,,,,,,[shelf_3],,,0.13384407390716538,0.765466297322253,0.46808510638297873,0.4162918540729635,0.8890611056314874,0.7187965168204822,0.2889908256880734,1.0,0.6885068808416702,0.4437523833735859
p7,Trial: 34,p7.edf,.,3,Fixation: 3897 ms,261,3897,4157,[5],5,890,261,518.3,317.1,1,1,35.3,36.55,5,Saccade: 3834 ms,LEFT,63,9.23,146.59,418.92,"[ 9, 99]",3834,3896,840.3,331.7,513.8,314.6,6,Saccade: 4158 ms,LEFT,199,3.9,19.59,944.04,"[ 4, 99]",4158,4356,516.9,317.7,384.2,276.4,-2.63,RIGHT,9.09,A19,S19.wav,A19.png,18,19283392,preview,,,,,,,,,,,,,,,,,,[kid_1],,,0.11762054979720594,0.8217913204062789,0.6702127659574468,0.4612693653173413,0.6885068808416702,0.7794730574575766,0.9128440366972477,1.0,0.09201070875017613,1.0
p7,Trial: 34,p7.edf,.,4,Fixation: 4611 ms,2219,4611,6829,[3],4,963,2219,154.0,310.2,1,1,37.15,37.5,7,Saccade: 4562 ms,LEFT,49,6.04,123.3,363.53,"[ 4, 99]",4562,4610,386.3,276.6,166.5,284.2,8,Saccade: 6830 ms,DOWN,44,6.33,143.76,287.91,[ 99],6830,6873,154.6,324.8,267.4,532.1,-1.06,RIGHT,10.06,A19,S19.wav,A19.png,18,19283392,preview,,,,,,,,,,,,,,,,,,[cat_3],,,1.0,0.889196675900277,0.5212765957446809,0.30184907546226886,0.579117937156545,0.6764103899970229,0.2018348623853211,1.0,0.6752148795265605,0.30497648404728617
p7,Trial: 34,p7.edf,.,5,Fixation: 6964 ms,129,6964,7092,[],47,995,17760,359.8,555.6,5,46,36.05,37.2,9,Saccade: 6928 ms,RIGHT,36,1.68,46.71,197.61,[ 99],6928,6963,284.3,542.1,344.6,551.3,10,Saccade: 7093 ms,LEFT,32,0.91,28.58,131.66,"[ 13, 14, 99]",7093,7124,361.2,561.3,333.8,580.3,130.56,UP,8.65,A19,S19.wav,A19.png,18,19283392,preview,,,,,,,,,,,,,,,,,,[],,,0.058134294727354666,0.9187442289935365,0.3829787234042553,0.08395802098950524,0.2193884740030999,0.3676875558201846,0.14678899082568808,1.0,0.1342351228218496,0.1394644294733274
p7,Trial: 34,p7.edf,.,6,Fixation: 7125 ms,194,7125,7318,"[13, 14]",3,995,194,324.1,590.8,1,1,36.25,37.35,10,Saccade: 7093 ms,LEFT,32,0.91,28.58,131.66,[ 99],7093,7124,361.2,561.3,333.8,580.3,11,Saccade: 7319 ms,RIGHT,29,3.28,113.24,199.87,"[ 14, 99]",7319,7347,324.0,594.9,440.0,571.3,43.72,RIGHT,1.37,A19,S19.wav,A19.png,18,19283392,preview,,,,,,,,,,,,,,,,,,"[news_1, sidetable_1]",,,0.08742676881478144,0.9187442289935365,0.3404255319148936,0.04547726136931534,0.1342351228218496,0.24497618338791305,0.13302752293577982,1.0,0.5318679254144943,0.21171772382526166
p7,Trial: 34,p7.edf,.,7,Fixation: 7348 ms,611,7348,7958,[14],6,935,805,444.0,578.5,2,2,35.7,37.05,11,Saccade: 7319 ms,RIGHT,29,3.28,113.24,199.87,"[ 13, 14, 99]",7319,7347,324.0,594.9,440.0,571.3,12,Saccade: 7959 ms,RIGHT,70,13.87,198.11,372.02,"[ 7, 29, 99]",7959,8028,445.9,586.7,939.6,520.5,-174.34,LEFT,3.35,A19,S19.wav,A19.png,18,19283392,preview,,,,,,,,,,,,,,,,,,[sidetable_1],,,0.27534925642181163,0.863342566943675,0.30851063829787234,0.1639180409795102,0.5318679254144943,0.37189267639178325,0.3211009174311927,1.0,0.9304870602602039,0.3940722850726664
p7,Trial: 34,p7.edf,.,8,Fixation: 8029 ms,122,8029,8150,"[7, 29]",4,862,321,961.6,513.2,1,2,36.15,37.15,12,Saccade: 7959 ms,RIGHT,70,13.87,198.11,372.02,"[ 14, 99]",7959,8028,445.9,586.7,939.6,520.5,13,Saccade: 8151 ms,UP,21,1.95,93.01,146.97,"[ 7, 99]",8151,8171,967.6,513.1,982.2,442.1,-173.04,LEFT,14.51,A19,S19.wav,A19.png,18,19283392,preview,,,,,,,,,,,,,,,,,,"[shelf_2, book_12]",,,0.05497972059486255,0.7959372114496768,0.7446808510638298,0.6931534232883557,0.9304870602602039,0.6922075022328072,0.0963302752293578,1.0,0.43685125170259737,0.15568196262870218
p7,Trial: 34,p7.edf,.,9,Fixation: 8172 ms,199,8172,8370,"[7, 33]",4,851,321,987.5,448.8,2,2,36.25,37.1,13,Saccade: 8151 ms,UP,21,1.95,93.01,146.97,"[ 7, 29, 99]",8151,8171,967.6,513.1,982.2,442.1,14,Saccade: 8371 ms,UP,35,3.51,100.26,228.37,"[ 2, 99]",8371,8405,990.6,445.8,1072.8,345.6,-112.41,DOWN,1.88,A19,S19.wav,A19.png,18,19283392,preview,,,,,,,,,,,,,,,,,,"[shelf_2, frame_1]",,,0.0896800360522758,0.7857802400738689,0.22340425531914893,0.09745127436281859,0.43685125170259737,0.27346308425126525,0.16055045871559634,1.0,0.4709031985345921,0.24190712257955171
p7,Trial: 34,p7.edf,.,10,Fixation: 8406 ms,176,8406,8581,[],47,849,17760,1072.6,344.9,10,46,36.8,37.3,14,Saccade: 8371 ms,UP,35,3.51,100.26,228.37,"[ 7, 33, 99]",8371,8405,990.6,445.8,1072.8,345.6,15,Saccade: 8582 ms,RIGHT,22,1.1,50.0,91.47,"[ 2, 99]",8582,8603,1068.6,349.6,1108.1,339.9,-129.84,DOWN,3.64,A19,S19.wav,A19.png,18,19283392,preview,,,,,,,,,,,,,,,,,,[],,,0.07931500675980171,0.7839335180055401,0.3723404255319149,0.17541229385307344,0.4709031985345921,0.42492185174158975,0.10091743119266056,1.0,0.23484101263444648,0.09689208084403203
p7,Trial: 34,p7.edf,.,11,Fixation: 8604 ms,158,8604,8761,[2],3,867,158,1097.9,341.8,1,1,37.05,37.4,15,Saccade: 8582 ms,RIGHT,22,1.1,50.0,91.47,"[ 2, 99]",8582,8603,1068.6,349.6,1108.1,339.9,16,Saccade: 8762 ms,LEFT,180,3.18,17.67,820.73,"[ 7, 99]",8762,8941,1096.1,346.1,982.0,322.6,-173.09,LEFT,0.69,A19,S19.wav,A19.png,18,19283392,preview,,,,,,,,,,,,,,,,,,[cat_2],,,0.07120324470482199,0.8005540166204986,0.23404255319148937,0.054972513743128434,0.23484101263444648,0.17019574278058944,0.8256880733944955,1.0,0.08299281386501339,0.8693805347231051
p7,Trial: 34,p7.edf,.,12,Fixation: 9205 ms,144,9205,9348,[],47,901,17760,651.8,353.7,12,46,35.2,36.5,17,Saccade: 9155 ms,LEFT,50,8.66,173.24,501.64,"[ 7, 99]",9155,9204,977.8,322.2,669.6,348.2,18,Saccade: 9349 ms,RIGHT,27,2.8,103.75,186.54,"[ 9, 99]",9349,9375,652.0,358.3,726.5,291.2,1.49,RIGHT,12.35,A19,S19.wav,A19.png,18,19283392,preview,,,,,,,,,,,,,,,,,,[],,,0.06489409643983776,0.8319482917820868,0.5319148936170213,0.432783608195902,0.8136771405758302,0.9333879130693657,0.12385321100917432,1.0,0.48729510121647646,0.19759755942544807
p7,Trial: 34,p7.edf,.,13,Fixation: 9376 ms,309,9376,9684,[9],4,875,309,726.0,288.5,1,1,35.3,36.5,18,Saccade: 9349 ms,RIGHT,27,2.8,103.75,186.54,[ 99],9349,9375,652.0,358.3,726.5,291.2,19,Saccade: 9685 ms,LEFT,53,7.91,149.16,393.03,"[ 4, 99]",9685,9737,730.6,291.7,450.8,285.8,-139.68,LEFT,2.76,A19,S19.wav,A19.png,18,19283392,preview,,,,,,,,,,,,,,,,,,[shelf_3],,,0.13925191527715186,0.8079409048938134,0.2872340425531915,0.13993003498250872,0.48729510121647646,0.3470899077106281,0.24311926605504589,1.0,0.7005777088910807,0.4163276979788992
p7,Trial: 34,p7.edf,.,14,Fixation: 9738 ms,275,9738,10012,[4],8,851,275,431.1,294.6,1,1,35.55,36.7,19,Saccade: 9685 ms,LEFT,53,7.91,149.16,393.03,"[ 9, 99]",9685,9737,730.6,291.7,450.8,285.8,20,Saccade: 10013 ms,RIGHT,31,1.73,55.65,171.59,"[ 5, 99]",10013,10043,429.5,294.9,490.6,299.2,1.15,RIGHT,8.33,A19,S19.wav,A19.png,18,19283392,preview,,,,,,,,,,,,,,,,,,[cat_1],,,0.12392969806219017,0.7857802400738689,0.5638297872340425,0.3953023488255872,0.7005777088910807,0.7313002381661208,0.14220183486238533,1.0,0.2613780470621389,0.1817613660438117
p7,Trial: 34,p7.edf,.,15,Fixation: 10044 ms,385,10044,10428,[5],5,793,385,498.2,298.2,1,1,35.35,36.6,20,Saccade: 10013 ms,RIGHT,31,1.73,55.65,171.59,"[ 4, 99]",10013,10043,429.5,294.9,490.6,299.2,21,Saccade: 10429 ms,UP,26,3.4,130.61,217.03,"[ 8, 99]",10429,10454,499.8,305.3,517.3,182.0,177.03,LEFT,1.9,A19,S19.wav,A19.png,18,19283392,preview,,,,,,,,,,,,,,,,,,[kid_1],,,0.17350157728706625,0.7322253000923361,0.32978723404255317,0.08645677161419289,0.2613780470621389,0.31927284906222086,0.11926605504587157,1.0,0.6134516932037012,0.2298949197067921
p7,Trial: 34,p7.edf,.,16,Fixation: 10455 ms,318,10455,10772,[8],3,783,318,533.5,175.7,1,1,35.4,36.8,21,Saccade: 10429 ms,UP,26,3.4,130.61,217.03,"[ 5, 99]",10429,10454,499.8,305.3,517.3,182.0,22,Saccade: 10773 ms,RIGHT,56,9.33,166.68,384.97,"[ 9, 99]",10773,10828,530.1,178.5,854.7,247.5,-106.64,DOWN,3.48,A19,S19.wav,A19.png,18,19283392,preview,,,,,,,,,,,,,,,,,,[shelf_1],,,0.14330779630464174,0.7229916897506925,0.2765957446808511,0.1699150424787606,0.6134516932037012,0.4038218219708246,0.25688073394495414,1.0,0.7828659997181908,0.40778992415575616
p7,Trial: 34,p7.edf,.,17,Fixation: 10829 ms,123,10829,10951,[],47,799,17760,872.0,256.1,17,46,35.65,36.8,22,Saccade: 10773 ms,RIGHT,56,9.33,166.68,384.97,"[ 8, 99]",10773,10828,530.1,178.5,854.7,247.5,23,Saccade: 10952 ms,RIGHT,23,1.54,67.04,113.84,"[ 6, 99]",10952,10974,872.7,262.5,923.8,284.0,167.09,LEFT,9.78,A19,S19.wav,A19.png,18,19283392,preview,,,,,,,,,,,,,,,,,,[],,,0.055430374042361424,0.7377654662973222,0.5957446808510638,0.4662668665667166,0.7828659997181908,0.7163032152426317,0.10550458715596331,1.0,0.31487482974026587,0.12058811067327656
p7,Trial: 34,p7.edf,.,18,Fixation: 10975 ms,217,10975,11191,[6],3,799,217,914.3,281.0,1,1,35.85,36.85,23,Saccade: 10952 ms,RIGHT,23,1.54,67.04,113.84,[ 99],10952,10974,872.7,262.5,923.8,284.0,24,Saccade: 11192 ms,LEFT,46,4.55,99.01,318.65,"[ 9, 22, 99]",11192,11237,914.2,279.0,752.7,267.1,150.25,LEFT,1.36,A19,S19.wav,A19.png,18,19283392,preview,,,,,,,,,,,,,,,,,,[man_1],,,0.09779179810725552,0.7377654662973222,0.24468085106382978,0.0769615192403798,0.31487482974026587,0.2118189937481393,0.21100917431192662,1.0,0.46503217321873097,0.3375386636159485
p7,Trial: 34,p7.edf,.,19,Fixation: 11238 ms,410,11238,11647,"[9, 22]",4,823,595,737.7,266.7,1,2,35.3,36.6,24,Saccade: 11192 ms,LEFT,46,4.55,99.01,318.65,"[ 6, 99]",11192,11237,914.2,279.0,752.7,267.1,25,Saccade: 11648 ms,DOWN,39,3.21,82.23,164.66,"[ 9, 24, 99]",11648,11686,736.4,270.2,734.3,387.4,-4.49,RIGHT,4.98,A19,S19.wav,A19.png,18,19283392,preview,,,,,,,,,,,,,,,,,,"[shelf_3, book_5]",,,0.18476791347453808,0.7599261311172668,0.48936170212765956,0.22738630684657668,0.46503217321873097,0.5929033938672222,0.17889908256880735,1.0,0.3862195293786107,0.1744205753993475
p7,Trial: 34,p7.edf,.,20,Fixation: 11687 ms,185,11687,11871,"[9, 24]",4,824,595,726.2,387.9,2,2,35.25,36.5,25,Saccade: 11648 ms,DOWN,39,3.21,82.23,164.66,"[ 9, 22, 99]",11648,11686,736.4,270.2,734.3,387.4,26,Saccade: 11872 ms,LEFT,58,9.6,165.58,443.89,"[ 12, 14, 99]",11872,11929,726.9,388.2,457.0,603.6,84.39,UP,3.33,A19,S19.wav,A19.png,18,19283392,preview,,,,,,,,,,,,,,,,,,"[shelf_3, book_7]",,,0.08337088778729157,0.7608494921514312,0.4148936170212766,0.1604197901049475,0.3862195293786107,0.3063783864245311,0.26605504587155965,1.0,0.777699497440233,0.47020253379094107
p7,Trial: 34,p7.edf,.,21,Fixation: 11930 ms,201,11930,12130,"[12, 14]",1,813,201,457.0,617.8,1,1,35.7,37.2,26,Saccade: 11872 ms,LEFT,58,9.6,165.58,443.89,"[ 9, 24, 99]",11872,11929,726.9,388.2,457.0,603.6,27,Saccade: 12131 ms,.,19,0.46,24.07,62.65,"[ 14, 99]",12131,12149,454.0,616.6,445.3,602.2,39.43,RIGHT,9.82,A19,S19.wav,A19.png,18,19283392,preview,,,,,,,,,,,,,,,,,,"[glass_1, sidetable_1]",,,0.09058134294727355,0.7506925207756233,0.6170212765957447,0.4797601199400299,0.777699497440233,0.8259340577552842,0.0871559633027523,1.0,0.11305246348222253,0.0663637134019745
p7,Trial: 34,p7.edf,.,22,Fixation: 12150 ms,477,12150,12626,[14],6,824,678,439.5,599.5,2,2,35.75,37.2,27,Saccade: 12131 ms,.,19,0.46,24.07,62.65,"[ 12, 14, 99]",12131,12149,454.0,616.6,445.3,602.2,28,Saccade: 12627 ms,RIGHT,94,20.01,212.91,450.04,"[ 7, 28, 99]",12627,12720,437.2,597.3,1161.8,474.5,-45.12,DOWN,0.69,A19,S19.wav,A19.png,18,19283392,preview,,,,,,,,,,,,,,,,,,[sidetable_1],,,0.2149616944569626,0.7608494921514312,0.20212765957446807,0.022988505747126436,0.11305246348222253,0.11657115212860969,0.43119266055045874,1.0,1.0,0.47671708825897213
p7,Trial: 34,p7.edf,.,23,Fixation: 12721 ms,125,12721,12845,"[7, 28]",4,785,253,1156.6,477.4,1,2,37.6,37.8,28,Saccade: 12627 ms,RIGHT,94,20.01,212.91,450.04,"[ 14, 99]",12627,12720,437.2,597.3,1161.8,474.5,29,Saccade: 12846 ms,LEFT,35,3.43,97.95,226.84,"[ 7, 99]",12846,12880,1158.8,476.6,1048.6,412.4,-170.55,LEFT,19.82,A19,S19.wav,A19.png,18,19283392,preview,,,,,,,,,,,,,,,,,,"[shelf_2, book_11]",,,0.05633168093735917,0.7248384118190212,1.0,1.0,1.0,0.8373771955939268,0.16055045871559634,1.0,0.4600535437508807,0.24028642854116353
p7,Trial: 34,p7.edf,.,24,Fixation: 12881 ms,128,12881,13008,[7],4,788,253,1046.0,421.2,2,2,36.6,37.2,29,Saccade: 12846 ms,LEFT,35,3.43,97.95,226.84,"[ 7, 28, 99]",12846,12880,1158.8,476.6,1048.6,412.4,30,Saccade: 13009 ms,UP,28,2.2,78.58,158.31,[ 99],13009,13036,1042.9,425.7,1065.4,347.0,-26.69,RIGHT,3.34,A19,S19.wav,A19.png,18,19283392,preview,,,,,,,,,,,,,,,,,,[shelf_2],,,0.05768364127985579,0.7276084949215144,0.3723404255319149,0.1714142928535732,0.4600535437508807,0.4220750223280738,0.12844036697247707,1.0,0.3690761354562961,0.16769416550146182
p7,Trial: 34,p7.edf,13117,25,Fixation: 13037 ms,140,13037,13176,[],47,790,17760,1060.0,350.3,25,46,36.7,37.25,30,Saccade: 13009 ms,UP,28,2.2,78.58,158.31,"[ 7, 99]",13009,13036,1042.9,425.7,1065.4,347.0,31,Saccade: 13177 ms,RIGHT,22,1.51,68.47,110.58,"[ 2, 99]",13177,13198,1058.6,352.3,1113.3,342.3,-101.34,DOWN,1.94,A19,S19.wav,A19.png,18,19283392,preview,,,,,,,,,,,,,,,,,,[],,,0.06309148264984227,0.7294552169898431,0.2978723404255319,0.10994502748625687,0.3690761354562961,0.29456311402203034,0.10091743119266056,1.0,0.321591282701611,0.11713486716664548
p7,Trial: 34,p7.edf,13275,26,Fixation: 13199 ms,427,13199,13625,[2],3,795,427,1103.2,343.2,1,1,37.05,37.45,31,Saccade: 13177 ms,RIGHT,22,1.51,68.47,110.58,"[ 7, 99]",13177,13198,1058.6,352.3,1113.3,342.3,32,Saccade: 13626 ms,LEFT,216,0.75,3.48,526.83,"[ 2, 99]",13626,13841,1095.4,360.8,1068.6,353.6,-170.78,LEFT,1.19,A19,S19.wav,A19.png,18,19283392,taskpreview,[1],[Adverb],[80],[250],[170],[0],[Da],[It],[0.0],[0.0],[nan],[nan],[da],[nan],[nan],[nan],[nan],[cat_2],,,0.19242902208201892,0.7340720221606648,0.23404255319148937,0.07546226886556721,0.321591282701611,0.20575320035724914,0.9908256880733946,1.0,0.016344934479357476,0.5580589805516716
p7,Trial: 34,p7.edf,.,27,Fixation: 14038 ms,213,14038,14250,[5],5,888,213,563.0,311.6,1,1,35.2,36.5,33,Saccade: 13963 ms,LEFT,75,14.35,191.39,537.44,"[ 2, 99]",13963,14037,1072.2,352.4,557.4,306.3,34,Saccade: 14251 ms,LEFT,50,4.53,90.51,348.29,"[ 4, 99]",14251,14300,559.7,310.4,400.6,289.1,-3.27,RIGHT,14.98,A19,S19.wav,A19.png,18,19283392,task,[2],[Verb],[270],[800],[530],[0],[befindet],[is],[0.0],[0.0],[nan],[nan],[befinden],[nan],[nan],[nan],[nan],[kid_1],,,0.09598918431726003,0.8199445983379502,0.7978723404255319,0.7171414292853573,0.8989244281621341,1.0,0.22935779816513763,1.0,0.4251092010708751,0.3689356383204102
p7,Trial: 34,p7.edf,.,28,Fixation: 14301 ms,179,14301,14479,[4],8,881,179,389.3,289.9,1,1,35.7,36.8,34,Saccade: 14251 ms,LEFT,50,4.53,90.51,348.29,"[ 5, 99]",14251,14300,559.7,310.4,400.6,289.1,35,Saccade: 14480 ms,LEFT,50,7.05,141.08,393.52,"[ 3, 99]",14480,14529,390.9,295.0,133.2,303.3,-6.89,RIGHT,4.94,A19,S19.wav,A19.png,18,19283392,task,[3],[Pronoun_ref],[870],[1170],[300],[0],[sich],[nan],[0.0],[0.0],[nan],[nan],[sie],[nan],[nan],[nan],[nan],[cat_1],,,0.08066696710229833,0.8134810710987996,0.5319148936170213,0.22638680659670166,0.4251092010708751,0.6480537362310211,0.22935779816513763,1.0,0.6626274012493543,0.4168467437820431
p7,Trial: 34,p7.edf,.,29,Fixation: 14530 ms,198,14530,14727,[3],4,808,481,117.8,308.0,1,2,37.5,37.65,35,Saccade: 14480 ms,LEFT,50,7.05,141.08,393.52,"[ 4, 99]",14480,14529,390.9,295.0,133.2,303.3,36,Saccade: 14728 ms,RIGHT,23,0.89,38.49,94.78,"[ 3, 99]",14728,14750,116.2,308.8,149.3,308.0,3.75,RIGHT,7.43,A19,S19.wav,A19.png,18,19283392,task,,break,,,,,,,,,,,,,,,,[cat_3],,,0.08922938260477693,0.7460757156048015,0.5319148936170213,0.35232383808095946,0.6626274012493543,0.7322119678475736,0.10550458715596331,1.0,0.18078061152599692,0.10039828820812678
p7,Trial: 34,p7.edf,.,30,Fixation: 14751 ms,283,14751,15033,[3],4,814,481,153.1,307.2,2,2,37.25,37.55,36,Saccade: 14728 ms,RIGHT,23,0.89,38.49,94.78,"[ 3, 99]",14728,14750,116.2,308.8,149.3,308.0,37,Saccade: 15034 ms,RIGHT,171,7.57,44.3,877.5,"[ 4, 99]",15034,15204,156.4,313.8,430.6,284.4,-178.71,LEFT,0.94,A19,S19.wav,A19.png,18,19283392,task,"[4, 5]","[Determiner_1, Noun_1]","[1300, 1530]","[1490, 2280]","[190, 750]","[0, 0]","[ein, Kätzchen]","[a, cat(small)]","[0.0, 0.0]","[0.0, 1.0]","[nan, cat_1]","[nan, S01_I019_E003]","[eine, Kätzchen]","[nan, nan]","[nan, nan]","[nan, nan]","[nan, nan]",[cat_3],,,0.12753492564218116,0.7516158818097877,0.24468085106382978,0.044477761119440275,0.18078061152599692,0.17635456981244416,0.7844036697247706,1.0,0.20806913719411957,0.9295156984873523
p7,Trial: 34,p7.edf,.,31,Fixation: 15376 ms,723,15376,16098,[4],8,1018,723,368.6,284.3,1,1,35.8,36.8,38,Saccade: 15347 ms,LEFT,29,1.21,41.74,123.34,"[ 4, 99]",15347,15375,425.0,277.3,382.0,281.7,39,Saccade: 16099 ms,LEFT,46,5.13,111.52,368.51,"[ 3, 99]",16099,16144,370.9,283.2,185.9,309.0,-174.04,LEFT,5.93,A19,S19.wav,A19.png,18,19283392,task,"[5, 6]","[Noun_1, Preposition_1]","[1530, 2650]","[2280, 2775]","[750, 125]","[0, 0]","[Kätzchen, in]","[cat(small), on]","[0.0, 0.0]","[1.0, 0.0]","[cat_1, nan]","[S01_I019_E003, nan]","[Kätzchen, in]","[nan, nan]","[nan, nan]","[nan, nan]","[nan, nan]",[cat_1],,,0.32582244254168546,0.9399815327793167,0.30851063829787234,0.060469765117441274,0.19604527734723592,0.22949538553140814,0.21100917431192662,1.0,0.5237893945798694,0.390354222278717
p7,Trial: 34,p7.edf,16280,32,Fixation: 16145 ms,687,16145,16831,[3],4,1077,687,167.6,314.7,1,1,37.05,37.45,39,Saccade: 16099 ms,LEFT,46,5.13,111.52,368.51,"[ 4, 99]",16099,16144,370.9,283.2,185.9,309.0,40,Saccade: 16832 ms,RIGHT,50,5.37,107.36,275.91,"[ 4, 99]",16832,16881,165.0,318.1,358.2,284.9,8.44,RIGHT,5.58,A19,S19.wav,A19.png,18,19283392,task,"[7, 8]","[Determiner_2, Noun_2]","[2790, 3080]","[3075, 3650]","[285, 570]","[0, 0]","[einem, Regal]","[a, shelf]","[0.0, 0.0]","[0.0, 0.0]","[nan, shelf_1]","[nan, S01_I019_E007]","[eine, Regal]","[nan, nan]","[nan, nan]","[nan, nan]","[nan, nan]",[cat_3],,,0.309598918431726,0.9944598337950139,0.48936170212765956,0.2563718140929535,0.5237893945798694,0.6856765406370943,0.22935779816513763,1.0,0.5042506223286835,0.29226515825600613
p7,Trial: 34,p7.edf,.,33,Fixation: 16882 ms,197,16882,17078,[4],8,1083,197,377.8,280.0,1,1,35.85,36.85,40,Saccade: 16832 ms,RIGHT,50,5.37,107.36,275.91,"[ 3, 99]",16832,16881,165.0,318.1,358.2,284.9,41,Saccade: 17079 ms,RIGHT,79,15.07,190.7,403.78,"[ 6, 99]",17079,17157,382.9,280.7,921.9,315.8,-170.8,LEFT,5.84,A19,S19.wav,A19.png,18,19283392,task,[8],[Noun_2],[3080],[3650],[570],[0],[Regal],[shelf],[0.0],[0.0],[shelf_1],[S01_I019_E007],[Regal],[nan],[nan],[nan],[nan],[cat_1],,,0.08877872915727805,1.0,0.5319148936170213,0.26836581709145424,0.5042506223286835,0.5133782375707056,0.3623853211009174,1.0,0.8956836221877789,0.42771492733358757
p7,Trial: 34,p7.edf,.,34,Fixation: 17158 ms,243,17158,17400,[6],3,1014,243,925.8,321.7,1,1,35.9,36.8,41,Saccade: 17079 ms,RIGHT,79,15.07,190.7,403.78,"[ 4, 99]",17079,17157,382.9,280.7,921.9,315.8,42,Saccade: 17401 ms,RIGHT,32,4.38,136.96,258.25,[ 99],17401,17432,927.1,325.3,1086.1,338.5,175.76,LEFT,15.32,A19,S19.wav,A19.png,18,19283392,task,,break,,,,,,,,,,,,,,,,[man_1],,,0.10950878774222622,0.9362880886426593,0.8404255319148937,0.7531234382808595,0.8956836221877789,0.7513024709735039,0.14678899082568808,1.0,0.6432765018082759,0.273558323799839
p7,Trial: 34,p7.edf,17595,35,Fixation: 17433 ms,449,17433,17881,[],47,929,17760,1083.8,340.0,35,46,36.9,37.35,42,Saccade: 17401 ms,RIGHT,32,4.38,136.96,258.25,"[ 6, 99]",17401,17432,927.1,325.3,1086.1,338.5,43,Saccade: 17882 ms,RIGHT,13,0.65,50.03,53.46,"[ 2, 99]",17882,17894,1083.5,338.0,1106.6,331.2,173.51,LEFT,4.37,A19,S19.wav,A19.png,18,19283392,task,"[9, 10, 11]","[Relative Clause Pronoun, Relative Clause Pers. Pronoun, Relative Clause Adverb]","[4035, 4260, 4395]","[4240, 4380, 5090]","[205, 120, 695]","[1, 0, 0]","[das, er, unbeschwert]","[that, he, playfully]","[0.0, 0.0, 0.0]","[0.0, 0.0, 0.0]","[nan, kid_1, nan]","[nan, S01_I019_E004, nan]","[die, er, unbeschwert]","[nan, nan, nan]","[nan, nan, nan]","[nan, nan, nan]","[nan, nan, nan]",[],,,0.20234339792699413,0.8578024007386889,0.3404255319148936,0.21889055472263866,0.6432765018082759,0.4805187555820184,0.05963302752293578,1.0,0.23498191724202716,0.05662895640015254
p7,Trial: 34,p7.edf,.,36,Fixation: 17895 ms,113,17895,18007,[2],3,937,113,1099.1,335.7,1,1,37.05,37.4,43,Saccade: 17882 ms,RIGHT,13,0.65,50.03,53.46,[ 99],17882,17894,1083.5,338.0,1106.6,331.2,44,Saccade: 18008 ms,LEFT,26,4.48,172.12,334.63,"[ 6, 99]",18008,18033,1098.8,340.7,940.4,300.1,-164.46,.,0.43,A19,S19.wav,A19.png,18,19283392,task,[11],[Relative Clause Adverb],[4395],[5090],[695],[0],[unbeschwert],[playfully],[0.0],[0.0],[nan],[nan],[unbeschwert],[nan],[nan],[nan],[nan],[cat_2],,,0.05092383956737269,0.8651892890120036,0.13829787234042554,0.03248375812093953,0.23498191724202716,0.09947156891932121,0.11926605504587157,1.0,0.8084167018928186,0.3544659124613364
p7,Trial: 34,p7.edf,.,37,Fixation: 18034 ms,223,18034,18256,[6],3,956,223,943.1,306.4,1,1,36.0,36.9,44,Saccade: 18008 ms,LEFT,26,4.48,172.12,334.63,"[ 2, 99]",18008,18033,1098.8,340.7,940.4,300.1,45,Saccade: 18257 ms,LEFT,70,12.18,173.96,497.76,"[ 5, 99]",18257,18326,942.7,310.5,508.6,306.0,-10.46,RIGHT,4.34,A19,S19.wav,A19.png,18,19283392,task,[11],[Relative Clause Adverb],[4395],[5090],[695],[0],[unbeschwert],[playfully],[0.0],[0.0],[nan],[nan],[unbeschwert],[nan],[nan],[nan],[nan],[man_1],,,0.10049571879224876,0.8827331486611265,0.2765957446808511,0.223888055972014,0.8084167018928186,0.6226369455194998,0.3211009174311927,1.0,0.8170588511577662,0.5272657938222957
p7,Trial: 34,p7.edf,18370,38,Fixation: 18327 ms,262,18327,18588,[5],5,1049,656,508.9,307.9,1,2,35.3,36.6,45,Saccade: 18257 ms,LEFT,70,12.18,173.96,497.76,"[ 6, 99]",18257,18326,942.7,310.5,508.6,306.0,46,Saccade: 18589 ms,.,26,0.32,12.17,68.08,"[ 5, 99]",18589,18614,506.1,311.1,500.0,301.4,0.19,RIGHT,12.18,A19,S19.wav,A19.png,18,19283392,task,[11],[Relative Clause Adverb],[4395],[5090],[695],[0],[unbeschwert],[playfully],[0.0],[0.0],[nan],[nan],[unbeschwert],[nan],[nan],[nan],[nan],[kid_1],,,0.11807120324470483,0.9686057248384118,0.7446808510638298,0.608695652173913,0.8170588511577662,0.926168502530515,0.11926605504587157,1.0,0.05716030247522427,0.0721155883225287
p7,Trial: 34,p7.edf,.,39,Fixation: 18615 ms,394,18615,19008,[5],5,1027,656,491.1,303.4,2,2,35.35,36.6,46,Saccade: 18589 ms,.,26,0.32,12.17,68.08,"[ 5, 99]",18589,18614,506.1,311.1,500.0,301.4,47,Saccade: 19009 ms,LEFT,28,4.26,152.08,325.83,"[ 8, 99]",19009,19036,489.0,304.6,337.8,288.4,-13.71,RIGHT,0.52,A19,S19.wav,A19.png,18,19283392,task,[12],[Relative Clause Verb],[5170],[5780],[610],[0],[jagt],[chases],[1.0],[0.0],[nan],[nan],[jagen],[nan],[nan],[nan],[nan],[kid_1],,,0.1775574583145561,0.948291782086796,0.2765957446808511,0.015992003998001,0.05716030247522427,0.1266746055373623,0.12844036697247707,1.0,0.7142924240289324,0.34514427354773103
p7,Trial: 34,p7.edf,.,40,Fixation: 19037 ms,319,19037,19355,[8],3,1053,319,342.6,285.4,1,1,36.0,36.9,47,Saccade: 19009 ms,LEFT,28,4.26,152.08,325.83,"[ 5, 99]",19009,19036,489.0,304.6,337.8,288.4,48,Saccade: 19356 ms,RIGHT,23,0.91,39.67,83.7,"[ 4, 99]",19356,19378,341.5,285.0,373.8,279.4,-6.71,RIGHT,4.19,A19,S19.wav,A19.png,18,19283392,task,[12],[Relative Clause Verb],[5170],[5780],[610],[0],[jagt],[chases],[1.0],[0.0],[nan],[nan],[jagen],[nan],[nan],[nan],[nan],[shelf_1],,,0.1437584497521406,0.9722991689750693,0.2978723404255319,0.21289355322338827,0.7142924240289324,0.6062630247097349,0.10550458715596331,1.0,0.18632285942416985,0.08866149739417822
p7,Trial: 34,p7.edf,.,41,Fixation: 19379 ms,132,19379,19510,[4],8,1069,1885,370.9,279.4,1,4,35.8,36.8,48,Saccade: 19356 ms,RIGHT,23,0.91,39.67,83.7,"[ 8, 99]",19356,19378,341.5,285.0,373.8,279.4,49,Saccade: 19511 ms,DOWN,218,1.76,8.08,672.76,"[ 8, 18, 99]",19511,19728,371.5,287.8,384.9,351.1,-168.33,LEFT,0.8,A19,S19.wav,A19.png,18,19283392,post,,,,,,,,,,,,,,,,,,[cat_1],,,0.059486255069851286,0.987072945521699,0.24468085106382978,0.04547726136931534,0.18632285942416985,0.15573831497469484,1.0,1.0,0.03795030764172655,0.7126392949451295
