RECORDING_SESSION_LABEL,TRIAL_LABEL,DATA_FILE,CURRENT_FIX_MSG_TIME_1,CURRENT_FIX_INDEX,CURRENT_FIX_LABEL,CURRENT_FIX_DURATION,CURRENT_FIX_START,CURRENT_FIX_END,CURRENT_FIX_INTEREST_AREAS,CURRENT_FIX_INTEREST_AREA_FIX_COUNT,CURRENT_FIX_PUPIL,CURRENT_FIX_RUN_DWELL_TIME,CURRENT_FIX_X,CURRENT_FIX_Y,CURRENT_FIX_RUN_INDEX,CURRENT_FIX_RUN_SIZE,CURRENT_FIX_X_RESOLUTION,CURRENT_FIX_Y_RESOLUTION,PREVIOUS_SAC_INDEX,PREVIOUS_SAC_LABEL,PREVIOUS_SAC_DIRECTION,PREVIOUS_SAC_DURATION,PREVIOUS_SAC_AMPLITUDE,PREVIOUS_SAC_AVG_VELOCITY,PREVIOUS_SAC_PEAK_VELOCITY,PREVIOUS_SAC_START_INTEREST_AREAS,PREVIOUS_SAC_START_TIME,PREVIOUS_SAC_END_TIME,PREVIOUS_SAC_START_X,PREVIOUS_SAC_START_Y,PREVIOUS_SAC_END_X,PREVIOUS_SAC_END_Y,NEXT_SAC_INDEX,NEXT_SAC_LABEL,NEXT_SAC_DIRECTION,NEXT_SAC_DURATION,NEXT_SAC_AMPLITUDE,NEXT_SAC_AVG_VELOCITY,NEXT_SAC_PEAK_VELOCITY,NEXT_SAC_END_INTEREST_AREAS,NEXT_SAC_START_TIME,NEXT_SAC_END_TIME,NEXT_SAC_START_X,NEXT_SAC_START_Y,NEXT_SAC_END_X,NEXT_SAC_END_Y,PREVIOUS_FIX_ANGLE,PREVIOUS_FIX_DIRECTION,PREVIOUS_FIX_DISTANCE,ItemNO,audiofilename,imagefilename,TRIAL_INDEX,TRIAL_START_TIME,viewtype,word_index,Label,word_onset,word_offset,word_duration,Continuation,wordDE,wordEN,REFWord,TargetObj,ObjectLabel,ObjectID,LemmaDE,LingIndex,DepS,pos_1,pos_2,CURRENT_FIX_INTEREST_AREAS_Labelled,PREVIOUS_SAC_START_INTEREST_AREAS_Labelled,NEXT_SAC_END_INTEREST_AREAS_Labelled,NORMALIZED_CURRENT_FIX_DURATION,NORMALIZED_CURRENT_FIX_PUPIL,NORMALIZED_PREVIOUS_SAC_DURATION,NORMALIZED_PREVIOUS_SAC_AMPLITUDE,NORMALIZED_PREVIOUS_SAC_AVG_VELOCITY,NORMALIZED_PREVIOUS_SAC_PEAK_VELOCITY,NORMALIZED_NEXT_SAC_DURATION,NORMALIZED_NEXT_SAC_AMPLITUDE,NORMALIZED_NEXT_SAC_AVG_VELOCITY,NORMALIZED_NEXT_SAC_PEAK_VELOCITY
p4,Trial: 44,p4.edf,3156,1,Fixation: 3088 ms,185,3088,3272,[],.,593,.,664.3,1018.2,.,.,36.85,40.1,7,Saccade: 3053 ms,DOWN,35,3.0,85.86,308.62,[ ],3053,3087,731.8,888.2,659.5,977.1,8,Saccade: 3273 ms,UP,60,11.24,187.26,409.11,[ 99],3273,3332,664.8,1037.2,667.2,602.4,100.0,.,0.09,A21,S21.wav,A21.png,21,6719123,preview,,,,,,,,,,,,,,,,,,[],,,0.2868217054263566,0.7641752577319587,0.3763440860215054,0.11778563015312132,0.24827227250383138,0.5215201852070906,0.37735849056603776,1.0,0.5414799178787265,0.6913327813170658
p4,Trial: 44,p4.edf,.,2,Fixation: 3333 ms,151,3333,3483,[],68,669,20371,670.9,583.2,1,66,35.4,36.95,8,Saccade: 3273 ms,UP,60,11.24,187.26,409.11,[ ],3273,3332,664.8,1037.2,667.2,602.4,9,Saccade: 3484 ms,UP,65,10.36,159.45,373.92,"[ 3, 99]",3484,3548,668.9,583.0,529.4,230.8,-90.93,DOWN,11.29,A21,S21.wav,A21.png,21,6719123,preview,,,,,,,,,,,,,,,,,,[],,,0.23410852713178296,0.8621134020618557,0.6451612903225806,0.4413034943070279,0.5414799178787265,0.6913327813170658,0.4088050314465409,1.0,0.46106468496081887,0.6318671105328084
p4,Trial: 44,p4.edf,.,3,Fixation: 3549 ms,229,3549,3777,[3],9,659,229,531.1,234.6,1,1,35.3,36.6,9,Saccade: 3484 ms,UP,65,10.36,159.45,373.92,[ 99],3484,3548,668.9,583.0,529.4,230.8,10,Saccade: 3778 ms,RIGHT,159,1.45,9.11,465.49,"[ 3, 99]",3778,3936,540.3,248.5,583.7,220.5,-67.35,DOWN,10.27,A21,S21.wav,A21.png,21,6719123,preview,,,,,,,,,,,,,,,,,,[woman_2],,,0.3550387596899225,0.8492268041237113,0.6989247311827957,0.4067530427954456,0.46106468496081887,0.6318671105328084,1.0,1.0,0.026342422577567012,0.7866062828463761
p4,Trial: 44,p4.edf,.,4,Fixation: 4833 ms,306,4833,5138,[4],4,653,516,592.6,800.0,1,2,35.95,38.1,12,Saccade: 4799 ms,RIGHT,34,3.94,115.83,309.33,[ 99],4799,4832,440.9,753.4,580.4,780.1,13,Saccade: 5139 ms,LEFT,26,0.74,28.51,97.38,"[ 4, 99]",5139,5164,593.6,803.3,567.4,797.9,96.51,UP,15.24,A21,S21.wav,A21.png,21,6719123,preview,,,,,,,,,,,,,,,,,,[man_1],,,0.4744186046511628,0.8414948453608248,0.3655913978494624,0.154691794267766,0.3349333487551687,0.5227199756662216,0.16352201257861634,1.0,0.08243934881300062,0.1645571759298376
p4,Trial: 44,p4.edf,.,5,Fixation: 5165 ms,210,5165,5374,[4],4,609,516,562.8,796.3,2,2,36.0,38.1,13,Saccade: 5139 ms,LEFT,26,0.74,28.51,97.38,"[ 4, 99]",5139,5164,593.6,803.3,567.4,797.9,14,Saccade: 5375 ms,UP,75,14.98,199.68,437.9,"[ 3, 99]",5375,5449,561.9,794.9,529.2,236.6,-6.69,RIGHT,0.83,A21,S21.wav,A21.png,21,6719123,preview,,,,,,,,,,,,,,,,,,[man_1],,,0.32558139534883723,0.7847938144329897,0.27956989247311825,0.029053788771103258,0.08243934881300062,0.1645571759298376,0.4716981132075472,1.0,0.5773935170459474,0.7399834395119725
p4,Trial: 44,p4.edf,.,6,Fixation: 5450 ms,175,5450,5624,[3],9,605,499,524.0,242.8,1,2,35.3,36.6,14,Saccade: 5375 ms,UP,75,14.98,199.68,437.9,"[ 4, 99]",5375,5449,561.9,794.9,529.2,236.6,15,Saccade: 5625 ms,RIGHT,42,3.84,91.39,209.41,[ 99],5625,5666,524.3,245.8,646.2,184.4,-85.8,DOWN,14.86,A21,S21.wav,A21.png,21,6719123,preview,,,,,,,,,,,,,,,,,,[woman_2],,,0.2713178294573643,0.779639175257732,0.8064516129032258,0.5881429132312525,0.5773935170459474,0.7399834395119725,0.2641509433962264,1.0,0.2642627880750658,0.3538705916149856
p4,Trial: 44,p4.edf,.,7,Fixation: 5667 ms,324,5667,5990,[3],9,623,499,649.7,191.0,2,2,35.3,36.7,15,Saccade: 5625 ms,RIGHT,42,3.84,91.39,209.41,"[ 3, 99]",5625,5666,524.3,245.8,646.2,184.4,16,Saccade: 5991 ms,DOWN,30,2.41,80.3,162.36,"[ 5, 12, 99]",5991,6020,651.7,196.9,689.6,275.8,-158.35,LEFT,3.83,A21,S21.wav,A21.png,21,6719123,preview,,,,,,,,,,,,,,,,,,[woman_2],,,0.5023255813953489,0.8028350515463918,0.45161290322580644,0.15076560659599528,0.2642627880750658,0.3538705916149856,0.18867924528301888,1.0,0.23219500910852153,0.27436335062608785
p4,Trial: 44,p4.edf,.,8,Fixation: 6021 ms,222,6021,6242,"[5, 12]",4,653,222,695.8,269.4,1,1,35.2,36.5,16,Saccade: 5991 ms,DOWN,30,2.41,80.3,162.36,"[ 3, 22, 99]",5991,6020,651.7,196.9,689.6,275.8,17,Saccade: 6243 ms,RIGHT,57,9.08,159.33,306.55,[ 99],6243,6299,697.8,263.8,946.1,478.0,121.41,UP,2.51,A21,S21.wav,A21.png,21,6719123,preview,,,,,,,,,,,,,,,,,,"[paper_2, desk_2]",,,0.34418604651162793,0.8414948453608248,0.3225806451612903,0.09462112288967414,0.23219500910852153,0.27436335062608785,0.3584905660377358,1.0,0.4607176936645173,0.5180222045727225
p4,Trial: 44,p4.edf,.,9,Fixation: 6300 ms,211,6300,6510,[],68,645,20371,957.7,492.0,8,66,36.15,37.05,17,Saccade: 6243 ms,RIGHT,57,9.08,159.33,306.55,"[ 5, 12, 99]",6243,6299,697.8,263.8,946.1,478.0,18,Saccade: 6511 ms,DOWN,29,1.25,43.19,159.73,[ 99],6511,6539,962.6,497.4,942.5,539.1,140.49,LEFT,9.51,A21,S21.wav,A21.png,21,6719123,preview,,,,,,,,,,,,,,,,,,[],,,0.3271317829457364,0.8311855670103093,0.6129032258064516,0.3564978405967805,0.4607176936645173,0.5180222045727225,0.18238993710691823,1.0,0.12488795072723592,0.26991905639015157
p4,Trial: 44,p4.edf,.,10,Fixation: 6540 ms,182,6540,6721,[],68,646,20371,933.4,548.5,9,66,36.1,37.2,18,Saccade: 6511 ms,DOWN,29,1.25,43.19,159.73,[ 99],6511,6539,962.6,497.4,942.5,539.1,19,Saccade: 6722 ms,LEFT,24,2.49,103.73,212.04,"[ 27, 99]",6722,6745,934.9,550.0,849.1,576.3,66.16,UP,1.66,A21,S21.wav,A21.png,21,6719123,preview,,,,,,,,,,,,,,,,,,[],,,0.28217054263565894,0.8324742268041238,0.3118279569892473,0.04907734589713388,0.12488795072723592,0.26991905639015157,0.1509433962264151,1.0,0.29994505971141894,0.3583148858509218
p4,Trial: 44,p4.edf,.,11,Fixation: 6746 ms,396,6746,7141,[27],5,657,396,853.6,575.1,1,1,35.8,37.1,19,Saccade: 6722 ms,LEFT,24,2.49,103.73,212.04,[ 99],6722,6745,934.9,550.0,849.1,576.3,20,Saccade: 7142 ms,UP,64,12.26,191.62,356.46,"[ 3, 99]",7142,7205,854.4,574.1,591.5,213.6,17.88,RIGHT,2.33,A21,S21.wav,A21.png,21,6719123,preview,,,,,,,,,,,,,,,,,,[chair_1],,,0.6139534883720931,0.8466494845360825,0.25806451612903225,0.09776207302709071,0.29994505971141894,0.3583148858509218,0.4025157232704403,1.0,0.55408726831102,0.6023624043124862
p4,Trial: 44,p4.edf,.,12,Fixation: 7206 ms,148,7206,7353,[3],9,636,632,580.7,200.3,1,3,35.3,36.65,20,Saccade: 7142 ms,UP,64,12.26,191.62,356.46,"[ 27, 99]",7142,7205,854.4,574.1,591.5,213.6,21,Saccade: 7354 ms,.,12,0.42,34.81,40.67,"[ 3, 99]",7354,7365,578.1,197.1,579.0,181.8,-52.94,DOWN,12.74,A21,S21.wav,A21.png,21,6719123,preview,,,,,,,,,,,,,,,,,,[woman_2],,,0.22945736434108527,0.8195876288659794,0.6881720430107527,0.4813506085590891,0.55408726831102,0.6023624043124862,0.07547169811320754,1.0,0.1006563918688373,0.06872602531388884
p4,Trial: 44,p4.edf,.,13,Fixation: 7366 ms,356,7366,7721,[3],9,620,632,580.8,178.4,2,3,35.3,36.7,21,Saccade: 7354 ms,.,12,0.42,34.81,40.67,"[ 3, 99]",7354,7365,578.1,197.1,579.0,181.8,22,Saccade: 7722 ms,DOWN,27,2.33,86.39,218.63,"[ 3, 99]",7722,7748,583.7,178.1,530.0,242.9,-90.27,DOWN,0.6,A21,S21.wav,A21.png,21,6719123,preview,,,,,,,,,,,,,,,,,,[woman_2],,,0.5519379844961241,0.7989690721649485,0.12903225806451613,0.016489988221436984,0.1006563918688373,0.06872602531388884,0.16981132075471697,1.0,0.24980481739583033,0.36945096912651876
p4,Trial: 44,p4.edf,.,14,Fixation: 7749 ms,128,7749,7876,[3],9,602,632,526.0,245.5,3,3,35.3,36.6,22,Saccade: 7722 ms,DOWN,27,2.33,86.39,218.63,"[ 3, 99]",7722,7748,583.7,178.1,530.0,242.9,23,Saccade: 7877 ms,LEFT,54,6.68,123.7,279.06,"[ 2, 99]",7877,7930,524.4,247.8,290.5,297.4,49.7,UP,2.4,A21,S21.wav,A21.png,21,6719123,preview,,,,,,,,,,,,,,,,,,[woman_2],,,0.19844961240310077,0.7757731958762887,0.2903225806451613,0.09148017275225756,0.24980481739583033,0.36945096912651876,0.33962264150943394,1.0,0.35769019460428536,0.47156834581002754
p4,Trial: 44,p4.edf,.,15,Fixation: 7931 ms,313,7931,8243,[2],4,594,313,277.9,302.0,1,1,36.25,37.05,23,Saccade: 7877 ms,LEFT,54,6.68,123.7,279.06,"[ 3, 99]",7877,7930,524.4,247.8,290.5,297.4,24,Saccade: 8244 ms,LEFT,22,2.08,94.34,147.5,"[ 8, 11, 99]",8244,8265,277.6,304.8,208.0,335.5,12.48,RIGHT,7.1,A21,S21.wav,A21.png,21,6719123,preview,,,,,,,,,,,,,,,,,,[woman_1],,,0.48527131782945737,0.7654639175257731,0.5806451612903226,0.26226933647428347,0.35769019460428536,0.47156834581002754,0.13836477987421383,1.0,0.2727929907758147,0.24925224327018944
p4,Trial: 44,p4.edf,.,16,Fixation: 8266 ms,401,8266,8666,"[8, 11]",12,610,401,206.2,341.3,1,1,36.8,37.3,24,Saccade: 8244 ms,LEFT,22,2.08,94.34,147.5,"[ 2, 99]",8244,8265,277.6,304.8,208.0,335.5,25,Saccade: 8667 ms,RIGHT,30,3.04,101.47,187.66,"[ 2, 99]",8667,8696,208.5,340.9,309.6,294.3,28.3,RIGHT,2.23,A21,S21.wav,A21.png,21,6719123,preview,,,,,,,,,,,,,,,,,,"[paper_1, desk_1]",,,0.6217054263565891,0.7860824742268041,0.23655913978494625,0.08166470357283079,0.2727929907758147,0.24925224327018944,0.18867924528301888,1.0,0.2934100569644045,0.3171164472683644
p4,Trial: 44,p4.edf,.,17,Fixation: 8697 ms,146,8697,8842,[2],4,595,146,313.5,294.9,1,1,36.1,37.0,25,Saccade: 8667 ms,RIGHT,30,3.04,101.47,187.66,"[ 8, 11, 99]",8667,8696,208.5,340.9,309.6,294.3,26,Saccade: 8843 ms,RIGHT,43,7.01,162.97,351.55,"[ 3, 99]",8843,8885,315.2,295.1,554.0,218.1,-157.01,LEFT,3.2,A21,S21.wav,A21.png,21,6719123,preview,,,,,,,,,,,,,,,,,,[woman_1],,,0.22635658914728682,0.7667525773195877,0.3225806451612903,0.11935610522182961,0.2934100569644045,0.3171164472683644,0.27044025157232704,1.0,0.4712430963190007,0.5940652618415939
p4,Trial: 44,p4.edf,.,18,Fixation: 8886 ms,174,8886,9059,[3],9,586,174,554.4,218.1,1,1,35.3,36.65,26,Saccade: 8843 ms,RIGHT,43,7.01,162.97,351.55,"[ 2, 99]",8843,8885,315.2,295.1,554.0,218.1,27,Saccade: 9060 ms,RIGHT,58,9.54,164.49,464.62,"[ 27, 99]",9060,9117,557.8,220.9,833.6,422.7,-162.83,LEFT,7.06,A21,S21.wav,A21.png,21,6719123,preview,,,,,,,,,,,,,,,,,,[woman_2],,,0.26976744186046514,0.7551546391752577,0.46236559139784944,0.27522575579112685,0.4712430963190007,0.5940652618415939,0.36477987421383645,1.0,0.4756383194054883,0.7851361170725113
p4,Trial: 44,p4.edf,.,19,Fixation: 9118 ms,147,9118,9264,[27],5,602,147,820.4,431.3,1,1,35.5,36.7,27,Saccade: 9060 ms,RIGHT,58,9.54,164.49,464.62,"[ 3, 99]",9060,9117,557.8,220.9,833.6,422.7,28,Saccade: 9265 ms,DOWN,62,8.97,144.63,428.09,[ 99],9265,9326,821.4,433.2,600.8,672.7,142.27,LEFT,9.5,A21,S21.wav,A21.png,21,6719123,preview,,,,,,,,,,,,,,,,,,[chair_1],,,0.22790697674418606,0.7757731958762887,0.6236559139784946,0.3745583038869258,0.4756383194054883,0.7851361170725113,0.389937106918239,1.0,0.418211259867565,0.7234060530273586
p4,Trial: 44,p4.edf,.,20,Fixation: 9327 ms,107,9327,9433,[],68,577,20371,600.7,681.5,19,66,35.6,37.35,28,Saccade: 9265 ms,DOWN,62,8.97,144.63,428.09,"[ 27, 99]",9265,9326,821.4,433.2,600.8,672.7,29,Saccade: 9434 ms,DOWN,35,2.09,59.66,251.78,"[ 4, 99]",9434,9468,602.1,687.1,554.4,747.5,47.56,UP,9.16,A21,S21.wav,A21.png,21,6719123,preview,,,,,,,,,,,,,,,,,,[],,,0.16589147286821707,0.7435567010309279,0.6666666666666666,0.3521790341578328,0.418211259867565,0.7234060530273586,0.22012578616352202,1.0,0.17251250614463753,0.4254693546479207
p4,Trial: 44,p4.edf,.,21,Fixation: 9469 ms,125,9469,9593,[4],4,582,125,545.2,759.7,1,1,35.9,37.85,29,Saccade: 9434 ms,DOWN,35,2.09,59.66,251.78,[ 99],9434,9468,602.1,687.1,554.4,747.5,30,Saccade: 9594 ms,UP,78,13.11,168.13,372.18,"[ 5, 12, 99]",9594,9671,544.9,757.4,668.8,287.1,53.26,UP,2.6,A21,S21.wav,A21.png,21,6719123,preview,,,,,,,,,,,,,,,,,,[man_1],,,0.1937984496124031,0.75,0.3763440860215054,0.08205732234000786,0.17251250614463753,0.4254693546479207,0.49056603773584906,1.0,0.48616372205997166,0.6289267789850786
p4,Trial: 44,p4.edf,.,22,Fixation: 9672 ms,171,9672,9842,"[5, 12]",4,629,171,667.7,296.8,1,1,35.2,36.5,30,Saccade: 9594 ms,UP,78,13.11,168.13,372.18,"[ 4, 99]",9594,9671,544.9,757.4,668.8,287.1,31,Saccade: 9843 ms,RIGHT,56,9.21,164.5,323.67,[ 99],9843,9898,670.6,299.1,980.2,413.3,-105.47,DOWN,12.92,A21,S21.wav,A21.png,21,6719123,preview,,,,,,,,,,,,,,,,,,"[paper_2, desk_2]",,,0.2651162790697674,0.8105670103092784,0.8387096774193549,0.5147232037691402,0.48616372205997166,0.6289267789850786,0.3522012578616352,1.0,0.47566723534684674,0.5469523632492354
p4,Trial: 44,p4.edf,.,23,Fixation: 9899 ms,149,9899,10047,[7],5,630,149,974.4,409.1,1,1,36.2,37.0,31,Saccade: 9843 ms,RIGHT,56,9.21,164.5,323.67,"[ 5, 12, 99]",9843,9898,670.6,299.1,980.2,413.3,32,Saccade: 10048 ms,RIGHT,23,2.42,105.31,191.2,"[ 10, 17, 99]",10048,10070,974.0,406.9,1059.2,430.5,160.42,LEFT,9.12,A21,S21.wav,A21.png,21,6719123,preview,,,,,,,,,,,,,,,,,,[cabinet_1],,,0.2310077519379845,0.8118556701030928,0.6021505376344086,0.3616018845700825,0.47566723534684674,0.5469523632492354,0.14465408805031446,1.0,0.3045137784460573,0.32309850110684896
p4,Trial: 44,p4.edf,.,24,Fixation: 10071 ms,313,10071,10383,"[10, 17]",9,603,542,1066.0,445.9,1,2,36.75,37.35,32,Saccade: 10048 ms,RIGHT,23,2.42,105.31,191.2,"[ 7, 99]",10048,10070,974.0,406.9,1059.2,430.5,33,Saccade: 10384 ms,DOWN,43,2.58,59.96,181.69,"[ 10, 16, 99]",10384,10426,1070.3,448.8,1051.8,543.5,158.49,LEFT,2.7,A21,S21.wav,A21.png,21,6719123,preview,,,,,,,,,,,,,,,,,,"[desk_3, keyboard_1]",,,0.48527131782945737,0.7770618556701031,0.24731182795698925,0.0950137416568512,0.3045137784460573,0.32309850110684896,0.27044025157232704,1.0,0.17337998438539168,0.3070280683373608
p4,Trial: 44,p4.edf,.,25,Fixation: 10427 ms,229,10427,10655,"[10, 16]",9,609,542,1041.4,548.9,2,2,36.8,37.55,33,Saccade: 10384 ms,DOWN,43,2.58,59.96,181.69,"[ 10, 17, 99]",10384,10426,1070.3,448.8,1051.8,543.5,34,Saccade: 10656 ms,UP,33,4.69,141.99,295.85,"[ 7, 99]",10656,10688,1047.7,556.4,958.9,407.1,76.33,UP,2.83,A21,S21.wav,A21.png,21,6719123,preview,,,,,,,,,,,,,,,,,,"[desk_3, mouse_1]",,,0.3550387596899225,0.7847938144329897,0.46236559139784944,0.10129564193168435,0.17337998438539168,0.3070280683373608,0.20754716981132076,1.0,0.4105774513489287,0.499940855399902
p4,Trial: 44,p4.edf,.,26,Fixation: 10689 ms,275,10689,10963,[],68,593,20371,1014.3,404.0,25,66,36.3,37.1,34,Saccade: 10656 ms,UP,33,4.69,141.99,295.85,"[ 10, 16, 99]",10656,10688,1047.7,556.4,958.9,407.1,35,Saccade: 10964 ms,UP,48,3.65,76.14,124.86,"[ 7, 99]",10964,11011,1025.8,409.9,1032.1,274.1,-79.19,DOWN,3.95,A21,S21.wav,A21.png,21,6719123,preview,,,,,,,,,,,,,,,,,,[],,,0.4263565891472868,0.7641752577319587,0.3548387096774194,0.18413820180604634,0.4105774513489287,0.499940855399902,0.3018867924528302,1.0,0.22016597750339764,0.21099413623536173
p4,Trial: 44,p4.edf,.,27,Fixation: 11012 ms,155,11012,11166,[7],5,573,290,1023.9,280.4,1,2,36.45,37.15,35,Saccade: 10964 ms,UP,48,3.65,76.14,124.86,[ 99],10964,11011,1025.8,409.9,1032.1,274.1,36,Saccade: 11167 ms,LEFT,25,2.67,106.68,208.78,"[ 6, 7, 99]",11167,11191,1019.5,284.2,923.6,294.4,-94.53,DOWN,3.34,A21,S21.wav,A21.png,21,6719123,preview,,,,,,,,,,,,,,,,,,[cabinet_1],,,0.24031007751937986,0.7384020618556701,0.5161290322580645,0.14330585001963095,0.22016597750339764,0.21099413623536173,0.15723270440251572,1.0,0.3084752624121679,0.35280598881322134
p4,Trial: 44,p4.edf,.,28,Fixation: 11192 ms,135,11192,11326,"[6, 7]",2,579,135,921.9,294.5,1,1,35.9,36.85,36,Saccade: 11167 ms,LEFT,25,2.67,106.68,208.78,"[ 7, 99]",11167,11191,1019.5,284.2,923.6,294.4,37,Saccade: 11327 ms,DOWN,40,5.16,128.96,333.58,"[ 10, 17, 99]",11327,11366,919.0,294.4,1042.4,438.0,7.7,RIGHT,2.85,A21,S21.wav,A21.png,21,6719123,preview,,,,,,,,,,,,,,,,,,"[paper_3, cabinet_1]",,,0.20930232558139536,0.7461340206185567,0.26881720430107525,0.10482921083627797,0.3084752624121679,0.35280598881322134,0.25157232704402516,1.0,0.3728999797588411,0.563698734305558
p4,Trial: 44,p4.edf,.,29,Fixation: 11367 ms,251,11367,11617,"[10, 17]",9,583,251,1047.3,437.1,1,1,36.65,37.3,37,Saccade: 11327 ms,DOWN,40,5.16,128.96,333.58,"[ 6, 7, 99]",11327,11366,919.0,294.4,1042.4,438.0,38,Saccade: 11618 ms,LEFT,93,25.47,273.83,527.57,"[ 24, 99]",11618,11710,1048.1,438.7,102.7,500.2,131.95,UP,5.17,A21,S21.wav,A21.png,21,6719123,preview,,,,,,,,,,,,,,,,,,"[desk_3, keyboard_1]",,,0.3891472868217054,0.7512886597938144,0.43010752688172044,0.2025912838633687,0.3728999797588411,0.563698734305558,0.5849056603773585,1.0,0.7918052222190093,0.891511904963077
p4,Trial: 44,p4.edf,.,30,Fixation: 11711 ms,424,11711,12134,[24],1,557,424,93.2,506.9,1,1,37.8,37.95,38,Saccade: 11618 ms,LEFT,93,25.47,273.83,527.57,"[ 10, 17, 99]",11618,11710,1048.1,438.7,102.7,500.2,39,Saccade: 12135 ms,RIGHT,52,10.57,203.28,374.82,[ 99],12135,12186,96.8,503.7,395.3,764.9,4.14,RIGHT,25.7,A21,S21.wav,A21.png,21,6719123,preview,,,,,,,,,,,,,,,,,,[flower_1],,,0.6573643410852713,0.7177835051546392,1.0,1.0,0.7918052222190093,0.891511904963077,0.3270440251572327,1.0,0.587803255934997,0.6333879716781858
p4,Trial: 44,p4.edf,.,31,Fixation: 12187 ms,211,12187,12397,[],68,567,20371,399.9,779.9,30,66,36.35,38.25,39,Saccade: 12135 ms,RIGHT,52,10.57,203.28,374.82,"[ 24, 99]",12135,12186,96.8,503.7,395.3,764.9,40,Saccade: 12398 ms,RIGHT,50,8.05,160.99,275.23,[ 99],12398,12447,406.3,799.5,696.6,830.7,139.1,LEFT,10.94,A21,S21.wav,A21.png,21,6719123,preview,,,,,,,,,,,,,,,,,,[],,,0.3271317829457364,0.7306701030927835,0.5591397849462365,0.41499803690616416,0.587803255934997,0.6333879716781858,0.31446540880503143,1.0,0.4655177399300235,0.4650962367135881
p4,Trial: 44,p4.edf,.,32,Fixation: 12448 ms,109,12448,12556,[],68,560,20371,682.8,834.3,31,66,36.1,38.4,40,Saccade: 12398 ms,RIGHT,50,8.05,160.99,275.23,[ 99],12398,12447,406.3,799.5,696.6,830.7,41,Saccade: 12557 ms,LEFT,36,2.9,80.48,194.71,"[ 4, 99]",12557,12592,679.3,835.6,599.6,764.3,169.7,LEFT,7.94,A21,S21.wav,A21.png,21,6719123,preview,,,,,,,,,,,,,,,,,,[],,,0.16899224806201552,0.7216494845360825,0.5376344086021505,0.31605810757754227,0.4655177399300235,0.4650962367135881,0.22641509433962265,1.0,0.23271549605297404,0.3290298595738209
p4,Trial: 44,p4.edf,.,33,Fixation: 12593 ms,207,12593,12799,[4],4,559,207,588.6,774.6,1,1,35.9,37.95,41,Saccade: 12557 ms,LEFT,36,2.9,80.48,194.71,[ 99],12557,12592,679.3,835.6,599.6,764.3,42,Saccade: 12800 ms,LEFT,36,4.65,129.19,246.32,[ 99],12800,12835,590.8,781.7,453.7,681.5,-30.86,RIGHT,3.05,A21,S21.wav,A21.png,21,6719123,preview,,,,,,,,,,,,,,,,,,[man_1],,,0.3209302325581395,0.720360824742268,0.3870967741935484,0.1138594424813506,0.23271549605297404,0.3290298595738209,0.22641509433962265,1.0,0.37356504641008587,0.4162427970326309
p4,Trial: 44,p4.edf,13132,34,Fixation: 12949 ms,254,12949,13202,[2],4,572,254,358.3,549.2,1,1,36.0,37.1,43,Saccade: 12906 ms,UP,43,4.32,100.36,219.44,[ 99],12906,12948,459.0,667.6,364.9,539.9,44,Saccade: 13203 ms,RIGHT,27,3.7,136.88,262.84,[ 99],13203,13229,359.0,550.3,487.6,582.5,-43.16,RIGHT,8.78,A21,S21.wav,A21.png,21,6719123,preview,,,,,,,,,,,,,,,,,,[woman_1],,,0.3937984496124031,0.7371134020618557,0.46236559139784944,0.1696113074204947,0.2902003874736142,0.37081974415735847,0.16981132075471697,1.0,0.39580140531475005,0.44415904827889213
p4,Trial: 44,p4.edf,13305,35,Fixation: 13230 ms,442,13230,13671,[],68,592,20371,488.6,591.5,34,66,35.6,37.0,44,Saccade: 13203 ms,RIGHT,27,3.7,136.88,262.84,"[ 2, 99]",13203,13229,359.0,550.3,487.6,582.5,45,Saccade: 13672 ms,RIGHT,35,4.98,142.38,332.87,[ 99],13672,13706,488.9,591.1,620.1,716.6,162.58,LEFT,3.81,A21,S21.wav,A21.png,21,6719123,taskpreview,[1],[Adverb],[105],[280],[175],[0],[Da],[It],[0.0],[0.0],[nan],[nan],[da],[nan],[nan],[nan],[nan],[],,,0.6852713178294574,0.7628865979381443,0.2903225806451613,0.1452689438555163,0.39580140531475005,0.44415904827889213,0.22012578616352202,1.0,0.411705173061909,0.5624989438464268
p4,Trial: 44,p4.edf,14100,36,Fixation: 13707 ms,546,13707,14252,[],68,618,20371,623.5,717.7,35,66,35.7,37.6,45,Saccade: 13672 ms,RIGHT,35,4.98,142.38,332.87,[ 99],13672,13706,488.9,591.1,620.1,716.6,46,Saccade: 14253 ms,RIGHT,45,6.74,149.82,252.12,"[ 27, 99]",14253,14297,616.4,715.4,791.2,543.3,138.2,LEFT,5.08,A21,S21.wav,A21.png,21,6719123,task,"[2, 3]","[Verb, Determiner_1]","[340, 715]","[550, 885]","[210, 170]","[0, 0]","[ist, ein]","[is, a]","[0.0, 0.0]","[0.0, 0.0]","[nan, nan]","[nan, nan]","[sein, eine]","[nan, nan]","[nan, nan]","[nan, nan]","[nan, nan]",[],,,0.8465116279069768,0.7963917525773195,0.3763440860215054,0.19552414605418142,0.411705173061909,0.5624989438464268,0.2830188679245283,1.0,0.4332186334326114,0.42604390219172994
p4,Trial: 44,p4.edf,.,37,Fixation: 14298 ms,229,14298,14526,[27],5,672,229,790.2,548.0,1,1,35.5,36.9,46,Saccade: 14253 ms,RIGHT,45,6.74,149.82,252.12,[ 99],14253,14297,616.4,715.4,791.2,543.3,47,Saccade: 14527 ms,UP,88,12.33,140.11,236.97,[ 99],14527,14614,791.1,558.4,487.8,231.7,-135.79,LEFT,6.53,A21,S21.wav,A21.png,21,6719123,task,[4],[Noun_1],[900],[1950],[1050],[0],[Papierstapel],[bunch of paper],[0.0],[1.0],[paper_1],[S01_I021_E007],[Papierstapel],[nan],[nan],[nan],[nan],[chair_1],,,0.3550387596899225,0.865979381443299,0.4838709677419355,0.2646250490773459,0.4332186334326114,0.42604390219172994,0.5534591194968553,1.0,0.4051412543735362,0.40044273957787657
p4,Trial: 44,p4.edf,.,38,Fixation: 14615 ms,438,14615,15052,[3],9,691,438,491.4,256.2,1,1,35.4,36.65,47,Saccade: 14527 ms,UP,88,12.33,140.11,236.97,"[ 27, 99]",14527,14614,791.1,558.4,487.8,231.7,48,Saccade: 15053 ms,LEFT,53,7.84,148.0,427.55,"[ 8, 11, 99]",15053,15105,496.0,267.0,225.8,351.1,-43.27,RIGHT,11.58,A21,S21.wav,A21.png,21,6719123,task,[4],[Noun_1],[900],[1950],[1050],[0],[Papierstapel],[bunch of paper],[0.0],[1.0],[paper_1],[S01_I021_E007],[Papierstapel],[nan],[nan],[nan],[nan],[woman_2],,,0.6790697674418604,0.8904639175257731,0.946236559139785,0.4840989399293286,0.4051412543735362,0.40044273957787657,0.3333333333333333,1.0,0.4279559321053697,0.7224935363401321
p4,Trial: 44,p4.edf,.,39,Fixation: 15106 ms,512,15106,15617,"[8, 11]",12,741,512,217.7,368.3,1,1,36.7,37.25,48,Saccade: 15053 ms,LEFT,53,7.84,148.0,427.55,"[ 3, 99]",15053,15105,496.0,267.0,225.8,351.1,49,Saccade: 15618 ms,RIGHT,56,19.37,345.83,591.77,"[ 7, 99]",15618,15673,215.5,371.0,917.4,411.2,21.78,RIGHT,8.18,A21,S21.wav,A21.png,21,6719123,task,[4],[Noun_1],[900],[1950],[1050],[0],[Papierstapel],[bunch of paper],[0.0],[1.0],[paper_1],[S01_I021_E007],[Papierstapel],[nan],[nan],[nan],[nan],"[paper_1, desk_1]",,,0.7937984496124031,0.9548969072164949,0.5698924731182796,0.3078131134668237,0.4279559321053697,0.7224935363401321,0.3522012578616352,1.0,1.0,1.0
p4,Trial: 44,p4.edf,.,40,Fixation: 15674 ms,158,15674,15831,[27],5,737,158,900.3,413.7,1,1,35.85,36.8,49,Saccade: 15618 ms,RIGHT,56,19.37,345.83,591.77,"[ 8, 11, 99]",15618,15673,215.5,371.0,917.4,411.2,50,Saccade: 15832 ms,RIGHT,31,5.95,191.94,407.67,"[ 10, 17, 99]",15832,15862,894.7,417.4,1102.7,480.1,176.27,LEFT,18.86,A21,S21.wav,A21.png,21,6719123,task,[5],[Preposition_1],[2310],[2460],[150],[0],[auf],[on],[0.0],[0.0],[nan],[nan],[auf],[nan],[nan],[nan],[nan],[chair_1],,,0.24496124031007752,0.9497422680412371,0.6021505376344086,0.7605025520219867,1.0,1.0,0.1949685534591195,1.0,0.5550125784344909,0.6888994034844619
p4,Trial: 44,p4.edf,16000,41,Fixation: 15863 ms,170,15863,16032,"[10, 17]",9,712,170,1089.3,495.6,1,1,37.05,37.55,50,Saccade: 15832 ms,RIGHT,31,5.95,191.94,407.67,"[ 27, 99]",15832,15862,894.7,417.4,1102.7,480.1,51,Saccade: 16033 ms,LEFT,57,9.63,168.97,404.19,"[ 7, 14, 99]",16033,16089,1089.9,493.6,821.4,265.2,156.98,LEFT,5.63,A21,S21.wav,A21.png,21,6719123,task,[6],[Determiner_2],[2470],[2765],[295],[0],[einem],[a],[0.0],[0.0],[nan],[nan],[eine],[nan],[nan],[nan],[nan],"[desk_3, keyboard_1]",,,0.26356589147286824,0.9175257731958762,0.3333333333333333,0.2336081664703573,0.5550125784344909,0.6888994034844619,0.3584905660377358,1.0,0.48859266113408323,0.6830187403890025
p4,Trial: 44,p4.edf,.,42,Fixation: 16090 ms,137,16090,16226,"[7, 14]",5,720,267,814.9,256.8,1,2,35.5,36.7,51,Saccade: 16033 ms,LEFT,57,9.63,168.97,404.19,"[ 10, 17, 99]",16033,16089,1089.9,493.6,821.4,265.2,52,Saccade: 16227 ms,RIGHT,25,2.63,105.39,207.7,"[ 6, 7, 99]",16227,16251,814.5,261.9,906.6,280.9,-40.38,RIGHT,9.93,A21,S21.wav,A21.png,21,6719123,task,,break,,,,,,,,,,,,,,,,"[cabinet_1, phone_1]",,,0.2124031007751938,0.9278350515463918,0.6129032258064516,0.37809187279151946,0.48859266113408323,0.6830187403890025,0.15723270440251572,1.0,0.3047451059769251,0.35098095543876845
p4,Trial: 44,p4.edf,.,43,Fixation: 16252 ms,130,16252,16381,"[6, 7]",2,738,130,900.5,287.7,1,1,35.8,36.8,52,Saccade: 16227 ms,RIGHT,25,2.63,105.39,207.7,"[ 7, 14, 99]",16227,16251,814.5,261.9,906.6,280.9,53,Saccade: 16382 ms,LEFT,46,6.59,143.2,422.18,"[ 5, 12, 99]",16382,16427,903.4,288.9,669.6,284.2,160.7,LEFT,2.54,A21,S21.wav,A21.png,21,6719123,task,[7],[Noun_2],[2800],[3640],[840],[0],[Schreibtisch],[desk],[0.0],[0.0],[desk_1],[S01_I021_E009],[Schreibtisch],[nan],[nan],[nan],[nan],"[paper_3, cabinet_1]",,,0.20155038759689922,0.9510309278350515,0.26881720430107525,0.10325873576756969,0.3047451059769251,0.35098095543876845,0.2893081761006289,1.0,0.4140762802533036,0.7134190648393802
p4,Trial: 44,p4.edf,.,44,Fixation: 16428 ms,261,16428,16688,"[5, 12]",4,760,906,656.2,280.1,1,2,35.2,36.5,53,Saccade: 16382 ms,LEFT,46,6.59,143.2,422.18,"[ 6, 7, 99]",16382,16427,903.4,288.9,669.6,284.2,54,Saccade: 16689 ms,DOWN,15,0.8,53.57,65.05,"[ 5, 12, 99]",16689,16703,660.4,283.2,675.5,308.0,-1.73,RIGHT,6.88,A21,S21.wav,A21.png,21,6719123,task,[7],[Noun_2],[2800],[3640],[840],[0],[Schreibtisch],[desk],[0.0],[0.0],[desk_1],[S01_I021_E009],[Schreibtisch],[nan],[nan],[nan],[nan],"[paper_2, desk_2]",,,0.4046511627906977,0.979381443298969,0.4946236559139785,0.25873576756968986,0.4140762802533036,0.7134190648393802,0.09433962264150944,1.0,0.15490269785732874,0.10992446389644625
p4,Trial: 44,p4.edf,.,45,Fixation: 16704 ms,645,16704,17348,"[5, 12]",4,773,906,675.1,308.9,2,2,35.2,36.5,54,Saccade: 16689 ms,DOWN,15,0.8,53.57,65.05,"[ 5, 12, 99]",16689,16703,660.4,283.2,675.5,308.0,55,Saccade: 17349 ms,LEFT,61,11.66,191.18,501.72,"[ 8, 11, 99]",17349,17409,673.4,312.8,257.0,343.8,124.24,UP,0.95,A21,S21.wav,A21.png,21,6719123,task,[7],[Noun_2],[2800],[3640],[840],[0],[Schreibtisch],[desk],[0.0],[0.0],[desk_1],[S01_I021_E009],[Schreibtisch],[nan],[nan],[nan],[nan],"[paper_2, desk_2]",,,1.0,0.9961340206185567,0.16129032258064516,0.03140950137416569,0.15490269785732874,0.10992446389644625,0.3836477987421384,1.0,0.5528149668912472,0.847829393176403
p4,Trial: 44,p4.edf,17590,46,Fixation: 17410 ms,218,17410,17627,"[8, 11]",12,728,218,245.6,351.0,1,1,36.5,37.15,55,Saccade: 17349 ms,LEFT,61,11.66,191.18,501.72,"[ 5, 12, 99]",17349,17409,673.4,312.8,257.0,343.8,56,Saccade: 17628 ms,RIGHT,65,10.88,167.32,376.11,"[ 3, 99]",17628,17692,243.5,351.4,620.5,249.0,5.45,RIGHT,12.03,A21,S21.wav,A21.png,21,6719123,task,[8],[Relative Clause Pronoun],[4000],[4190],[190],[1],[den],[that],[0.0],[0.0],[nan],[nan],[die],[nan],[nan],[nan],[nan],"[paper_1, desk_1]",,,0.33798449612403103,0.9381443298969072,0.6559139784946236,0.4577934825284649,0.5528149668912472,0.847829393176403,0.4088050314465409,1.0,0.4838215308099355,0.6355678726532268
p4,Trial: 44,p4.edf,.,47,Fixation: 17693 ms,418,17693,18110,[3],9,740,418,615.6,256.6,1,1,35.2,36.55,56,Saccade: 17628 ms,RIGHT,65,10.88,167.32,376.11,"[ 8, 11, 99]",17628,17692,243.5,351.4,620.5,249.0,57,Saccade: 18111 ms,LEFT,59,9.96,168.75,403.02,"[ 8, 11, 99]",18111,18169,619.5,259.8,271.4,336.3,-166.06,LEFT,10.63,A21,S21.wav,A21.png,21,6719123,task,[10],[Relative Clause Adverb],[4390],[5080],[690],[0],[beruflich],[professionally],[0.0],[0.0],[nan],[nan],[beruflich],[nan],[nan],[nan],[nan],[woman_2],,,0.648062015503876,0.9536082474226805,0.6989247311827957,0.4271692186886534,0.4838215308099355,0.6355678726532268,0.3710691823899371,1.0,0.4879565104241969,0.6810416209000119
p4,Trial: 44,p4.edf,.,48,Fixation: 18170 ms,281,18170,18450,"[8, 11]",12,721,698,257.7,343.9,1,3,36.35,37.1,57,Saccade: 18111 ms,LEFT,59,9.96,168.75,403.02,"[ 3, 99]",18111,18169,619.5,259.8,271.4,336.3,58,Saccade: 18451 ms,LEFT,29,0.92,31.9,126.93,"[ 8, 11, 99]",18451,18479,257.0,348.1,229.2,367.6,13.33,RIGHT,10.28,A21,S21.wav,A21.png,21,6719123,task,[10],[Relative Clause Adverb],[4390],[5080],[690],[0],[beruflich],[professionally],[0.0],[0.0],[nan],[nan],[beruflich],[nan],[nan],[nan],[nan],"[paper_1, desk_1]",,,0.4356589147286822,0.9291237113402062,0.6344086021505376,0.39104829210836284,0.4879565104241969,0.6810416209000119,0.18238993710691823,1.0,0.09224185293352224,0.2144921168697298
p4,Trial: 44,p4.edf,18530,49,Fixation: 18480 ms,156,18480,18635,"[8, 11]",12,729,698,226.9,375.5,2,3,36.6,37.2,58,Saccade: 18451 ms,LEFT,29,0.92,31.9,126.93,"[ 8, 11, 99]",18451,18479,257.0,348.1,229.2,367.6,59,Saccade: 18636 ms,RIGHT,30,0.79,26.45,77.5,"[ 8, 11, 99]",18636,18665,227.1,379.2,251.0,362.5,45.21,UP,1.2,A21,S21.wav,A21.png,21,6719123,task,,break,,,,,,,,,,,,,,,,"[paper_1, desk_1]",,,0.24186046511627907,0.9394329896907216,0.3118279569892473,0.03612092658029054,0.09224185293352224,0.2144921168697298,0.18867924528301888,1.0,0.0764826648931556,0.13096304307416734
p4,Trial: 44,p4.edf,.,50,Fixation: 18666 ms,261,18666,18926,"[8, 11]",12,776,698,250.5,363.0,3,3,36.5,37.1,59,Saccade: 18636 ms,RIGHT,30,0.79,26.45,77.5,"[ 8, 11, 99]",18636,18665,227.1,379.2,251.0,362.5,60,Saccade: 18927 ms,RIGHT,48,3.39,70.67,132.65,"[ 2, 99]",18927,18974,249.6,374.2,371.5,360.6,-152.48,LEFT,0.73,A21,S21.wav,A21.png,21,6719123,task,[11],[Relative Clause Verb],[5330],[6130],[800],[0],[vollschreibt],[writes on],[1.0],[0.0],[nan],[nan],[vollschreiben],[nan],[nan],[nan],[nan],"[paper_1, desk_1]",,,0.4046511627906977,1.0,0.3225806451612903,0.031016882606988618,0.0764826648931556,0.13096304307416734,0.3018867924528302,1.0,0.20434895758031404,0.2241580343714619
p4,Trial: 44,p4.edf,.,51,Fixation: 18975 ms,277,18975,19251,[2],4,766,277,337.0,414.5,1,1,35.9,36.85,60,Saccade: 18927 ms,RIGHT,48,3.39,70.67,132.65,"[ 8, 11, 99]",18927,18974,249.6,374.2,371.5,360.6,61,Saccade: 19252 ms,LEFT,23,2.12,92.12,158.12,"[ 11, 99]",19252,19274,337.3,416.4,265.4,389.1,149.76,LEFT,2.77,A21,S21.wav,A21.png,21,6719123,task,[11],[Relative Clause Verb],[5330],[6130],[800],[0],[vollschreibt],[writes on],[1.0],[0.0],[nan],[nan],[vollschreiben],[nan],[nan],[nan],[nan],[woman_1],,,0.4294573643410853,0.9871134020618557,0.5161290322580645,0.1330977620730271,0.20434895758031404,0.2241580343714619,0.14465408805031446,1.0,0.26637365179423417,0.2671984047856431
p4,Trial: 44,p4.edf,.,52,Fixation: 19275 ms,258,19275,19532,[11],13,753,2366,267.6,384.4,1,4,36.4,37.1,61,Saccade: 19252 ms,LEFT,23,2.12,92.12,158.12,"[ 2, 99]",19252,19274,337.3,416.4,265.4,389.1,62,Saccade: 19533 ms,LEFT,28,0.68,24.42,103.14,"[ 8, 11, 99]",19533,19560,266.3,379.7,244.6,367.2,-22.98,RIGHT,2.09,A21,S21.wav,A21.png,21,6719123,task,[11],[Relative Clause Verb],[5330],[6130],[800],[0],[vollschreibt],[writes on],[1.0],[0.0],[nan],[nan],[vollschreiben],[nan],[nan],[nan],[nan],[desk_1],,,0.4,0.970360824742268,0.24731182795698925,0.08323517864153908,0.26637365179423417,0.2671984047856431,0.1761006289308176,1.0,0.070612728797386,0.17429068726025315
p4,Trial: 44,p4.edf,19680,53,Fixation: 19561 ms,450,19561,20010,"[8, 11]",12,712,2108,236.5,360.8,1,3,36.55,37.2,62,Saccade: 19533 ms,LEFT,28,0.68,24.42,103.14,"[ 11, 99]",19533,19560,266.3,379.7,244.6,367.2,63,Saccade: 20011 ms,RIGHT,16,1.0,62.49,66.4,"[ 8, 11, 99]",20011,20026,236.2,349.5,266.1,328.2,-36.69,RIGHT,1.06,A21,S21.wav,A21.png,21,6719123,post,,,,,,,,,,,,,,,,,,"[paper_1, desk_1]",,,0.6976744186046512,0.9175257731958762,0.3010752688172043,0.026698076168040836,0.070612728797386,0.17429068726025315,0.10062893081761007,1.0,0.1806957175490848,0.1122057556145124
