RECORDING_SESSION_LABEL,TRIAL_LABEL,DATA_FILE,CURRENT_FIX_MSG_TIME_1,CURRENT_FIX_INDEX,CURRENT_FIX_LABEL,CURRENT_FIX_DURATION,CURRENT_FIX_START,CURRENT_FIX_END,CURRENT_FIX_INTEREST_AREAS,CURRENT_FIX_INTEREST_AREA_FIX_COUNT,CURRENT_FIX_PUPIL,CURRENT_FIX_RUN_DWELL_TIME,CURRENT_FIX_X,CURRENT_FIX_Y,CURRENT_FIX_RUN_INDEX,CURRENT_FIX_RUN_SIZE,CURRENT_FIX_X_RESOLUTION,CURRENT_FIX_Y_RESOLUTION,PREVIOUS_SAC_INDEX,PREVIOUS_SAC_LABEL,PREVIOUS_SAC_DIRECTION,PREVIOUS_SAC_DURATION,PREVIOUS_SAC_AMPLITUDE,PREVIOUS_SAC_AVG_VELOCITY,PREVIOUS_SAC_PEAK_VELOCITY,PREVIOUS_SAC_START_INTEREST_AREAS,PREVIOUS_SAC_START_TIME,PREVIOUS_SAC_END_TIME,PREVIOUS_SAC_START_X,PREVIOUS_SAC_START_Y,PREVIOUS_SAC_END_X,PREVIOUS_SAC_END_Y,NEXT_SAC_INDEX,NEXT_SAC_LABEL,NEXT_SAC_DIRECTION,NEXT_SAC_DURATION,NEXT_SAC_AMPLITUDE,NEXT_SAC_AVG_VELOCITY,NEXT_SAC_PEAK_VELOCITY,NEXT_SAC_END_INTEREST_AREAS,NEXT_SAC_START_TIME,NEXT_SAC_END_TIME,NEXT_SAC_START_X,NEXT_SAC_START_Y,NEXT_SAC_END_X,NEXT_SAC_END_Y,PREVIOUS_FIX_ANGLE,PREVIOUS_FIX_DIRECTION,PREVIOUS_FIX_DISTANCE,ItemNO,audiofilename,imagefilename,TRIAL_INDEX,TRIAL_START_TIME,viewtype,word_index,Label,word_onset,word_offset,word_duration,Continuation,wordDE,wordEN,REFWord,TargetObj,ObjectLabel,ObjectID,LemmaDE,LingIndex,DepS,pos_1,pos_2,CURRENT_FIX_INTEREST_AREAS_Labelled,PREVIOUS_SAC_START_INTEREST_AREAS_Labelled,NEXT_SAC_END_INTEREST_AREAS_Labelled,NORMALIZED_CURRENT_FIX_DURATION,NORMALIZED_CURRENT_FIX_PUPIL,NORMALIZED_PREVIOUS_SAC_DURATION,NORMALIZED_PREVIOUS_SAC_AMPLITUDE,NORMALIZED_PREVIOUS_SAC_AVG_VELOCITY,NORMALIZED_PREVIOUS_SAC_PEAK_VELOCITY,NORMALIZED_NEXT_SAC_DURATION,NORMALIZED_NEXT_SAC_AMPLITUDE,NORMALIZED_NEXT_SAC_AVG_VELOCITY,NORMALIZED_NEXT_SAC_PEAK_VELOCITY
p3,Trial: 32,p3.edf,.,1,Fixation: 3410 ms,148,3410,3557,[],60,708,16599,542.9,513.6,1,58,35.4,36.75,7,Saccade: 3352 ms,UP,58,10.57,182.26,503.01,[ ],3352,3409,631.7,914.9,540.8,525.4,8,Saccade: 3558 ms,UP,51,4.35,85.21,287.85,"[ 19, 99]",3558,3608,546.5,514.1,505.9,360.5,-72.4,DOWN,11.28,A30,S30.wav,A30.png,15,2266517,preview,,,,,,,,,,,,,,,,,,[],,,0.19096774193548388,0.8100686498855835,0.7733333333333333,0.527972027972028,0.6828263150007492,0.7992151005751692,0.12655086848635236,1.0,0.31923422748389024,0.2889480024091548
p3,Trial: 32,p3.edf,.,2,Fixation: 3609 ms,140,3609,3748,[19],1,748,140,504.6,351.1,1,1,35.3,36.55,8,Saccade: 3558 ms,UP,51,4.35,85.21,287.85,[ 99],3558,3608,546.5,514.1,505.9,360.5,9,Saccade: 3749 ms,RIGHT,70,15.66,223.76,599.56,"[ 2, 99]",3749,3818,505.7,354.8,1068.1,406.5,-76.27,DOWN,4.56,A30,S30.wav,A30.png,15,2266517,preview,,,,,,,,,,,,,,,,,,[chair_1],,,0.18064516129032257,0.8558352402745996,0.68,0.21728271728271728,0.31923422748389024,0.45735485716101565,0.17369727047146402,1.0,0.8383036115690093,0.6018470186709495
p3,Trial: 32,p3.edf,.,3,Fixation: 3819 ms,119,3819,3937,[2],6,755,564,1060.4,410.0,1,3,36.75,37.3,9,Saccade: 3749 ms,RIGHT,70,15.66,223.76,599.56,"[ 19, 99]",3749,3818,505.7,354.8,1068.1,406.5,10,Saccade: 3938 ms,LEFT,25,1.39,55.55,121.36,"[ 2, 99]",3938,3962,1061.3,412.5,1011.0,405.6,174.1,LEFT,15.51,A30,S30.wav,A30.png,15,2266517,preview,,,,,,,,,,,,,,,,,,[man_1],,,0.15354838709677418,0.8638443935926774,0.9333333333333333,0.7822177822177823,0.8383036115690093,0.9526200387683116,0.062034739454094295,1.0,0.2081147909485988,0.12182292712306765
p3,Trial: 32,p3.edf,.,4,Fixation: 3963 ms,175,3963,4137,[2],6,776,564,1016.9,409.2,2,3,36.4,37.1,10,Saccade: 3938 ms,LEFT,25,1.39,55.55,121.36,"[ 2, 99]",3938,3962,1061.3,412.5,1011.0,405.6,11,Saccade: 4138 ms,DOWN,28,3.53,126.17,224.09,"[ 2, 99]",4138,4165,1017.0,404.1,980.5,530.1,-1.04,RIGHT,1.19,A30,S30.wav,A30.png,15,2266517,preview,,,,,,,,,,,,,,,,,,[man_1],,,0.22580645161290322,0.8878718535469108,0.3333333333333333,0.06943056943056942,0.2081147909485988,0.19282468461025135,0.06947890818858561,1.0,0.4726884459763225,0.22494479020277053
p3,Trial: 32,p3.edf,.,5,Fixation: 4166 ms,270,4166,4435,[2],6,723,564,978.9,526.7,3,3,36.3,37.25,11,Saccade: 4138 ms,DOWN,28,3.53,126.17,224.09,"[ 2, 99]",4138,4165,1017.0,404.1,980.5,530.1,12,Saccade: 4436 ms,LEFT,32,6.41,200.29,418.7,"[ 8, 99]",4436,4467,980.6,528.1,795.3,670.9,71.7,UP,3.33,A30,S30.wav,A30.png,15,2266517,preview,,,,,,,,,,,,,,,,,,[man_1],,,0.34838709677419355,0.8272311212814645,0.37333333333333335,0.17632367632367632,0.4726884459763225,0.3560488099399409,0.0794044665012407,1.0,0.7503746440881162,0.42029712909054406
p3,Trial: 32,p3.edf,.,6,Fixation: 4468 ms,177,4468,4644,[8],8,692,177,796.2,665.6,1,1,35.8,37.4,12,Saccade: 4436 ms,LEFT,32,6.41,200.29,418.7,"[ 2, 99]",4436,4467,980.6,528.1,795.3,670.9,13,Saccade: 4645 ms,LEFT,41,3.7,90.27,228.02,[ 99],4645,4685,799.3,667.9,702.6,574.5,36.29,RIGHT,6.29,A30,S30.wav,A30.png,15,2266517,preview,,,,,,,,,,,,,,,,,,[table_1],,,0.22838709677419355,0.7917620137299771,0.4266666666666667,0.3201798201798202,0.7503746440881162,0.6652578728272268,0.10173697270471464,1.0,0.33819121834257454,0.22888978116844008
p3,Trial: 32,p3.edf,.,7,Fixation: 4686 ms,231,4686,4916,[],60,729,16599,711.3,576.3,7,58,35.4,36.9,13,Saccade: 4645 ms,LEFT,41,3.7,90.27,228.02,"[ 8, 99]",4645,4685,799.3,667.9,702.6,574.5,14,Saccade: 4917 ms,RIGHT,56,8.4,149.91,362.41,[ 99],4917,4972,712.3,574.1,974.4,422.3,-45.23,DOWN,3.39,A30,S30.wav,A30.png,15,2266517,preview,,,,,,,,,,,,,,,,,,[],,,0.29806451612903223,0.834096109839817,0.5466666666666666,0.18481518481518483,0.33819121834257454,0.36229305030347325,0.13895781637717122,1.0,0.5616289524951296,0.3637924111624172
p3,Trial: 32,p3.edf,.,8,Fixation: 4973 ms,124,4973,5096,[],60,753,16599,982.6,416.5,8,58,36.2,37.0,14,Saccade: 4917 ms,RIGHT,56,8.4,149.91,362.41,[ 99],4917,4972,712.3,574.1,974.4,422.3,15,Saccade: 5097 ms,RIGHT,21,1.15,54.92,92.05,"[ 2, 99]",5097,5117,980.8,417.1,1021.2,405.9,-150.29,LEFT,8.73,A30,S30.wav,A30.png,15,2266517,preview,,,,,,,,,,,,,,,,,,[],,,0.16,0.8615560640732265,0.7466666666666667,0.4195804195804196,0.5616289524951296,0.575820648892561,0.052109181141439205,1.0,0.2057545331934662,0.09240112427223449
p3,Trial: 32,p3.edf,.,9,Fixation: 5118 ms,98,5118,5215,[2],6,768,341,1014.4,409.9,1,2,36.4,37.1,15,Saccade: 5097 ms,RIGHT,21,1.15,54.92,92.05,[ 99],5097,5117,980.8,417.1,1021.2,405.9,16,Saccade: 5216 ms,DOWN,32,3.45,107.75,222.55,"[ 2, 99]",5216,5247,1015.3,410.5,981.1,533.9,-168.51,LEFT,0.89,A30,S30.wav,A30.png,15,2266517,preview,,,,,,,,,,,,,,,,,,[man_1],,,0.12645161290322582,0.8787185354691075,0.28,0.05744255744255744,0.2057545331934662,0.14625504464711303,0.0794044665012407,1.0,0.40367900494530196,0.2233989158803453
p3,Trial: 32,p3.edf,.,10,Fixation: 5248 ms,243,5248,5490,[2],6,743,341,978.6,533.6,2,2,36.3,37.3,16,Saccade: 5216 ms,DOWN,32,3.45,107.75,222.55,"[ 2, 99]",5216,5247,1015.3,410.5,981.1,533.9,17,Saccade: 5491 ms,LEFT,48,6.53,136.06,458.97,"[ 8, 99]",5491,5538,981.0,532.1,774.2,648.0,73.5,UP,3.47,A30,S30.wav,A30.png,15,2266517,preview,,,,,,,,,,,,,,,,,,[man_1],,,0.3135483870967742,0.8501144164759725,0.4266666666666667,0.17232767232767235,0.40367900494530196,0.3536019574819664,0.11910669975186104,1.0,0.5097407462910235,0.4607207388074684
p3,Trial: 32,p3.edf,.,11,Fixation: 5539 ms,185,5539,5723,[8],8,717,436,767.8,663.5,1,2,35.7,37.35,17,Saccade: 5491 ms,LEFT,48,6.53,136.06,458.97,"[ 2, 99]",5491,5538,981.0,532.1,774.2,648.0,18,Saccade: 5724 ms,LEFT,20,1.43,71.73,109.3,"[ 8, 99]",5724,5743,771.0,664.4,721.8,679.3,30.73,RIGHT,6.81,A30,S30.wav,A30.png,15,2266517,preview,,,,,,,,,,,,,,,,,,[table_1],,,0.23870967741935484,0.8203661327231121,0.64,0.3261738261738262,0.5097407462910235,0.729241475738028,0.04962779156327544,1.0,0.26873220440581447,0.10971692431238707
p3,Trial: 32,p3.edf,.,12,Fixation: 5744 ms,251,5744,5994,[8],8,705,436,731.4,676.7,2,2,35.7,37.4,18,Saccade: 5724 ms,LEFT,20,1.43,71.73,109.3,"[ 8, 99]",5724,5743,771.0,664.4,721.8,679.3,19,Saccade: 5995 ms,UP,403,13.2,32.75,430.99,"[ 10, 18, 99]",5995,6397,733.3,674.4,527.3,235.8,19.11,RIGHT,1.08,A30,S30.wav,A30.png,15,2266517,preview,,,,,,,,,,,,,,,,,,[table_1],,,0.32387096774193547,0.8066361556064073,0.26666666666666666,0.07142857142857142,0.26873220440581447,0.1736629699068925,1.0,1.0,0.12269593885808482,0.4326340092350933
p3,Trial: 32,p3.edf,.,13,Fixation: 6580 ms,114,6580,6693,[3],8,817,114,492.5,278.6,1,1,35.4,36.6,20,Saccade: 6544 ms,LEFT,36,1.55,42.93,152.34,"[ 10, 18, 99]",6544,6579,545.8,265.5,492.8,279.2,21,Saccade: 6694 ms,RIGHT,23,1.73,75.02,118.38,"[ 10, 18, 99]",6694,6716,493.1,275.4,541.3,236.7,-58.01,DOWN,12.69,A30,S30.wav,A30.png,15,2266517,preview,,,,,,,,,,,,,,,,,,[man_2],,,0.14709677419354839,0.9347826086956522,0.48,0.07742257742257742,0.1608347070283231,0.24204772951158282,0.05707196029776675,1.0,0.28105799490484035,0.11883155992772534
p3,Trial: 32,p3.edf,.,14,Fixation: 6717 ms,229,6717,6945,"[10, 18]",17,802,229,532.5,237.7,1,1,35.3,36.6,21,Saccade: 6694 ms,RIGHT,23,1.73,75.02,118.38,"[ 3, 99]",6694,6716,493.1,275.4,541.3,236.7,22,Saccade: 6946 ms,LEFT,23,2.04,88.75,146.39,"[ 3, 99]",6946,6968,533.1,233.2,476.7,279.8,-135.36,LEFT,1.59,A30,S30.wav,A30.png,15,2266517,preview,,,,,,,,,,,,,,,,,,"[table_2, laptop_1]",,,0.2954838709677419,0.9176201372997712,0.30666666666666664,0.08641358641358642,0.28105799490484035,0.18808986621754742,0.05707196029776675,1.0,0.3324966282032069,0.1469484039349528
p3,Trial: 32,p3.edf,.,15,Fixation: 6969 ms,132,6969,7100,[3],8,703,132,480.1,277.4,1,1,35.4,36.6,22,Saccade: 6946 ms,LEFT,23,2.04,88.75,146.39,"[ 10, 18, 99]",6946,6968,533.1,233.2,476.7,279.8,23,Saccade: 7101 ms,UP,181,1.9,10.47,771.42,"[ 10, 18, 99]",7101,7281,480.6,279.1,499.7,212.5,36.2,RIGHT,1.84,A30,S30.wav,A30.png,15,2266517,preview,,,,,,,,,,,,,,,,,,[man_2],,,0.1703225806451613,0.8043478260869565,0.30666666666666664,0.1018981018981019,0.3324966282032069,0.23259398137849946,0.4491315136476427,1.0,0.03922523602577551,0.7743625777956233
p3,Trial: 32,p3.edf,.,16,Fixation: 7855 ms,384,7855,8238,"[10, 18]",17,636,384,545.1,255.7,1,1,35.3,36.6,24,Saccade: 7834 ms,RIGHT,21,1.68,80.15,123.92,"[ 10, 18, 99]",7834,7854,501.0,227.5,552.5,258.4,25,Saccade: 8239 ms,LEFT,23,2.24,97.39,159.51,[ 99],8239,8261,543.2,250.8,474.2,210.3,-162.13,LEFT,1.93,A30,S30.wav,A30.png,15,2266517,preview,,,,,,,,,,,,,,,,,,"[table_2, laptop_1]",,,0.49548387096774194,0.7276887871853547,0.28,0.08391608391608392,0.30027723662520606,0.19689217960532587,0.05707196029776675,1.0,0.3648658774164544,0.16011845011041959
p3,Trial: 32,p3.edf,.,17,Fixation: 8262 ms,258,8262,8519,[],60,618,16599,479.2,213.8,17,58,35.5,36.75,25,Saccade: 8239 ms,LEFT,23,2.24,97.39,159.51,"[ 10, 18, 99]",8239,8261,543.2,250.8,474.2,210.3,26,Saccade: 8520 ms,RIGHT,28,2.64,94.36,204.85,"[ 10, 18, 99]",8520,8547,480.2,212.6,571.4,234.1,-31.54,RIGHT,2.18,A30,S30.wav,A30.png,15,2266517,preview,,,,,,,,,,,,,,,,,,[],,,0.3329032258064516,0.7070938215102975,0.30666666666666664,0.1118881118881119,0.3648658774164544,0.2534398932282564,0.06947890818858561,1.0,0.35351416154653076,0.20563139931740612
p3,Trial: 32,p3.edf,.,18,Fixation: 8548 ms,208,8548,8755,"[10, 18]",17,652,983,562.0,234.1,1,2,35.3,36.6,26,Saccade: 8520 ms,RIGHT,28,2.64,94.36,204.85,[ 99],8520,8547,480.2,212.6,571.4,234.1,27,Saccade: 8756 ms,.,14,0.33,23.47,40.02,"[ 10, 18, 99]",8756,8769,563.5,235.3,554.0,242.2,166.69,LEFT,2.4,A30,S30.wav,A30.png,15,2266517,preview,,,,,,,,,,,,,,,,,,"[table_2, laptop_1]",,,0.26838709677419353,0.7459954233409611,0.37333333333333335,0.13186813186813187,0.35351416154653076,0.32547904286758395,0.034739454094292806,1.0,0.08792896748089314,0.040172656093153986
p3,Trial: 32,p3.edf,.,19,Fixation: 8770 ms,775,8770,9544,"[10, 18]",17,670,983,553.6,241.1,2,2,35.3,36.6,27,Saccade: 8756 ms,.,14,0.33,23.47,40.02,"[ 10, 18, 99]",8756,8769,563.5,235.3,554.0,242.2,28,Saccade: 9545 ms,LEFT,216,1.79,8.27,766.34,"[ 10, 18, 99]",9545,9760,556.3,245.3,496.1,225.6,38.79,.,0.31,A30,S30.wav,A30.png,15,2266517,preview,,,,,,,,,,,,,,,,,,"[table_2, laptop_1]",,,1.0,0.7665903890160183,0.18666666666666668,0.016483516483516484,0.08792896748089314,0.06358638660268837,0.5359801488833746,1.0,0.03098306608721714,0.7692632001606103
p3,Trial: 32,p3.edf,.,20,Fixation: 10129 ms,241,10129,10369,"[7, 13]",6,731,241,130.8,350.6,1,1,37.4,37.6,29,Saccade: 10075 ms,LEFT,54,10.29,190.47,466.03,"[ 3, 99]",10075,10128,500.7,245.3,138.5,339.9,30,Saccade: 10370 ms,UP,34,3.17,93.23,140.03,"[ 12, 99]",10370,10403,130.6,356.3,154.6,239.6,14.24,RIGHT,12.0,A30,S30.wav,A30.png,15,2266517,preview,,,,,,,,,,,,,,,,,,"[table_3, coffeemachine_1]",,,0.3109677419354839,0.8363844393592678,0.72,0.513986013986014,0.7135845946350966,0.7404588642791318,0.08436724565756824,1.0,0.34928068335081675,0.1405641437462357
p3,Trial: 32,p3.edf,.,21,Fixation: 10404 ms,250,10404,10653,[12],5,696,250,155.9,244.4,1,1,37.25,37.6,30,Saccade: 10370 ms,UP,34,3.17,93.23,140.03,"[ 7, 13, 99]",10370,10403,130.6,356.3,154.6,239.6,31,Saccade: 10654 ms,RIGHT,53,9.65,182.13,418.91,[ 99],10654,10706,157.7,241.5,508.1,240.6,-103.39,DOWN,2.9,A30,S30.wav,A30.png,15,2266517,preview,,,,,,,,,,,,,,,,,,[box_1],,,0.3225806451612903,0.7963386727688787,0.4533333333333333,0.15834165834165834,0.34928068335081675,0.22248879850011122,0.1315136476426799,1.0,0.6823392776861981,0.42050793013451115
p3,Trial: 32,p3.edf,.,22,Fixation: 10707 ms,300,10707,11006,"[10, 18]",17,675,1001,526.8,235.1,1,3,35.35,36.6,31,Saccade: 10654 ms,RIGHT,53,9.65,182.13,418.91,"[ 12, 99]",10654,10706,157.7,241.5,508.1,240.6,32,Saccade: 11007 ms,DOWN,25,1.73,69.14,114.85,"[ 10, 18, 99]",11007,11031,526.6,235.7,545.1,295.9,-178.6,LEFT,10.22,A30,S30.wav,A30.png,15,2266517,preview,,,,,,,,,,,,,,,,,,"[table_2, laptop_1]",,,0.3870967741935484,0.7723112128146453,0.7066666666666667,0.48201798201798207,0.6823392776861981,0.6655915345260416,0.062034739454094295,1.0,0.25902892252360254,0.11528809476008832
p3,Trial: 32,p3.edf,.,23,Fixation: 11032 ms,415,11032,11446,"[10, 18]",17,711,1001,546.6,288.1,2,3,35.3,36.5,32,Saccade: 11007 ms,DOWN,25,1.73,69.14,114.85,"[ 10, 18, 99]",11007,11031,526.6,235.7,545.1,295.9,33,Saccade: 11447 ms,UP,21,1.69,80.28,123.92,"[ 10, 18, 99]",11447,11467,543.1,285.6,529.2,225.6,111.13,UP,1.55,A30,S30.wav,A30.png,15,2266517,preview,,,,,,,,,,,,,,,,,,"[table_2, laptop_1]",,,0.535483870967742,0.8135011441647597,0.3333333333333333,0.08641358641358642,0.25902892252360254,0.18248117194699545,0.052109181141439205,1.0,0.30076427393975724,0.1243926922304758
p3,Trial: 32,p3.edf,.,24,Fixation: 11468 ms,286,11468,11753,"[10, 18]",17,716,1001,534.2,236.9,3,3,35.3,36.65,33,Saccade: 11447 ms,UP,21,1.69,80.28,123.92,"[ 10, 18, 99]",11447,11467,543.1,285.6,529.2,225.6,34,Saccade: 11754 ms,LEFT,28,1.62,57.81,140.87,"[ 3, 99]",11754,11781,537.9,236.5,495.6,276.4,-75.91,DOWN,1.44,A30,S30.wav,A30.png,15,2266517,preview,,,,,,,,,,,,,,,,,,"[table_2, laptop_1]",,,0.3690322580645161,0.8192219679633868,0.28,0.08441558441558442,0.30076427393975724,0.19689217960532587,0.06947890818858561,1.0,0.21658174734002697,0.141407347922104
p3,Trial: 32,p3.edf,.,25,Fixation: 11782 ms,180,11782,11961,[3],8,742,180,496.0,271.0,1,1,35.4,36.6,34,Saccade: 11754 ms,LEFT,28,1.62,57.81,140.87,"[ 10, 18, 99]",11754,11781,537.9,236.5,495.6,276.4,35,Saccade: 11962 ms,UP,23,1.17,50.66,101.36,"[ 10, 18, 99]",11962,11984,496.9,273.0,497.6,230.3,40.75,RIGHT,1.43,A30,S30.wav,A30.png,15,2266517,preview,,,,,,,,,,,,,,,,,,[man_2],,,0.23225806451612904,0.8489702517162472,0.37333333333333335,0.08091908091908093,0.21658174734002697,0.22382344529537004,0.05707196029776675,1.0,0.18979469503971225,0.10174663722144148
p3,Trial: 32,p3.edf,.,26,Fixation: 11985 ms,337,11985,12321,[18],12,776,759,499.8,237.3,1,2,35.4,36.7,35,Saccade: 11962 ms,UP,23,1.17,50.66,101.36,"[ 3, 99]",11962,11984,496.9,273.0,497.6,230.3,36,Saccade: 12322 ms,RIGHT,24,2.02,84.2,149.12,"[ 10, 18, 99]",12322,12345,497.7,234.3,556.9,275.7,-96.66,DOWN,0.93,A30,S30.wav,A30.png,15,2266517,preview,,,,,,,,,,,,,,,,,,[laptop_1],,,0.43483870967741933,0.8878718535469108,0.30666666666666664,0.05844155844155844,0.18979469503971225,0.1610473799612317,0.05955334987593052,1.0,0.3154503221939158,0.1496888175065248
p3,Trial: 32,p3.edf,.,27,Fixation: 12346 ms,422,12346,12767,"[10, 18]",17,778,422,544.2,267.5,1,1,35.3,36.55,36,Saccade: 12322 ms,RIGHT,24,2.02,84.2,149.12,"[ 10, 18, 99]",12322,12345,497.7,234.3,556.9,275.7,37,Saccade: 12768 ms,LEFT,19,1.55,81.82,114.9,[ 99],12768,12786,545.6,266.9,496.6,241.1,146.72,LEFT,1.5,A30,S30.wav,A30.png,15,2266517,preview,,,,,,,,,,,,,,,,,,"[table_2, laptop_1]",,,0.5445161290322581,0.8901601830663616,0.32,0.1008991008991009,0.3154503221939158,0.23693158346309068,0.04714640198511166,1.0,0.30653379289674804,0.1153382854848424
p3,Trial: 32,p3.edf,13195,28,Fixation: 12787 ms,435,12787,13221,[],60,739,16599,498.7,241.5,28,58,35.4,36.7,37,Saccade: 12768 ms,LEFT,19,1.55,81.82,114.9,"[ 10, 18, 99]",12768,12786,545.6,266.9,496.6,241.1,38,Saccade: 13222 ms,RIGHT,24,1.84,76.82,139.67,"[ 10, 18, 99]",13222,13245,499.0,243.9,561.9,261.6,-28.88,RIGHT,1.47,A30,S30.wav,A30.png,15,2266517,preview,,,,,,,,,,,,,,,,,,[],,,0.5612903225806452,0.8455377574370709,0.25333333333333335,0.07742257742257742,0.30653379289674804,0.18256061520861802,0.05955334987593052,1.0,0.28780158849093357,0.1402027705280064
p3,Trial: 32,p3.edf,13285,29,Fixation: 13246 ms,425,13246,13670,"[10, 18]",17,747,963,552.8,254.6,1,2,35.3,36.6,38,Saccade: 13222 ms,RIGHT,24,1.84,76.82,139.67,"[ 3, 99]",13222,13245,499.0,243.9,561.9,261.6,39,Saccade: 13671 ms,.,257,0.34,1.34,843.69,"[ 10, 18, 99]",13671,13927,557.3,253.9,547.5,261.3,166.85,LEFT,1.57,A30,S30.wav,A30.png,15,2266517,preview,,,,,,,,,,,,,,,,,,"[table_2, laptop_1]",,,0.5483870967741935,0.8546910755148741,0.32,0.09190809190809192,0.28780158849093357,0.22191680701642885,0.6377171215880894,1.0,0.00502023078075828,0.8469082513551496
p3,Trial: 32,p3.edf,.,30,Fixation: 14276 ms,538,14276,14813,"[10, 18]",17,766,963,503.0,235.0,2,2,35.4,36.7,40,Saccade: 14251 ms,LEFT,25,1.91,76.2,137.65,"[ 10, 18, 99]",14251,14275,555.4,269.5,495.3,238.0,41,Saccade: 14814 ms,RIGHT,22,1.25,56.94,88.72,"[ 10, 18, 99]",14814,14835,499.6,232.0,535.2,259.3,-20.79,RIGHT,1.51,A30,S30.wav,A30.png,15,2266517,task,[3],[Pronoun_ref],[920],[1240],[320],[0],[sich],[nan],[0.0],[0.0],[nan],[nan],[sie],[nan],[nan],[nan],[nan],"[table_2, laptop_1]",,,0.6941935483870968,0.8764302059496567,0.3333333333333333,0.09540459540459541,0.2854787951446126,0.2187072992468779,0.05459057071960298,1.0,0.21332234377341525,0.08905842200361373
p3,Trial: 32,p3.edf,14960,31,Fixation: 14836 ms,469,14836,15304,[3],8,713,469,527.7,258.8,1,1,35.3,36.6,41,Saccade: 14814 ms,RIGHT,22,1.25,56.94,88.72,"[ 10, 18, 99]",14814,14835,499.6,232.0,535.2,259.3,42,Saccade: 15305 ms,RIGHT,32,4.44,138.76,278.0,"[ 4, 10, 99]",15305,15336,524.0,260.5,665.3,330.3,137.1,LEFT,0.95,A30,S30.wav,A30.png,15,2266517,task,[4],[Determiner_1],[1470],[1680],[210],[0],[ein],[an],[0.0],[0.0],[nan],[nan],[eine],[nan],[nan],[nan],[nan],[man_2],,,0.6051612903225806,0.8157894736842105,0.29333333333333333,0.06243756243756244,0.21332234377341525,0.14096412342305126,0.0794044665012407,1.0,0.5198561366701633,0.27906042963260386
p3,Trial: 32,p3.edf,.,32,Fixation: 15337 ms,491,15337,15827,"[4, 10]",5,727,491,660.0,329.6,1,1,35.2,36.5,42,Saccade: 15305 ms,RIGHT,32,4.44,138.76,278.0,"[ 3, 99]",15305,15336,524.0,260.5,665.3,330.3,43,Saccade: 15828 ms,LEFT,328,13.78,42.0,840.28,[ 99],15828,16155,660.3,327.5,162.5,313.3,152.7,LEFT,4.22,A30,S30.wav,A30.png,15,2266517,task,[5],[Noun_1],[1760],[2560],[800],[0],[Umschlag],[envelope],[0.0],[0.0],[envelope_1],[S01_I030_E005],[Umschlag],[nan],[nan],[nan],[nan],"[envelope_2, table_2]",,,0.6335483870967742,0.8318077803203662,0.4266666666666667,0.2217782217782218,0.5198561366701633,0.44170453462137343,0.8138957816377171,1.0,0.1573505170088416,0.8434852439269223
p3,Trial: 32,p3.edf,16531,33,Fixation: 16511 ms,176,16511,16686,"[7, 15]",6,821,176,313.4,372.8,1,1,36.1,36.95,44,Saccade: 16481 ms,RIGHT,30,4.55,151.64,290.39,"[ 7, 99]",16481,16510,149.0,358.0,314.9,374.9,45,Saccade: 16687 ms,RIGHT,55,9.15,166.45,399.48,"[ 4, 10, 99]",16687,16741,311.1,368.1,632.4,309.1,6.9,RIGHT,9.79,A30,S30.wav,A30.png,15,2266517,task,,break,,,,,,,,,,,,,,,,"[table_3, sandwichplate_1]",,,0.2270967741935484,0.9393592677345538,0.4,0.22727272727272727,0.5681102952195414,0.4613905748514411,0.13647642679900746,1.0,0.6235950846695638,0.4010038144950813
p3,Trial: 32,p3.edf,.,34,Fixation: 16742 ms,246,16742,16987,"[4, 10]",5,778,380,647.0,307.8,1,2,35.2,36.5,45,Saccade: 16687 ms,RIGHT,55,9.15,166.45,399.48,"[ 7, 15, 99]",16687,16741,311.1,368.1,632.4,309.1,46,Saccade: 16988 ms,RIGHT,11,0.65,59.23,55.61,"[ 4, 10, 99]",16988,16998,649.0,313.5,670.7,321.2,-169.29,LEFT,9.52,A30,S30.wav,A30.png,15,2266517,task,[8],[Noun_2],[3331],[4130],[799],[0],[Schreibtisch],[desk],[0.0],[1.0],[table_1],[S01_I030_E008],[Schreibtisch],[nan],[nan],[nan],[nan],"[envelope_2, table_2]",,,0.3174193548387097,0.8901601830663616,0.7333333333333333,0.45704295704295705,0.6235950846695638,0.6347198830595189,0.02729528535980149,1.0,0.22190169339127827,0.055822124071471586
p3,Trial: 32,p3.edf,.,35,Fixation: 16999 ms,134,16999,17132,"[4, 10]",5,764,380,663.1,324.8,2,2,35.2,36.5,46,Saccade: 16988 ms,RIGHT,11,0.65,59.23,55.61,"[ 4, 10, 99]",16988,16998,649.0,313.5,670.7,321.2,47,Saccade: 17133 ms,LEFT,42,4.41,104.9,343.0,"[ 3, 99]",17133,17174,663.5,325.2,512.2,288.9,134.48,UP,0.65,A30,S30.wav,A30.png,15,2266517,task,[8],[Noun_2],[3331],[4130],[799],[0],[Schreibtisch],[desk],[0.0],[1.0],[table_1],[S01_I030_E008],[Schreibtisch],[nan],[nan],[nan],[nan],"[envelope_2, table_2]",,,0.17290322580645162,0.8741418764302059,0.14666666666666667,0.03246753246753247,0.22190169339127827,0.08835679557659919,0.10421836228287841,1.0,0.3930016484339877,0.344308371812889
p3,Trial: 32,p3.edf,.,36,Fixation: 17175 ms,651,17175,17825,[3],8,768,651,505.0,286.6,1,1,35.3,36.6,47,Saccade: 17133 ms,LEFT,42,4.41,104.9,343.0,"[ 4, 10, 99]",17133,17174,663.5,325.2,512.2,288.9,48,Saccade: 17826 ms,UP,23,1.59,69.1,115.22,"[ 10, 18, 99]",17826,17848,508.4,289.6,523.9,233.7,-13.12,RIGHT,4.61,A30,S30.wav,A30.png,15,2266517,task,[8],[Noun_2],[3331],[4130],[799],[0],[Schreibtisch],[desk],[0.0],[1.0],[table_1],[S01_I030_E008],[Schreibtisch],[nan],[nan],[nan],[nan],[man_2],,,0.84,0.8787185354691075,0.56,0.2202797202797203,0.3930016484339877,0.5449807747306874,0.05707196029776675,1.0,0.25887906488835605,0.11565950612326842
p3,Trial: 32,p3.edf,18012,37,Fixation: 17849 ms,240,17849,18088,[],60,830,16599,528.8,243.7,37,58,35.3,36.6,48,Saccade: 17826 ms,UP,23,1.59,69.1,115.22,"[ 3, 99]",17826,17848,508.4,289.6,523.9,233.7,49,Saccade: 18089 ms,UP,221,0.68,3.09,996.2,"[ 10, 18, 99]",18089,18309,530.9,240.2,542.5,218.3,-119.91,DOWN,1.35,A30,S30.wav,A30.png,15,2266517,task,[9],[Relative Clause Pronoun],[4500],[4650],[150],[1],[den],[that],[0.0],[0.0],[nan],[nan],[die],[nan],[nan],[nan],[nan],[],,,0.3096774193548387,0.9496567505720824,0.30666666666666664,0.07942057942057942,0.25887906488835605,0.1830690520830023,0.5483870967741935,1.0,0.011576502322793345,1.0
p3,Trial: 32,p3.edf,.,38,Fixation: 18424 ms,424,18424,18847,"[6, 12]",2,874,424,160.0,200.6,1,1,37.2,37.65,50,Saccade: 18371 ms,LEFT,53,10.15,191.48,542.48,"[ 10, 18, 99]",18371,18423,544.0,223.8,177.7,195.0,51,Saccade: 18848 ms,DOWN,47,4.58,97.43,317.72,"[ 7, 13, 99]",18848,18894,156.0,200.8,75.1,353.6,-6.51,RIGHT,10.24,A30,S30.wav,A30.png,15,2266517,task,[11],[Relative Clause Verb],[4812],[5772],[960],[0],[zusammenbaut],[assembles],[1.0],[0.0],[nan],[nan],[zusammenbauen],[nan],[nan],[nan],[nan],"[envelope_3, box_1]",,,0.5470967741935484,1.0,0.7066666666666667,0.506993006993007,0.7173684999250711,0.8619276113000096,0.11662531017369727,1.0,0.3650157350517009,0.3189319413772335
p3,Trial: 32,p3.edf,.,39,Fixation: 18895 ms,201,18895,19095,"[7, 13]",6,827,493,75.0,368.0,1,2,37.9,37.9,51,Saccade: 18848 ms,DOWN,47,4.58,97.43,317.72,"[ 6, 12, 99]",18848,18894,156.0,200.8,75.1,353.6,52,Saccade: 19096 ms,RIGHT,32,5.62,175.54,342.65,"[ 7, 15, 99]",19096,19127,74.7,368.1,283.1,366.7,62.94,UP,4.98,A30,S30.wav,A30.png,15,2266517,task,[11],[Relative Clause Verb],[4812],[5772],[960],[0],[zusammenbaut],[assembles],[1.0],[0.0],[nan],[nan],[zusammenbauen],[nan],[nan],[nan],[nan],"[table_3, coffeemachine_1]",,,0.2593548387096774,0.9462242562929062,0.6266666666666667,0.22877122877122877,0.3650157350517009,0.5048142616543265,0.0794044665012407,1.0,0.6576502322793346,0.3439570367396105
p3,Trial: 32,p3.edf,.,40,Fixation: 19128 ms,292,19128,19419,"[7, 15]",6,818,493,291.0,371.9,2,2,36.25,37.0,52,Saccade: 19096 ms,RIGHT,32,5.62,175.54,342.65,"[ 7, 13, 99]",19096,19127,74.7,368.1,283.1,366.7,53,Saccade: 19420 ms,RIGHT,75,20.02,266.92,629.38,"[ 2, 99]",19420,19494,290.5,372.3,1011.9,461.7,178.98,LEFT,5.83,A30,S30.wav,A30.png,15,2266517,task,[11],[Relative Clause Verb],[4812],[5772],[960],[0],[zusammenbaut],[assembles],[1.0],[0.0],[nan],[nan],[zusammenbauen],[nan],[nan],[nan],[nan],"[table_3, sandwichplate_1]",,,0.3767741935483871,0.9359267734553776,0.4266666666666667,0.2807192807192807,0.6576502322793346,0.5444246718993294,0.18610421836228289,1.0,1.0,0.6317807669142742
p3,Trial: 32,p3.edf,19640,41,Fixation: 19495 ms,357,19495,19851,[2],6,756,357,1004.3,468.2,1,1,36.4,37.2,53,Saccade: 19420 ms,RIGHT,75,20.02,266.92,629.38,"[ 7, 15, 99]",19420,19494,290.5,372.3,1011.9,461.7,54,Saccade: 19852 ms,LEFT,53,9.32,175.94,539.03,"[ 8, 99]",19852,19904,1006.1,469.6,717.4,646.6,172.47,LEFT,19.81,A30,S30.wav,A30.png,15,2266517,post,,,,,,,,,,,,,,,,,,[man_1],,,0.46064516129032257,0.8649885583524027,1.0,1.0,1.0,1.0,0.1315136476426799,1.0,0.6591488086317997,0.5410861272836779
p3,Trial: 32,p3.edf,.,42,Fixation: 19905 ms,680,19905,20584,[8],8,725,680,709.6,664.5,1,1,35.6,37.25,54,Saccade: 19852 ms,LEFT,53,9.32,175.94,539.03,"[ 2, 99]",19852,19904,1006.1,469.6,717.4,646.6,55,Saccade: 20585 ms,UP,54,8.8,162.95,424.54,"[ 19, 99]",20585,20638,716.4,666.5,522.4,411.9,32.79,RIGHT,9.74,A30,S30.wav,A30.png,15,2266517,post,,,,,,,,,,,,,,,,,,[table_1],,,0.8774193548387097,0.8295194508009154,0.7066666666666667,0.46553446553446554,0.6591488086317997,0.8564460262480535,0.13399503722084366,1.0,0.6104825415854938,0.42615940574181893
