RECORDING_SESSION_LABEL,TRIAL_LABEL,DATA_FILE,CURRENT_FIX_MSG_TIME_1,CURRENT_FIX_INDEX,CURRENT_FIX_LABEL,CURRENT_FIX_DURATION,CURRENT_FIX_START,CURRENT_FIX_END,CURRENT_FIX_INTEREST_AREAS,CURRENT_FIX_INTEREST_AREA_FIX_COUNT,CURRENT_FIX_PUPIL,CURRENT_FIX_RUN_DWELL_TIME,CURRENT_FIX_X,CURRENT_FIX_Y,CURRENT_FIX_RUN_INDEX,CURRENT_FIX_RUN_SIZE,CURRENT_FIX_X_RESOLUTION,CURRENT_FIX_Y_RESOLUTION,PREVIOUS_SAC_INDEX,PREVIOUS_SAC_LABEL,PREVIOUS_SAC_DIRECTION,PREVIOUS_SAC_DURATION,PREVIOUS_SAC_AMPLITUDE,PREVIOUS_SAC_AVG_VELOCITY,PREVIOUS_SAC_PEAK_VELOCITY,PREVIOUS_SAC_START_INTEREST_AREAS,PREVIOUS_SAC_START_TIME,PREVIOUS_SAC_END_TIME,PREVIOUS_SAC_START_X,PREVIOUS_SAC_START_Y,PREVIOUS_SAC_END_X,PREVIOUS_SAC_END_Y,NEXT_SAC_INDEX,NEXT_SAC_LABEL,NEXT_SAC_DIRECTION,NEXT_SAC_DURATION,NEXT_SAC_AMPLITUDE,NEXT_SAC_AVG_VELOCITY,NEXT_SAC_PEAK_VELOCITY,NEXT_SAC_END_INTEREST_AREAS,NEXT_SAC_START_TIME,NEXT_SAC_END_TIME,NEXT_SAC_START_X,NEXT_SAC_START_Y,NEXT_SAC_END_X,NEXT_SAC_END_Y,PREVIOUS_FIX_ANGLE,PREVIOUS_FIX_DIRECTION,PREVIOUS_FIX_DISTANCE,ItemNO,audiofilename,imagefilename,TRIAL_INDEX,TRIAL_START_TIME,viewtype,word_index,Label,word_onset,word_offset,word_duration,Continuation,wordDE,wordEN,REFWord,TargetObj,ObjectLabel,ObjectID,LemmaDE,LingIndex,DepS,pos_1,pos_2,CURRENT_FIX_INTEREST_AREAS_Labelled,PREVIOUS_SAC_START_INTEREST_AREAS_Labelled,NEXT_SAC_END_INTEREST_AREAS_Labelled,NORMALIZED_CURRENT_FIX_DURATION,NORMALIZED_CURRENT_FIX_PUPIL,NORMALIZED_PREVIOUS_SAC_DURATION,NORMALIZED_PREVIOUS_SAC_AMPLITUDE,NORMALIZED_PREVIOUS_SAC_AVG_VELOCITY,NORMALIZED_PREVIOUS_SAC_PEAK_VELOCITY,NORMALIZED_NEXT_SAC_DURATION,NORMALIZED_NEXT_SAC_AMPLITUDE,NORMALIZED_NEXT_SAC_AVG_VELOCITY,NORMALIZED_NEXT_SAC_PEAK_VELOCITY
p12,Trial: 37,p12.edf,.,1,Fixation: 3391 ms,292,3391,3682,[11],5,1002,292,666.8,772.8,1,1,35.9,37.95,3,Saccade: 3354 ms,UP,37,4.67,126.28,245.44,[ ],3354,3390,670.5,942.9,650.3,763.6,4,Saccade: 3683 ms,LEFT,196,0.69,3.52,1074.14,"[ 11, 99]",3683,3878,661.3,777.1,639.7,764.3,-88.96,DOWN,4.39,A14,S14.wav,A14.png,18,16665482,preview,,,,,,,,,,,,,,,,,,[woman_1],,,0.17783191230207065,0.7637195121951219,0.39361702127659576,0.18509710661910422,0.4240145054059499,0.43049830740357464,0.9751243781094527,1.0,0.011857441218082597,0.9013056320064443
p12,Trial: 37,p12.edf,.,2,Fixation: 4320 ms,216,4320,4535,[3],3,1061,216,181.8,362.7,1,1,36.9,37.35,5,Saccade: 4247 ms,LEFT,73,16.55,226.68,493.5,"[ 11, 99]",4247,4319,679.8,763.9,213.8,371.3,6,Saccade: 4536 ms,LEFT,17,0.99,57.95,80.52,"[ 4, 99]",4536,4552,174.4,356.4,137.8,356.6,-39.27,RIGHT,17.21,A14,S14.wav,A14.png,18,16665482,preview,,,,,,,,,,,,,,,,,,[man_2],,,0.1315468940316687,0.8086890243902439,0.776595744680851,0.655965120887832,0.7611308844268351,0.8655920579516952,0.0845771144278607,1.0,0.19520986323519504,0.06756393904813049
p12,Trial: 37,p12.edf,.,3,Fixation: 4553 ms,167,4553,4719,[4],6,1040,167,145.3,354.7,1,1,37.3,37.6,6,Saccade: 4536 ms,LEFT,17,0.99,57.95,80.52,[ 99],4536,4552,174.4,356.4,137.8,356.6,7,Saccade: 4720 ms,RIGHT,85,25.23,296.86,561.44,[ 99],4720,4804,143.2,353.8,1076.6,426.4,-12.24,RIGHT,1.01,A14,S14.wav,A14.png,18,16665482,preview,,,,,,,,,,,,,,,,,,[cage_2],,,0.10170523751522534,0.7926829268292683,0.18085106382978725,0.03923900118906064,0.19458061916593916,0.14123094732780242,0.4228855721393035,1.0,1.0,0.4711015640733034
p12,Trial: 37,p12.edf,.,4,Fixation: 4805 ms,250,4805,5054,[10],8,1019,250,1093.3,429.8,1,1,36.95,37.4,7,Saccade: 4720 ms,RIGHT,85,25.23,296.86,561.44,"[ 4, 99]",4720,4804,143.2,353.8,1076.6,426.4,8,Saccade: 5055 ms,UP,15,0.59,39.14,47.75,"[ 2, 99]",5055,5069,1097.0,431.9,1100.5,410.2,175.52,LEFT,25.61,A14,S14.wav,A14.png,18,16665482,preview,,,,,,,,,,,,,,,,,,[cage_1],,,0.15225334957369063,0.7766768292682927,0.9042553191489362,1.0,0.9967765764555773,0.984757862241945,0.07462686567164178,1.0,0.13184666172606616,0.040066791971537896
p12,Trial: 37,p12.edf,.,5,Fixation: 5070 ms,206,5070,5275,[2],6,1023,538,1102.0,412.8,1,2,37.0,37.4,8,Saccade: 5055 ms,UP,15,0.59,39.14,47.75,"[ 10, 99]",5055,5069,1097.0,431.9,1100.5,410.2,9,Saccade: 5276 ms,RIGHT,19,1.09,57.56,86.35,"[ 2, 99]",5276,5294,1100.0,412.3,1135.9,431.5,-117.37,DOWN,0.51,A14,S14.wav,A14.png,18,16665482,preview,,,,,,,,,,,,,,,,,,[man_1],,,0.12545676004872108,0.7797256097560976,0.1595744680851064,0.023384859294490683,0.1314216640924048,0.08375282830231702,0.0945273631840796,1.0,0.19389611264569157,0.07245586359669731
p12,Trial: 37,p12.edf,.,6,Fixation: 5295 ms,332,5295,5626,[2],6,978,538,1126.1,428.3,2,2,37.25,37.6,9,Saccade: 5276 ms,RIGHT,19,1.09,57.56,86.35,"[ 2, 99]",5276,5294,1100.0,412.3,1135.9,431.5,10,Saccade: 5627 ms,LEFT,27,2.71,100.41,175.91,[ 99],5627,5653,1125.8,430.1,1026.5,419.0,147.51,LEFT,0.77,A14,S14.wav,A14.png,18,16665482,preview,,,,,,,,,,,,,,,,,,[man_1],,,0.20219244823386115,0.7454268292682927,0.20212765957446807,0.043202536662703135,0.1932711033510174,0.15145668531738374,0.13432835820895522,1.0,0.33824024792831636,0.14760522252802577
p12,Trial: 37,p12.edf,.,7,Fixation: 5654 ms,189,5654,5842,[],53,992,20107,1039.1,419.6,7,52,36.55,37.2,10,Saccade: 5627 ms,LEFT,27,2.71,100.41,175.91,"[ 2, 99]",5627,5653,1125.8,430.1,1026.5,419.0,11,Saccade: 5843 ms,.,6,0.28,46.85,34.24,"[ 10, 99]",5843,5848,1041.5,425.2,1031.6,428.0,-5.63,RIGHT,2.37,A14,S14.wav,A14.png,18,16665482,preview,,,,,,,,,,,,,,,,,,[],,,0.11510353227771011,0.7560975609756098,0.2872340425531915,0.10741181133571145,0.3371499563494728,0.30854366547980283,0.029850746268656716,1.0,0.1578185003031732,0.028730616902732094
p12,Trial: 37,p12.edf,.,8,Fixation: 5849 ms,243,5849,6091,[],53,994,20107,1028.8,426.2,8,52,36.5,37.2,11,Saccade: 5843 ms,.,6,0.28,46.85,34.24,[ 99],5843,5848,1041.5,425.2,1031.6,428.0,12,Saccade: 6092 ms,LEFT,52,7.65,147.2,399.87,"[ 15, 99]",6092,6143,1027.6,426.6,754.9,391.8,32.18,.,0.33,A14,S14.wav,A14.png,18,16665482,preview,,,,,,,,,,,,,,,,,,[],,,0.14799025578562727,0.7576219512195121,0.06382978723404255,0.01109789932619897,0.15730978443355048,0.06005647834704366,0.25870646766169153,1.0,0.4958566327561813,0.3355289655635363
p12,Trial: 37,p12.edf,.,9,Fixation: 6144 ms,240,6144,6383,[15],7,1061,240,737.9,394.6,1,1,35.3,36.5,12,Saccade: 6092 ms,LEFT,52,7.65,147.2,399.87,[ 99],6092,6143,1027.6,426.6,754.9,391.8,13,Saccade: 6384 ms,LEFT,69,17.03,246.77,549.56,[ 99],6384,6452,738.7,394.8,123.8,315.6,-6.04,RIGHT,8.15,A14,S14.wav,A14.png,18,16665482,preview,,,,,,,,,,,,,,,,,,[chair_2],,,0.146163215590743,0.8086890243902439,0.5531914893617021,0.3032104637336504,0.49425827681149687,0.7013663550418325,0.34328358208955223,1.0,0.8312672640301826,0.46113311404980867
p12,Trial: 37,p12.edf,.,10,Fixation: 6453 ms,223,6453,6675,[4],6,1099,331,116.2,324.2,1,2,37.5,37.7,13,Saccade: 6384 ms,LEFT,69,17.03,246.77,549.56,"[ 15, 99]",6384,6452,738.7,394.8,123.8,315.6,14,Saccade: 6676 ms,.,20,0.35,17.59,55.67,"[ 4, 99]",6676,6695,117.6,325.1,104.4,325.7,-6.34,RIGHT,17.18,A14,S14.wav,A14.png,18,16665482,preview,,,,,,,,,,,,,,,,,,[cage_2],,,0.13580998781973203,0.8376524390243902,0.7340425531914894,0.6749900911613159,0.8285877375595998,0.9639205093575148,0.09950248756218906,1.0,0.05925352017786162,0.04671242532053434
p12,Trial: 37,p12.edf,.,11,Fixation: 6696 ms,108,6696,6803,[4],6,1076,331,101.6,324.1,2,2,37.65,37.75,14,Saccade: 6676 ms,.,20,0.35,17.59,55.67,"[ 4, 99]",6676,6695,117.6,325.1,104.4,325.7,15,Saccade: 6804 ms,RIGHT,20,1.43,71.71,105.18,"[ 24, 99]",6804,6823,100.0,324.9,146.6,297.9,-0.39,.,0.39,A14,S14.wav,A14.png,18,16665482,preview,,,,,,,,,,,,,,,,,,[cage_2],,,0.06577344701583435,0.8201219512195121,0.2127659574468085,0.013872374157748711,0.05906252098583037,0.09764439689193694,0.09950248756218906,1.0,0.24156167890588154,0.08825602470296033
p12,Trial: 37,p12.edf,.,12,Fixation: 6824 ms,195,6824,7018,[],53,1088,20107,139.0,300.9,12,52,37.3,37.6,15,Saccade: 6804 ms,RIGHT,20,1.43,71.71,105.18,"[ 4, 99]",6804,6823,100.0,324.9,146.6,297.9,16,Saccade: 7019 ms,UP,14,0.81,58.14,62.65,[ 99],7019,7032,140.7,306.1,121.9,282.0,-148.32,LEFT,1.17,A14,S14.wav,A14.png,18,16665482,preview,,,,,,,,,,,,,,,,,,[],,,0.11875761266747868,0.8292682926829268,0.2127659574468085,0.05667855727308759,0.24078302330266602,0.18448424043639172,0.06965174129353234,1.0,0.19584989557367108,0.05256930925689736
p12,Trial: 37,p12.edf,.,13,Fixation: 7033 ms,255,7033,7287,[],53,1071,20107,119.1,285.1,13,52,37.5,37.7,16,Saccade: 7019 ms,UP,14,0.81,58.14,62.65,[ 99],7019,7032,140.7,306.1,121.9,282.0,17,Saccade: 7288 ms,LEFT,19,1.17,61.61,72.3,[ 99],7288,7306,120.1,285.3,83.9,310.5,-38.26,RIGHT,0.68,A14,S14.wav,A14.png,18,16665482,preview,,,,,,,,,,,,,,,,,,[],,,0.15529841656516444,0.8163109756097561,0.14893617021276595,0.03210463733650416,0.19521858840910616,0.10988721870450599,0.0945273631840796,1.0,0.20753890722899682,0.06066657716318722
p12,Trial: 37,p12.edf,.,14,Fixation: 7307 ms,446,7307,7752,[],53,1033,20107,82.2,317.6,14,52,37.8,37.8,17,Saccade: 7288 ms,LEFT,19,1.17,61.61,72.3,[ 99],7288,7306,120.1,285.3,83.9,310.5,18,Saccade: 7753 ms,UP,191,1.63,8.55,461.5,[ 99],7753,7943,90.4,324.6,123.6,272.7,41.3,RIGHT,1.3,A14,S14.wav,A14.png,18,16665482,preview,,,,,,,,,,,,,,,,,,[],,,0.27161997563946405,0.7873475609756098,0.20212765957446807,0.04637336504161712,0.2068699214290511,0.12681318295827268,0.9502487562189055,1.0,0.028801455231422222,0.3872423977982144
p12,Trial: 37,p12.edf,.,15,Fixation: 8082 ms,206,8082,8287,[4],6,1086,206,112.0,318.2,1,1,37.6,37.7,19,Saccade: 8070 ms,DOWN,12,0.64,53.66,51.58,[ 99],8070,8081,123.9,298.0,107.9,316.2,20,Saccade: 8288 ms,RIGHT,88,24.93,283.32,533.82,[ 99],8288,8375,112.5,326.8,1033.0,404.9,178.85,LEFT,0.79,A14,S14.wav,A14.png,18,16665482,preview,,,,,,,,,,,,,,,,,,[cage_2],,,0.12545676004872108,0.8277439024390244,0.1276595744680851,0.02536662703131193,0.18017594520179975,0.0904705944258327,0.43781094527363185,1.0,0.9543892744054435,0.44792575686379815
p12,Trial: 37,p12.edf,.,16,Fixation: 8376 ms,249,8376,8624,[],53,1013,20107,1050.5,410.0,16,52,36.6,37.25,20,Saccade: 8288 ms,RIGHT,88,24.93,283.32,533.82,"[ 4, 99]",8288,8375,112.5,326.8,1033.0,404.9,21,Saccade: 8625 ms,RIGHT,34,1.45,42.53,163.1,[ 99],8625,8658,1051.8,415.0,1104.7,422.1,174.47,LEFT,25.41,A14,S14.wav,A14.png,18,16665482,preview,,,,,,,,,,,,,,,,,,[],,,0.15164433617539586,0.7721036585365854,0.9361702127659575,0.9881093935790725,0.9513128735477805,0.9363127707715785,0.1691542288557214,1.0,0.14326618608098093,0.13685641404309593
p12,Trial: 37,p12.edf,.,17,Fixation: 8659 ms,524,8659,9182,[2],6,957,674,1116.2,431.3,1,2,37.1,37.5,21,Saccade: 8625 ms,RIGHT,34,1.45,42.53,163.1,[ 99],8625,8658,1051.8,415.0,1104.7,422.1,22,Saccade: 9183 ms,UP,36,4.13,114.7,226.13,"[ 2, 99]",9183,9218,1111.7,436.7,1176.1,295.4,162.27,LEFT,1.87,A14,S14.wav,A14.png,18,16665482,preview,,,,,,,,,,,,,,,,,,[man_1],,,0.31912302070645554,0.729420731707317,0.3617021276595745,0.05747126436781609,0.14280437848364785,0.28607510567765243,0.1791044776119403,1.0,0.38637741696422556,0.18974457944552595
p12,Trial: 37,p12.edf,.,18,Fixation: 9219 ms,150,9219,9368,[2],6,911,674,1183.2,300.2,2,2,37.7,37.8,22,Saccade: 9183 ms,UP,36,4.13,114.7,226.13,[ 99],9183,9218,1111.7,436.7,1176.1,295.4,23,Saccade: 9369 ms,LEFT,60,11.53,192.2,492.97,"[ 15, 99]",9369,9428,1181.0,300.3,769.8,392.0,-117.23,DOWN,3.92,A14,S14.wav,A14.png,18,16665482,preview,,,,,,,,,,,,,,,,,,[man_1],,,0.09135200974421437,0.694359756097561,0.3829787234042553,0.1636940150614348,0.3851319589013498,0.3966288390367109,0.29850746268656714,1.0,0.6474432392373509,0.4136487212190374
p12,Trial: 37,p12.edf,.,19,Fixation: 9429 ms,431,9429,9859,[15],7,1000,431,761.2,399.6,1,1,35.3,36.6,23,Saccade: 9369 ms,LEFT,60,11.53,192.2,492.97,"[ 2, 99]",9369,9428,1181.0,300.3,769.8,392.0,24,Saccade: 9860 ms,RIGHT,51,10.26,201.14,313.77,"[ 2, 99]",9860,9910,760.8,398.6,1123.9,316.6,13.01,RIGHT,11.87,A14,S14.wav,A14.png,18,16665482,preview,,,,,,,,,,,,,,,,,,[chair_2],,,0.2624847746650426,0.7621951219512195,0.6382978723404256,0.456995640110979,0.6453562554563159,0.8646624454071878,0.2537313432835821,1.0,0.6775584450582766,0.26328287574679465
p12,Trial: 37,p12.edf,.,20,Fixation: 9911 ms,118,9911,10028,[2],6,996,469,1125.0,303.0,1,2,37.2,37.5,24,Saccade: 9860 ms,RIGHT,51,10.26,201.14,313.77,"[ 15, 99]",9860,9910,760.8,398.6,1123.9,316.6,25,Saccade: 10029 ms,RIGHT,23,1.42,61.89,116.52,"[ 2, 99]",10029,10051,1128.0,304.5,1179.5,290.4,-165.44,LEFT,10.37,A14,S14.wav,A14.png,18,16665482,preview,,,,,,,,,,,,,,,,,,[man_1],,,0.07186358099878197,0.7591463414634146,0.5425531914893617,0.40665873959571935,0.6753743872137532,0.550348166207707,0.11442786069651742,1.0,0.2084821127804352,0.09777136336175068
p12,Trial: 37,p12.edf,.,21,Fixation: 10052 ms,351,10052,10402,[2],6,983,469,1170.2,286.5,2,2,37.65,37.75,25,Saccade: 10029 ms,RIGHT,23,1.42,61.89,116.52,"[ 2, 99]",10029,10051,1128.0,304.5,1179.5,290.4,26,Saccade: 10403 ms,.,162,0.03,0.2,801.28,"[ 2, 99]",10403,10564,1170.9,294.2,1170.1,295.1,-160.04,LEFT,1.28,A14,S14.wav,A14.png,18,16665482,preview,,,,,,,,,,,,,,,,,,[man_1],,,0.21376370280146162,0.7492378048780488,0.24468085106382978,0.05628220372572334,0.20781008662950776,0.20437444091698384,0.8059701492537313,1.0,0.0006737182510274203,0.6723501376115997
p12,Trial: 37,p12.edf,.,22,Fixation: 10771 ms,183,10771,10953,[5],3,998,183,652.7,296.3,1,1,35.2,36.5,27,Saccade: 10706 ms,LEFT,65,13.81,212.47,471.97,"[ 2, 99]",10706,10770,1165.8,293.7,663.1,295.4,28,Saccade: 10954 ms,LEFT,42,6.13,145.99,321.01,"[ 17, 24, 99]",10954,10995,653.8,291.5,438.3,267.4,1.06,RIGHT,14.21,A14,S14.wav,A14.png,18,16665482,preview,,,,,,,,,,,,,,,,,,[cage_3],,,0.11144945188794153,0.760670731707317,0.6914893617021277,0.5473642489100278,0.7134175005036599,0.8278287408134988,0.208955223880597,1.0,0.49178063733746546,0.2693579244143116
p12,Trial: 37,p12.edf,.,23,Fixation: 10996 ms,429,10996,11424,"[17, 24]",2,945,601,435.8,261.4,1,2,35.55,36.7,28,Saccade: 10954 ms,LEFT,42,6.13,145.99,321.01,"[ 5, 99]",10954,10995,653.8,291.5,438.3,267.4,29,Saccade: 11425 ms,RIGHT,18,1.11,61.51,81.86,"[ 17, 24, 99]",11425,11442,431.2,262.7,470.1,268.5,-8.84,RIGHT,6.21,A14,S14.wav,A14.png,18,16665482,preview,,,,,,,,,,,,,,,,,,"[medbottles_1, shelf_1]",,,0.2612667478684531,0.7202743902439024,0.44680851063829785,0.24296472453428458,0.49019542005238065,0.5630470243628646,0.08955223880597014,1.0,0.2072020481034831,0.06868832650869303
p12,Trial: 37,p12.edf,.,24,Fixation: 11443 ms,172,11443,11614,"[17, 24]",2,893,601,465.3,269.3,2,2,35.45,36.7,29,Saccade: 11425 ms,RIGHT,18,1.11,61.51,81.86,"[ 17, 24, 99]",11425,11442,431.2,262.7,470.1,268.5,30,Saccade: 11615 ms,DOWN,62,13.54,218.37,496.03,"[ 11, 99]",11615,11676,462.1,264.8,662.6,722.2,165.48,LEFT,0.86,A14,S14.wav,A14.png,18,16665482,preview,,,,,,,,,,,,,,,,,,"[medbottles_1, shelf_1]",,,0.10475030450669914,0.680640243902439,0.19148936170212766,0.043995243757431635,0.20653414814317372,0.1435812884780664,0.30845771144278605,1.0,0.7355992723842889,0.4162163522856951
p12,Trial: 37,p12.edf,.,25,Fixation: 11677 ms,291,11677,11967,[11],5,932,291,660.2,732.2,1,1,35.7,37.65,30,Saccade: 11615 ms,DOWN,62,13.54,218.37,496.03,"[ 17, 24, 99]",11615,11676,462.1,264.8,662.6,722.2,31,Saccade: 11968 ms,UP,201,1.22,6.08,713.38,[ 99],11968,12168,654.2,729.4,653.8,683.5,113.75,UP,13.6,A14,S14.wav,A14.png,18,16665482,preview,,,,,,,,,,,,,,,,,,[woman_1],,,0.17722289890377588,0.7103658536585366,0.6595744680851063,0.536662703131193,0.7332281243704252,0.8700296423622682,1.0,1.0,0.020481034831233577,0.5985936765791771
p12,Trial: 37,p12.edf,.,26,Fixation: 12379 ms,149,12379,12527,[5],3,1118,149,703.6,362.4,1,1,35.2,36.5,32,Saccade: 12322 ms,UP,57,8.56,150.16,394.56,[ 99],12322,12378,671.4,691.7,698.5,376.7,33,Saccade: 12528 ms,RIGHT,33,1.2,36.41,134.34,"[ 15, 99]",12528,12560,707.3,361.1,740.3,388.6,-97.0,DOWN,10.05,A14,S14.wav,A14.png,18,16665482,preview,,,,,,,,,,,,,,,,,,[cage_3],,,0.0907429963459196,0.8521341463414634,0.6063829787234043,0.3392786365437971,0.5041971660734672,0.6920526897374283,0.16417910447761194,1.0,0.12265040759954185,0.11272403839699269
p12,Trial: 37,p12.edf,.,27,Fixation: 12561 ms,374,12561,12934,[15],7,1039,374,748.6,400.7,1,1,35.3,36.55,33,Saccade: 12528 ms,RIGHT,33,1.2,36.41,134.34,[ 99],12528,12560,707.3,361.1,740.3,388.6,34,Saccade: 12935 ms,LEFT,86,19.18,223.03,522.17,[ 99],12935,13020,749.0,408.1,104.8,699.2,140.6,LEFT,1.65,A14,S14.wav,A14.png,18,16665482,preview,,,,,,,,,,,,,,,,,,[chair_2],,,0.22777101096224117,0.791920731707317,0.35106382978723405,0.047562425683709865,0.12225505338795245,0.23563047024362865,0.42786069651741293,1.0,0.7512969076332278,0.43815029871786265
p12,Trial: 37,p12.edf,13119,28,Fixation: 13021 ms,176,13021,13196,[],53,1079,20107,119.4,691.8,28,52,38.0,38.65,34,Saccade: 12935 ms,LEFT,86,19.18,223.03,522.17,"[ 15, 99]",12935,13020,749.0,408.1,104.8,699.2,35,Saccade: 13197 ms,RIGHT,15,0.81,54.09,65.83,"[ 12, 99]",13197,13211,121.3,692.1,150.7,701.0,24.27,RIGHT,18.83,A14,S14.wav,A14.png,18,16665482,preview,,,,,,,,,,,,,,,,,,[],,,0.1071863580998782,0.8224085365853658,0.9148936170212766,0.7602061038446294,0.7488751594923108,0.915878834651746,0.07462686567164178,1.0,0.18220710099036583,0.055237631737933814
p12,Trial: 37,p12.edf,13275,29,Fixation: 13212 ms,250,13212,13461,[12],1,1119,250,141.9,700.9,1,1,37.7,38.5,35,Saccade: 13197 ms,RIGHT,15,0.81,54.09,65.83,[ 99],13197,13211,121.3,692.1,150.7,701.0,36,Saccade: 13462 ms,UP,37,7.78,210.22,390.8,"[ 4, 23, 99]",13462,13498,144.6,702.0,132.7,405.9,158.36,LEFT,0.64,A14,S14.wav,A14.png,18,16665482,taskpreview,,,,,,,,,,,,,,,,,,[sticks_1],,,0.15225334957369063,0.8528963414634146,0.1595744680851064,0.03210463733650416,0.1816197703310725,0.11546489397155034,0.18407960199004975,1.0,0.7081452536549214,0.32791837282674363
p12,Trial: 37,p12.edf,.,30,Fixation: 13499 ms,209,13499,13707,[4],6,1051,491,144.2,383.0,1,2,37.3,37.55,36,Saccade: 13462 ms,UP,37,7.78,210.22,390.8,"[ 12, 99]",13462,13498,144.6,702.0,132.7,405.9,37,Saccade: 13708 ms,UP,21,1.83,87.21,143.5,"[ 4, 99]",13708,13728,149.0,376.8,106.0,323.2,-90.42,DOWN,8.36,A14,S14.wav,A14.png,18,16665482,task,"[1, 2]","[Adverb, Verb]","[75, 260]","[250, 750]","[175, 490]","[0, 0]","[Da, befindet]","[It, is]","[0.0, 0.0]","[0.0, 0.0]","[nan, nan]","[nan, nan]","[da, befinden]","[nan, nan]","[nan, nan]","[nan, nan]","[nan, nan]",[cage_2],,,0.12728380024360536,0.8010670731707317,0.39361702127659576,0.30836305984938567,0.705862601571419,0.6854577026292249,0.1044776119402985,1.0,0.2937748433605066,0.12041014969456938
p12,Trial: 37,p12.edf,.,31,Fixation: 13729 ms,282,13729,14010,[4],6,1087,491,111.8,322.1,2,2,37.6,37.7,37,Saccade: 13708 ms,UP,21,1.83,87.21,143.5,"[ 4, 99]",13708,13728,149.0,376.8,106.0,323.2,38,Saccade: 14011 ms,RIGHT,26,2.52,96.82,172.65,[ 99],14011,14036,110.8,322.0,204.4,319.1,-61.88,DOWN,1.84,A14,S14.wav,A14.png,18,16665482,task,[2],[Verb],[260],[750],[490],[0],[befindet],[is],[0.0],[0.0],[nan],[nan],[befinden],[nan],[nan],[nan],[nan],[cage_2],,,0.17174177831912302,0.8285060975609756,0.22340425531914893,0.07253269916765755,0.2928278826136592,0.25169698139020924,0.12935323383084577,1.0,0.3261470053223742,0.1448697724374035
p12,Trial: 37,p12.edf,.,32,Fixation: 14037 ms,269,14037,14305,[],53,1152,20107,194.9,322.7,32,52,36.85,37.3,38,Saccade: 14011 ms,RIGHT,26,2.52,96.82,172.65,"[ 4, 99]",14011,14036,110.8,322.0,204.4,319.1,39,Saccade: 14306 ms,RIGHT,14,0.64,45.74,52.09,"[ 3, 99]",14306,14319,199.4,325.6,222.1,319.3,179.59,LEFT,2.23,A14,S14.wav,A14.png,18,16665482,task,[3],[Pronoun_ref],[830],[1030],[200],[0],[sich],[nan],[0.0],[0.0],[nan],[nan],[sie],[nan],[nan],[nan],[nan],[],,,0.1638246041412911,0.8780487804878049,0.2765957446808511,0.09988109393579073,0.32509569538647504,0.3028256713381159,0.06965174129353234,1.0,0.15407936400997102,0.04370846479156878
p12,Trial: 37,p12.edf,14486,33,Fixation: 14320 ms,220,14320,14539,[3],3,1138,220,215.1,323.3,1,1,36.75,37.3,39,Saccade: 14306 ms,RIGHT,14,0.64,45.74,52.09,"[ 3, 99]",14306,14319,199.4,325.6,222.1,319.3,40,Saccade: 14540 ms,RIGHT,148,20.85,140.86,1191.76,"[ 7, 99]",14540,14687,204.1,320.9,949.1,473.5,178.32,LEFT,0.55,A14,S14.wav,A14.png,18,16665482,task,[4],[Determiner_1],[1060],[1240],[180],[0],[ein],[a],[0.0],[0.0],[nan],[nan],[eine],[nan],[nan],[nan],[nan],[man_2],,,0.13398294762484775,0.8673780487804879,0.14893617021276595,0.02536662703131193,0.1535827009603116,0.09136512725167945,0.736318407960199,1.0,0.4744997641986122,1.0
p12,Trial: 37,p12.edf,.,34,Fixation: 14867 ms,256,14867,15122,[10],8,1136,2622,1046.5,464.0,1,4,36.65,37.3,41,Saccade: 14825 ms,RIGHT,42,2.27,53.95,228.97,"[ 14, 99]",14825,14866,952.5,436.8,1031.3,461.3,42,Saccade: 15123 ms,RIGHT,22,1.58,71.97,116.08,"[ 10, 99]",15123,15144,1047.1,464.9,1103.3,448.7,170.55,LEFT,22.97,A14,S14.wav,A14.png,18,16665482,task,[5],[Noun_1],[1286],[1857],[571],[0],[Käfig],[cage],[0.0],[1.0],[cage_1],[S01_I014_E009],[Käfig],[nan],[nan],[nan],[nan],[cage_1],,,0.1559074299634592,0.8658536585365854,0.44680851063829785,0.08997225525168451,0.18114968773084414,0.40161015908652414,0.10945273631840796,1.0,0.2424375126322172,0.09740216150902867
p12,Trial: 37,p12.edf,.,35,Fixation: 15145 ms,428,15145,15572,[10],8,1057,2622,1092.0,451.2,2,4,37.05,37.5,42,Saccade: 15123 ms,RIGHT,22,1.58,71.97,116.08,"[ 10, 99]",15123,15144,1047.1,464.9,1103.3,448.7,43,Saccade: 15573 ms,RIGHT,18,0.57,31.76,57.49,"[ 10, 99]",15573,15590,1092.8,453.2,1114.0,453.9,-164.51,LEFT,1.28,A14,S14.wav,A14.png,18,16665482,task,,break,,,,,,,,,,,,,,,,[cage_1],,,0.26065773447015833,0.805640243902439,0.23404255319148937,0.06262386048355133,0.24165603384594722,0.2036026871064494,0.08955223880597014,1.0,0.10698645826315435,0.048239578438611805
p12,Trial: 37,p12.edf,16390,36,Fixation: 15591 ms,1642,15591,17232,[10],8,1050,2622,1110.4,460.8,3,4,37.15,37.55,43,Saccade: 15573 ms,RIGHT,18,0.57,31.76,57.49,"[ 10, 99]",15573,15590,1092.8,453.2,1114.0,453.9,44,Saccade: 17233 ms,.,16,0.31,19.26,34.3,"[ 10, 99]",17233,17248,1115.8,459.5,1122.9,450.4,152.71,LEFT,0.56,A14,S14.wav,A14.png,18,16665482,task,"[6, 7, 8, 9]","[Preposition_1, Determiner_2, Adj_2, Noun_2]","[2250, 2400, 2670, 3190]","[2350, 2642, 3180, 3580]","[100, 242, 510, 390]","[0, 0, 0, 0]","[auf, einem, kleinen, Tisch]","[on, a, small, table]","[0.0, 0.0, 0.0, 0.0]","[0.0, 0.0, 0.0, 0.0]","[nan, nan, nan, table_1]","[nan, nan, nan, S01_I014_E006]","[auf, eine, klein, Tisch]","[nan, nan, nan, nan]","[nan, nan, nan, nan]","[nan, nan, nan, nan]","[nan, nan, nan, nan]",[cage_1],,,1.0,0.8003048780487805,0.19148936170212766,0.022592152199762187,0.1066415955946545,0.10083665129005666,0.07960199004975124,1.0,0.06487906757394057,0.028780962609921457
p12,Trial: 37,p12.edf,17442,37,Fixation: 17249 ms,296,17249,17544,[10],8,1109,2622,1118.1,449.7,4,4,37.2,37.6,44,Saccade: 17233 ms,.,16,0.31,19.26,34.3,"[ 10, 99]",17233,17248,1115.8,459.5,1122.9,450.4,45,Saccade: 17545 ms,LEFT,94,24.22,257.62,570.13,"[ 3, 99]",17545,17638,1118.7,447.0,231.0,343.4,-125.04,.,0.36,A14,S14.wav,A14.png,18,16665482,task,"[10, 11]","[Relative Clause Pronoun, Relative Clause Pers. Pronoun]","[3930, 4100]","[4100, 4170]","[170, 70]","[0, 0]","[den, er]","[that, he]","[0.0, 0.0]","[0.0, 0.0]","[nan, man_1]","[nan, S01_I014_E001]","[die, er]","[nan, nan]","[nan, nan]","[nan, nan]","[nan, nan]",[cage_1],,,0.18026796589524968,0.8452743902439024,0.1702127659574468,0.012286959968291716,0.06466993485998254,0.060161717503025625,0.46766169154228854,1.0,0.8678164791484201,0.4783933006645633
p12,Trial: 37,p12.edf,.,38,Fixation: 17639 ms,208,17639,17846,[3],3,1307,208,225.7,344.4,1,1,36.65,37.2,45,Saccade: 17545 ms,LEFT,94,24.22,257.62,570.13,"[ 10, 99]",17545,17638,1118.7,447.0,231.0,343.4,46,Saccade: 17847 ms,UP,22,1.01,46.11,88.43,[ 99],17847,17868,223.6,349.8,202.0,319.0,-6.64,RIGHT,24.33,A14,S14.wav,A14.png,18,16665482,task,[12],[Relative Clause Adverb],[4242],[4700],[458],[0],[achtsam],[carefully],[0.0],[0.0],[nan],[nan],[achtsam],[nan],[nan],[nan],[nan],[man_2],,,0.12667478684531058,0.9961890243902439,1.0,0.9599682917162108,0.865019139077295,1.0,0.10945273631840796,1.0,0.15532574277437175,0.07420118144592872
p12,Trial: 37,p12.edf,17920,39,Fixation: 17869 ms,243,17869,18111,[],53,1312,20107,200.7,321.5,39,52,36.8,37.3,46,Saccade: 17847 ms,UP,22,1.01,46.11,88.43,"[ 3, 99]",17847,17868,223.6,349.8,202.0,319.0,47,Saccade: 18112 ms,UP,14,0.7,49.99,57.4,[ 99],18112,18125,198.8,319.6,188.8,295.5,-42.09,RIGHT,0.92,A14,S14.wav,A14.png,18,16665482,task,[12],[Relative Clause Adverb],[4242],[4700],[458],[0],[achtsam],[carefully],[0.0],[0.0],[nan],[nan],[achtsam],[nan],[nan],[nan],[nan],[],,,0.14799025578562727,1.0,0.23404255319148937,0.04003170828378914,0.15482506211805788,0.15510497605809204,0.06965174129353234,1.0,0.1683958768443037,0.04816405987782775
p12,Trial: 37,p12.edf,.,40,Fixation: 18126 ms,204,18126,18329,[24],3,1214,204,192.5,305.2,1,1,36.9,37.4,47,Saccade: 18112 ms,UP,14,0.7,49.99,57.4,[ 99],18112,18125,198.8,319.6,188.8,295.5,48,Saccade: 18330 ms,LEFT,24,1.66,69.06,114.11,"[ 4, 99]",18330,18353,195.3,309.2,135.8,325.2,-62.98,.,0.49,A14,S14.wav,A14.png,18,16665482,task,[13],[Relative Clause Verb],[4720],[5120],[400],[0],[trägt],[moves],[1.0],[0.0],[nan],[nan],[tragen],[nan],[nan],[nan],[nan],[shelf_1],,,0.12423873325213154,0.9253048780487805,0.14893617021276595,0.027744748315497423,0.16785306561010008,0.1006787925560837,0.11940298507462686,1.0,0.23263491207976825,0.09574914412297778
p12,Trial: 37,p12.edf,.,41,Fixation: 18465 ms,385,18465,18849,[10],8,1184,1433,1021.1,441.2,1,3,36.45,37.2,49,Saccade: 18386 ms,RIGHT,79,23.53,297.82,555.37,[ 99],18386,18464,149.0,326.0,1008.3,442.6,50,Saccade: 18850 ms,RIGHT,26,2.41,92.71,169.25,[ 99],18850,18875,1021.5,442.2,1109.9,434.7,170.83,LEFT,22.89,A14,S14.wav,A14.png,18,16665482,task,,break,,,,,,,,,,,,,,,,[cage_1],,,0.23447015834348356,0.9024390243902439,0.8404255319148937,0.9326198969480777,1.0,0.9741111676284356,0.12935323383084577,1.0,0.3123020952637607,0.14201684903000605
p12,Trial: 37,p12.edf,18990,42,Fixation: 18876 ms,837,18876,19712,[10],8,1072,1433,1097.9,443.6,2,3,37.05,37.5,50,Saccade: 18850 ms,RIGHT,26,2.41,92.71,169.25,"[ 10, 99]",18850,18875,1021.5,442.2,1109.9,434.7,51,Saccade: 19713 ms,.,8,0.37,46.63,42.04,"[ 10, 99]",19713,19720,1101.0,446.5,1114.7,444.4,178.24,LEFT,2.09,A14,S14.wav,A14.png,18,16665482,post,,,,,,,,,,,,,,,,,,[cage_1],,,0.5097442143727162,0.8170731707317073,0.2765957446808511,0.095521204914784,0.3112954133369149,0.2968621191658043,0.03980099502487562,1.0,0.15707741022704305,0.0352755588373498
