RECORDING_SESSION_LABEL,TRIAL_LABEL,DATA_FILE,CURRENT_FIX_MSG_TIME_1,CURRENT_FIX_INDEX,CURRENT_FIX_LABEL,CURRENT_FIX_DURATION,CURRENT_FIX_START,CURRENT_FIX_END,CURRENT_FIX_INTEREST_AREAS,CURRENT_FIX_INTEREST_AREA_FIX_COUNT,CURRENT_FIX_PUPIL,CURRENT_FIX_RUN_DWELL_TIME,CURRENT_FIX_X,CURRENT_FIX_Y,CURRENT_FIX_RUN_INDEX,CURRENT_FIX_RUN_SIZE,CURRENT_FIX_X_RESOLUTION,CURRENT_FIX_Y_RESOLUTION,PREVIOUS_SAC_INDEX,PREVIOUS_SAC_LABEL,PREVIOUS_SAC_DIRECTION,PREVIOUS_SAC_DURATION,PREVIOUS_SAC_AMPLITUDE,PREVIOUS_SAC_AVG_VELOCITY,PREVIOUS_SAC_PEAK_VELOCITY,PREVIOUS_SAC_START_INTEREST_AREAS,PREVIOUS_SAC_START_TIME,PREVIOUS_SAC_END_TIME,PREVIOUS_SAC_START_X,PREVIOUS_SAC_START_Y,PREVIOUS_SAC_END_X,PREVIOUS_SAC_END_Y,NEXT_SAC_INDEX,NEXT_SAC_LABEL,NEXT_SAC_DIRECTION,NEXT_SAC_DURATION,NEXT_SAC_AMPLITUDE,NEXT_SAC_AVG_VELOCITY,NEXT_SAC_PEAK_VELOCITY,NEXT_SAC_END_INTEREST_AREAS,NEXT_SAC_START_TIME,NEXT_SAC_END_TIME,NEXT_SAC_START_X,NEXT_SAC_START_Y,NEXT_SAC_END_X,NEXT_SAC_END_Y,PREVIOUS_FIX_ANGLE,PREVIOUS_FIX_DIRECTION,PREVIOUS_FIX_DISTANCE,ItemNO,audiofilename,imagefilename,TRIAL_INDEX,TRIAL_START_TIME,viewtype,word_index,Label,word_onset,word_offset,word_duration,Continuation,wordDE,wordEN,REFWord,TargetObj,ObjectLabel,ObjectID,LemmaDE,LingIndex,DepS,pos_1,pos_2,CURRENT_FIX_INTEREST_AREAS_Labelled,PREVIOUS_SAC_START_INTEREST_AREAS_Labelled,NEXT_SAC_END_INTEREST_AREAS_Labelled,NORMALIZED_CURRENT_FIX_DURATION,NORMALIZED_CURRENT_FIX_PUPIL,NORMALIZED_PREVIOUS_SAC_DURATION,NORMALIZED_PREVIOUS_SAC_AMPLITUDE,NORMALIZED_PREVIOUS_SAC_AVG_VELOCITY,NORMALIZED_PREVIOUS_SAC_PEAK_VELOCITY,NORMALIZED_NEXT_SAC_DURATION,NORMALIZED_NEXT_SAC_AMPLITUDE,NORMALIZED_NEXT_SAC_AVG_VELOCITY,NORMALIZED_NEXT_SAC_PEAK_VELOCITY
p5,Trial: 39,p5.edf,.,1,Fixation: 3283 ms,146,3283,3428,[],65,629,17589,629.2,764.2,1,64,35.9,37.95,6,Saccade: 3232 ms,UP,51,4.94,96.8,259.42,[ ],3232,3282,680.0,960.3,636.9,774.4,7,Saccade: 3429 ms,UP,147,14.25,96.94,595.12,"[ 2, 99]",3429,3575,632.0,764.8,515.0,248.3,-76.38,DOWN,5.16,A10,S10.wav,A10.png,18,3077622,preview,,,,,,,,,,,,,,,,,,[],,,0.2640144665461121,0.7391304347826086,0.8225806451612904,0.3983870967741936,0.4527172387989898,0.47600873410521294,0.6176470588235294,1.0,0.4533719951360958,0.8275209967183937
p5,Trial: 39,p5.edf,.,2,Fixation: 3855 ms,208,3855,4062,[2],17,735,208,563.6,215.7,1,1,35.3,36.65,8,Saccade: 3835 ms,RIGHT,20,1.46,72.79,94.96,"[ 2, 99]",3835,3854,536.2,257.2,572.9,219.9,9,Saccade: 4063 ms,DOWN,57,8.24,144.6,452.65,[ 99],4063,4119,562.9,208.2,729.3,456.0,-82.86,DOWN,14.82,A10,S10.wav,A10.png,18,3077622,preview,,,,,,,,,,,,,,,,,,[woman_1],,,0.37613019891500904,0.863689776733255,0.3225806451612903,0.11774193548387096,0.3404265269853148,0.17424172920604047,0.23949579831932774,1.0,0.6762697596108876,0.6294148729072807
p5,Trial: 39,p5.edf,.,3,Fixation: 4120 ms,304,4120,4423,[22],7,681,1045,739.3,486.1,1,4,35.3,36.65,9,Saccade: 4063 ms,DOWN,57,8.24,144.6,452.65,"[ 2, 99]",4063,4119,562.9,208.2,729.3,456.0,10,Saccade: 4424 ms,DOWN,11,0.64,57.8,54.76,"[ 22, 99]",4424,4434,741.4,492.0,755.1,510.5,124.01,UP,8.9,A10,S10.wav,A10.png,18,3077622,preview,,,,,,,,,,,,,,,,,,[dog_1],,,0.5497287522603979,0.800235017626322,0.9193548387096774,0.6645161290322581,0.6762697596108876,0.8305656984531826,0.046218487394957986,1.0,0.2703208306051819,0.07614439067801324
p5,Trial: 39,p5.edf,.,4,Fixation: 4435 ms,235,4435,4669,[22],7,674,1045,747.3,510.4,2,4,35.4,36.7,10,Saccade: 4424 ms,DOWN,11,0.64,57.8,54.76,"[ 22, 99]",4424,4434,741.4,492.0,755.1,510.5,11,Saccade: 4670 ms,DOWN,25,2.15,85.91,150.6,"[ 22, 99]",4670,4694,749.6,512.2,736.7,590.2,108.86,UP,0.7,A10,S10.wav,A10.png,18,3077622,preview,,,,,,,,,,,,,,,,,,[dog_1],,,0.42495479204339964,0.7920094007050529,0.1774193548387097,0.05161290322580645,0.2703208306051819,0.10047890786986917,0.10504201680672269,1.0,0.40178654943410347,0.2094109794760554
p5,Trial: 39,p5.edf,.,5,Fixation: 4695 ms,337,4695,5031,[22],7,655,1045,740.9,580.9,3,4,35.5,37.0,11,Saccade: 4670 ms,DOWN,25,2.15,85.91,150.6,"[ 22, 99]",4670,4694,749.6,512.2,736.7,590.2,12,Saccade: 5032 ms,UP,23,1.51,65.71,84.71,"[ 22, 99]",5032,5054,743.2,581.5,745.8,525.8,84.61,UP,1.92,A10,S10.wav,A10.png,18,3077622,preview,,,,,,,,,,,,,,,,,,[dog_1],,,0.6094032549728752,0.7696827262044653,0.4032258064516129,0.17338709677419353,0.40178654943410347,0.2763353456026716,0.09663865546218488,1.0,0.3073145636516696,0.11779019967740141
p5,Trial: 39,p5.edf,.,6,Fixation: 5149 ms,169,5149,5317,[22],7,656,1045,746.7,492.6,4,4,35.35,36.7,13,Saccade: 5128 ms,UP,21,1.37,65.22,97.8,"[ 22, 99]",5128,5148,751.9,530.3,738.6,481.9,14,Saccade: 5318 ms,LEFT,58,12.4,213.82,447.25,"[ 4, 12, 99]",5318,5375,749.9,490.1,323.3,368.0,-93.91,DOWN,2.4,A10,S10.wav,A10.png,18,3077622,preview,,,,,,,,,,,,,,,,,,[dog_1],,,0.30560578661844484,0.7708578143360753,0.3387096774193548,0.11048387096774194,0.3050229164717987,0.17945283399695405,0.24369747899159663,1.0,1.0,0.6219061126870238
p5,Trial: 39,p5.edf,.,7,Fixation: 5376 ms,385,5376,5760,"[4, 12, 24]",8,675,385,301.0,365.2,1,1,36.15,36.95,14,Saccade: 5318 ms,LEFT,58,12.4,213.82,447.25,"[ 22, 99]",5318,5375,749.9,490.1,323.3,368.0,15,Saccade: 5761 ms,DOWN,43,3.97,92.39,301.03,"[ 23, 99]",5761,5803,301.0,367.0,390.0,481.9,-15.51,RIGHT,12.94,A10,S10.wav,A10.png,18,3077622,preview,,,,,,,,,,,,,,,,,,"[tablepart_2, box_1, stick_2]",,,0.6962025316455697,0.7931844888366627,0.9354838709677419,1.0,1.0,0.8206572597662343,0.18067226890756302,1.0,0.43209241418015154,0.4185855720562879
p5,Trial: 39,p5.edf,.,8,Fixation: 5804 ms,232,5804,6035,[23],2,698,232,396.3,490.3,1,1,35.8,36.9,15,Saccade: 5761 ms,DOWN,43,3.97,92.39,301.03,"[ 4, 12, 24, 99]",5761,5803,301.0,367.0,390.0,481.9,16,Saccade: 6036 ms,LEFT,51,7.2,141.16,375.93,[ 99],6036,6086,398.7,490.5,182.7,339.5,128.02,UP,4.3,A10,S10.wav,A10.png,18,3077622,preview,,,,,,,,,,,,,,,,,,[stick_1],,,0.41952983725135623,0.8202115158636898,0.6935483870967742,0.32016129032258067,0.43209241418015154,0.5523587588763096,0.21428571428571427,1.0,0.6601814610419979,0.5227348573335558
p5,Trial: 39,p5.edf,.,9,Fixation: 6087 ms,141,6087,6227,[],65,676,17589,166.8,337.8,9,64,37.05,37.45,16,Saccade: 6036 ms,LEFT,51,7.2,141.16,375.93,"[ 23, 99]",6036,6086,398.7,490.5,182.7,339.5,17,Saccade: 6228 ms,UP,23,1.82,79.32,125.45,"[ 11, 99]",6228,6250,165.6,338.7,129.0,280.9,-33.07,RIGHT,7.52,A10,S10.wav,A10.png,18,3077622,preview,,,,,,,,,,,,,,,,,,[],,,0.2549728752260398,0.7943595769682726,0.8225806451612904,0.5806451612903226,0.6601814610419979,0.68979247325639,0.09663865546218488,1.0,0.37096623328032924,0.17443962400578453
p5,Trial: 39,p5.edf,.,10,Fixation: 6251 ms,257,6251,6507,[11],3,680,257,133.1,290.4,1,1,37.4,37.65,17,Saccade: 6228 ms,UP,23,1.82,79.32,125.45,[ 99],6228,6250,165.6,338.7,129.0,280.9,18,Saccade: 6508 ms,RIGHT,47,3.63,77.13,236.1,"[ 4, 12, 99]",6508,6554,134.3,292.6,243.3,371.4,-54.35,DOWN,1.55,A10,S10.wav,A10.png,18,3077622,preview,,,,,,,,,,,,,,,,,,[woman_2],,,0.46473779385171793,0.799059929494712,0.3709677419354839,0.1467741935483871,0.37096623328032924,0.23018770986623607,0.19747899159663865,1.0,0.36072397343560003,0.32829968296345735
p5,Trial: 39,p5.edf,.,11,Fixation: 6555 ms,131,6555,6685,"[4, 12]",8,705,131,252.8,379.1,1,1,36.45,37.15,18,Saccade: 6508 ms,RIGHT,47,3.63,77.13,236.1,"[ 11, 99]",6508,6554,134.3,292.6,243.3,371.4,19,Saccade: 6686 ms,RIGHT,52,7.98,153.46,407.12,"[ 2, 99]",6686,6737,254.8,379.6,511.4,248.1,143.81,LEFT,4.02,A10,S10.wav,A10.png,18,3077622,preview,,,,,,,,,,,,,,,,,,"[tablepart_2, box_1]",,,0.23688969258589512,0.8284371327849589,0.7580645161290323,0.29274193548387095,0.36072397343560003,0.433218958146021,0.2184873949579832,1.0,0.7177064820877375,0.5661049001612993
p5,Trial: 39,p5.edf,.,12,Fixation: 6738 ms,135,6738,6872,[2],17,690,135,532.9,237.8,1,1,35.35,36.6,19,Saccade: 6686 ms,RIGHT,52,7.98,153.46,407.12,"[ 4, 12, 99]",6686,6737,254.8,379.6,511.4,248.1,20,Saccade: 6873 ms,RIGHT,20,1.25,62.63,90.9,"[ 2, 99]",6873,6892,533.5,235.2,570.2,209.6,-153.84,LEFT,8.69,A10,S10.wav,A10.png,18,3077622,preview,,,,,,,,,,,,,,,,,,[woman_1],,,0.244122965641953,0.8108108108108109,0.8387096774193549,0.6435483870967742,0.7177064820877375,0.7470228811537827,0.08403361344537816,1.0,0.2929099242353382,0.12639746370765895
p5,Trial: 39,p5.edf,.,13,Fixation: 7355 ms,200,7355,7554,[26],1,713,200,858.6,101.2,1,1,35.8,37.2,22,Saccade: 7301 ms,RIGHT,54,8.11,150.28,386.77,[ 99],7301,7354,600.6,261.0,847.6,107.1,23,Saccade: 7555 ms,DOWN,62,9.62,155.1,544.99,"[ 18, 99]",7555,7616,860.2,105.6,1087.6,378.0,-157.98,LEFT,9.88,A10,S10.wav,A10.png,18,3077622,preview,,,,,,,,,,,,,,,,,,[picture_2],,,0.3616636528028933,0.8378378378378378,0.8709677419354839,0.654032258064516,0.7028341595734731,0.7096827464724123,0.2605042016806723,1.0,0.7253764848938359,0.7578146726736749
p5,Trial: 39,p5.edf,.,14,Fixation: 7617 ms,150,7617,7766,"[8, 18]",2,707,321,1083.0,399.3,1,2,36.9,37.35,23,Saccade: 7555 ms,DOWN,62,9.62,155.1,544.99,[ 99],7555,7616,860.2,105.6,1087.6,378.0,24,Saccade: 7767 ms,DOWN,26,1.44,55.25,118.8,"[ 8, 18, 99]",7767,7792,1079.2,401.1,1110.8,444.3,127.67,UP,10.1,A10,S10.wav,A10.png,18,3077622,preview,,,,,,,,,,,,,,,,,,"[ball_3, sofa_1]",,,0.27124773960216997,0.8307873090481787,1.0,0.7758064516129032,0.7253764848938359,1.0,0.1092436974789916,1.0,0.2583949116078945,0.16519272484565325
p5,Trial: 39,p5.edf,.,15,Fixation: 7793 ms,171,7793,7963,"[8, 18]",2,678,321,1106.0,440.3,2,2,37.1,37.5,24,Saccade: 7767 ms,DOWN,26,1.44,55.25,118.8,"[ 8, 18, 99]",7767,7792,1079.2,401.1,1110.8,444.3,25,Saccade: 7964 ms,DOWN,52,4.94,95.01,350.22,"[ 6, 28, 99]",7964,8015,1103.5,446.6,1183.4,615.6,119.57,UP,1.26,A10,S10.wav,A10.png,18,3077622,preview,,,,,,,,,,,,,,,,,,"[ball_3, sofa_1]",,,0.3092224231464738,0.7967097532314924,0.41935483870967744,0.11612903225806451,0.2583949116078945,0.21798565111286444,0.2184873949579832,1.0,0.444345711345992,0.4869848156182213
p5,Trial: 39,p5.edf,.,16,Fixation: 8016 ms,236,8016,8251,"[6, 28]",3,626,390,1186.6,637.3,1,2,38.05,38.4,25,Saccade: 7964 ms,DOWN,52,4.94,95.01,350.22,"[ 8, 18, 99]",7964,8015,1103.5,446.6,1183.4,615.6,26,Saccade: 8252 ms,LEFT,22,1.27,57.8,90.94,"[ 6, 28, 99]",8252,8273,1188.7,638.9,1150.7,608.9,112.45,UP,5.62,A10,S10.wav,A10.png,18,3077622,preview,,,,,,,,,,,,,,,,,,"[lego_2, sidetable_1]",,,0.4267631103074141,0.7356051703877791,0.8387096774193549,0.3983870967741936,0.444345711345992,0.6426172957301969,0.09243697478991597,1.0,0.2703208306051819,0.1264530841537349
p5,Trial: 39,p5.edf,.,17,Fixation: 8274 ms,154,8274,8427,"[6, 28]",3,625,390,1158.7,612.6,2,2,37.75,38.2,26,Saccade: 8252 ms,LEFT,22,1.27,57.8,90.94,"[ 6, 28, 99]",8252,8273,1188.7,638.9,1150.7,608.9,27,Saccade: 8428 ms,LEFT,27,3.81,141.0,269.97,"[ 5, 28, 99]",8428,8454,1159.8,614.9,1018.0,616.5,-41.22,RIGHT,0.98,A10,S10.wav,A10.png,18,3077622,preview,,,,,,,,,,,,,,,,,,"[lego_2, sidetable_1]",,,0.27848101265822783,0.7344300822561692,0.3548387096774194,0.10241935483870968,0.2703208306051819,0.16686544707242335,0.1134453781512605,1.0,0.6594331680853054,0.3753962956782914
p5,Trial: 39,p5.edf,.,18,Fixation: 8455 ms,209,8455,8663,[28],13,607,599,1037.6,620.8,3,3,36.75,37.75,27,Saccade: 8428 ms,LEFT,27,3.81,141.0,269.97,"[ 6, 28, 99]",8428,8454,1159.8,614.9,1018.0,616.5,28,Saccade: 8664 ms,LEFT,51,7.51,147.23,434.72,[ 99],8664,8714,1040.8,620.1,783.2,531.8,3.8,RIGHT,3.26,A10,S10.wav,A10.png,18,3077622,preview,,,,,,,,,,,,,,,,,,[sidetable_1],,,0.3779385171790235,0.7132784958871915,0.43548387096774194,0.307258064516129,0.6594331680853054,0.4953668874658251,0.21428571428571427,1.0,0.6885698250865213,0.6044830079537239
p5,Trial: 39,p5.edf,.,19,Fixation: 8715 ms,133,8715,8847,[22],7,635,564,764.8,529.7,1,2,35.45,36.8,28,Saccade: 8664 ms,LEFT,51,7.51,147.23,434.72,"[ 28, 99]",8664,8714,1040.8,620.1,783.2,531.8,29,Saccade: 8848 ms,LEFT,177,0.57,3.23,244.25,"[ 22, 99]",8848,9024,765.5,533.3,750.4,519.3,-17.92,RIGHT,7.94,A10,S10.wav,A10.png,18,3077622,preview,,,,,,,,,,,,,,,,,,[dog_1],,,0.24050632911392406,0.7461809635722679,0.8225806451612904,0.6056451612903225,0.6885698250865213,0.7976660122204078,0.7436974789915967,1.0,0.015106164063230756,0.3396323488514378
p5,Trial: 39,p5.edf,.,20,Fixation: 9052 ms,431,9052,9482,[22],7,665,564,751.4,488.7,2,2,35.35,36.65,30,Saccade: 9049 ms,.,3,0.04,12.55,24.69,"[ 22, 99]",9049,9051,732.9,479.3,732.1,478.2,31,Saccade: 9483 ms,UP,54,8.59,159.07,398.46,"[ 2, 99]",9483,9536,758.3,494.9,566.9,250.5,-71.27,DOWN,1.18,A10,S10.wav,A10.png,18,3077622,preview,,,,,,,,,,,,,,,,,,[dog_1],,,0.779385171790235,0.781433607520564,0.04838709677419355,0.0032258064516129032,0.05869422879057151,0.04530358355199178,0.226890756302521,1.0,0.7439435038817697,0.5540630735858502
p5,Trial: 39,p5.edf,.,21,Fixation: 9537 ms,131,9537,9667,[2],17,669,1004,553.4,232.7,1,4,35.3,36.6,31,Saccade: 9483 ms,UP,54,8.59,159.07,398.46,"[ 22, 99]",9483,9536,758.3,494.9,566.9,250.5,32,Saccade: 9668 ms,UP,18,1.12,62.03,79.22,"[ 2, 99]",9668,9685,551.8,233.3,562.1,193.8,-51.27,DOWN,8.96,A10,S10.wav,A10.png,18,3077622,preview,,,,,,,,,,,,,,,,,,[woman_1],,,0.23688969258589512,0.7861339600470035,0.8709677419354839,0.692741935483871,0.7439435038817697,0.7311326813336024,0.07563025210084033,1.0,0.2901038256477411,0.1101562934534735
p5,Trial: 39,p5.edf,.,22,Fixation: 9686 ms,348,9686,10033,[2],17,683,1004,561.4,203.7,2,4,35.3,36.65,32,Saccade: 9668 ms,UP,18,1.12,62.03,79.22,"[ 2, 99]",9668,9685,551.8,233.3,562.1,193.8,33,Saccade: 10034 ms,DOWN,187,3.05,16.32,719.16,"[ 2, 99]",10034,10220,563.9,217.8,513.3,316.4,-105.97,DOWN,0.82,A10,S10.wav,A10.png,18,3077622,preview,,,,,,,,,,,,,,,,,,[woman_1],,,0.6292947558770343,0.8025851938895417,0.2903225806451613,0.0903225806451613,0.2901038256477411,0.14536046532963906,0.7857142857142857,1.0,0.0763258815826396,1.0
p5,Trial: 39,p5.edf,.,23,Fixation: 10596 ms,254,10596,10849,[2],17,851,1004,550.0,407.7,3,4,35.3,36.5,34,Saccade: 10550 ms,DOWN,46,3.28,71.26,253.46,"[ 2, 99]",10550,10595,533.1,275.8,548.8,394.5,35,Saccade: 10850 ms,UP,32,2.86,89.3,157.81,"[ 2, 99]",10850,10881,547.4,412.9,501.5,319.9,86.69,UP,5.59,A10,S10.wav,A10.png,18,3077622,preview,,,,,,,,,,,,,,,,,,[woman_1],,,0.4593128390596745,1.0,0.7419354838709677,0.264516129032258,0.3332709755869423,0.465072753628507,0.13445378151260504,1.0,0.41764100645402674,0.21943656488125035
p5,Trial: 39,p5.edf,.,24,Fixation: 10882 ms,271,10882,11152,[2],17,830,1004,509.9,328.9,4,4,35.3,36.6,35,Saccade: 10850 ms,UP,32,2.86,89.3,157.81,"[ 2, 99]",10850,10881,547.4,412.9,501.5,319.9,36,Saccade: 11153 ms,LEFT,48,6.12,127.43,367.67,"[ 4, 12, 24, 99]",11153,11200,509.5,328.1,296.2,377.7,-62.22,DOWN,2.44,A10,S10.wav,A10.png,18,3077622,preview,,,,,,,,,,,,,,,,,,[woman_1],,,0.49005424954792043,0.9753231492361927,0.5161290322580645,0.23064516129032256,0.41764100645402674,0.28956494614580086,0.20168067226890757,1.0,0.595968571695819,0.5112492352188664
p5,Trial: 39,p5.edf,.,25,Fixation: 11201 ms,273,11201,11473,"[4, 12, 24]",8,795,505,275.4,379.5,1,2,36.25,37.05,36,Saccade: 11153 ms,LEFT,48,6.12,127.43,367.67,"[ 2, 99]",11153,11200,509.5,328.1,296.2,377.7,37,Saccade: 11474 ms,RIGHT,16,1.05,65.45,76.76,"[ 4, 12, 99]",11474,11489,277.3,384.1,312.3,399.0,11.84,RIGHT,6.7,A10,S10.wav,A10.png,18,3077622,preview,,,,,,,,,,,,,,,,,,"[tablepart_2, box_1, stick_2]",,,0.4936708860759494,0.9341950646298472,0.7741935483870968,0.4935483870967742,0.595968571695819,0.6746362318574652,0.06722689075630252,1.0,0.3060985875970443,0.10673563601980089
p5,Trial: 39,p5.edf,.,26,Fixation: 11490 ms,232,11490,11721,"[4, 12]",8,771,505,305.8,395.1,2,2,36.1,37.0,37,Saccade: 11474 ms,RIGHT,16,1.05,65.45,76.76,"[ 4, 12, 99]",11474,11489,277.3,384.1,312.3,399.0,38,Saccade: 11722 ms,DOWN,46,3.44,74.77,248.19,"[ 23, 99]",11722,11767,307.7,400.3,390.7,494.5,153.37,LEFT,0.94,A10,S10.wav,A10.png,18,3077622,preview,,,,,,,,,,,,,,,,,,"[tablepart_2, box_1]",,,0.41952983725135623,0.9059929494712103,0.25806451612903225,0.08467741935483872,0.3060985875970443,0.14084662103891815,0.19327731092436976,1.0,0.349686652324385,0.3451109627899216
p5,Trial: 39,p5.edf,.,27,Fixation: 11768 ms,159,11768,11926,[23],2,751,159,395.2,506.5,1,1,35.8,36.9,38,Saccade: 11722 ms,DOWN,46,3.44,74.77,248.19,"[ 4, 12, 99]",11722,11767,307.7,400.3,390.7,494.5,39,Saccade: 11927 ms,UP,180,1.08,6.01,559.35,"[ 23, 99]",11927,12106,399.3,509.4,377.1,476.7,129.52,UP,3.91,A10,S10.wav,A10.png,18,3077622,preview,,,,,,,,,,,,,,,,,,[stick_1],,,0.2875226039783002,0.882491186839013,0.7419354838709677,0.27741935483870966,0.349686652324385,0.4554028514284666,0.7563025210084033,1.0,0.028107754185763726,0.7777824128149509
p5,Trial: 39,p5.edf,.,28,Fixation: 12238 ms,248,12238,12485,[11],3,735,547,145.8,476.9,1,2,37.3,37.65,40,Saccade: 12188 ms,LEFT,50,6.28,125.61,360.17,[ 99],12188,12237,391.3,514.7,165.2,476.1,41,Saccade: 12486 ms,UP,43,4.75,110.48,269.09,"[ 11, 99]",12486,12528,141.2,477.2,126.6,298.7,-6.64,RIGHT,6.87,A10,S10.wav,A10.png,18,3077622,preview,,,,,,,,,,,,,,,,,,[woman_2],,,0.4484629294755877,0.863689776733255,0.8064516129032258,0.5064516129032258,0.5874567393134412,0.6608745114589258,0.18067226890756302,1.0,0.5166962865962025,0.3741726458646198
p5,Trial: 39,p5.edf,.,29,Fixation: 12529 ms,299,12529,12827,[11],3,750,547,124.5,291.8,2,2,37.5,37.7,41,Saccade: 12486 ms,UP,43,4.75,110.48,269.09,"[ 11, 99]",12486,12528,141.2,477.2,126.6,298.7,42,Saccade: 12828 ms,RIGHT,53,7.82,147.6,374.25,"[ 20, 99]",12828,12880,124.0,291.1,404.0,230.2,-83.39,DOWN,4.95,A10,S10.wav,A10.png,18,3077622,preview,,,,,,,,,,,,,,,,,,[woman_2],,,0.5406871609403255,0.881316098707403,0.6935483870967742,0.38306451612903225,0.5166962865962025,0.49375217893906304,0.22268907563025211,1.0,0.6903002525488728,0.5203987985983648
p5,Trial: 39,p5.edf,.,30,Fixation: 12881 ms,97,12881,12977,[20],1,721,97,424.4,230.1,1,1,35.65,36.8,42,Saccade: 12828 ms,RIGHT,53,7.82,147.6,374.25,"[ 11, 99]",12828,12880,124.0,291.1,404.0,230.2,43,Saccade: 12978 ms,UP,161,0.75,4.68,595.83,"[ 20, 99]",12978,13138,427.9,231.9,409.8,211.4,-168.58,LEFT,8.37,A10,S10.wav,A10.png,18,3077622,preview,,,,,,,,,,,,,,,,,,[flowers_1],,,0.17540687160940324,0.8472385428907168,0.8548387096774194,0.6306451612903226,0.6903002525488728,0.6867098478871172,0.6764705882352942,1.0,0.021887568983256944,0.8285082596362424
p5,Trial: 39,p5.edf,.,31,Fixation: 13540 ms,171,13540,13710,[2],17,803,488,537.9,210.5,1,2,35.3,36.7,44,Saccade: 13507 ms,RIGHT,33,3.63,110.11,194.24,"[ 20, 99]",13507,13539,422.9,234.8,549.4,209.6,45,Saccade: 13711 ms,RIGHT,21,0.78,37.03,80.47,"[ 2, 99]",13711,13731,542.0,206.1,566.9,218.1,-170.54,LEFT,3.24,A10,S10.wav,A10.png,18,3077622,task,[2],[Verb],[240],[435],[195],[0],[ist],[is],[0.0],[0.0],[nan],[nan],[sein],[nan],[nan],[nan],[nan],[woman_1],,,0.3092224231464738,0.9435957696827262,0.532258064516129,0.29274193548387095,0.514965859133851,0.3564102093616397,0.08823529411764706,1.0,0.17318305116453092,0.1118944323933478
p5,Trial: 39,p5.edf,13965,32,Fixation: 13732 ms,317,13732,14048,[2],17,752,488,562.9,212.7,2,2,35.3,36.65,45,Saccade: 13711 ms,RIGHT,21,0.78,37.03,80.47,"[ 2, 99]",13711,13731,542.0,206.1,566.9,218.1,46,Saccade: 14049 ms,DOWN,60,8.35,139.13,453.57,[ 99],14049,14108,560.9,211.3,730.2,461.7,175.16,LEFT,0.71,A10,S10.wav,A10.png,18,3077622,task,[3],[Determiner_1],[465],[617],[152],[0],[ein],[a],[0.0],[0.0],[nan],[nan],[eine],[nan],[nan],[nan],[nan],[woman_1],,,0.5732368896925859,0.8836662749706228,0.3387096774193548,0.06290322580645161,0.17318305116453092,0.1476540853960623,0.25210084033613445,1.0,0.6506874941539613,0.6306941431670282
p5,Trial: 39,p5.edf,.,33,Fixation: 14109 ms,190,14109,14298,[22],7,737,190,733.4,484.9,1,1,35.3,36.65,46,Saccade: 14049 ms,DOWN,60,8.35,139.13,453.57,"[ 2, 99]",14049,14108,560.9,211.3,730.2,461.7,47,Saccade: 14299 ms,LEFT,48,5.58,116.26,361.86,"[ 2, 99]",14299,14346,734.5,490.3,546.2,430.2,123.04,UP,8.86,A10,S10.wav,A10.png,18,3077622,task,[4],[Noun_1],[765],[1067],[302],[0],[Ball],[ball],[0.0],[1.0],[ball_1],[S01_I010_E015],[Ball],[nan],[nan],[nan],[nan],[dog_1],,,0.3435804701627486,0.8660399529964747,0.967741935483871,0.6733870967741935,0.6506874941539613,0.8322538028220701,0.20168067226890757,1.0,0.5437283696567207,0.5031703654263308
p5,Trial: 39,p5.edf,.,34,Fixation: 14347 ms,147,14347,14493,[2],17,754,147,526.7,428.0,1,1,35.3,36.6,47,Saccade: 14299 ms,LEFT,48,5.58,116.26,361.86,"[ 22, 99]",14299,14346,734.5,490.3,546.2,430.2,48,Saccade: 14494 ms,UP,30,3.35,111.7,205.47,"[ 17, 99]",14494,14523,523.7,428.4,476.3,316.0,-14.86,RIGHT,6.06,A10,S10.wav,A10.png,18,3077622,task,,break,,,,,,,,,,,,,,,,[woman_1],,,0.26582278481012656,0.8860164512338425,0.7741935483870968,0.45,0.5437283696567207,0.6639754857887301,0.12605042016806722,1.0,0.522402020390983,0.2857083263807776
p5,Trial: 39,p5.edf,.,35,Fixation: 14524 ms,319,14524,14842,[17],4,744,418,479.7,326.0,1,2,35.4,36.6,48,Saccade: 14494 ms,UP,30,3.35,111.7,205.47,"[ 2, 99]",14494,14523,523.7,428.4,476.3,316.0,49,Saccade: 14843 ms,.,8,0.32,40.51,35.68,"[ 17, 99]",14843,14850,481.0,326.4,491.9,322.7,-64.5,DOWN,3.09,A10,S10.wav,A10.png,18,3077622,task,[5],[Preposition_1],[1477],[1660],[183],[0],[auf],[on],[0.0],[0.0],[nan],[nan],[auf],[nan],[nan],[nan],[nan],[ball_1],,,0.5768535262206148,0.8742655699177438,0.4838709677419355,0.2701612903225806,0.522402020390983,0.37701609203838604,0.03361344537815126,1.0,0.18945842297259377,0.049613437899771955
p5,Trial: 39,p5.edf,.,36,Fixation: 14851 ms,99,14851,14949,[17],4,739,418,489.6,316.8,2,2,35.4,36.6,49,Saccade: 14843 ms,.,8,0.32,40.51,35.68,"[ 17, 99]",14843,14850,481.0,326.4,491.9,322.7,50,Saccade: 14950 ms,.,186,0.3,1.63,610.6,"[ 17, 99]",14950,15135,494.8,320.5,488.7,311.4,-138.05,.,0.38,A10,S10.wav,A10.png,18,3077622,task,[5],[Preposition_1],[1477],[1660],[183],[0],[auf],[on],[0.0],[0.0],[nan],[nan],[auf],[nan],[nan],[nan],[nan],[ball_1],,,0.17902350813743217,0.8683901292596945,0.12903225806451613,0.025806451612903226,0.18945842297259377,0.06546909117598487,0.7815126050420168,1.0,0.007623234496305303,0.8490461093497971
p5,Trial: 39,p5.edf,.,37,Fixation: 15409 ms,545,15409,15953,"[4, 15]",8,683,1038,204.5,407.8,1,2,36.75,37.3,51,Saccade: 15356 ms,LEFT,53,8.69,163.9,428.14,"[ 2, 99]",15356,15408,516.7,295.5,217.4,388.5,52,Saccade: 15954 ms,RIGHT,30,2.69,89.71,145.09,"[ 4, 12, 24, 99]",15954,15983,208.9,412.5,300.0,375.1,17.31,RIGHT,8.28,A10,S10.wav,A10.png,18,3077622,task,[7],[Noun_2],[2035],[2450],[415],[0],[Tisch],[table],[0.0],[0.0],[tablepart_1],[S01_I010_E007],[Tisch],[nan],[nan],[nan],[nan],"[tablepart_2, ball_2]",,,0.9855334538878843,0.8025851938895417,0.8548387096774194,0.7008064516129031,0.7665325975119259,0.7855923961907557,0.12605042016806722,1.0,0.4195585071555514,0.20174926302908952
p5,Trial: 39,p5.edf,.,38,Fixation: 15984 ms,493,15984,16476,"[4, 12, 24]",8,645,1038,294.7,376.2,2,2,36.2,37.0,52,Saccade: 15954 ms,RIGHT,30,2.69,89.71,145.09,"[ 4, 15, 99]",15954,15983,208.9,412.5,300.0,375.1,53,Saccade: 16477 ms,RIGHT,47,5.48,116.55,271.08,"[ 17, 99]",16477,16523,296.8,377.1,484.2,317.7,-161.02,LEFT,2.62,A10,S10.wav,A10.png,18,3077622,task,"[8, 9]","[Relative Clause Pronoun, Relative Clause Pers. Pronoun]","[2890, 3100]","[3090, 3275]","[200, 175]","[1, 0]","[den, sie]","[that, she]","[0.0, 0.0]","[0.0, 0.0]","[nan, woman_1]","[nan, S01_I010_E001]","[die, sie]","[nan, nan]","[nan, nan]","[nan, nan]","[nan, nan]","[tablepart_2, box_1, stick_2]",,,0.891500904159132,0.7579318448883666,0.4838709677419355,0.21693548387096773,0.4195585071555514,0.26622506834987797,0.19747899159663865,1.0,0.5450846506407259,0.3769397630568997
p5,Trial: 39,p5.edf,.,39,Fixation: 16524 ms,273,16524,16796,[2],17,655,826,499.6,315.4,1,2,35.35,36.6,53,Saccade: 16477 ms,RIGHT,47,5.48,116.55,271.08,"[ 4, 12, 24, 99]",16477,16523,296.8,377.1,484.2,317.7,54,Saccade: 16797 ms,.,7,0.29,41.89,36.56,"[ 17, 99]",16797,16803,499.1,311.3,491.5,304.0,-163.91,LEFT,5.96,A10,S10.wav,A10.png,18,3077622,task,[10],[Relative Clause Adverb],[3290],[3780],[490],[0],[langsam],[slowly],[0.0],[0.0],[nan],[nan],[langsam],[nan],[nan],[nan],[nan],[woman_1],,,0.4936708860759494,0.7696827262044653,0.7580645161290323,0.44193548387096776,0.5450846506407259,0.49740362208480887,0.029411764705882353,1.0,0.195912449724067,0.05083708771344347
p5,Trial: 39,p5.edf,17145,40,Fixation: 16804 ms,553,16804,17356,[2],17,687,826,501.3,312.4,2,2,35.35,36.6,54,Saccade: 16797 ms,.,7,0.29,41.89,36.56,"[ 2, 99]",16797,16803,499.1,311.3,491.5,304.0,55,Saccade: 17357 ms,LEFT,51,7.45,145.99,412.11,"[ 4, 12, 99]",17357,17407,504.7,318.8,243.9,379.0,-120.4,.,0.1,A10,S10.wav,A10.png,18,3077622,task,"[10, 11]","[Relative Clause Adverb, Relative Clause Verb]","[3290, 3945]","[3780, 4540]","[490, 595]","[0, 0]","[langsam, aufhebt]","[slowly, picks up]","[0.0, 1.0]","[0.0, 0.0]","[nan, nan]","[nan, nan]","[langsam, aufheben]","[nan, nan]","[nan, nan]","[nan, nan]","[nan, nan]",[woman_1],,,1.0,0.8072855464159812,0.11290322580645161,0.023387096774193546,0.195912449724067,0.06708379970274685,0.21428571428571427,1.0,0.6827705546721542,0.5730435508092775
p5,Trial: 39,p5.edf,.,41,Fixation: 17408 ms,272,17408,17679,"[4, 12]",8,716,272,229.2,391.8,1,1,36.55,37.2,55,Saccade: 17357 ms,LEFT,51,7.45,145.99,412.11,"[ 2, 99]",17357,17407,504.7,318.8,243.9,379.0,56,Saccade: 17680 ms,LEFT,24,1.88,78.37,129.81,"[ 11, 99]",17680,17703,229.2,393.0,164.5,418.2,15.87,RIGHT,7.87,A10,S10.wav,A10.png,18,3077622,task,[11],[Relative Clause Verb],[3945],[4540],[595],[0],[aufhebt],[picks up],[1.0],[0.0],[nan],[nan],[aufheben],[nan],[nan],[nan],[nan],"[tablepart_2, box_1]",,,0.4918625678119349,0.8413631022326674,0.8225806451612904,0.6008064516129032,0.6827705546721542,0.7561790124589443,0.10084033613445378,1.0,0.3665232438499673,0.1805022526280661
p5,Trial: 39,p5.edf,.,42,Fixation: 17704 ms,165,17704,17868,[],65,737,17589,172.7,413.2,42,64,37.05,37.5,56,Saccade: 17680 ms,LEFT,24,1.88,78.37,129.81,"[ 4, 12, 99]",17680,17703,229.2,393.0,164.5,418.2,57,Saccade: 17869 ms,UP,238,1.65,6.94,369.6,"[ 4, 99]",17869,18106,176.7,412.4,202.1,356.3,20.46,RIGHT,1.64,A10,S10.wav,A10.png,18,3077622,task,[11],[Relative Clause Verb],[3945],[4540],[595],[0],[aufhebt],[picks up],[1.0],[0.0],[nan],[nan],[aufheben],[nan],[nan],[nan],[nan],[],,,0.298372513562387,0.8660399529964747,0.3870967741935484,0.15161290322580645,0.3665232438499673,0.23818785665792033,1.0,1.0,0.032457206996539145,0.5139329217420324
p5,Trial: 39,p5.edf,18410,43,Fixation: 18241 ms,256,18241,18496,[2],17,768,2148,539.5,301.6,1,6,35.3,36.55,58,Saccade: 18188 ms,RIGHT,53,8.58,161.92,420.12,"[ 4, 99]",18188,18240,216.1,378.4,516.3,303.5,59,Saccade: 18497 ms,LEFT,20,1.34,66.9,96.24,"[ 2, 99]",18497,18516,546.0,303.8,502.9,323.8,-163.45,LEFT,10.58,A10,S10.wav,A10.png,18,3077622,post,,,,,,,,,,,,,,,,,,[woman_1],,,0.4629294755877034,0.9024676850763808,0.8548387096774194,0.6919354838709677,0.7572724721728556,0.7708765298445843,0.08403361344537816,1.0,0.3128799925170705,0.13382279325880195
