RECORDING_SESSION_LABEL,TRIAL_LABEL,DATA_FILE,CURRENT_FIX_MSG_TIME_1,CURRENT_FIX_INDEX,CURRENT_FIX_LABEL,CURRENT_FIX_DURATION,CURRENT_FIX_START,CURRENT_FIX_END,CURRENT_FIX_INTEREST_AREAS,CURRENT_FIX_INTEREST_AREA_FIX_COUNT,CURRENT_FIX_PUPIL,CURRENT_FIX_RUN_DWELL_TIME,CURRENT_FIX_X,CURRENT_FIX_Y,CURRENT_FIX_RUN_INDEX,CURRENT_FIX_RUN_SIZE,CURRENT_FIX_X_RESOLUTION,CURRENT_FIX_Y_RESOLUTION,PREVIOUS_SAC_INDEX,PREVIOUS_SAC_LABEL,PREVIOUS_SAC_DIRECTION,PREVIOUS_SAC_DURATION,PREVIOUS_SAC_AMPLITUDE,PREVIOUS_SAC_AVG_VELOCITY,PREVIOUS_SAC_PEAK_VELOCITY,PREVIOUS_SAC_START_INTEREST_AREAS,PREVIOUS_SAC_START_TIME,PREVIOUS_SAC_END_TIME,PREVIOUS_SAC_START_X,PREVIOUS_SAC_START_Y,PREVIOUS_SAC_END_X,PREVIOUS_SAC_END_Y,NEXT_SAC_INDEX,NEXT_SAC_LABEL,NEXT_SAC_DIRECTION,NEXT_SAC_DURATION,NEXT_SAC_AMPLITUDE,NEXT_SAC_AVG_VELOCITY,NEXT_SAC_PEAK_VELOCITY,NEXT_SAC_END_INTEREST_AREAS,NEXT_SAC_START_TIME,NEXT_SAC_END_TIME,NEXT_SAC_START_X,NEXT_SAC_START_Y,NEXT_SAC_END_X,NEXT_SAC_END_Y,PREVIOUS_FIX_ANGLE,PREVIOUS_FIX_DIRECTION,PREVIOUS_FIX_DISTANCE,ItemNO,audiofilename,imagefilename,TRIAL_INDEX,TRIAL_START_TIME,viewtype,word_index,Label,word_onset,word_offset,word_duration,Continuation,wordDE,wordEN,REFWord,TargetObj,ObjectLabel,ObjectID,LemmaDE,LingIndex,DepS,pos_1,pos_2,CURRENT_FIX_INTEREST_AREAS_Labelled,PREVIOUS_SAC_START_INTEREST_AREAS_Labelled,NEXT_SAC_END_INTEREST_AREAS_Labelled,NORMALIZED_CURRENT_FIX_DURATION,NORMALIZED_CURRENT_FIX_PUPIL,NORMALIZED_PREVIOUS_SAC_DURATION,NORMALIZED_PREVIOUS_SAC_AMPLITUDE,NORMALIZED_PREVIOUS_SAC_AVG_VELOCITY,NORMALIZED_PREVIOUS_SAC_PEAK_VELOCITY,NORMALIZED_NEXT_SAC_DURATION,NORMALIZED_NEXT_SAC_AMPLITUDE,NORMALIZED_NEXT_SAC_AVG_VELOCITY,NORMALIZED_NEXT_SAC_PEAK_VELOCITY
p9,Trial: 32,p9.edf,.,1,Fixation: 3412 ms,179,3412,3590,[],65,1330,22096,584.5,462.5,1,63,35.25,36.6,4,Saccade: 3326 ms,UP,86,13.98,162.52,391.64,[ ],3326,3411,641.6,1008.3,577.0,476.7,5,Saccade: 3591 ms,LEFT,53,7.25,136.78,399.89,"[ 2, 99]",3591,3643,592.2,458.4,353.1,359.1,-83.17,DOWN,13.9,A12,S12.wav,A12.png,14,1469145,preview,,,,,,,,,,,,,,,,,,[],,,0.06970404984423675,0.8050847457627118,0.8514851485148515,0.7647702407002188,0.6399432981571901,0.6692412850307586,0.5247524752475248,1.0,0.5385887541345094,0.6833390293916609
p9,Trial: 32,p9.edf,.,2,Fixation: 3644 ms,218,3644,3861,[2],9,1423,820,347.2,354.9,1,2,35.9,36.8,5,Saccade: 3591 ms,LEFT,53,7.25,136.78,399.89,[ 99],3591,3643,592.2,458.4,353.1,359.1,6,Saccade: 3862 ms,UP,33,3.4,103.06,167.51,"[ 2, 99]",3862,3894,348.6,349.9,306.7,231.8,-23.73,RIGHT,7.29,A12,S12.wav,A12.png,14,1469145,preview,,,,,,,,,,,,,,,,,,[man_1],,,0.08489096573208722,0.8613801452784504,0.5247524752475248,0.3966083150984682,0.5385887541345094,0.6833390293916609,0.32673267326732675,1.0,0.40581193888801387,0.28624401913875597
p9,Trial: 32,p9.edf,.,3,Fixation: 3895 ms,602,3895,4496,[2],9,1513,820,304.9,216.7,2,2,36.25,37.15,6,Saccade: 3862 ms,UP,33,3.4,103.06,167.51,"[ 2, 99]",3862,3894,348.6,349.9,306.7,231.8,7,Saccade: 4497 ms,RIGHT,67,13.02,194.3,463.42,"[ 23, 99]",4497,4563,291.1,221.3,757.8,222.2,-72.58,DOWN,3.92,A12,S12.wav,A12.png,14,1469145,preview,,,,,,,,,,,,,,,,,,[man_1],,,0.23442367601246106,0.9158595641646489,0.32673267326732675,0.18599562363238512,0.40581193888801387,0.28624401913875597,0.6633663366336634,1.0,0.765081115136242,0.7919002050580998
p9,Trial: 32,p9.edf,.,4,Fixation: 4564 ms,386,4564,4949,[23],2,1520,386,765.5,222.4,1,1,35.4,36.7,7,Saccade: 4497 ms,RIGHT,67,13.02,194.3,463.42,"[ 2, 99]",4497,4563,291.1,221.3,757.8,222.2,8,Saccade: 4950 ms,DOWN,60,11.65,194.12,459.19,[ 99],4950,5009,758.8,229.5,525.9,583.9,179.31,LEFT,12.86,A12,S12.wav,A12.png,14,1469145,preview,,,,,,,,,,,,,,,,,,[cabinetpart_1],,,0.15031152647975077,0.9200968523002422,0.6633663366336634,0.7122538293216629,0.765081115136242,0.7919002050580998,0.594059405940594,1.0,0.7643723421011183,0.7846719070403281
p9,Trial: 32,p9.edf,.,5,Fixation: 5010 ms,182,5010,5191,[],65,1562,22096,521.0,601.4,5,63,35.55,37.05,8,Saccade: 4950 ms,DOWN,60,11.65,194.12,459.19,"[ 23, 99]",4950,5009,758.8,229.5,525.9,583.9,9,Saccade: 5192 ms,LEFT,41,6.41,156.36,389.23,"[ 10, 16, 29, 99]",5192,5232,521.2,607.2,298.3,671.8,56.16,UP,12.37,A12,S12.wav,A12.png,14,1469145,preview,,,,,,,,,,,,,,,,,,[],,,0.07087227414330217,0.9455205811138014,0.594059405940594,0.6373085339168489,0.7643723421011183,0.7846719070403281,0.40594059405940597,1.0,0.61568750984407,0.6651230348598769
p9,Trial: 32,p9.edf,.,6,Fixation: 5233 ms,264,5233,5496,"[10, 16, 29]",7,1644,264,310.6,670.3,1,1,36.55,37.8,9,Saccade: 5192 ms,LEFT,41,6.41,156.36,389.23,[ 99],5192,5232,521.2,607.2,298.3,671.8,10,Saccade: 5497 ms,UP,88,9.98,113.43,242.3,"[ 2, 99]",5497,5584,311.8,673.4,299.5,300.3,17.51,RIGHT,6.12,A12,S12.wav,A12.png,14,1469145,preview,,,,,,,,,,,,,,,,,,"[basket_3, counterpart_4, pumpkin_1]",,,0.102803738317757,0.9951573849878934,0.40594059405940597,0.3506564551422319,0.61568750984407,0.6651230348598769,0.8712871287128713,1.0,0.44664514096708147,0.4140464798359535
p9,Trial: 32,p9.edf,.,7,Fixation: 5585 ms,105,5585,5689,[2],9,1652,401,297.4,293.5,1,2,36.2,37.0,10,Saccade: 5497 ms,UP,88,9.98,113.43,242.3,"[ 10, 16, 29, 99]",5497,5584,311.8,673.4,299.5,300.3,11,Saccade: 5690 ms,UP,20,1.44,72.1,100.64,"[ 2, 99]",5690,5709,301.7,294.1,271.5,250.4,-87.94,DOWN,10.08,A12,S12.wav,A12.png,14,1469145,preview,,,,,,,,,,,,,,,,,,[man_1],,,0.04088785046728972,1.0,0.8712871287128713,0.5459518599562363,0.44664514096708147,0.4140464798359535,0.19801980198019803,1.0,0.2839029768467475,0.1719753930280246
p9,Trial: 32,p9.edf,.,8,Fixation: 5710 ms,296,5710,6005,[2],9,1585,401,279.7,255.0,2,2,36.35,37.15,11,Saccade: 5690 ms,UP,20,1.44,72.1,100.64,"[ 2, 99]",5690,5709,301.7,294.1,271.5,250.4,12,Saccade: 6006 ms,DOWN,47,8.25,175.46,378.95,"[ 16, 99]",6006,6052,284.1,263.7,175.2,551.9,-64.83,DOWN,1.15,A12,S12.wav,A12.png,14,1469145,preview,,,,,,,,,,,,,,,,,,[man_1],,,0.11526479750778816,0.9594430992736077,0.19801980198019803,0.07877461706783369,0.2839029768467475,0.1719753930280246,0.46534653465346537,1.0,0.6908962041266341,0.6475563909774436
p9,Trial: 32,p9.edf,.,9,Fixation: 6053 ms,172,6053,6224,[12],10,1411,172,176.5,536.3,1,1,37.15,37.7,12,Saccade: 6006 ms,DOWN,47,8.25,175.46,378.95,"[ 2, 99]",6006,6052,284.1,263.7,175.2,551.9,13,Saccade: 6225 ms,RIGHT,57,12.85,225.52,585.2,"[ 19, 99]",6225,6281,183.4,542.3,583.8,797.2,69.51,UP,8.02,A12,S12.wav,A12.png,14,1469145,preview,,,,,,,,,,,,,,,,,,[counterpart_1],,,0.06697819314641744,0.8541162227602905,0.46534653465346537,0.45131291028446385,0.6908962041266341,0.6475563909774436,0.5643564356435643,1.0,0.8880138604504646,1.0
p9,Trial: 32,p9.edf,.,10,Fixation: 6282 ms,274,6282,6555,[19],3,1334,274,603.6,799.0,1,1,36.0,38.1,13,Saccade: 6225 ms,RIGHT,57,12.85,225.52,585.2,[ 99],6225,6281,183.4,542.3,583.8,797.2,14,Saccade: 6556 ms,RIGHT,64,12.8,200.06,381.18,"[ 13, 99]",6556,6619,601.3,796.1,951.1,482.4,149.31,LEFT,13.58,A12,S12.wav,A12.png,14,1469145,preview,,,,,,,,,,,,,,,,,,[woman_1],,,0.10669781931464174,0.8075060532687651,0.5643564356435643,0.7029540481400437,0.8880138604504646,1.0,0.6336633663366337,1.0,0.7877618522601985,0.6513670539986329
p9,Trial: 32,p9.edf,.,11,Fixation: 6620 ms,199,6620,6818,[13],11,1292,411,950.2,482.3,1,2,36.1,37.0,14,Saccade: 6556 ms,RIGHT,64,12.8,200.06,381.18,"[ 19, 99]",6556,6619,601.3,796.1,951.1,482.4,15,Saccade: 6819 ms,UP,59,5.63,95.48,195.98,"[ 13, 99]",6819,6877,951.9,480.6,846.7,303.4,-138.74,LEFT,12.79,A12,S12.wav,A12.png,14,1469145,preview,,,,,,,,,,,,,,,,,,[counterpart_2],,,0.07749221183800623,0.7820823244552058,0.6336633663366337,0.700218818380744,0.7877618522601985,0.6513670539986329,0.5841584158415841,1.0,0.37596471885336274,0.3348940533151059
p9,Trial: 32,p9.edf,.,12,Fixation: 6878 ms,212,6878,7089,[13],11,1314,411,851.8,304.3,2,2,35.6,36.7,15,Saccade: 6819 ms,UP,59,5.63,95.48,195.98,"[ 13, 99]",6819,6877,951.9,480.6,846.7,303.4,16,Saccade: 7090 ms,LEFT,40,4.48,112.04,243.4,"[ 3, 99]",7090,7129,851.0,308.3,711.4,229.9,-60.39,DOWN,5.56,A12,S12.wav,A12.png,14,1469145,preview,,,,,,,,,,,,,,,,,,[counterpart_2],,,0.08255451713395638,0.7953995157384988,0.5841584158415841,0.3079868708971553,0.37596471885336274,0.3348940533151059,0.39603960396039606,1.0,0.44117183808473776,0.4159261790840738
p9,Trial: 32,p9.edf,.,13,Fixation: 7130 ms,1140,7130,8269,[3],6,1229,1140,708.6,216.8,1,1,35.3,36.65,16,Saccade: 7090 ms,LEFT,40,4.48,112.04,243.4,"[ 13, 99]",7090,7129,851.0,308.3,711.4,229.9,17,Saccade: 8270 ms,LEFT,65,12.14,186.72,412.98,"[ 2, 99]",8270,8334,707.1,196.0,272.4,215.3,-30.57,RIGHT,4.69,A12,S12.wav,A12.png,14,1469145,preview,,,,,,,,,,,,,,,,,,[man_2],,,0.4439252336448598,0.7439467312348669,0.39603960396039606,0.2450765864332604,0.44117183808473776,0.4159261790840738,0.6435643564356436,1.0,0.7352338951015908,0.7057074504442925
p9,Trial: 32,p9.edf,.,14,Fixation: 8335 ms,2568,8335,10902,[2],9,1233,2685,293.5,213.7,1,2,36.35,37.2,17,Saccade: 8270 ms,LEFT,65,12.14,186.72,412.98,"[ 3, 99]",8270,8334,707.1,196.0,272.4,215.3,18,Saccade: 10903 ms,DOWN,27,2.38,88.14,136.13,"[ 2, 99]",10903,10929,286.3,216.6,322.1,296.8,-0.42,RIGHT,11.59,A12,S12.wav,A12.png,14,1469145,preview,,,,,,,,,,,,,,,,,,[man_1],,,1.0,0.7463680387409201,0.6435643564356436,0.6641137855579868,0.7352338951015908,0.7057074504442925,0.26732673267326734,1.0,0.3470625295322098,0.23262132604237865
p9,Trial: 32,p9.edf,.,15,Fixation: 10930 ms,117,10930,11046,[2],9,1217,2685,318.3,300.8,2,2,36.1,36.95,18,Saccade: 10903 ms,DOWN,27,2.38,88.14,136.13,"[ 2, 99]",10903,10929,286.3,216.6,322.1,296.8,19,Saccade: 11047 ms,LEFT,39,5.46,140.1,285.13,"[ 7, 12, 99]",11047,11085,317.6,299.4,173.2,440.2,106.25,UP,2.45,A12,S12.wav,A12.png,14,1469145,preview,,,,,,,,,,,,,,,,,,[man_1],,,0.0455607476635514,0.736682808716707,0.26732673267326734,0.13019693654266956,0.3470625295322098,0.23262132604237865,0.38613861386138615,1.0,0.5516616790045676,0.4872351332877648
p9,Trial: 32,p9.edf,.,16,Fixation: 11086 ms,344,11086,11429,"[7, 12]",7,1207,344,182.1,446.4,1,1,37.05,37.5,19,Saccade: 11047 ms,LEFT,39,5.46,140.1,285.13,"[ 2, 99]",11047,11085,317.6,299.4,173.2,440.2,20,Saccade: 11430 ms,DOWN,42,6.81,162.23,348.3,"[ 10, 16, 28, 99]",11430,11471,181.2,451.2,341.7,647.2,46.41,UP,5.4,A12,S12.wav,A12.png,14,1469145,preview,,,,,,,,,,,,,,,,,,"[basket_1, counterpart_1]",,,0.13395638629283488,0.7306295399515739,0.38613861386138615,0.2986870897155361,0.5516616790045676,0.4872351332877648,0.4158415841584158,1.0,0.6388013860450464,0.5951811346548188
p9,Trial: 32,p9.edf,.,17,Fixation: 11472 ms,277,11472,11748,"[10, 16, 28]",7,1066,277,335.8,641.7,1,1,36.3,37.6,20,Saccade: 11430 ms,DOWN,42,6.81,162.23,348.3,"[ 7, 12, 99]",11430,11471,181.2,451.2,341.7,647.2,21,Saccade: 11749 ms,RIGHT,101,14.88,147.28,346.99,"[ 3, 99]",11749,11849,335.4,640.4,759.7,306.9,128.86,UP,6.68,A12,S12.wav,A12.png,14,1469145,preview,,,,,,,,,,,,,,,,,,"[basket_3, counterpart_4, bread_1]",,,0.10786604361370716,0.6452784503631961,0.4158415841584158,0.3725382932166302,0.6388013860450464,0.5951811346548188,1.0,1.0,0.5799338478500551,0.5929425837320574
p9,Trial: 32,p9.edf,.,18,Fixation: 11850 ms,108,11850,11957,"[3, 27]",6,971,284,770.7,305.3,1,2,35.3,36.6,21,Saccade: 11749 ms,RIGHT,101,14.88,147.28,346.99,"[ 10, 16, 28, 99]",11749,11849,335.4,640.4,759.7,306.9,22,Saccade: 11958 ms,LEFT,23,2.76,120.21,185.66,"[ 3, 99]",11958,11980,778.8,301.7,695.9,248.3,-143.26,LEFT,15.16,A12,S12.wav,A12.png,14,1469145,preview,,,,,,,,,,,,,,,,,,"[man_2, knife_1]",,,0.04205607476635514,0.587772397094431,1.0,0.8140043763676149,0.5799338478500551,0.5929425837320574,0.22772277227722773,1.0,0.47334225862340523,0.3172590567327409
p9,Trial: 32,p9.edf,.,19,Fixation: 11981 ms,176,11981,12156,[3],6,947,284,698.8,239.2,2,2,35.25,36.6,22,Saccade: 11958 ms,LEFT,23,2.76,120.21,185.66,"[ 3, 27, 99]",11958,11980,778.8,301.7,695.9,248.3,23,Saccade: 12157 ms,RIGHT,25,2.32,92.77,163.55,"[ 23, 99]",12157,12181,701.3,234.2,778.7,262.2,-41.54,RIGHT,2.72,A12,S12.wav,A12.png,14,1469145,preview,,,,,,,,,,,,,,,,,,[man_2],,,0.06853582554517133,0.5732445520581114,0.22772277227722773,0.1509846827133479,0.47334225862340523,0.3172590567327409,0.24752475247524752,1.0,0.36529374704677897,0.2794771018455229
p9,Trial: 32,p9.edf,.,20,Fixation: 12182 ms,144,12182,12325,[23],2,900,144,769.7,256.9,1,1,35.4,36.6,23,Saccade: 12157 ms,RIGHT,25,2.32,92.77,163.55,"[ 3, 99]",12157,12181,701.3,234.2,778.7,262.2,24,Saccade: 12326 ms,DOWN,24,2.23,93.12,177.43,"[ 9, 13, 99]",12326,12349,772.0,258.8,810.6,330.2,166.45,LEFT,2.06,A12,S12.wav,A12.png,14,1469145,preview,,,,,,,,,,,,,,,,,,[cabinetpart_1],,,0.056074766355140186,0.5447941888619855,0.24752475247524752,0.12691466083150982,0.36529374704677897,0.2794771018455229,0.2376237623762376,1.0,0.3666719168372972,0.3031954887218045
p9,Trial: 32,p9.edf,.,21,Fixation: 12350 ms,359,12350,12708,"[9, 13]",1,833,359,802.6,334.6,1,1,35.4,36.6,24,Saccade: 12326 ms,DOWN,24,2.23,93.12,177.43,"[ 23, 99]",12326,12349,772.0,258.8,810.6,330.2,25,Saccade: 12709 ms,.,10,0.48,48.4,47.53,"[ 13, 99]",12709,12718,804.7,341.3,790.0,350.4,113.64,UP,2.32,A12,S12.wav,A12.png,14,1469145,preview,,,,,,,,,,,,,,,,,,"[apple_4, counterpart_2]",,,0.139797507788162,0.5042372881355932,0.2376237623762376,0.12199124726477023,0.3666719168372972,0.3031954887218045,0.09900990099009901,1.0,0.19058119388880138,0.0812200956937799
p9,Trial: 32,p9.edf,.,22,Fixation: 12719 ms,330,12719,13048,[13],11,780,1265,785.4,352.0,2,3,35.4,36.6,25,Saccade: 12709 ms,.,10,0.48,48.4,47.53,"[ 9, 13, 99]",12709,12718,804.7,341.3,790.0,350.4,26,Saccade: 13049 ms,RIGHT,23,1.53,66.73,139.74,"[ 13, 99]",13049,13071,786.1,351.5,829.7,385.1,44.38,RIGHT,0.68,A12,S12.wav,A12.png,14,1469145,preview,,,,,,,,,,,,,,,,,,[counterpart_2],,,0.12850467289719625,0.4721549636803874,0.09900990099009901,0.0262582056892779,0.19058119388880138,0.0812200956937799,0.22772277227722773,1.0,0.26275791463222553,0.23879015721120983
p9,Trial: 32,p9.edf,13188,23,Fixation: 13072 ms,576,13072,13647,[13],11,735,1265,820.9,383.3,3,3,35.5,36.6,26,Saccade: 13049 ms,RIGHT,23,1.53,66.73,139.74,"[ 13, 99]",13049,13071,786.1,351.5,829.7,385.1,27,Saccade: 13648 ms,LEFT,72,18.28,253.96,437.05,[ 99],13648,13719,819.7,380.8,156.1,342.6,139.5,LEFT,1.32,A12,S12.wav,A12.png,14,1469145,preview,,,,,,,,,,,,,,,,,,[counterpart_2],,,0.22429906542056074,0.4449152542372881,0.22772277227722773,0.0836980306345733,0.26275791463222553,0.23879015721120983,0.7128712871287128,1.0,1.0,0.7468386876281613
p9,Trial: 32,p9.edf,.,24,Fixation: 13720 ms,127,13720,13846,[],65,855,22096,169.9,348.7,24,63,37.15,37.45,27,Saccade: 13648 ms,LEFT,72,18.28,253.96,437.05,"[ 13, 99]",13648,13719,819.7,380.8,156.1,342.6,28,Saccade: 13847 ms,RIGHT,27,3.34,123.89,241.47,"[ 2, 99]",13847,13873,170.3,348.7,281.4,295.7,-2.98,RIGHT,17.95,A12,S12.wav,A12.png,14,1469145,task,,break,,,,,,,,,,,,,,,,[],,,0.049454828660436136,0.5175544794188862,0.7128712871287128,1.0,1.0,0.7468386876281613,0.26732673267326734,1.0,0.4878327295637108,0.4126281613123718
p9,Trial: 32,p9.edf,14000,25,Fixation: 13874 ms,146,13874,14019,[2],9,871,146,280.3,295.6,1,1,36.3,37.1,28,Saccade: 13847 ms,RIGHT,27,3.34,123.89,241.47,[ 99],13847,13873,170.3,348.7,281.4,295.7,29,Saccade: 14020 ms,DOWN,30,5.0,166.62,315.13,"[ 14, 99]",14020,14049,281.2,293.2,316.4,475.1,-154.65,LEFT,3.33,A12,S12.wav,A12.png,14,1469145,task,[2],[Verb],[380],[520],[140],[0],[ist],[is],[0.0],[0.0],[nan],[nan],[sein],[nan],[nan],[nan],[nan],[man_1],,,0.05685358255451713,0.5272397094430993,0.26732673267326734,0.18271334792122537,0.4878327295637108,0.4126281613123718,0.297029702970297,1.0,0.6560875728461175,0.5384996582365003
p9,Trial: 32,p9.edf,.,26,Fixation: 14050 ms,176,14050,14225,[14],4,910,176,312.0,471.5,1,1,36.15,37.1,29,Saccade: 14020 ms,DOWN,30,5.0,166.62,315.13,"[ 2, 99]",14020,14049,281.2,293.2,316.4,475.1,30,Saccade: 14226 ms,LEFT,25,2.38,95.3,147.03,"[ 7, 12, 99]",14226,14250,311.6,470.0,228.1,494.4,100.46,UP,4.82,A12,S12.wav,A12.png,14,1469145,task,[3],[Determiner_1],[600],[750],[150],[0],[ein],[an],[0.0],[0.0],[nan],[nan],[eine],[nan],[nan],[nan],[nan],[counterpart_3],,,0.06853582554517133,0.5508474576271186,0.297029702970297,0.2735229759299781,0.6560875728461175,0.5384996582365003,0.24752475247524752,1.0,0.37525594581823907,0.25124743677375255
p9,Trial: 32,p9.edf,.,27,Fixation: 14251 ms,163,14251,14413,"[7, 12]",7,968,163,212.3,497.7,1,1,36.75,37.45,30,Saccade: 14226 ms,LEFT,25,2.38,95.3,147.03,"[ 14, 99]",14226,14250,311.6,470.0,228.1,494.4,31,Saccade: 14414 ms,RIGHT,30,4.01,133.81,246.95,"[ 14, 99]",14414,14443,210.9,497.4,356.8,505.6,14.41,RIGHT,2.82,A12,S12.wav,A12.png,14,1469145,task,[4],[Noun_1],[800],[1370],[570],[0],[Apfel],[apple],[0.0],[1.0],[apple_1],[S01_I012_E005],[Apfel],[nan],[nan],[nan],[nan],"[basket_1, counterpart_1]",,,0.06347352024922118,0.585956416464891,0.24752475247524752,0.13019693654266956,0.37525594581823907,0.25124743677375255,0.297029702970297,1.0,0.5268939990549693,0.4219924812030075
p9,Trial: 32,p9.edf,15410,28,Fixation: 14444 ms,1757,14444,16200,[14],4,1146,1757,355.6,497.8,1,1,36.0,37.0,31,Saccade: 14414 ms,RIGHT,30,4.01,133.81,246.95,"[ 7, 12, 99]",14414,14443,210.9,497.4,356.8,505.6,32,Saccade: 16201 ms,LEFT,35,4.42,126.36,250.91,"[ 7, 12, 17, 99]",16201,16235,348.0,481.3,187.2,495.8,179.96,LEFT,3.94,A12,S12.wav,A12.png,14,1469145,task,"[4, 5, 6, 7]","[Noun_1, Preposition_1, Determiner_2, Noun_2]","[800, 1728, 1833, 2210]","[1370, 1840, 2110, 2645]","[570, 112, 277, 435]","[0, 0, 0, 0]","[Apfel, in, einem, Korb]","[apple, in, a, basket]","[0.0, 0.0, 0.0, 0.0]","[1.0, 0.0, 0.0, 0.0]","[apple_1, nan, nan, basket_1]","[S01_I012_E005, nan, nan, S01_I012_E006]","[Apfel, in, eine, Korb]","[nan, nan, nan, nan]","[nan, nan, nan, nan]","[nan, nan, nan, nan]","[nan, nan, nan, nan]",[counterpart_3],,,0.684190031152648,0.6937046004842615,0.297029702970297,0.2193654266958424,0.5268939990549693,0.4219924812030075,0.3465346534653465,1.0,0.4975586706567963,0.42875939849624056
p9,Trial: 32,p9.edf,16460,29,Fixation: 16236 ms,303,16236,16538,"[7, 12]",7,1259,303,208.3,493.1,1,1,36.9,37.45,32,Saccade: 16201 ms,LEFT,35,4.42,126.36,250.91,"[ 4, 14, 99]",16201,16235,348.0,481.3,187.2,495.8,33,Saccade: 16539 ms,DOWN,33,6.62,200.57,387.41,"[ 10, 16, 29, 99]",16539,16571,213.2,494.7,357.3,694.6,-1.79,RIGHT,4.04,A12,S12.wav,A12.png,14,1469145,task,,break,,,,,,,,,,,,,,,,"[basket_1, counterpart_1]",,,0.11799065420560748,0.7621065375302664,0.3465346534653465,0.24179431072210064,0.4975586706567963,0.42875939849624056,0.32673267326732675,1.0,0.789770042526382,0.662012987012987
p9,Trial: 32,p9.edf,.,30,Fixation: 16572 ms,621,16572,17192,"[10, 16, 29]",7,1144,1682,351.5,684.3,1,3,36.3,37.75,33,Saccade: 16539 ms,DOWN,33,6.62,200.57,387.41,"[ 7, 12, 99]",16539,16571,213.2,494.7,357.3,694.6,34,Saccade: 17193 ms,LEFT,21,1.32,62.94,104.56,"[ 10, 16, 29, 99]",17193,17213,351.6,679.0,311.1,706.1,127.58,UP,6.42,A12,S12.wav,A12.png,14,1469145,task,"[9, 10]","[Relative Clause Pers. Pronoun, Relative Clause Adverb]","[3140, 3260]","[3255, 3800]","[115, 540]","[1, 0]","[er, schnell]","[he, quickly]","[0.0, 0.0]","[0.0, 0.0]","[man_1, nan]","[S01_I012_E001, nan]","[er, schnell]","[nan, nan]","[nan, nan]","[nan, nan]","[nan, nan]","[basket_3, counterpart_4, pumpkin_1]",,,0.24182242990654207,0.6924939467312349,0.32673267326732675,0.362144420131291,0.789770042526382,0.662012987012987,0.2079207920792079,1.0,0.24783430461489997,0.17867395762132604
p9,Trial: 32,p9.edf,17240,31,Fixation: 17214 ms,965,17214,18178,"[10, 16, 29]",7,1056,1682,313.0,708.8,2,3,36.6,38.0,34,Saccade: 17193 ms,LEFT,21,1.32,62.94,104.56,"[ 10, 16, 29, 99]",17193,17213,351.6,679.0,311.1,706.1,35,Saccade: 18179 ms,RIGHT,18,1.04,57.94,83.96,"[ 10, 16, 29, 99]",18179,18196,306.1,714.0,343.4,706.1,31.48,RIGHT,1.24,A12,S12.wav,A12.png,14,1469145,task,"[10, 11]","[Relative Clause Adverb, Relative Clause Verb]","[3260, 4040]","[3800, 4755]","[540, 715]","[0, 0]","[schnell, aufsammelt]","[quickly, picks up]","[0.0, 1.0]","[0.0, 0.0]","[nan, nan]","[nan, nan]","[schnell, aufsammeln]","[nan, nan]","[nan, nan]","[nan, nan]","[nan, nan]","[basket_3, counterpart_4, pumpkin_1]",,,0.3757788161993769,0.639225181598063,0.2079207920792079,0.07221006564551422,0.24783430461489997,0.17867395762132604,0.1782178217821782,1.0,0.22814616475035437,0.14347231715652767
p9,Trial: 32,p9.edf,.,32,Fixation: 18197 ms,96,18197,18292,"[10, 16, 29]",7,1022,1682,339.0,702.7,3,3,36.45,37.9,35,Saccade: 18179 ms,RIGHT,18,1.04,57.94,83.96,"[ 10, 16, 29, 99]",18179,18196,306.1,714.0,343.4,706.1,36,Saccade: 18293 ms,UP,31,3.4,109.56,131.55,"[ 16, 99]",18293,18323,336.0,703.0,336.5,575.3,-167.28,LEFT,0.73,A12,S12.wav,A12.png,14,1469145,task,,break,,,,,,,,,,,,,,,,"[basket_3, counterpart_4, pumpkin_1]",,,0.037383177570093455,0.6186440677966102,0.1782178217821782,0.05689277899343545,0.22814616475035437,0.14347231715652767,0.3069306930693069,1.0,0.43140652071192315,0.22479494190020505
p9,Trial: 32,p9.edf,.,33,Fixation: 18324 ms,120,18324,18443,[16],9,1014,1802,336.6,541.2,4,4,36.15,37.25,36,Saccade: 18293 ms,UP,31,3.4,109.56,131.55,"[ 10, 16, 29, 99]",18293,18323,336.0,703.0,336.5,575.3,37,Saccade: 18444 ms,UP,17,0.86,50.4,68.02,"[ 14, 99]",18444,18460,333.7,544.7,335.1,512.9,-89.12,DOWN,4.3,A12,S12.wav,A12.png,14,1469145,post,,,,,,,,,,,,,,,,,,[counterpart_4],,,0.04672897196261682,0.6138014527845036,0.3069306930693069,0.18599562363238512,0.43140652071192315,0.22479494190020505,0.16831683168316833,1.0,0.1984564498346196,0.11623376623376622
p9,Trial: 32,p9.edf,18630,34,Fixation: 18461 ms,598,18461,19058,[14],4,957,598,338.8,510.2,1,1,36.05,37.1,37,Saccade: 18444 ms,UP,17,0.86,50.4,68.02,"[ 16, 99]",18444,18460,333.7,544.7,335.1,512.9,38,Saccade: 19059 ms,UP,21,1.31,62.54,67.86,"[ 14, 99]",19059,19079,339.8,503.5,309.3,466.2,-94.18,DOWN,0.84,A12,S12.wav,A12.png,14,1469145,post,,,,,,,,,,,,,,,,,,[counterpart_3],,,0.23286604361370716,0.5792978208232445,0.16831683168316833,0.047045951859956234,0.1984564498346196,0.11623376623376622,0.2079207920792079,1.0,0.24625925342573632,0.11596035543403964
