RECORDING_SESSION_LABEL,TRIAL_LABEL,DATA_FILE,CURRENT_FIX_MSG_TIME_1,CURRENT_FIX_INDEX,CURRENT_FIX_LABEL,CURRENT_FIX_DURATION,CURRENT_FIX_START,CURRENT_FIX_END,CURRENT_FIX_INTEREST_AREAS,CURRENT_FIX_INTEREST_AREA_FIX_COUNT,CURRENT_FIX_PUPIL,CURRENT_FIX_RUN_DWELL_TIME,CURRENT_FIX_X,CURRENT_FIX_Y,CURRENT_FIX_RUN_INDEX,CURRENT_FIX_RUN_SIZE,CURRENT_FIX_X_RESOLUTION,CURRENT_FIX_Y_RESOLUTION,PREVIOUS_SAC_INDEX,PREVIOUS_SAC_LABEL,PREVIOUS_SAC_DIRECTION,PREVIOUS_SAC_DURATION,PREVIOUS_SAC_AMPLITUDE,PREVIOUS_SAC_AVG_VELOCITY,PREVIOUS_SAC_PEAK_VELOCITY,PREVIOUS_SAC_START_INTEREST_AREAS,PREVIOUS_SAC_START_TIME,PREVIOUS_SAC_END_TIME,PREVIOUS_SAC_START_X,PREVIOUS_SAC_START_Y,PREVIOUS_SAC_END_X,PREVIOUS_SAC_END_Y,NEXT_SAC_INDEX,NEXT_SAC_LABEL,NEXT_SAC_DIRECTION,NEXT_SAC_DURATION,NEXT_SAC_AMPLITUDE,NEXT_SAC_AVG_VELOCITY,NEXT_SAC_PEAK_VELOCITY,NEXT_SAC_END_INTEREST_AREAS,NEXT_SAC_START_TIME,NEXT_SAC_END_TIME,NEXT_SAC_START_X,NEXT_SAC_START_Y,NEXT_SAC_END_X,NEXT_SAC_END_Y,PREVIOUS_FIX_ANGLE,PREVIOUS_FIX_DIRECTION,PREVIOUS_FIX_DISTANCE,ItemNO,audiofilename,imagefilename,TRIAL_INDEX,TRIAL_START_TIME,viewtype,word_index,Label,word_onset,word_offset,word_duration,Continuation,wordDE,wordEN,REFWord,TargetObj,ObjectLabel,ObjectID,LemmaDE,LingIndex,DepS,pos_1,pos_2,CURRENT_FIX_INTEREST_AREAS_Labelled,PREVIOUS_SAC_START_INTEREST_AREAS_Labelled,NEXT_SAC_END_INTEREST_AREAS_Labelled,NORMALIZED_CURRENT_FIX_DURATION,NORMALIZED_CURRENT_FIX_PUPIL,NORMALIZED_PREVIOUS_SAC_DURATION,NORMALIZED_PREVIOUS_SAC_AMPLITUDE,NORMALIZED_PREVIOUS_SAC_AVG_VELOCITY,NORMALIZED_PREVIOUS_SAC_PEAK_VELOCITY,NORMALIZED_NEXT_SAC_DURATION,NORMALIZED_NEXT_SAC_AMPLITUDE,NORMALIZED_NEXT_SAC_AVG_VELOCITY,NORMALIZED_NEXT_SAC_PEAK_VELOCITY
p9,Trial: 20,p9.edf,.,1,Fixation: 3433 ms,86,3433,3518,[],57,927,18771,731.1,631.5,1,56,35.6,37.15,3,Saccade: 3372 ms,UP,61,9.38,153.78,201.72,[ ],3372,3432,699.2,999.3,726.8,638.4,4,Saccade: 3519 ms,LEFT,55,9.32,169.54,342.49,"[ 2, 99]",3519,3573,730.7,627.8,484.0,398.7,-96.83,DOWN,9.34,A3,S3.wav,A3.png,10,1143505,preview,,,,,,,,,,,,,,,,,,[],,,0.047123287671232875,0.7530463038180342,0.9104477611940298,0.5051157781367798,0.48817497857210884,0.35036648487164346,0.20912547528517111,1.0,0.5752188369410327,0.29637417791623405
p9,Trial: 20,p9.edf,.,2,Fixation: 3574 ms,99,3574,3672,[2],10,963,215,483.3,400.2,1,2,35.4,36.6,4,Saccade: 3519 ms,LEFT,55,9.32,169.54,342.49,[ 99],3519,3573,730.7,627.8,484.0,398.7,5,Saccade: 3673 ms,UP,27,2.47,91.4,127.6,"[ 2, 99]",3673,3699,482.2,398.3,531.1,323.6,-41.94,RIGHT,9.38,A3,S3.wav,A3.png,10,1143505,preview,,,,,,,,,,,,,,,,,,[woman_1],,,0.054246575342465755,0.7822908204711616,0.8208955223880597,0.501884760366182,0.5382051363448779,0.5948692117969917,0.10266159695817491,1.0,0.3101038203162109,0.11041883004499828
p9,Trial: 20,p9.edf,.,3,Fixation: 3700 ms,116,3700,3815,[2],10,981,215,528.1,316.7,2,2,35.3,36.5,5,Saccade: 3673 ms,UP,27,2.47,91.4,127.6,"[ 2, 99]",3673,3699,482.2,398.3,531.1,323.6,6,Saccade: 3816 ms,UP,22,1.64,74.48,99.3,"[ 2, 99]",3816,3837,531.0,315.2,495.1,268.2,-119.02,DOWN,2.61,A3,S3.wav,A3.png,10,1143505,preview,,,,,,,,,,,,,,,,,,[woman_1],,,0.06356164383561644,0.7969130787977254,0.40298507462686567,0.13301023155627356,0.29014951906288694,0.22162781811234236,0.08365019011406843,1.0,0.25269729252900863,0.08592938733125649
p9,Trial: 20,p9.edf,.,4,Fixation: 3958 ms,115,3958,4072,[3],10,898,598,1098.7,290.9,1,2,37.0,37.4,7,Saccade: 3904 ms,RIGHT,54,17.01,315.01,569.12,"[ 2, 99]",3904,3957,488.4,255.6,1102.7,299.3,8,Saccade: 4073 ms,RIGHT,23,1.42,61.63,117.1,"[ 3, 99]",4073,4095,1096.4,287.6,1140.4,316.9,-177.47,LEFT,15.8,A3,S3.wav,A3.png,10,1143505,preview,,,,,,,,,,,,,,,,,,[woman_2],,,0.06301369863013699,0.7294882209585702,0.8059701492537313,0.9159935379644589,1.0,0.9885017542640775,0.08745247148288973,1.0,0.20909954536201397,0.10133264105226722
p9,Trial: 20,p9.edf,.,5,Fixation: 4096 ms,483,4096,4578,[3],10,916,598,1132.7,310.5,2,2,37.3,37.55,8,Saccade: 4073 ms,RIGHT,23,1.42,61.63,117.1,"[ 3, 99]",4073,4095,1096.4,287.6,1140.4,316.9,9,Saccade: 4579 ms,LEFT,65,16.13,248.19,575.74,[ 99],4579,4643,1129.0,300.1,544.8,258.6,150.25,LEFT,1.05,A3,S3.wav,A3.png,10,1143505,preview,,,,,,,,,,,,,,,,,,[woman_2],,,0.26465753424657534,0.7441104792851341,0.34328358208955223,0.07646742057081314,0.19564458271165996,0.20339041928648346,0.24714828897338403,1.0,0.8420641921693696,0.4982173762547595
p9,Trial: 20,p9.edf,.,6,Fixation: 4644 ms,105,4644,4748,[],57,1010,18771,550.3,251.8,6,56,35.3,36.6,9,Saccade: 4579 ms,LEFT,65,16.13,248.19,575.74,"[ 3, 99]",4579,4643,1129.0,300.1,544.8,258.6,10,Saccade: 4749 ms,LEFT,23,1.82,78.99,135.3,"[ 2, 99]",4749,4771,556.7,246.2,492.7,240.7,-5.64,RIGHT,16.12,A3,S3.wav,A3.png,10,1143505,preview,,,,,,,,,,,,,,,,,,[],,,0.057534246575342465,0.8204711616571893,0.9701492537313433,0.8686052773290253,0.7878797498492112,1.0,0.08745247148288973,1.0,0.2679989142973468,0.11708203530633439
p9,Trial: 20,p9.edf,.,7,Fixation: 4772 ms,536,4772,5307,[2],10,1055,536,485.1,234.8,1,1,35.45,36.7,10,Saccade: 4749 ms,LEFT,23,1.82,78.99,135.3,"[ 23, 99]",4749,4771,556.7,246.2,492.7,240.7,11,Saccade: 5308 ms,RIGHT,63,18.57,294.74,516.86,"[ 3, 99]",5308,5370,470.1,242.4,1144.7,298.3,-14.13,RIGHT,1.9,A3,S3.wav,A3.png,10,1143505,preview,,,,,,,,,,,,,,,,,,[woman_1],,,0.2936986301369863,0.8570268074735987,0.34328358208955223,0.09800753904146473,0.25075394431922793,0.23500191058463893,0.23954372623574144,1.0,1.0,0.44726548978885433
p9,Trial: 20,p9.edf,.,8,Fixation: 5371 ms,150,5371,5520,[3],10,966,1424,1139.1,292.1,1,6,37.4,37.6,11,Saccade: 5308 ms,RIGHT,63,18.57,294.74,516.86,"[ 2, 99]",5308,5370,470.1,242.4,1144.7,298.3,12,Saccade: 5521 ms,LEFT,13,0.61,46.98,45.11,"[ 3, 99]",5521,5533,1140.2,293.1,1122.8,307.9,175.09,LEFT,18.02,A3,S3.wav,A3.png,10,1143505,preview,,,,,,,,,,,,,,,,,,[woman_2],,,0.0821917808219178,0.784727863525589,0.9402985074626866,1.0,0.9356528364178915,0.8977316149650885,0.049429657794676805,1.0,0.15939472077084887,0.03903599861543787
p9,Trial: 20,p9.edf,.,9,Fixation: 5534 ms,240,5534,5773,[3],10,955,1424,1127.2,312.7,2,6,37.25,37.5,12,Saccade: 5521 ms,LEFT,13,0.61,46.98,45.11,"[ 3, 99]",5521,5533,1140.2,293.1,1122.8,307.9,13,Saccade: 5774 ms,DOWN,25,2.61,104.51,185.97,"[ 3, 99]",5774,5798,1128.4,311.6,1119.9,409.2,59.84,UP,0.63,A3,S3.wav,A3.png,10,1143505,preview,,,,,,,,,,,,,,,,,,[woman_2],,,0.13150684931506848,0.7757920389926889,0.19402985074626866,0.03284868066774367,0.14913812259928255,0.07835133914614235,0.09505703422053231,1.0,0.35458370088891905,0.1609293873312565
p9,Trial: 20,p9.edf,.,10,Fixation: 5799 ms,245,5799,6043,[3],10,959,1424,1119.7,405.1,3,6,37.2,37.5,13,Saccade: 5774 ms,DOWN,25,2.61,104.51,185.97,"[ 3, 99]",5774,5798,1128.4,311.6,1119.9,409.2,14,Saccade: 6044 ms,DOWN,32,3.31,103.51,153.55,"[ 3, 99]",6044,6075,1120.7,402.7,1091.4,523.5,85.33,UP,2.47,A3,S3.wav,A3.png,10,1143505,preview,,,,,,,,,,,,,,,,,,[woman_2],,,0.13424657534246576,0.7790414297319253,0.373134328358209,0.14054927302100162,0.3317672454842704,0.3230103866328551,0.12167300380228137,1.0,0.35119088009771326,0.1328746971270336
p9,Trial: 20,p9.edf,.,11,Fixation: 6076 ms,303,6076,6378,[3],10,935,1424,1093.3,516.0,4,6,37.05,37.6,14,Saccade: 6044 ms,DOWN,32,3.31,103.51,153.55,"[ 3, 99]",6044,6075,1120.7,402.7,1091.4,523.5,15,Saccade: 6379 ms,RIGHT,19,1.12,58.72,84.29,"[ 3, 99]",6379,6397,1087.7,518.6,1129.2,518.1,76.46,UP,3.04,A3,S3.wav,A3.png,10,1143505,preview,,,,,,,,,,,,,,,,,,[woman_2],,,0.16602739726027396,0.7595450852965069,0.47761194029850745,0.1782444803446419,0.32859274308752107,0.26670024663910796,0.07224334600760456,1.0,0.19922643685960506,0.0729404638283143
p9,Trial: 20,p9.edf,.,12,Fixation: 6398 ms,335,6398,6732,[3],10,904,1424,1113.6,514.7,5,6,37.3,37.75,15,Saccade: 6379 ms,RIGHT,19,1.12,58.72,84.29,"[ 3, 99]",6379,6397,1087.7,518.6,1129.2,518.1,16,Saccade: 6733 ms,DOWN,22,1.96,88.94,146.6,[ 99],6733,6754,1108.0,517.4,1095.7,590.3,-176.39,LEFT,0.55,A3,S3.wav,A3.png,10,1143505,preview,,,,,,,,,,,,,,,,,,[woman_2],,,0.18356164383561643,0.7343623070674249,0.2835820895522388,0.06031233171782445,0.18640678073711947,0.14640289019349012,0.08365019011406843,1.0,0.3017574811698446,0.12686050536517826
p9,Trial: 20,p9.edf,.,13,Fixation: 6755 ms,151,6755,6905,[3],10,896,1424,1096.0,581.7,6,6,37.2,37.85,16,Saccade: 6733 ms,DOWN,22,1.96,88.94,146.6,"[ 3, 99]",6733,6754,1108.0,517.4,1095.7,590.3,17,Saccade: 6906 ms,RIGHT,21,1.61,76.57,129.9,"[ 3, 99]",6906,6926,1094.0,582.1,1137.3,624.5,75.07,UP,1.83,A3,S3.wav,A3.png,10,1143505,preview,,,,,,,,,,,,,,,,,,[woman_2],,,0.08273972602739726,0.7278635255889521,0.3283582089552239,0.10554658050619278,0.2823402431668836,0.2546288255115156,0.07984790874524715,1.0,0.2597882879826287,0.1124091381100727
p9,Trial: 20,p9.edf,.,14,Fixation: 6927 ms,385,6927,7311,[],57,903,18771,1131.6,632.0,14,56,37.6,38.2,17,Saccade: 6906 ms,RIGHT,21,1.61,76.57,129.9,"[ 3, 99]",6906,6926,1094.0,582.1,1137.3,624.5,18,Saccade: 7312 ms,LEFT,52,11.3,217.26,426.15,"[ 19, 99]",7312,7363,1135.3,642.2,750.4,806.9,125.74,UP,1.63,A3,S3.wav,A3.png,10,1143505,preview,,,,,,,,,,,,,,,,,,[],,,0.21095890410958903,0.7335499593826158,0.31343283582089554,0.08669897684437265,0.24307164851909463,0.2256226769027686,0.19771863117870722,1.0,0.737124245097374,0.3687694704049844
p9,Trial: 20,p9.edf,.,15,Fixation: 7364 ms,129,7364,7492,[],57,932,18771,770.4,802.4,15,56,36.1,38.25,18,Saccade: 7312 ms,LEFT,52,11.3,217.26,426.15,[ 99],7312,7363,1135.3,642.2,750.4,806.9,19,Saccade: 7493 ms,LEFT,23,1.7,74.06,145.56,"[ 19, 99]",7493,7515,771.6,801.7,710.7,810.7,24.46,RIGHT,10.77,A3,S3.wav,A3.png,10,1143505,preview,,,,,,,,,,,,,,,,,,[],,,0.07068493150684932,0.7571080422420796,0.7761194029850746,0.6085083467959074,0.689692390717755,0.7401778580609303,0.08745247148288973,1.0,0.2512723077967022,0.12596053997923157
p9,Trial: 20,p9.edf,.,16,Fixation: 7516 ms,168,7516,7683,[19],3,949,168,722.6,805.7,1,1,36.0,38.2,19,Saccade: 7493 ms,LEFT,23,1.7,74.06,145.56,[ 99],7493,7515,771.6,801.7,710.7,810.7,20,Saccade: 7684 ms,LEFT,67,10.94,163.26,367.0,"[ 7, 99]",7684,7750,725.1,795.7,443.1,510.7,3.73,RIGHT,1.33,A3,S3.wav,A3.png,10,1143505,preview,,,,,,,,,,,,,,,,,,[man_1],,,0.09205479452054795,0.7709179528838342,0.34328358208955223,0.09154550350026924,0.23510364750325388,0.2528224545801924,0.25475285171102663,1.0,0.5539119223722603,0.3175839390792662
p9,Trial: 20,p9.edf,.,17,Fixation: 7751 ms,230,7751,7980,[7],1,987,230,436.9,506.7,1,1,35.6,36.9,20,Saccade: 7684 ms,LEFT,67,10.94,163.26,367.0,"[ 19, 99]",7684,7750,725.1,795.7,443.1,510.7,21,Saccade: 7981 ms,UP,39,4.45,114.08,168.88,[ 99],7981,8019,433.3,505.1,430.4,341.4,-44.94,RIGHT,11.27,A3,S3.wav,A3.png,10,1143505,preview,,,,,,,,,,,,,,,,,,[counter_1],,,0.12602739726027398,0.80178716490658,1.0,0.589122240172321,0.5182692612932923,0.6374405113419251,0.1482889733840304,1.0,0.38705299586075864,0.1461405330564209
p9,Trial: 20,p9.edf,.,18,Fixation: 8020 ms,196,8020,8215,[],57,1008,18771,434.6,321.7,18,56,35.5,36.7,21,Saccade: 7981 ms,UP,39,4.45,114.08,168.88,"[ 7, 99]",7981,8019,433.3,505.1,430.4,341.4,22,Saccade: 8216 ms,DOWN,22,1.47,66.75,109.26,"[ 2, 99]",8216,8237,437.0,320.2,443.5,373.6,-89.26,DOWN,5.03,A3,S3.wav,A3.png,10,1143505,preview,,,,,,,,,,,,,,,,,,[],,,0.1073972602739726,0.8188464662875711,0.582089552238806,0.23963381798599892,0.36214723342116123,0.2933268489248619,0.08365019011406843,1.0,0.2264707878129877,0.09454828660436138
p9,Trial: 20,p9.edf,.,19,Fixation: 8238 ms,158,8238,8395,[2],10,1010,379,444.5,374.9,1,2,35.5,36.6,22,Saccade: 8216 ms,DOWN,22,1.47,66.75,109.26,[ 99],8216,8237,437.0,320.2,443.5,373.6,23,Saccade: 8396 ms,DOWN,17,1.0,58.62,77.46,"[ 2, 99]",8396,8412,442.8,380.0,451.3,415.5,100.88,UP,1.48,A3,S3.wav,A3.png,10,1143505,preview,,,,,,,,,,,,,,,,,,[woman_1],,,0.08657534246575342,0.8204711616571893,0.3283582089552239,0.07915993537964458,0.21189803498301643,0.18977316149650886,0.06463878326996197,1.0,0.1988871547804845,0.0670301142263759
p9,Trial: 20,p9.edf,.,20,Fixation: 8413 ms,221,8413,8633,[2],10,988,379,442.2,411.5,2,2,35.5,36.7,23,Saccade: 8396 ms,DOWN,17,1.0,58.62,77.46,"[ 2, 99]",8396,8412,442.8,380.0,451.3,415.5,24,Saccade: 8634 ms,LEFT,29,5.83,200.99,374.71,"[ 8, 11, 99]",8634,8662,441.1,414.0,285.9,559.1,86.29,UP,1.0,A3,S3.wav,A3.png,10,1143505,preview,,,,,,,,,,,,,,,,,,[woman_1],,,0.1210958904109589,0.8025995125913891,0.2537313432835821,0.05385029617662897,0.18608933049744453,0.13453989648105047,0.11026615969581749,1.0,0.6819230508244555,0.3242557978539287
p9,Trial: 20,p9.edf,.,21,Fixation: 8663 ms,239,8663,8901,"[8, 11]",2,946,618,280.1,574.7,1,2,36.4,37.4,24,Saccade: 8634 ms,LEFT,29,5.83,200.99,374.71,"[ 2, 99]",8634,8662,441.1,414.0,285.9,559.1,25,Saccade: 8902 ms,LEFT,24,2.95,122.79,195.76,"[ 8, 15, 99]",8902,8925,285.5,571.8,179.8,596.6,44.33,RIGHT,6.3,A3,S3.wav,A3.png,10,1143505,preview,,,,,,,,,,,,,,,,,,"[counter_3, knife_2]",,,0.13095890410958905,0.768480909829407,0.43283582089552236,0.3139472267097469,0.6380432367226437,0.6508319727654843,0.09125475285171103,1.0,0.41660446495216125,0.1694011768778124
p9,Trial: 20,p9.edf,.,22,Fixation: 8926 ms,379,8926,9304,"[8, 15]",2,944,618,177.8,587.4,2,2,37.15,37.85,25,Saccade: 8902 ms,LEFT,24,2.95,122.79,195.76,"[ 8, 11, 99]",8902,8925,285.5,571.8,179.8,596.6,26,Saccade: 9305 ms,UP,263,5.4,20.53,1151.34,[ 99],9305,9567,190.4,584.1,260.6,395.0,6.92,RIGHT,2.8,A3,S3.wav,A3.png,10,1143505,preview,,,,,,,,,,,,,,,,,,"[counter_3, wineshelf_1]",,,0.20767123287671233,0.7668562144597888,0.3582089552238806,0.15885837372105546,0.3897971492968477,0.34001458991906064,1.0,1.0,0.06965461084345526,0.9963136033229492
p9,Trial: 20,p9.edf,.,23,Fixation: 9983 ms,185,9983,10167,[],57,998,18771,418.2,294.2,23,56,35.6,36.7,27,Saccade: 9940 ms,RIGHT,43,4.89,113.64,222.49,[ 99],9940,9982,276.4,409.4,417.3,301.7,28,Saccade: 10168 ms,RIGHT,25,2.47,98.97,159.97,"[ 2, 99]",10168,10192,416.4,289.6,498.1,256.3,-130.04,DOWN,10.27,A3,S3.wav,A3.png,10,1143505,preview,,,,,,,,,,,,,,,,,,[],,,0.10136986301369863,0.8107229894394801,0.6417910447761194,0.26332794830371564,0.36075045236659153,0.3864417966443186,0.09505703422053231,1.0,0.33578747370563883,0.13843025268258913
p9,Trial: 20,p9.edf,.,24,Fixation: 10193 ms,234,10193,10426,[2],10,1004,234,496.2,253.7,1,1,35.4,36.65,28,Saccade: 10168 ms,RIGHT,25,2.47,98.97,159.97,[ 99],10168,10192,416.4,289.6,498.1,256.3,29,Saccade: 10427 ms,RIGHT,53,13.39,252.63,486.1,"[ 9, 99]",10427,10479,492.1,248.7,944.9,406.6,-153.32,LEFT,2.46,A3,S3.wav,A3.png,10,1143505,preview,,,,,,,,,,,,,,,,,,[woman_1],,,0.12821917808219177,0.8155970755483347,0.373134328358209,0.13301023155627356,0.3141805022062792,0.2778511133497759,0.20152091254752852,1.0,0.8571283164823233,0.42064728279681557
p9,Trial: 20,p9.edf,.,25,Fixation: 10480 ms,212,10480,10691,[9],19,977,985,944.8,401.2,1,3,36.0,36.9,29,Saccade: 10427 ms,RIGHT,53,13.39,252.63,486.1,"[ 2, 99]",10427,10479,492.1,248.7,944.9,406.6,30,Saccade: 10692 ms,LEFT,28,3.01,107.38,197.42,"[ 9, 18, 99]",10692,10719,949.7,401.3,843.3,418.0,162.3,LEFT,13.19,A3,S3.wav,A3.png,10,1143505,preview,,,,,,,,,,,,,,,,,,[counter_2],,,0.11616438356164384,0.7936636880584891,0.7910447761194029,0.721055465805062,0.8019745404907781,0.8443047208809532,0.10646387832699619,1.0,0.3643210965596797,0.17083766008999654
p9,Trial: 20,p9.edf,.,26,Fixation: 10720 ms,370,10720,11089,"[9, 18]",19,992,985,853.8,411.6,2,3,35.6,36.7,30,Saccade: 10692 ms,LEFT,28,3.01,107.38,197.42,"[ 9, 99]",10692,10719,949.7,401.3,843.3,418.0,31,Saccade: 11090 ms,RIGHT,217,8.51,39.2,1155.6,"[ 3, 99]",11090,11306,854.9,405.5,1157.0,330.8,6.34,RIGHT,2.56,A3,S3.wav,A3.png,10,1143505,preview,,,,,,,,,,,,,,,,,,"[counter_2, faucet_1]",,,0.20273972602739726,0.8058489033306255,0.417910447761194,0.1620893914916532,0.34087806736294085,0.3428978358286726,0.8250950570342205,1.0,0.1329985750152677,1.0
p9,Trial: 20,p9.edf,.,27,Fixation: 11621 ms,403,11621,12023,[9],19,995,985,902.2,462.5,3,3,35.8,36.9,32,Saccade: 11580 ms,LEFT,41,8.15,198.88,385.46,"[ 3, 99]",11580,11620,1158.4,330.2,890.5,465.0,33,Saccade: 12024 ms,RIGHT,46,7.02,152.51,226.34,"[ 3, 99]",12024,12069,899.8,456.4,1117.8,319.5,134.43,UP,1.94,A3,S3.wav,A3.png,10,1143505,preview,,,,,,,,,,,,,,,,,,[counter_2],,,0.22082191780821916,0.8082859463850528,0.6119402985074627,0.4388799138395261,0.6313450366655027,0.6695035953729114,0.17490494296577946,1.0,0.5174390988667978,0.19586362062997578
p9,Trial: 20,p9.edf,.,28,Fixation: 12070 ms,354,12070,12423,[3],10,988,933,1112.8,306.6,1,2,37.15,37.5,33,Saccade: 12024 ms,RIGHT,46,7.02,152.51,226.34,"[ 9, 99]",12024,12069,899.8,456.4,1117.8,319.5,34,Saccade: 12424 ms,RIGHT,19,1.11,58.37,79.35,"[ 3, 99]",12424,12442,1106.7,299.4,1147.8,295.2,-144.03,LEFT,7.13,A3,S3.wav,A3.png,10,1143505,preview,,,,,,,,,,,,,,,,,,[woman_2],,,0.19397260273972602,0.8025995125913891,0.6865671641791045,0.37802907915993533,0.4841433605282372,0.3931288428804669,0.07224334600760456,1.0,0.19803894958268303,0.0686656282450675
p9,Trial: 20,p9.edf,.,29,Fixation: 12443 ms,579,12443,13021,[3],10,1026,933,1143.6,301.1,2,2,37.35,37.6,34,Saccade: 12424 ms,RIGHT,19,1.11,58.37,79.35,"[ 3, 99]",12424,12442,1106.7,299.4,1147.8,295.2,35,Saccade: 13022 ms,DOWN,45,10.23,227.28,389.82,"[ 9, 99]",13022,13066,1137.1,313.7,909.0,618.3,-169.96,LEFT,0.84,A3,S3.wav,A3.png,10,1143505,preview,,,,,,,,,,,,,,,,,,[woman_2],,,0.31726027397260276,0.8334687246141349,0.2835820895522388,0.05977382875605816,0.1852957048982572,0.13782262826970507,0.17110266159695817,1.0,0.7711203094252561,0.337331256490135
p9,Trial: 20,p9.edf,13182,30,Fixation: 13067 ms,137,13067,13203,"[5, 14]",4,1054,137,905.4,628.2,1,1,36.1,37.4,35,Saccade: 13022 ms,DOWN,45,10.23,227.28,389.82,"[ 3, 99]",13022,13066,1137.1,313.7,909.0,618.3,36,Saccade: 13204 ms,RIGHT,23,2.23,96.87,149.16,"[ 9, 99]",13204,13226,905.3,621.9,971.3,574.0,53.37,UP,10.87,A3,S3.wav,A3.png,10,1143505,preview,,,,,,,,,,,,,,,,,,"[plate_3, bank_1]",,,0.07506849315068494,0.8562144597887896,0.6716417910447762,0.5508885298869144,0.7215009047331831,0.6770764581234585,0.08745247148288973,1.0,0.32866255004410666,0.12907580477673936
p9,Trial: 20,p9.edf,13284,31,Fixation: 13227 ms,594,13227,13820,[9],19,1053,594,987.4,552.1,1,1,36.4,37.35,36,Saccade: 13204 ms,RIGHT,23,2.23,96.87,149.16,"[ 14, 99]",13204,13226,905.3,621.9,971.3,574.0,37,Saccade: 13821 ms,LEFT,47,10.07,214.32,427.2,"[ 19, 99]",13821,13867,1003.7,538.4,701.8,749.9,-138.01,LEFT,3.04,A3,S3.wav,A3.png,10,1143505,preview,[1],[Adverb],[90],[250],[160],[0],[Da],[It],[0.0],[0.0],[nan],[nan],[da],[nan],[nan],[nan],[nan],[counter_2],,,0.3254794520547945,0.8554021121039805,0.34328358208955223,0.1200861604738826,0.30751404717310565,0.2590752770347726,0.17870722433460076,1.0,0.7271493519712289,0.36967808930425755
p9,Trial: 20,p9.edf,13954,32,Fixation: 13868 ms,757,13868,14624,[19],3,1047,757,717.0,761.7,1,1,35.85,37.85,37,Saccade: 13821 ms,LEFT,47,10.07,214.32,427.2,"[ 9, 99]",13821,13867,1003.7,538.4,701.8,749.9,38,Saccade: 14625 ms,RIGHT,39,6.44,165.04,268.69,"[ 5, 14, 99]",14625,14663,710.2,757.3,940.1,717.6,36.68,RIGHT,9.33,A3,S3.wav,A3.png,10,1143505,task,"[2, 3, 4]","[Verb, Determiner_1, Noun_1]","[300, 556, 754]","[520, 700, 1249]","[220, 144, 495]","[0, 0, 0]","[ist, ein, Teller]","[is, a, plate]","[0.0, 0.0, 0.0]","[0.0, 0.0, 0.0]","[nan, nan, plate_1]","[nan, nan, S01_I003_E003]","[sein, eine, Teller]","[nan, nan, nan]","[nan, nan, nan]","[nan, nan, nan]","[nan, nan, nan]",[man_1],,,0.4147945205479452,0.8505280259951259,0.7014925373134329,0.5422724824986538,0.6803593536713121,0.7420015979435162,0.1482889733840304,1.0,0.5599511433806066,0.23251124956732436
p9,Trial: 20,p9.edf,.,33,Fixation: 14664 ms,185,14664,14848,[14],5,1095,344,931.4,724.5,1,2,36.45,38.0,38,Saccade: 14625 ms,RIGHT,39,6.44,165.04,268.69,"[ 19, 99]",14625,14663,710.2,757.3,940.1,717.6,39,Saccade: 14849 ms,RIGHT,16,0.91,57.03,71.16,"[ 5, 14, 99]",14849,14864,924.7,727.9,953.3,710.2,-170.61,LEFT,6.01,A3,S3.wav,A3.png,10,1143505,task,,break,,,,,,,,,,,,,,,,[bank_1],,,0.10136986301369863,0.8895207148659626,0.582089552238806,0.3467959073774906,0.523919875559506,0.4666863514780977,0.060836501901140684,1.0,0.19349256972246726,0.06157840083073728
p9,Trial: 20,p9.edf,.,34,Fixation: 14865 ms,159,14865,15023,"[5, 14]",4,1144,159,948.7,709.1,1,1,36.5,38.0,39,Saccade: 14849 ms,RIGHT,16,0.91,57.03,71.16,"[ 14, 99]",14849,14864,924.7,727.9,953.3,710.2,40,Saccade: 15024 ms,UP,44,6.63,150.65,259.83,"[ 9, 10, 99]",15024,15067,949.7,710.0,884.6,471.1,-139.49,LEFT,0.62,A3,S3.wav,A3.png,10,1143505,task,,break,,,,,,,,,,,,,,,,"[plate_3, bank_1]",,,0.08712328767123288,0.9293257514216084,0.23880597014925373,0.04900376952073236,0.18104187168661312,0.12359745718553512,0.16730038022813687,1.0,0.511128452195155,0.2248442367601246
p9,Trial: 20,p9.edf,15263,35,Fixation: 15068 ms,289,15068,15356,"[9, 10]",19,1193,454,884.3,474.6,1,2,35.75,36.85,40,Saccade: 15024 ms,UP,44,6.63,150.65,259.83,"[ 5, 14, 99]",15024,15067,949.7,710.0,884.6,471.1,41,Saccade: 15357 ms,DOWN,15,0.71,47.25,54.77,"[ 9, 10, 99]",15357,15371,869.4,472.5,864.9,498.2,-74.12,DOWN,6.51,A3,S3.wav,A3.png,10,1143505,task,"[5, 6]","[Preposition_1, Determiner_2]","[1600, 1782]","[1766, 1930]","[166, 148]","[0, 0]","[auf, einem]","[on, a]","[0.0, 0.0]","[0.0, 0.0]","[nan, nan]","[nan, nan]","[auf, eine]","[nan, nan]","[nan, nan]","[nan, nan]","[nan, nan]","[counter_2, plate_2]",,,0.15835616438356165,0.9691307879772543,0.6567164179104478,0.3570274636510501,0.47823878607028353,0.45129746065932536,0.057034220532319393,1.0,0.16031078238447444,0.04739529248875044
p9,Trial: 20,p9.edf,.,36,Fixation: 15372 ms,165,15372,15536,"[9, 10]",19,1188,454,863.8,492.7,2,2,35.7,36.9,41,Saccade: 15357 ms,DOWN,15,0.71,47.25,54.77,"[ 9, 10, 99]",15357,15371,869.4,472.5,864.9,498.2,42,Saccade: 15537 ms,DOWN,33,6.68,202.43,396.28,[ 99],15537,15569,865.5,497.0,923.7,740.1,40.54,RIGHT,0.76,A3,S3.wav,A3.png,10,1143505,task,,break,,,,,,,,,,,,,,,,"[counter_2, plate_2]",,,0.09041095890410959,0.9650690495532088,0.22388059701492538,0.03823371028540657,0.14999523824640487,0.09512974606593254,0.12547528517110265,1.0,0.6868087127637919,0.3429214260989962
p9,Trial: 20,p9.edf,.,37,Fixation: 15570 ms,850,15570,16419,"[5, 14]",4,1231,850,928.5,722.4,1,1,36.5,38.05,42,Saccade: 15537 ms,DOWN,33,6.68,202.43,396.28,"[ 9, 10, 99]",15537,15569,865.5,497.0,923.7,740.1,43,Saccade: 16420 ms,UP,62,7.41,119.49,173.79,"[ 9, 99]",16420,16481,939.7,717.0,928.2,439.8,106.3,UP,6.39,A3,S3.wav,A3.png,10,1143505,task,[7],[Noun_2],[2063],[2615],[552],[0],[Tresen],[counter],[0.0],[1.0],[counter_1],[S01_I003_E005],[Tresen],[nan],[nan],[nan],[nan],"[plate_3, bank_1]",,,0.4657534246575342,1.0,0.4925373134328358,0.3597199784598815,0.6426145201739628,0.6882968006391773,0.23574144486692014,1.0,0.40540815634118205,0.15038940809968848
p9,Trial: 20,p9.edf,16584,38,Fixation: 16482 ms,229,16482,16710,[9],19,1160,4376,930.9,444.3,1,6,35.9,36.9,43,Saccade: 16420 ms,UP,62,7.41,119.49,173.79,"[ 5, 14, 99]",16420,16481,939.7,717.0,928.2,439.8,44,Saccade: 16711 ms,LEFT,22,1.99,90.44,154.52,"[ 9, 10, 99]",16711,16732,930.3,446.0,868.8,483.0,-90.51,DOWN,7.42,A3,S3.wav,A3.png,10,1143505,task,[8],[Relative Clause Pronoun],[3023],[3186],[163],[1],[den],[that],[0.0],[0.0],[nan],[nan],[die],[nan],[nan],[nan],[nan],[counter_2],,,0.12547945205479452,0.942323314378554,0.9253731343283582,0.3990306946688207,0.379321291387575,0.30185500399485876,0.08365019011406843,1.0,0.3068467123566533,0.1337140879196954
p9,Trial: 20,p9.edf,.,39,Fixation: 16733 ms,173,16733,16905,"[9, 10]",19,1195,4376,878.6,479.9,2,6,35.7,36.9,44,Saccade: 16711 ms,LEFT,22,1.99,90.44,154.52,"[ 9, 99]",16711,16732,930.3,446.0,868.8,483.0,45,Saccade: 16906 ms,DOWN,17,1.02,59.72,66.95,"[ 9, 10, 99]",16906,16922,881.8,482.1,880.9,519.6,33.44,RIGHT,1.75,A3,S3.wav,A3.png,10,1143505,task,,break,,,,,,,,,,,,,,,,"[counter_2, plate_2]",,,0.09479452054794521,0.9707554833468724,0.3283582089552239,0.10716208939149165,0.28710199676200754,0.26838503491159205,0.06463878326996197,1.0,0.20261925765081087,0.057935271720318454
p9,Trial: 20,p9.edf,17307,40,Fixation: 16923 ms,1825,16923,18747,"[9, 10]",19,1065,4376,891.3,519.1,3,6,35.8,37.0,45,Saccade: 16906 ms,DOWN,17,1.02,59.72,66.95,"[ 9, 10, 99]",16906,16922,881.8,482.1,880.9,519.6,46,Saccade: 18748 ms,DOWN,11,0.65,58.7,54.21,"[ 9, 99]",18748,18758,883.7,518.2,881.7,542.0,108.51,UP,1.12,A3,S3.wav,A3.png,10,1143505,task,"[10, 11]","[Relative Clause Adverb, Relative Clause Verb]","[3384, 4107]","[4043, 4667]","[659, 560]","[0, 0]","[gründlich, säubert]","[thoroughly, cleans]","[0.0, 1.0]","[0.0, 0.0]","[nan, nan]","[nan, nan]","[gründlich, säubern]","[nan, nan]","[nan, nan]","[nan, nan]","[nan, nan]","[counter_2, plate_2]",,,1.0,0.8651502843216897,0.2537313432835821,0.05492730210016155,0.18958128313386877,0.11628512870392886,0.04182509505703422,1.0,0.19915858044378096,0.04691069574247145
p9,Trial: 20,p9.edf,.,41,Fixation: 18759 ms,1656,18759,20414,"[9, 10]",19,1123,4376,878.8,522.3,4,6,35.8,37.0,46,Saccade: 18748 ms,DOWN,11,0.65,58.7,54.21,"[ 9, 10, 99]",18748,18758,883.7,518.2,881.7,542.0,47,Saccade: 20415 ms,RIGHT,33,3.09,93.75,146.19,"[ 9, 17, 21, 99]",20415,20447,880.4,526.0,990.5,507.7,13.91,.,0.36,A3,S3.wav,A3.png,10,1143505,post,,,,,,,,,,,,,,,,,,"[counter_2, plate_2]",,,0.9073972602739726,0.9122664500406173,0.16417910447761194,0.03500269251480883,0.18634329068918448,0.09415708479522006,0.12547528517110265,1.0,0.3180769491755445,0.12650571131879543
