RECORDING_SESSION_LABEL,TRIAL_LABEL,DATA_FILE,CURRENT_FIX_MSG_TIME_1,CURRENT_FIX_INDEX,CURRENT_FIX_LABEL,CURRENT_FIX_DURATION,CURRENT_FIX_START,CURRENT_FIX_END,CURRENT_FIX_INTEREST_AREAS,CURRENT_FIX_INTEREST_AREA_FIX_COUNT,CURRENT_FIX_PUPIL,CURRENT_FIX_RUN_DWELL_TIME,CURRENT_FIX_X,CURRENT_FIX_Y,CURRENT_FIX_RUN_INDEX,CURRENT_FIX_RUN_SIZE,CURRENT_FIX_X_RESOLUTION,CURRENT_FIX_Y_RESOLUTION,PREVIOUS_SAC_INDEX,PREVIOUS_SAC_LABEL,PREVIOUS_SAC_DIRECTION,PREVIOUS_SAC_DURATION,PREVIOUS_SAC_AMPLITUDE,PREVIOUS_SAC_AVG_VELOCITY,PREVIOUS_SAC_PEAK_VELOCITY,PREVIOUS_SAC_START_INTEREST_AREAS,PREVIOUS_SAC_START_TIME,PREVIOUS_SAC_END_TIME,PREVIOUS_SAC_START_X,PREVIOUS_SAC_START_Y,PREVIOUS_SAC_END_X,PREVIOUS_SAC_END_Y,NEXT_SAC_INDEX,NEXT_SAC_LABEL,NEXT_SAC_DIRECTION,NEXT_SAC_DURATION,NEXT_SAC_AMPLITUDE,NEXT_SAC_AVG_VELOCITY,NEXT_SAC_PEAK_VELOCITY,NEXT_SAC_END_INTEREST_AREAS,NEXT_SAC_START_TIME,NEXT_SAC_END_TIME,NEXT_SAC_START_X,NEXT_SAC_START_Y,NEXT_SAC_END_X,NEXT_SAC_END_Y,PREVIOUS_FIX_ANGLE,PREVIOUS_FIX_DIRECTION,PREVIOUS_FIX_DISTANCE,ItemNO,audiofilename,imagefilename,TRIAL_INDEX,TRIAL_START_TIME,viewtype,word_index,Label,word_onset,word_offset,word_duration,Continuation,wordDE,wordEN,REFWord,TargetObj,ObjectLabel,ObjectID,LemmaDE,LingIndex,DepS,pos_1,pos_2,CURRENT_FIX_INTEREST_AREAS_Labelled,PREVIOUS_SAC_START_INTEREST_AREAS_Labelled,NEXT_SAC_END_INTEREST_AREAS_Labelled,NORMALIZED_CURRENT_FIX_DURATION,NORMALIZED_CURRENT_FIX_PUPIL,NORMALIZED_PREVIOUS_SAC_DURATION,NORMALIZED_PREVIOUS_SAC_AMPLITUDE,NORMALIZED_PREVIOUS_SAC_AVG_VELOCITY,NORMALIZED_PREVIOUS_SAC_PEAK_VELOCITY,NORMALIZED_NEXT_SAC_DURATION,NORMALIZED_NEXT_SAC_AMPLITUDE,NORMALIZED_NEXT_SAC_AVG_VELOCITY,NORMALIZED_NEXT_SAC_PEAK_VELOCITY
p10,Trial: 12,p10.edf,.,1,Fixation: 3851 ms,143,3851,3993,[8],4,888,506,640.2,248.7,1,3,35.2,36.55,4,Saccade: 3825 ms,UP,26,2.91,111.83,183.95,"[ 8, 99]",3825,3850,660.0,346.5,639.4,242.4,5,Saccade: 3994 ms,RIGHT,20,0.84,41.8,73.06,"[ 8, 99]",3994,4013,639.1,254.0,666.2,242.1,-89.15,DOWN,18.05,A6,S6.wav,A6.png,6,4400944,preview,,,,,,,,,,,,,,,,,,[man_1],,,0.23953098827470687,0.940677966101695,0.4642857142857143,0.23486682808716708,0.3881099465537586,0.34290880620386244,0.12987012987012986,1.0,0.14506836954258345,0.07170055743110623
p10,Trial: 12,p10.edf,.,2,Fixation: 4014 ms,195,4014,4208,[8],4,898,506,662.6,242.9,2,3,35.2,36.6,5,Saccade: 3994 ms,RIGHT,20,0.84,41.8,73.06,"[ 8, 99]",3994,4013,639.1,254.0,666.2,242.1,6,Saccade: 4209 ms,.,8,0.45,55.85,43.63,"[ 8, 99]",4209,4216,663.7,240.5,650.9,231.0,-166.01,LEFT,0.66,A6,S6.wav,A6.png,6,4400944,preview,,,,,,,,,,,,,,,,,,[man_1],,,0.32663316582914576,0.951271186440678,0.35714285714285715,0.06779661016949153,0.14506836954258345,0.13619416896577435,0.05194805194805195,1.0,0.19382938849170545,0.04281816754337756
p10,Trial: 12,p10.edf,.,3,Fixation: 4217 ms,168,4217,4384,[8],4,862,506,654.9,230.5,3,3,35.2,36.6,6,Saccade: 4209 ms,.,8,0.45,55.85,43.63,"[ 8, 99]",4209,4216,663.7,240.5,650.9,231.0,7,Saccade: 4385 ms,RIGHT,54,11.8,218.56,458.47,"[ 9, 99]",4385,4438,654.4,230.6,1076.0,171.6,-57.15,.,0.4,A6,S6.wav,A6.png,6,4400944,preview,,,,,,,,,,,,,,,,,,[man_1],,,0.2814070351758794,0.913135593220339,0.14285714285714285,0.03631961259079903,0.19382938849170545,0.08133248825590933,0.35064935064935066,1.0,0.7585201638092595,0.4499391536468556
p10,Trial: 12,p10.edf,.,4,Fixation: 4439 ms,138,4439,4576,[9],5,818,611,1079.3,186.7,1,2,36.95,37.55,7,Saccade: 4385 ms,RIGHT,54,11.8,218.56,458.47,"[ 8, 99]",4385,4438,654.4,230.6,1076.0,171.6,8,Saccade: 4577 ms,UP,13,0.7,53.79,59.07,"[ 9, 99]",4577,4589,1076.2,189.4,1084.1,164.4,-174.27,LEFT,11.82,A6,S6.wav,A6.png,6,4400944,preview,,,,,,,,,,,,,,,,,,[man_2],,,0.23115577889447236,0.8665254237288136,0.9642857142857143,0.9523809523809524,0.7585201638092595,0.854652896875699,0.08441558441558442,1.0,0.1866800860692719,0.05797087226191411
p10,Trial: 12,p10.edf,.,5,Fixation: 4590 ms,473,4590,5062,[9],5,826,611,1082.3,167.7,2,2,37.0,37.6,8,Saccade: 4577 ms,UP,13,0.7,53.79,59.07,"[ 9, 99]",4577,4589,1076.2,189.4,1084.1,164.4,9,Saccade: 5063 ms,DOWN,56,10.1,180.43,402.2,"[ 12, 99]",5063,5118,1079.9,168.9,846.2,458.6,-99.12,DOWN,0.51,A6,S6.wav,A6.png,6,4400944,preview,,,,,,,,,,,,,,,,,,[man_2],,,0.7922948073701842,0.875,0.23214285714285715,0.05649717514124293,0.1866800860692719,0.11011483110879128,0.36363636363636365,1.0,0.6261886582911086,0.3947161812043652
p10,Trial: 12,p10.edf,.,6,Fixation: 5119 ms,149,5119,5267,[12],29,875,149,842.1,472.3,1,1,35.6,36.8,9,Saccade: 5063 ms,DOWN,56,10.1,180.43,402.2,"[ 9, 99]",5063,5118,1079.9,168.9,846.2,458.6,10,Saccade: 5268 ms,DOWN,51,8.47,166.04,417.02,"[ 11, 99]",5268,5318,842.7,477.0,672.8,737.9,51.06,UP,10.53,A6,S6.wav,A6.png,6,4400944,preview,,,,,,,,,,,,,,,,,,[counter_1],,,0.24958123953098826,0.926906779661017,1.0,0.8151735270379338,0.6261886582911086,0.7497576616210573,0.33116883116883117,1.0,0.5762476573887694,0.40926042239145793
p10,Trial: 12,p10.edf,.,7,Fixation: 5319 ms,213,5319,5531,[11],6,924,213,664.1,753.5,1,1,35.8,37.8,10,Saccade: 5268 ms,DOWN,51,8.47,166.04,417.02,"[ 12, 99]",5268,5318,842.7,477.0,672.8,737.9,11,Saccade: 5532 ms,LEFT,30,3.03,100.99,174.18,[ 99],5532,5561,663.0,760.3,574.2,694.9,56.52,UP,9.04,A6,S6.wav,A6.png,6,4400944,preview,,,,,,,,,,,,,,,,,,[woman_1],,,0.35678391959798994,0.9788135593220338,0.9107142857142857,0.6836158192090396,0.5762476573887694,0.7773842368205204,0.19480519480519481,1.0,0.3504893454570695,0.1709389966240088
p10,Trial: 12,p10.edf,.,8,Fixation: 5562 ms,129,5562,5690,[],65,934,21312,584.8,701.5,8,64,35.7,37.5,11,Saccade: 5532 ms,LEFT,30,3.03,100.99,174.18,"[ 11, 99]",5532,5561,663.0,760.3,574.2,694.9,12,Saccade: 5691 ms,RIGHT,34,1.97,57.91,225.8,"[ 11, 99]",5691,5724,584.6,699.8,653.2,715.9,-31.91,RIGHT,2.61,A6,S6.wav,A6.png,6,4400944,preview,,,,,,,,,,,,,,,,,,[],,,0.21608040201005024,0.989406779661017,0.5357142857142857,0.24455205811138012,0.3504893454570695,0.3246961449556334,0.22077922077922077,1.0,0.20097869091413895,0.2215984925806705
p10,Trial: 12,p10.edf,.,9,Fixation: 5725 ms,292,5725,6016,[11],6,913,436,662.7,715.4,1,2,35.7,37.6,12,Saccade: 5691 ms,RIGHT,34,1.97,57.91,225.8,[ 99],5691,5724,584.6,699.8,653.2,715.9,13,Saccade: 6017 ms,DOWN,18,0.87,48.36,75.4,"[ 11, 99]",6017,6034,660.7,717.1,681.4,741.6,170.37,LEFT,2.21,A6,S6.wav,A6.png,6,4400944,preview,,,,,,,,,,,,,,,,,,[woman_1],,,0.48911222780569513,0.9671610169491526,0.6071428571428571,0.15899919289749798,0.20097869091413895,0.42092312280963384,0.11688311688311688,1.0,0.16783508016936213,0.07399701656591035
p10,Trial: 12,p10.edf,.,10,Fixation: 6035 ms,144,6035,6178,[11],6,931,436,677.2,735.7,2,2,35.8,37.75,13,Saccade: 6017 ms,DOWN,18,0.87,48.36,75.4,"[ 11, 99]",6017,6034,660.7,717.1,681.4,741.6,14,Saccade: 6179 ms,RIGHT,52,9.3,178.86,414.44,"[ 5, 10, 12, 99]",6179,6230,672.9,738.9,945.9,537.8,126.97,UP,0.67,A6,S6.wav,A6.png,6,4400944,preview,,,,,,,,,,,,,,,,,,[woman_1],,,0.24120603015075376,0.986228813559322,0.32142857142857145,0.07021791767554479,0.16783508016936213,0.14055625978674222,0.33766233766233766,1.0,0.6207399180953704,0.40672842898641753
p10,Trial: 12,p10.edf,.,11,Fixation: 6231 ms,149,6231,6379,"[5, 10, 12]",4,896,149,956.8,539.1,1,1,36.15,37.2,14,Saccade: 6179 ms,RIGHT,52,9.3,178.86,414.44,"[ 11, 99]",6179,6230,672.9,738.9,945.9,537.8,15,Saccade: 6380 ms,LEFT,16,0.9,56.33,72.59,"[ 10, 12, 14, 99]",6380,6395,959.5,538.3,931.7,520.9,-145.98,LEFT,9.38,A6,S6.wav,A6.png,6,4400944,preview,,,,,,,,,,,,,,,,,,"[bottleopener_3, tray_1, counter_1]",,,0.24958123953098826,0.9491525423728814,0.9285714285714286,0.7506053268765134,0.6207399180953704,0.7725747520691968,0.1038961038961039,1.0,0.19549524536683557,0.0712393028185601
p10,Trial: 12,p10.edf,.,12,Fixation: 6396 ms,242,6396,6637,"[10, 12]",9,890,1571,941.4,524.4,2,7,36.05,37.1,15,Saccade: 6380 ms,LEFT,16,0.9,56.33,72.59,"[ 5, 10, 12, 99]",6380,6395,959.5,538.3,931.7,520.9,16,Saccade: 6638 ms,UP,16,0.81,50.6,63.62,"[ 10, 12, 14, 99]",6638,6653,943.9,523.2,959.5,497.8,-42.85,RIGHT,0.58,A6,S6.wav,A6.png,6,4400944,preview,,,,,,,,,,,,,,,,,,"[tray_1, counter_1]",,,0.4053601340033501,0.9427966101694916,0.2857142857142857,0.07263922518159806,0.19549524536683557,0.13531802251882782,0.1038961038961039,1.0,0.17560907891996946,0.06243620946847766
p10,Trial: 12,p10.edf,.,13,Fixation: 6654 ms,178,6654,6831,"[10, 12, 14]",9,885,1571,955.0,500.3,3,7,36.1,37.1,16,Saccade: 6638 ms,UP,16,0.81,50.6,63.62,"[ 10, 12, 99]",6638,6653,943.9,523.2,959.5,497.8,17,Saccade: 6832 ms,DOWN,20,1.02,50.91,82.86,"[ 5, 10, 12, 99]",6832,6851,954.9,498.3,975.6,529.6,-120.13,DOWN,0.75,A6,S6.wav,A6.png,6,4400944,preview,,,,,,,,,,,,,,,,,,"[tray_1, counter_1, bottles_1]",,,0.2981574539363484,0.9375,0.2857142857142857,0.06537530266343826,0.17560907891996946,0.11859667437178434,0.12987012987012986,1.0,0.176684944818491,0.08131820679908927
p10,Trial: 12,p10.edf,.,14,Fixation: 6852 ms,208,6852,7059,"[5, 10, 12]",4,874,208,973.0,523.1,1,1,36.25,37.2,17,Saccade: 6832 ms,DOWN,20,1.02,50.91,82.86,"[ 10, 12, 14, 99]",6832,6851,954.9,498.3,975.6,529.6,18,Saccade: 7060 ms,.,10,0.43,42.96,41.36,"[ 10, 12, 99]",7060,7069,968.7,526.1,953.2,527.1,129.03,UP,0.79,A6,S6.wav,A6.png,6,4400944,preview,,,,,,,,,,,,,,,,,,"[bottleopener_3, tray_1, counter_1]",,,0.34840871021775544,0.9258474576271186,0.35714285714285715,0.08232445520581114,0.176684944818491,0.15446275445529786,0.06493506493506493,1.0,0.149094190324148,0.04059040590405904
p10,Trial: 12,p10.edf,.,15,Fixation: 7070 ms,322,7070,7391,"[10, 12]",9,866,1571,953.5,528.2,5,7,36.1,37.2,18,Saccade: 7060 ms,.,10,0.43,42.96,41.36,"[ 5, 10, 12, 99]",7060,7069,968.7,526.1,953.2,527.1,19,Saccade: 7392 ms,RIGHT,17,0.97,56.79,72.93,"[ 5, 10, 12, 99]",7392,7408,949.0,535.6,983.8,532.3,14.27,RIGHT,0.56,A6,S6.wav,A6.png,6,4400944,preview,,,,,,,,,,,,,,,,,,"[tray_1, counter_1]",,,0.5393634840871022,0.9173728813559322,0.17857142857142858,0.03470540758676351,0.149094190324148,0.07710088733129519,0.11038961038961038,1.0,0.1970916915388353,0.07157297636806156
p10,Trial: 12,p10.edf,.,16,Fixation: 7409 ms,318,7409,7726,"[5, 10, 12]",4,853,318,974.5,531.1,1,1,36.3,37.25,19,Saccade: 7392 ms,RIGHT,17,0.97,56.79,72.93,"[ 5, 10, 12, 99]",7392,7408,949.0,535.6,983.8,532.3,20,Saccade: 7727 ms,LEFT,18,1.07,59.5,83.24,"[ 10, 12, 14, 99]",7727,7744,974.4,532.1,941.9,510.4,172.35,LEFT,0.59,A6,S6.wav,A6.png,6,4400944,preview,,,,,,,,,,,,,,,,,,"[bottleopener_3, tray_1, counter_1]",,,0.5326633165829145,0.9036016949152542,0.30357142857142855,0.07828894269572235,0.1970916915388353,0.13595183058683172,0.11688311688311688,1.0,0.20649684181300756,0.08169113606029677
p10,Trial: 12,p10.edf,.,17,Fixation: 7745 ms,154,7745,7898,"[10, 12, 14]",9,864,1571,944.5,512.9,7,7,36.1,37.1,20,Saccade: 7727 ms,LEFT,18,1.07,59.5,83.24,"[ 5, 10, 12, 99]",7727,7744,974.4,532.1,941.9,510.4,21,Saccade: 7899 ms,UP,39,3.77,96.59,257.39,"[ 3, 4, 12, 99]",7899,7937,943.5,515.5,1008.7,392.7,-30.57,RIGHT,0.96,A6,S6.wav,A6.png,6,4400944,preview,,,,,,,,,,,,,,,,,,"[tray_1, counter_1, bottles_1]",,,0.25795644891122277,0.9152542372881356,0.32142857142857145,0.08635996771589992,0.20649684181300756,0.155171128178361,0.2532467532467532,1.0,0.3352189907683765,0.252600690900526
p10,Trial: 12,p10.edf,.,18,Fixation: 7938 ms,294,7938,8231,"[3, 4, 12]",4,875,485,1006.1,388.8,1,2,36.35,37.1,21,Saccade: 7899 ms,UP,39,3.77,96.59,257.39,"[ 10, 12, 14, 99]",7899,7937,943.5,515.5,1008.7,392.7,22,Saccade: 8232 ms,RIGHT,21,1.41,66.96,121.73,"[ 3, 12, 16, 99]",8232,8252,1003.2,390.6,1054.5,392.1,-116.95,DOWN,3.75,A6,S6.wav,A6.png,6,4400944,preview,,,,,,,,,,,,,,,,,,"[box_2, bottleopener_2, counter_1]",,,0.49246231155778897,0.926906779661017,0.6964285714285714,0.3042776432606941,0.3352189907683765,0.47981134889269994,0.13636363636363635,1.0,0.23238703408065522,0.1194649446494465
p10,Trial: 12,p10.edf,.,19,Fixation: 8253 ms,191,8253,8443,"[3, 12, 16]",4,871,485,1050.9,392.5,2,2,36.65,37.2,22,Saccade: 8232 ms,RIGHT,21,1.41,66.96,121.73,"[ 3, 4, 12, 99]",8232,8252,1003.2,390.6,1054.5,392.1,23,Saccade: 8444 ms,UP,42,4.39,104.48,289.3,"[ 9, 99]",8444,8485,1049.3,396.0,1082.4,235.8,175.36,LEFT,1.23,A6,S6.wav,A6.png,6,4400944,preview,,,,,,,,,,,,,,,,,,"[box_2, counter_1, utensils_1]",,,0.31993299832495814,0.9226694915254238,0.375,0.11380145278450363,0.23238703408065522,0.22692192975915293,0.2727272727272727,1.0,0.3626015131533283,0.28391693491403
p10,Trial: 12,p10.edf,.,20,Fixation: 8486 ms,122,8486,8607,[9],5,847,358,1079.7,222.3,1,2,36.9,37.5,23,Saccade: 8444 ms,UP,42,4.39,104.48,289.3,"[ 3, 12, 16, 99]",8444,8485,1049.3,396.0,1082.4,235.8,24,Saccade: 8608 ms,UP,22,1.64,74.34,113.95,"[ 9, 99]",8608,8629,1080.5,222.2,1063.1,163.4,-99.75,DOWN,4.62,A6,S6.wav,A6.png,6,4400944,preview,,,,,,,,,,,,,,,,,,[man_2],,,0.20435510887772193,0.8972457627118644,0.75,0.354317998385795,0.3626015131533283,0.5392961002162404,0.14285714285714285,1.0,0.25799958353578123,0.11182970872261914
p10,Trial: 12,p10.edf,.,21,Fixation: 8630 ms,236,8630,8865,[9],5,831,358,1067.7,172.3,2,2,36.9,37.6,24,Saccade: 8608 ms,UP,22,1.64,74.34,113.95,"[ 9, 99]",8608,8629,1080.5,222.2,1063.1,163.4,25,Saccade: 8866 ms,LEFT,55,11.6,210.96,422.19,"[ 8, 99]",8866,8920,1069.5,171.0,655.6,233.1,-76.28,DOWN,1.37,A6,S6.wav,A6.png,6,4400944,preview,,,,,,,,,,,,,,,,,,[man_2],,,0.3953098827470687,0.8802966101694916,0.39285714285714285,0.13236481033091202,0.25799958353578123,0.21241890985012302,0.35714285714285715,1.0,0.7321440966196988,0.41433422312946533
p10,Trial: 12,p10.edf,.,22,Fixation: 8921 ms,211,8921,9131,[8],4,857,211,644.4,231.3,1,1,35.2,36.6,25,Saccade: 8866 ms,LEFT,55,11.6,210.96,422.19,"[ 9, 99]",8866,8920,1069.5,171.0,655.6,233.1,26,Saccade: 9132 ms,LEFT,36,3.4,94.34,249.94,"[ 24, 99]",9132,9167,644.9,235.4,525.2,233.5,7.71,RIGHT,11.85,A6,S6.wav,A6.png,6,4400944,preview,,,,,,,,,,,,,,,,,,[man_1],,,0.35343383584589616,0.9078389830508474,0.9821428571428571,0.9362389023405971,0.7321440966196988,0.7870218477369323,0.23376623376623376,1.0,0.327410286666204,0.2452893145952736
p10,Trial: 12,p10.edf,.,23,Fixation: 9168 ms,171,9168,9338,[],65,845,21312,518.9,234.4,23,64,35.35,36.6,26,Saccade: 9132 ms,LEFT,36,3.4,94.34,249.94,"[ 8, 99]",9132,9167,644.9,235.4,525.2,233.5,27,Saccade: 9339 ms,RIGHT,24,1.41,58.65,136.48,"[ 24, 99]",9339,9362,519.5,233.8,568.9,227.6,1.36,RIGHT,3.56,A6,S6.wav,A6.png,6,4400944,preview,,,,,,,,,,,,,,,,,,[],,,0.2864321608040201,0.8951271186440678,0.6428571428571429,0.2744148506860371,0.327410286666204,0.46592349563790914,0.15584415584415584,1.0,0.20354688692996462,0.1339404883410536
p10,Trial: 12,p10.edf,.,24,Fixation: 9363 ms,112,9363,9474,[24],1,842,112,566.4,225.9,1,1,35.3,36.6,27,Saccade: 9339 ms,RIGHT,24,1.41,58.65,136.48,[ 99],9339,9362,519.5,233.8,568.9,227.6,28,Saccade: 9475 ms,LEFT,47,6.2,131.99,322.46,"[ 21, 25, 99]",9475,9521,568.3,225.2,348.6,248.4,-170.2,LEFT,1.36,A6,S6.wav,A6.png,6,4400944,preview,,,,,,,,,,,,,,,,,,[jars_1],,,0.18760469011725292,0.8919491525423728,0.42857142857142855,0.11380145278450363,0.20354688692996462,0.2544180150622623,0.3051948051948052,1.0,0.45807593530922475,0.3164599199183481
p10,Trial: 12,p10.edf,.,25,Fixation: 9522 ms,193,9522,9714,"[21, 25]",2,826,193,336.9,250.4,1,1,36.0,36.95,28,Saccade: 9475 ms,LEFT,47,6.2,131.99,322.46,"[ 24, 99]",9475,9521,568.3,225.2,348.6,248.4,29,Saccade: 9715 ms,LEFT,32,3.75,117.17,214.31,"[ 19, 99]",9715,9746,337.1,249.8,202.3,271.6,5.91,RIGHT,6.47,A6,S6.wav,A6.png,6,4400944,preview,,,,,,,,,,,,,,,,,,"[pan_1, stove_1]",,,0.3232830820770519,0.875,0.8392857142857143,0.5004035512510089,0.45807593530922475,0.6011110282603832,0.2077922077922078,1.0,0.4066426042895815,0.21032228939310668
p10,Trial: 12,p10.edf,.,26,Fixation: 9747 ms,345,9747,10091,[19],4,820,449,201.8,274.9,1,2,36.85,37.4,29,Saccade: 9715 ms,LEFT,32,3.75,117.17,214.31,"[ 21, 25, 99]",9715,9746,337.1,249.8,202.3,271.6,30,Saccade: 10092 ms,.,15,0.28,18.69,38.68,"[ 19, 99]",10092,10106,200.5,273.8,190.9,277.7,10.08,RIGHT,3.77,A6,S6.wav,A6.png,6,4400944,preview,,,,,,,,,,,,,,,,,,[coffeemaschine_1],,,0.5778894472361809,0.8686440677966102,0.5714285714285714,0.3026634382566586,0.4066426042895815,0.39950413839385573,0.09740259740259741,1.0,0.06486430207538003,0.037960273219753475
p10,Trial: 12,p10.edf,.,27,Fixation: 10107 ms,104,10107,10210,[19],4,810,449,190.3,277.1,2,2,36.9,37.4,30,Saccade: 10092 ms,.,15,0.28,18.69,38.68,"[ 19, 99]",10092,10106,200.5,273.8,190.9,277.7,31,Saccade: 10211 ms,LEFT,41,3.38,82.48,238.16,[ 99],10211,10251,189.5,279.1,64.5,299.5,10.68,.,0.32,A6,S6.wav,A6.png,6,4400944,preview,,,,,,,,,,,,,,,,,,[coffeemaschine_1],,,0.17420435510887772,0.8580508474576272,0.26785714285714285,0.022598870056497175,0.06486430207538003,0.07210498844232346,0.2662337662337662,1.0,0.2862497397098633,0.23372850749784094
p10,Trial: 12,p10.edf,.,28,Fixation: 10252 ms,368,10252,10619,[],65,820,21312,52.7,299.0,28,64,38.05,38.0,31,Saccade: 10211 ms,LEFT,41,3.38,82.48,238.16,"[ 19, 99]",10211,10251,189.5,279.1,64.5,299.5,32,Saccade: 10620 ms,RIGHT,21,1.29,61.51,87.38,[ 99],10620,10640,54.1,297.4,95.0,324.3,8.99,RIGHT,3.72,A6,S6.wav,A6.png,6,4400944,preview,,,,,,,,,,,,,,,,,,[],,,0.6164154103852596,0.8686440677966102,0.7321428571428571,0.2728006456820016,0.2862497397098633,0.44396391022295123,0.13636363636363635,1.0,0.21347261747761506,0.08575410222187327
p10,Trial: 12,p10.edf,.,29,Fixation: 10746 ms,217,10746,10962,[19],4,827,496,199.2,266.5,1,2,36.9,37.4,33,Saccade: 10720 ms,RIGHT,26,3.36,129.1,223.63,[ 99],10720,10745,89.2,320.6,201.6,264.7,34,Saccade: 10963 ms,DOWN,11,0.51,46.35,45.86,"[ 19, 99]",10963,10973,197.1,270.3,190.1,288.0,-167.56,LEFT,4.0,A6,S6.wav,A6.png,6,4400944,preview,,,,,,,,,,,,,,,,,,[coffeemaschine_1],,,0.36348408710217756,0.8760593220338984,0.4642857142857143,0.2711864406779661,0.4480460887068786,0.4168779360226679,0.07142857142857142,1.0,0.16085930450475464,0.04500667347099003
p10,Trial: 12,p10.edf,.,30,Fixation: 10974 ms,279,10974,11252,[19],4,837,496,194.2,287.8,2,2,36.9,37.4,34,Saccade: 10963 ms,DOWN,11,0.51,46.35,45.86,"[ 19, 99]",10963,10973,197.1,270.3,190.1,288.0,35,Saccade: 11253 ms,DOWN,29,3.24,111.87,202.22,"[ 22, 99]",11253,11281,194.3,283.5,136.4,390.2,76.62,UP,0.59,A6,S6.wav,A6.png,6,4400944,preview,,,,,,,,,,,,,,,,,,[coffeemaschine_1],,,0.46733668341708545,0.8866525423728814,0.19642857142857142,0.04116222760290557,0.16085930450475464,0.08548952352546416,0.18831168831168832,1.0,0.38824876796001945,0.1984572505299521
p10,Trial: 12,p10.edf,.,31,Fixation: 11282 ms,240,11282,11521,[22],1,845,240,137.0,390.5,1,1,37.4,37.6,35,Saccade: 11253 ms,DOWN,29,3.24,111.87,202.22,"[ 19, 99]",11253,11281,194.3,283.5,136.4,390.2,36,Saccade: 11522 ms,DOWN,25,2.23,89.34,185.52,"[ 23, 99]",11522,11546,137.0,396.7,185.5,464.8,60.66,UP,3.14,A6,S6.wav,A6.png,6,4400944,preview,,,,,,,,,,,,,,,,,,[plates_1],,,0.4020100502512563,0.8951271186440678,0.5178571428571429,0.26150121065375304,0.38824876796001945,0.37696666915218846,0.16233766233766234,1.0,0.3100576108835983,0.1820679908926749
p10,Trial: 12,p10.edf,.,32,Fixation: 11547 ms,263,11547,11809,"[17, 23]",2,841,263,182.0,470.2,1,1,37.0,37.5,36,Saccade: 11522 ms,DOWN,25,2.23,89.34,185.52,"[ 22, 99]",11522,11546,137.0,396.7,185.5,464.8,37,Saccade: 11810 ms,DOWN,33,3.89,117.81,221.41,"[ 2, 99]",11810,11842,182.4,470.8,216.1,613.1,119.68,UP,2.44,A6,S6.wav,A6.png,6,4400944,preview,,,,,,,,,,,,,,,,,,"[mug_1, faucet_1]",,,0.440536013400335,0.8908898305084746,0.44642857142857145,0.17998385794995964,0.3100576108835983,0.3458355081649392,0.21428571428571427,1.0,0.408863746789755,0.21729017822093113
p10,Trial: 12,p10.edf,.,33,Fixation: 11843 ms,162,11843,12004,[2],3,826,772,214.7,611.8,1,3,37.0,37.8,37,Saccade: 11810 ms,DOWN,33,3.89,117.81,221.41,"[ 17, 23, 99]",11810,11842,182.4,470.8,216.1,613.1,38,Saccade: 12005 ms,DOWN,20,1.27,63.74,101.57,"[ 2, 99]",12005,12024,216.3,613.7,191.8,655.1,103.22,UP,3.86,A6,S6.wav,A6.png,6,4400944,preview,,,,,,,,,,,,,,,,,,[box_3],,,0.271356783919598,0.875,0.5892857142857143,0.3139628732849072,0.408863746789755,0.4127395421668779,0.12987012987012986,1.0,0.2212119108766572,0.09968006594959565
p10,Trial: 12,p10.edf,.,34,Fixation: 12025 ms,438,12025,12462,[2],3,804,772,195.5,656.6,2,3,37.25,38.1,38,Saccade: 12005 ms,DOWN,20,1.27,63.74,101.57,"[ 2, 99]",12005,12024,216.3,613.7,191.8,655.1,39,Saccade: 12463 ms,RIGHT,27,3.32,122.79,221.46,"[ 2, 99]",12463,12489,196.0,664.8,309.1,617.8,66.34,UP,1.29,A6,S6.wav,A6.png,6,4400944,preview,,,,,,,,,,,,,,,,,,[box_3],,,0.7336683417085427,0.8516949152542372,0.35714285714285715,0.10250201775625505,0.2212119108766572,0.18934083960927595,0.17532467532467533,1.0,0.42614701186923026,0.21733924786056372
p10,Trial: 12,p10.edf,.,35,Fixation: 12490 ms,172,12490,12661,[2],3,782,772,305.9,617.7,3,3,36.4,37.5,39,Saccade: 12463 ms,RIGHT,27,3.32,122.79,221.46,"[ 2, 99]",12463,12489,196.0,664.8,309.1,617.8,40,Saccade: 12662 ms,LEFT,35,5.79,165.52,317.14,"[ 18, 99]",12662,12696,307.5,616.8,114.0,522.3,-161.06,LEFT,3.17,A6,S6.wav,A6.png,6,4400944,preview,,,,,,,,,,,,,,,,,,[box_3],,,0.288107202680067,0.8283898305084746,0.48214285714285715,0.26795803066989504,0.42614701186923026,0.412832749235702,0.22727272727272727,1.0,0.5744429791073784,0.311238910261443
p10,Trial: 12,p10.edf,.,36,Fixation: 12697 ms,149,12697,12845,[18],1,788,149,112.6,517.5,1,1,37.7,37.9,40,Saccade: 12662 ms,LEFT,35,5.79,165.52,317.14,"[ 2, 99]",12662,12696,307.5,616.8,114.0,522.3,41,Saccade: 12846 ms,RIGHT,43,12.39,288.14,498.56,"[ 25, 99]",12846,12888,108.7,516.1,475.8,245.5,-27.0,RIGHT,5.86,A6,S6.wav,A6.png,6,4400944,preview,,,,,,,,,,,,,,,,,,[kettle_1],,,0.24958123953098826,0.8347457627118644,0.625,0.46731234866828086,0.5744429791073784,0.591193796137499,0.2792207792207792,1.0,1.0,0.4892831907042475
p10,Trial: 12,p10.edf,13119,37,Fixation: 12889 ms,308,12889,13196,[25],3,816,520,459.6,256.0,1,2,35.45,36.7,41,Saccade: 12846 ms,RIGHT,43,12.39,288.14,498.56,"[ 18, 99]",12846,12888,108.7,516.1,475.8,245.5,42,Saccade: 13197 ms,LEFT,20,1.74,86.8,129.58,"[ 21, 25, 99]",13197,13216,455.7,254.0,394.0,250.3,-143.54,LEFT,11.8,A6,S6.wav,A6.png,6,4400944,preview,,,,,,,,,,,,,,,,,,[stove_1],,,0.5159128978224455,0.864406779661017,0.7678571428571429,1.0,1.0,0.9293863246588621,0.12987012987012986,1.0,0.3012424515860346,0.12716887807175944
p10,Trial: 12,p10.edf,13300,38,Fixation: 13217 ms,212,13217,13428,"[21, 25]",2,841,212,392.5,253.3,1,1,35.7,36.8,42,Saccade: 13197 ms,LEFT,20,1.74,86.8,129.58,"[ 25, 99]",13197,13216,455.7,254.0,394.0,250.3,43,Saccade: 13429 ms,RIGHT,52,11.12,213.91,536.44,"[ 6, 7, 12, 99]",13429,13480,390.1,254.9,757.7,404.0,-2.23,RIGHT,1.89,A6,S6.wav,A6.png,6,4400944,taskpreview,,,,,,,,,,,,,,,,,,"[pan_1, stove_1]",,,0.35510887772194305,0.8908898305084746,0.35714285714285715,0.14043583535108958,0.3012424515860346,0.24155543956453657,0.33766233766233766,1.0,0.7423821753314361,0.5264583496898799
p10,Trial: 12,p10.edf,.,39,Fixation: 13481 ms,167,13481,13647,"[7, 12]",14,848,549,762.8,416.9,1,2,35.3,36.6,43,Saccade: 13429 ms,RIGHT,52,11.12,213.91,536.44,"[ 21, 25, 99]",13429,13480,390.1,254.9,757.7,404.0,44,Saccade: 13648 ms,LEFT,24,1.61,67.08,131.78,"[ 6, 7, 12, 99]",13648,13671,763.8,420.3,707.7,411.4,156.86,LEFT,11.34,A6,S6.wav,A6.png,6,4400944,task,[1],[Adverb],[100],[250],[150],[0],[Da],[It],[0.0],[0.0],[nan],[nan],[da],[nan],[nan],[ADV],[nan],"[box_1, counter_1]",,,0.2797319932998325,0.8983050847457628,0.9285714285714286,0.8974979822437449,0.7423821753314361,1.0,0.15584415584415584,1.0,0.23280349829943778,0.12932794221559238
p10,Trial: 12,p10.edf,.,40,Fixation: 13672 ms,382,13672,14053,"[6, 7, 12]",11,865,382,713.6,407.6,1,1,35.2,36.5,44,Saccade: 13648 ms,LEFT,24,1.61,67.08,131.78,"[ 7, 12, 99]",13648,13671,763.8,420.3,707.7,411.4,45,Saccade: 14054 ms,RIGHT,48,8.43,175.57,400.94,"[ 3, 4, 12, 99]",14054,14101,712.8,406.2,1012.1,367.2,-10.33,RIGHT,1.42,A6,S6.wav,A6.png,6,4400944,task,[2],[Verb],[280],[800],[520],[0],[befindet],[is],[0.0],[0.0],[nan],[nan],[befinden],[nan],[nan],[VVFIN],[nan],"[bottleopener_1, box_1, counter_1]",,,0.6398659966499163,0.9163135593220338,0.42857142857142855,0.12994350282485875,0.23280349829943778,0.24565655059279692,0.3116883116883117,1.0,0.6093218574304158,0.39347962628562455
p10,Trial: 12,p10.edf,.,41,Fixation: 14102 ms,183,14102,14284,"[3, 4, 12]",4,858,183,1017.3,375.0,1,1,36.4,37.1,45,Saccade: 14054 ms,RIGHT,48,8.43,175.57,400.94,"[ 6, 7, 12, 99]",14054,14101,712.8,406.2,1012.1,367.2,46,Saccade: 14285 ms,UP,154,4.0,26.0,900.89,"[ 9, 99]",14285,14438,1017.6,373.1,1092.0,244.3,-174.04,LEFT,8.53,A6,S6.wav,A6.png,6,4400944,task,,break,,,,,,,,,,,,,,,,"[box_2, bottleopener_2, counter_1]",,,0.3065326633165829,0.9088983050847458,0.8571428571428571,0.6803874092009685,0.6093218574304158,0.7474088434866899,1.0,1.0,0.09023391406954953,0.8841269529716573
p10,Trial: 12,p10.edf,14860,42,Fixation: 14554 ms,365,14554,14918,[9],5,861,365,1071.1,189.1,1,1,36.9,37.5,47,Saccade: 14530 ms,UP,24,1.84,76.57,141.16,"[ 9, 99]",14530,14553,1088.1,243.6,1067.6,177.9,48,Saccade: 14919 ms,DOWN,44,4.72,107.23,275.34,"[ 9, 99]",14919,14962,1067.1,190.6,955.8,324.4,-106.41,DOWN,5.2,A6,S6.wav,A6.png,6,4400944,task,,break,,,,,,,,,,,,,,,,[man_2],,,0.6113902847571189,0.9120762711864406,0.42857142857142855,0.14850686037126715,0.26573887693482334,0.26314219670419803,0.2857142857142857,1.0,0.3721454848337614,0.2702166915286174
p10,Trial: 12,p10.edf,.,43,Fixation: 14963 ms,139,14963,15101,[12],29,870,6497,948.0,339.5,1,12,36.0,36.9,48,Saccade: 14919 ms,DOWN,44,4.72,107.23,275.34,"[ 9, 99]",14919,14962,1067.1,190.6,955.8,324.4,49,Saccade: 15102 ms,LEFT,35,6.64,189.68,353.71,"[ 6, 7, 12, 99]",15102,15136,946.8,341.7,721.2,414.3,50.13,UP,5.27,A6,S6.wav,A6.png,6,4400944,task,[5],[Noun_1],[1660],[2610],[950],[0],[Flaschenöffner],[bottle opener],[0.0],[1.0],[bottleopener_1],[S01_I006_E005],[Flaschenöffner],[nan],[nan],[NN],[nan],[counter_1],,,0.23283082077051925,0.9216101694915254,0.7857142857142857,0.38095238095238093,0.3721454848337614,0.5132726866005517,0.22727272727272727,1.0,0.658291108488929,0.3471284446887022
p10,Trial: 12,p10.edf,.,44,Fixation: 15137 ms,335,15137,15471,"[6, 7, 12]",11,905,3058,715.2,407.7,1,9,35.2,36.5,49,Saccade: 15102 ms,LEFT,35,6.64,189.68,353.71,"[ 12, 99]",15102,15136,946.8,341.7,721.2,414.3,50,Saccade: 15472 ms,LEFT,11,0.55,50.14,48.13,"[ 6, 7, 12, 99]",15472,15482,712.1,404.8,693.0,408.4,15.86,RIGHT,6.8,A6,S6.wav,A6.png,6,4400944,task,[5],[Noun_1],[1660],[2610],[950],[0],[Flaschenöffner],[bottle opener],[0.0],[1.0],[bottleopener_1],[S01_I006_E005],[Flaschenöffner],[nan],[nan],[NN],[nan],"[bottleopener_1, box_1, counter_1]",,,0.5611390284757118,0.9586864406779662,0.625,0.5359160613397901,0.658291108488929,0.6593654462754455,0.07142857142857142,1.0,0.17401263274796974,0.04723443511030855
p10,Trial: 12,p10.edf,.,45,Fixation: 15483 ms,340,15483,15822,"[6, 7, 12]",11,935,3058,695.6,406.8,2,9,35.2,36.5,50,Saccade: 15472 ms,LEFT,11,0.55,50.14,48.13,"[ 6, 7, 12, 99]",15472,15482,712.1,404.8,693.0,408.4,51,Saccade: 15823 ms,.,10,0.49,49.23,45.43,"[ 6, 7, 12, 99]",15823,15832,694.6,405.6,711.8,407.8,-2.54,RIGHT,0.56,A6,S6.wav,A6.png,6,4400944,task,[5],[Noun_1],[1660],[2610],[950],[0],[Flaschenöffner],[bottle opener],[0.0],[1.0],[bottleopener_1],[S01_I006_E005],[Flaschenöffner],[nan],[nan],[NN],[nan],"[bottleopener_1, box_1, counter_1]",,,0.5695142378559463,0.9904661016949152,0.19642857142857142,0.04439063761097659,0.17401263274796974,0.0897211244500783,0.06493506493506493,1.0,0.1708544457555355,0.04458467457014995
p10,Trial: 12,p10.edf,.,46,Fixation: 15833 ms,314,15833,16146,"[6, 7, 12]",11,910,3058,710.5,408.1,3,9,35.2,36.5,51,Saccade: 15823 ms,.,10,0.49,49.23,45.43,"[ 6, 7, 12, 99]",15823,15832,694.6,405.6,711.8,407.8,52,Saccade: 16147 ms,.,7,0.35,49.52,39.33,"[ 6, 7, 12, 99]",16147,16153,705.7,413.8,693.5,413.6,175.19,.,0.42,A6,S6.wav,A6.png,6,4400944,task,[5],[Noun_1],[1660],[2610],[950],[0],[Flaschenöffner],[bottle opener],[0.0],[1.0],[bottleopener_1],[S01_I006_E005],[Flaschenöffner],[nan],[nan],[NN],[nan],"[bottleopener_1, box_1, counter_1]",,,0.525963149078727,0.9639830508474576,0.17857142857142858,0.03954802259887005,0.1708544457555355,0.08468794273357691,0.045454545454545456,1.0,0.17186090095092665,0.03859817853497684
p10,Trial: 12,p10.edf,16571,47,Fixation: 16154 ms,544,16154,16697,"[6, 7, 12]",11,934,3058,696.0,419.1,4,9,35.2,36.5,52,Saccade: 16147 ms,.,7,0.35,49.52,39.33,"[ 6, 7, 12, 99]",16147,16153,705.7,413.8,693.5,413.6,53,Saccade: 16698 ms,RIGHT,13,0.81,62.07,65.05,"[ 6, 7, 12, 99]",16698,16710,700.5,414.3,728.2,421.0,36.19,RIGHT,0.51,A6,S6.wav,A6.png,6,4400944,task,"[6, 7]","[Preposition_1, Determiner_2]","[2930, 3074]","[3062, 3340]","[132, 266]","[0, 0]","[auf, einem]","[on, a]","[0.0, 0.0]","[0.0, 0.0]","[nan, nan]","[nan, nan]","[auf, eine]","[nan, nan]","[nan, nan]","[APPR, ART]","[nan, nan]","[bottleopener_1, box_1, counter_1]",,,0.9112227805695142,0.989406779661017,0.125,0.028248587570621465,0.17186090095092665,0.07331668033703675,0.08441558441558442,1.0,0.2154161171652669,0.06383960116196906
p10,Trial: 12,p10.edf,.,48,Fixation: 16711 ms,350,16711,17060,"[6, 7, 12]",11,944,3058,723.1,431.1,5,9,35.3,36.55,53,Saccade: 16698 ms,RIGHT,13,0.81,62.07,65.05,"[ 6, 7, 12, 99]",16698,16710,700.5,414.3,728.2,421.0,54,Saccade: 17061 ms,.,6,0.31,51.62,32.7,"[ 6, 7, 12, 99]",17061,17066,723.9,431.6,716.8,423.0,156.86,LEFT,0.84,A6,S6.wav,A6.png,6,4400944,task,[8],[Noun_2],[3371],[4120],[749],[0],[Kasten],[box],[0.0],[0.0],[box_1],[S01_I006_E006],[Kaste],[nan],[nan],[NN],[nan],"[bottleopener_1, box_1, counter_1]",,,0.5862646566164154,1.0,0.23214285714285715,0.06537530266343826,0.2154161171652669,0.12126239654015358,0.03896103896103896,1.0,0.17914902477962102,0.03209154431969852
p10,Trial: 12,p10.edf,.,49,Fixation: 17067 ms,597,17067,17663,"[6, 7, 12]",11,923,3058,717.8,426.4,6,9,35.2,36.5,54,Saccade: 17061 ms,.,6,0.31,51.62,32.7,"[ 6, 7, 12, 99]",17061,17066,723.9,431.6,716.8,423.0,55,Saccade: 17664 ms,LEFT,17,1.0,58.84,76.59,"[ 6, 7, 12, 99]",17664,17680,718.0,424.9,683.5,417.6,-40.56,.,0.2,A6,S6.wav,A6.png,6,4400944,task,[8],[Noun_2],[3371],[4120],[749],[0],[Kasten],[box],[0.0],[0.0],[box_1],[S01_I006_E006],[Kaste],[nan],[nan],[NN],[nan],"[bottleopener_1, box_1, counter_1]",,,1.0,0.9777542372881356,0.10714285714285714,0.02502017756255044,0.17914902477962102,0.06095742301096115,0.11038961038961038,1.0,0.20420628860970363,0.07516487398916542
p10,Trial: 12,p10.edf,.,50,Fixation: 17681 ms,144,17681,17824,"[6, 7, 12]",11,908,3058,684.0,418.4,7,9,35.2,36.5,55,Saccade: 17664 ms,LEFT,17,1.0,58.84,76.59,"[ 6, 7, 12, 99]",17664,17680,718.0,424.9,683.5,417.6,56,Saccade: 17825 ms,RIGHT,150,1.21,8.04,1018.96,"[ 6, 7, 12, 99]",17825,17974,682.5,419.0,724.2,427.6,-12.86,RIGHT,0.98,A6,S6.wav,A6.png,6,4400944,task,,break,,,,,,,,,,,,,,,,"[bottleopener_1, box_1, counter_1]",,,0.24120603015075376,0.961864406779661,0.30357142857142855,0.08071025020177562,0.20420628860970363,0.1427745880247558,0.974025974025974,1.0,0.027903102658429928,1.0
p10,Trial: 12,p10.edf,.,51,Fixation: 18655 ms,277,18655,18931,"[6, 7, 12]",11,849,3058,697.7,423.7,8,9,35.2,36.5,58,Saccade: 18648 ms,.,7,0.34,47.89,35.37,"[ 6, 7, 12, 99]",18648,18654,706.9,423.7,695.2,422.1,59,Saccade: 18932 ms,RIGHT,18,0.72,40.07,65.56,"[ 6, 7, 12, 99]",18932,18949,698.2,424.3,723.6,423.1,159.54,.,0.42,A6,S6.wav,A6.png,6,4400944,task,[12],[Relative Clause Verb],[5325],[5774],[449],[0],[greift],[grasps],[1.0],[0.0],[nan],[nan],[greifen],[nan],[nan],[VVPP],[nan],"[bottleopener_1, box_1, counter_1]",,,0.4639865996649916,0.899364406779661,0.125,0.027441485068603715,0.1662039286457972,0.06593468048616806,0.11688311688311688,1.0,0.1390643437218019,0.06434011148622125
p10,Trial: 12,p10.edf,.,52,Fixation: 18950 ms,157,18950,19106,"[6, 7, 12]",11,859,3058,715.5,421.9,9,9,35.25,36.5,59,Saccade: 18932 ms,RIGHT,18,0.72,40.07,65.56,"[ 6, 7, 12, 99]",18932,18949,698.2,424.3,723.6,423.1,60,Saccade: 19107 ms,LEFT,19,1.11,58.33,84.62,"[ 7, 12, 99]",19107,19125,717.0,420.9,679.1,411.3,-174.43,LEFT,0.51,A6,S6.wav,A6.png,6,4400944,task,[12],[Relative Clause Verb],[5325],[5774],[449],[0],[greift],[grasps],[1.0],[0.0],[nan],[nan],[greifen],[nan],[nan],[VVPP],[nan],"[bottleopener_1, box_1, counter_1]",,,0.2629815745393635,0.909957627118644,0.32142857142857145,0.058111380145278446,0.1390643437218019,0.12221310864215941,0.12337662337662338,1.0,0.20243631567987785,0.08304545811415562
p10,Trial: 12,p10.edf,19462,53,Fixation: 19126 ms,520,19126,19645,"[7, 12]",14,873,6358,682.2,412.0,10,11,35.2,36.5,60,Saccade: 19107 ms,LEFT,19,1.11,58.33,84.62,"[ 6, 7, 12, 99]",19107,19125,717.0,420.9,679.1,411.3,61,Saccade: 19646 ms,RIGHT,24,1.12,46.64,113.35,"[ 6, 7, 12, 99]",19646,19669,680.4,414.3,718.4,425.1,-16.01,RIGHT,0.98,A6,S6.wav,A6.png,6,4400944,post,,,,,,,,,,,,,,,,,,"[box_1, counter_1]",,,0.8710217755443886,0.9247881355932204,0.3392857142857143,0.08958837772397095,0.20243631567987785,0.1577436432779062,0.15584415584415584,1.0,0.16186575970014577,0.11124087304702833
