RECORDING_SESSION_LABEL,TRIAL_LABEL,DATA_FILE,CURRENT_FIX_MSG_TIME_1,CURRENT_FIX_INDEX,CURRENT_FIX_LABEL,CURRENT_FIX_DURATION,CURRENT_FIX_START,CURRENT_FIX_END,CURRENT_FIX_INTEREST_AREAS,CURRENT_FIX_INTEREST_AREA_FIX_COUNT,CURRENT_FIX_PUPIL,CURRENT_FIX_RUN_DWELL_TIME,CURRENT_FIX_X,CURRENT_FIX_Y,CURRENT_FIX_RUN_INDEX,CURRENT_FIX_RUN_SIZE,CURRENT_FIX_X_RESOLUTION,CURRENT_FIX_Y_RESOLUTION,PREVIOUS_SAC_INDEX,PREVIOUS_SAC_LABEL,PREVIOUS_SAC_DIRECTION,PREVIOUS_SAC_DURATION,PREVIOUS_SAC_AMPLITUDE,PREVIOUS_SAC_AVG_VELOCITY,PREVIOUS_SAC_PEAK_VELOCITY,PREVIOUS_SAC_START_INTEREST_AREAS,PREVIOUS_SAC_START_TIME,PREVIOUS_SAC_END_TIME,PREVIOUS_SAC_START_X,PREVIOUS_SAC_START_Y,PREVIOUS_SAC_END_X,PREVIOUS_SAC_END_Y,NEXT_SAC_INDEX,NEXT_SAC_LABEL,NEXT_SAC_DIRECTION,NEXT_SAC_DURATION,NEXT_SAC_AMPLITUDE,NEXT_SAC_AVG_VELOCITY,NEXT_SAC_PEAK_VELOCITY,NEXT_SAC_END_INTEREST_AREAS,NEXT_SAC_START_TIME,NEXT_SAC_END_TIME,NEXT_SAC_START_X,NEXT_SAC_START_Y,NEXT_SAC_END_X,NEXT_SAC_END_Y,PREVIOUS_FIX_ANGLE,PREVIOUS_FIX_DIRECTION,PREVIOUS_FIX_DISTANCE,ItemNO,audiofilename,imagefilename,TRIAL_INDEX,TRIAL_START_TIME,viewtype,word_index,Label,word_onset,word_offset,word_duration,Continuation,wordDE,wordEN,REFWord,TargetObj,ObjectLabel,ObjectID,LemmaDE,LingIndex,DepS,pos_1,pos_2,CURRENT_FIX_INTEREST_AREAS_Labelled,PREVIOUS_SAC_START_INTEREST_AREAS_Labelled,NEXT_SAC_END_INTEREST_AREAS_Labelled,NORMALIZED_CURRENT_FIX_DURATION,NORMALIZED_CURRENT_FIX_PUPIL,NORMALIZED_PREVIOUS_SAC_DURATION,NORMALIZED_PREVIOUS_SAC_AMPLITUDE,NORMALIZED_PREVIOUS_SAC_AVG_VELOCITY,NORMALIZED_PREVIOUS_SAC_PEAK_VELOCITY,NORMALIZED_NEXT_SAC_DURATION,NORMALIZED_NEXT_SAC_AMPLITUDE,NORMALIZED_NEXT_SAC_AVG_VELOCITY,NORMALIZED_NEXT_SAC_PEAK_VELOCITY
p14,Trial: 16,p14.edf,.,1,Fixation: 4047 ms,441,4047,4487,[],37,879,12562,519.9,185.1,4,37,35.4,36.8,6,Saccade: 4018 ms,UP,29,3.32,114.52,189.51,"[ 10, 99]",4018,4046,445.5,284.4,517.2,187.6,7,Saccade: 4488 ms,RIGHT,32,5.52,172.53,324.01,[ 99],4488,4519,515.5,177.9,704.6,228.0,-36.62,RIGHT,7.0,A30,S30.wav,A30.png,9,25440791,preview,,,,,,,,,,,,,,,,,,[],,,0.3656716417910448,0.5943204868154158,0.4603174603174603,0.14814814814814814,0.2912364579624637,0.21798042305524562,0.11469534050179211,1.0,0.5267930750206101,0.2674475232977573
p14,Trial: 16,p14.edf,.,2,Fixation: 4520 ms,247,4520,4766,[],37,792,12562,702.1,226.5,5,37,35.3,36.6,7,Saccade: 4488 ms,RIGHT,32,5.52,172.53,324.01,[ 99],4488,4519,515.5,177.9,704.6,228.0,8,Saccade: 4767 ms,LEFT,13,0.73,56.33,62.33,[ 99],4767,4779,704.6,222.8,678.9,219.9,167.66,LEFT,5.28,A30,S30.wav,A30.png,9,25440791,preview,,,,,,,,,,,,,,,,,,[],,,0.20480928689883915,0.5354969574036511,0.5079365079365079,0.24631860776439088,0.43876201617415184,0.37268659634916435,0.04659498207885305,1.0,0.17199474825196176,0.05144904208866767
p14,Trial: 16,p14.edf,.,3,Fixation: 4780 ms,145,4780,4924,[],37,814,12562,685.4,220.6,6,37,35.3,36.6,8,Saccade: 4767 ms,LEFT,13,0.73,56.33,62.33,[ 99],4767,4779,704.6,222.8,678.9,219.9,9,Saccade: 4925 ms,RIGHT,26,3.43,131.89,225.55,[ 99],4925,4950,684.0,216.8,788.9,279.7,-18.82,.,0.5,A30,S30.wav,A30.png,9,25440791,preview,,,,,,,,,,,,,,,,,,[],,,0.12023217247097844,0.5503718728870859,0.20634920634920634,0.03257474341811691,0.14325314073546613,0.07169394633018553,0.0931899641577061,1.0,0.40270526090806386,0.18617570099629382
p14,Trial: 16,p14.edf,.,4,Fixation: 4951 ms,290,4951,5240,[],37,805,12562,771.9,311.5,7,37,35.35,36.55,9,Saccade: 4925 ms,RIGHT,26,3.43,131.89,225.55,[ 99],4925,4950,684.0,216.8,788.9,279.7,10,Saccade: 5241 ms,LEFT,53,17.36,327.51,542.02,[ 99],5241,5293,765.6,322.8,135.0,300.8,134.58,UP,3.49,A30,S30.wav,A30.png,9,25440791,preview,,,,,,,,,,,,,,,,,,[],,,0.24046434494195687,0.5442866801893171,0.4126984126984127,0.1530566711289603,0.33541020293983004,0.25943477610738563,0.18996415770609318,1.0,1.0,0.4473994832809185
p14,Trial: 16,p14.edf,.,5,Fixation: 5294 ms,186,5294,5479,[],37,979,12562,142.1,303.9,8,37,37.35,37.6,10,Saccade: 5241 ms,LEFT,53,17.36,327.51,542.02,[ 99],5241,5293,765.6,322.8,135.0,300.8,11,Saccade: 5480 ms,RIGHT,15,0.86,57.03,66.26,"[ 12, 99]",5480,5494,145.1,306.5,168.1,284.3,-0.68,RIGHT,17.33,A30,S30.wav,A30.png,9,25440791,preview,,,,,,,,,,,,,,,,,,[],,,0.15422885572139303,0.6619337390128465,0.8412698412698413,0.7746541722445337,0.8328925283556278,0.623448624897917,0.053763440860215055,1.0,0.17413208756984522,0.05469298137004846
p14,Trial: 16,p14.edf,.,6,Fixation: 5495 ms,667,5495,6161,[],37,996,12562,194.8,307.7,9,37,36.85,37.35,11,Saccade: 5480 ms,RIGHT,15,0.86,57.03,66.26,[ 99],5480,5494,145.1,306.5,168.1,284.3,12,Saccade: 6162 ms,LEFT,26,2.98,114.46,186.24,"[ 7, 13, 99]",6162,6187,229.8,344.6,125.6,381.0,175.92,LEFT,1.42,A30,S30.wav,A30.png,9,25440791,preview,,,,,,,,,,,,,,,,,,[],,,0.5530679933665008,0.6734279918864098,0.23809523809523808,0.038375725122713075,0.14503331468389197,0.0762143571929744,0.0931899641577061,1.0,0.3494855118927666,0.15372805388406013
p14,Trial: 16,p14.edf,.,7,Fixation: 6188 ms,335,6188,6522,"[7, 13]",12,1181,335,131.8,384.5,1,1,37.45,37.6,12,Saccade: 6162 ms,LEFT,26,2.98,114.46,186.24,"[ 7, 99]",6162,6187,229.8,344.6,125.6,381.0,13,Saccade: 6523 ms,RIGHT,279,31.93,114.45,345.08,[ ],6523,6801,127.2,369.7,1316.0,676.6,50.39,UP,2.66,A30,S30.wav,A30.png,9,25440791,preview,,,,,,,,,,,,,,,,,,"[table_3, coffeemachine_1]",,,0.2777777777777778,0.7985125084516566,0.4126984126984127,0.13297634984381973,0.2910838716240272,0.2142191651617801,1.0,1.0,0.34945497847393975,0.28483933008113976
p14,Trial: 16,p14.edf,.,8,Fixation: 8309 ms,186,8309,8494,[],37,1389,12562,198.9,329.6,11,37,36.9,37.35,21,Saccade: 8252 ms,LEFT,57,22.41,393.22,869.39,[ 99],8252,8308,1014.1,347.6,193.5,309.6,22,Saccade: 8495 ms,DOWN,11,0.72,65.04,61.77,"[ 7, 99]",8495,8505,196.4,332.2,180.7,353.7,-140.94,LEFT,2.32,A30,S30.wav,A30.png,9,25440791,preview,,,,,,,,,,,,,,,,,,[],,,0.15422885572139303,0.9391480730223124,0.9047619047619048,1.0,1.0,1.0,0.03942652329749104,1.0,0.19858935605019695,0.05098680137681698
p14,Trial: 16,p14.edf,.,9,Fixation: 8506 ms,122,8506,8627,[],37,1385,12562,180.5,350.9,12,37,37.0,37.4,22,Saccade: 8495 ms,DOWN,11,0.72,65.04,61.77,[ 99],8495,8505,196.4,332.2,180.7,353.7,23,Saccade: 8628 ms,LEFT,23,1.61,69.95,111.0,"[ 7, 13, 99]",8628,8650,178.0,337.3,119.7,351.3,48.85,UP,0.76,A30,S30.wav,A30.png,9,25440791,preview,,,,,,,,,,,,,,,,,,[],,,0.1011608623548922,0.9364435429344151,0.1746031746031746,0.0321285140562249,0.16540359086516454,0.07104981653803241,0.08243727598566308,1.0,0.21358126469420782,0.09162271252754872
p14,Trial: 16,p14.edf,.,10,Fixation: 8651 ms,121,8651,8771,"[7, 13]",12,1446,121,118.1,350.3,1,1,37.5,37.7,23,Saccade: 8628 ms,LEFT,23,1.61,69.95,111.0,[ 99],8628,8650,178.0,337.3,119.7,351.3,24,Saccade: 8772 ms,UP,34,4.7,138.26,260.81,[ 99],8772,8805,115.8,347.6,112.9,169.7,-0.55,RIGHT,1.68,A30,S30.wav,A30.png,9,25440791,preview,,,,,,,,,,,,,,,,,,"[table_3, coffeemachine_1]",,,0.10033167495854063,0.9776876267748479,0.36507936507936506,0.07184292726461401,0.17789023956055133,0.12767572665892177,0.12186379928315412,1.0,0.422155048700803,0.21528035724603586
p14,Trial: 16,p14.edf,.,11,Fixation: 8806 ms,161,8806,8966,[12],2,1479,502,118.6,178.6,1,2,37.65,37.9,24,Saccade: 8772 ms,UP,34,4.7,138.26,260.81,"[ 7, 13, 99]",8772,8805,115.8,347.6,112.9,169.7,25,Saccade: 8967 ms,.,9,0.45,49.74,44.63,"[ 6, 12, 99]",8967,8975,120.5,178.2,136.4,183.7,-90.17,DOWN,4.54,A30,S30.wav,A30.png,9,25440791,preview,,,,,,,,,,,,,,,,,,[box_1],,,0.13349917081260365,1.0,0.5396825396825397,0.20972780008924588,0.351609785870505,0.29999194837759807,0.03225806451612903,1.0,0.1518732252450307,0.036838933874815315
p14,Trial: 16,p14.edf,.,12,Fixation: 8976 ms,341,8976,9316,"[6, 12]",1,1458,341,137.0,180.0,1,1,37.5,37.8,25,Saccade: 8967 ms,.,9,0.45,49.74,44.63,"[ 12, 99]",8967,8975,120.5,178.2,136.4,183.7,26,Saccade: 9317 ms,RIGHT,63,15.63,248.02,666.19,[ 99],9317,9379,135.5,179.0,703.3,212.8,175.68,.,0.49,A30,S30.wav,A30.png,9,25440791,preview,,,,,,,,,,,,,,,,,,"[envelope_3, box_1]",,,0.2827529021558872,0.9858012170385395,0.14285714285714285,0.020080321285140562,0.1264940745638574,0.051334843971060175,0.22580645161290322,1.0,0.7572898537449239,0.5498931068353846
p14,Trial: 16,p14.edf,.,13,Fixation: 9380 ms,118,9380,9497,[],37,1076,12562,712.7,218.1,16,37,35.3,36.6,26,Saccade: 9317 ms,RIGHT,63,15.63,248.02,666.19,"[ 6, 12, 99]",9317,9379,135.5,179.0,703.3,212.8,27,Saccade: 9498 ms,LEFT,18,1.12,62.28,81.56,[ 99],9498,9515,712.2,224.2,674.9,210.5,176.3,LEFT,15.85,A30,S30.wav,A30.png,9,25440791,preview,,,,,,,,,,,,,,,,,,[],,,0.0978441127694859,0.7275185936443543,1.0,0.6974564926372155,0.6307410609836732,0.7662729039901541,0.06451612903225806,1.0,0.19016213245397087,0.06732205796168354
p14,Trial: 16,p14.edf,.,14,Fixation: 9516 ms,325,9516,9840,[],37,1040,12562,669.6,227.2,17,37,35.25,36.6,27,Saccade: 9498 ms,LEFT,18,1.12,62.28,81.56,[ 99],9498,9515,712.2,224.2,674.9,210.5,28,Saccade: 9841 ms,LEFT,60,16.25,270.92,659.68,"[ 7, 13, 99]",9841,9900,669.8,234.1,91.9,371.0,11.5,RIGHT,1.25,A30,S30.wav,A30.png,9,25440791,preview,,,,,,,,,,,,,,,,,,[],,,0.269485903814262,0.7031778228532792,0.2857142857142857,0.0499776885319054,0.15838461929708558,0.09381290330001496,0.21505376344086022,1.0,0.8272113828585388,0.5445195585601201
p14,Trial: 16,p14.edf,.,15,Fixation: 9901 ms,226,9901,10126,"[7, 13]",12,1303,793,104.5,370.1,1,4,37.7,37.75,28,Saccade: 9841 ms,LEFT,60,16.25,270.92,659.68,[ 99],9841,9900,669.8,234.1,91.9,371.0,29,Saccade: 10127 ms,LEFT,20,1.3,64.83,100.95,"[ 7, 13, 99]",10127,10146,109.4,372.9,62.0,385.6,13.93,RIGHT,15.96,A30,S30.wav,A30.png,9,25440791,preview,,,,,,,,,,,,,,,,,,"[table_3, coffeemachine_1]",,,0.18739635157545606,0.881000676132522,0.9523809523809523,0.7251227130745203,0.6889781801536036,0.7587848951563739,0.07168458781362007,1.0,0.19794815425483192,0.0833271426095139
p14,Trial: 16,p14.edf,.,16,Fixation: 10147 ms,115,10147,10261,"[7, 13]",12,1313,793,70.7,385.8,2,4,38.0,37.9,29,Saccade: 10127 ms,LEFT,20,1.3,64.83,100.95,"[ 7, 13, 99]",10127,10146,109.4,372.9,62.0,385.6,30,Saccade: 10262 ms,RIGHT,23,2.04,88.87,142.93,"[ 7, 13, 99]",10262,10284,71.6,389.4,144.3,364.1,24.93,RIGHT,0.98,A30,S30.wav,A30.png,9,25440791,preview,,,,,,,,,,,,,,,,,,"[table_3, coffeemachine_1]",,,0.09535655058043117,0.887762001352265,0.31746031746031744,0.05800981704596163,0.16486953868063678,0.1161158973533167,0.08243727598566308,1.0,0.2713504931147141,0.11797868740146432
p14,Trial: 16,p14.edf,.,17,Fixation: 10285 ms,153,10285,10437,"[7, 13]",12,1287,793,149.4,365.7,3,4,37.25,37.55,30,Saccade: 10262 ms,RIGHT,23,2.04,88.87,142.93,"[ 7, 13, 99]",10262,10284,71.6,389.4,144.3,364.1,31,Saccade: 10438 ms,RIGHT,177,1.41,7.95,821.32,[ 99],10438,10614,157.0,372.0,201.6,344.9,-165.71,LEFT,2.16,A30,S30.wav,A30.png,9,25440791,preview,,,,,,,,,,,,,,,,,,"[table_3, coffeemachine_1]",,,0.12686567164179105,0.8701825557809331,0.36507936507936506,0.09103078982597056,0.2260057982808606,0.16440262712936657,0.6344086021505376,1.0,0.02427406796739031,0.6779420383164533
p14,Trial: 16,p14.edf,.,18,Fixation: 10735 ms,299,10735,11033,[7],12,1219,793,244.6,361.9,4,4,36.5,37.15,32,Saccade: 10717 ms,RIGHT,18,1.16,64.63,99.26,"[ 7, 14, 99]",10717,10734,209.5,361.9,252.0,358.4,33,Saccade: 11034 ms,LEFT,35,5.89,168.4,301.03,[ 99],11034,11068,244.4,361.8,25.5,390.3,-177.74,LEFT,2.58,A30,S30.wav,A30.png,9,25440791,preview,,,,,,,,,,,,,,,,,,[table_3],,,0.24792703150912107,0.8242055442866801,0.2857142857142857,0.05176260597947344,0.1643609175525151,0.11417200565914032,0.12544802867383512,1.0,0.5141827730450979,0.24847914551502692
p14,Trial: 16,p14.edf,.,19,Fixation: 11069 ms,348,11069,11416,[],37,1302,12562,39.2,385.2,22,37,38.35,38.05,33,Saccade: 11034 ms,LEFT,35,5.89,168.4,301.03,"[ 7, 99]",11034,11068,244.4,361.8,25.5,390.3,34,Saccade: 11417 ms,RIGHT,19,1.26,66.08,94.47,"[ 7, 13, 99]",11417,11435,43.0,379.4,79.7,409.9,6.44,RIGHT,5.52,A30,S30.wav,A30.png,9,25440791,preview,,,,,,,,,,,,,,,,,,[],,,0.2885572139303483,0.8803245436105477,0.5555555555555556,0.26282909415439537,0.4282589898784395,0.3462542702354524,0.06810035842293907,1.0,0.20176483160819517,0.07797835722952727
p14,Trial: 16,p14.edf,.,20,Fixation: 11436 ms,195,11436,11630,"[7, 13]",12,1305,300,81.6,414.0,1,2,37.9,37.9,34,Saccade: 11417 ms,RIGHT,19,1.26,66.08,94.47,[ 99],11417,11435,43.0,379.4,79.7,409.9,35,Saccade: 11631 ms,DOWN,62,4.12,66.5,239.5,"[ 7, 99]",11631,11692,82.5,413.4,158.9,549.2,145.71,LEFT,1.35,A30,S30.wav,A30.png,9,25440791,preview,,,,,,,,,,,,,,,,,,"[table_3, coffeemachine_1]",,,0.16169154228855723,0.8823529411764706,0.30158730158730157,0.05622489959839357,0.16804842073139717,0.10866239547268775,0.2222222222222222,1.0,0.20304723519892523,0.1976904473004317
p14,Trial: 16,p14.edf,.,21,Fixation: 11693 ms,105,11693,11797,[7],12,712,300,180.9,578.0,2,2,37.2,37.8,35,Saccade: 11631 ms,DOWN,62,4.12,66.5,239.5,"[ 7, 13, 99]",11631,11692,82.5,413.4,158.9,549.2,36,Saccade: 11798 ms,LEFT,131,1.09,8.34,60.55,[ 99],11798,11928,189.8,593.3,151.6,607.8,121.4,UP,5.08,A30,S30.wav,A30.png,9,25440791,preview,,,,,,,,,,,,,,,,,,[table_3],,,0.08706467661691543,0.48140635564570655,0.9841269841269841,0.18384649709950915,0.16911652510045266,0.2754805093226285,0.46953405017921146,1.0,0.025464871301639644,0.049979776968856526
p14,Trial: 16,p14.edf,14960,22,Fixation: 14956 ms,249,14956,15204,[],37,722,12562,247.6,672.4,25,37,36.9,38.0,41,Saccade: 14940 ms,UP,16,0.7,43.63,50.26,[ 99],14940,14955,234.5,702.8,241.5,677.2,42,Saccade: 15205 ms,DOWN,184,12.17,66.14,169.9,[ ],15205,15388,244.1,675.5,19.6,1107.2,125.86,UP,3.07,A30,S30.wav,A30.png,9,25440791,task,[4],[Determiner_1],[1470],[1680],[210],[0],[ein],[an],[0.0],[0.0],[nan],[nan],[eine],[nan],[nan],[nan],[nan],[],,,0.2064676616915423,0.48816768086544965,0.25396825396825395,0.031236055332440872,0.1109556990997406,0.05781064884574241,0.6594982078853047,1.0,0.2019480321211566,0.1402405302561309
p14,Trial: 16,p14.edf,.,23,Fixation: 17235 ms,365,17235,17599,[],37,1342,12562,670.3,256.8,26,37,35.2,36.5,45,Saccade: 17214 ms,RIGHT,21,1.35,64.36,98.73,[ 99],17214,17234,628.4,249.0,674.8,259.9,46,Saccade: 17600 ms,DOWN,187,1.05,5.62,1211.49,"[ 4, 10, 99]",17600,17786,675.0,266.8,668.8,304.6,-136.42,LEFT,16.19,A30,S30.wav,A30.png,9,25440791,task,[8],[Noun_2],[3331],[4130],[799],[0],[Schreibtisch],[desk],[0.0],[1.0],[table_1],[S01_I030_E008],[Schreibtisch],[nan],[nan],[nan],[nan],[],,,0.30265339966832505,0.90736984448952,0.3333333333333333,0.06024096385542169,0.16367427902955087,0.11356238282013827,0.6702508960573477,1.0,0.0171597813807212,1.0
p14,Trial: 16,p14.edf,.,24,Fixation: 18767 ms,145,18767,18911,[2],4,1006,2170,1057.7,435.2,1,4,36.7,37.3,47,Saccade: 18719 ms,RIGHT,48,12.05,251.02,432.69,"[ 10, 99]",18719,18766,655.7,283.9,1062.0,439.6,48,Saccade: 18912 ms,DOWN,17,1.12,65.64,84.09,"[ 2, 99]",18912,18928,1057.4,433.7,1077.4,470.1,155.84,LEFT,11.81,A30,S30.wav,A30.png,9,25440791,task,[11],[Relative Clause Verb],[4812],[5772],[960],[0],[zusammenbaut],[assembles],[1.0],[0.0],[nan],[nan],[zusammenbauen],[nan],[nan],[nan],[nan],[man_1],,,0.12023217247097844,0.6801893171061528,0.7619047619047619,0.5377063810798751,0.6383703779054982,0.4976937852977375,0.06093189964157706,1.0,0.2004213611798113,0.0694103954634376
p14,Trial: 16,p14.edf,.,25,Fixation: 18929 ms,651,18929,19579,[2],4,1021,2170,1064.1,458.7,2,4,36.8,37.35,48,Saccade: 18912 ms,DOWN,17,1.12,65.64,84.09,"[ 2, 99]",18912,18928,1057.4,433.7,1077.4,470.1,49,Saccade: 19580 ms,LEFT,22,1.66,75.52,120.33,"[ 2, 99]",19580,19601,1059.9,455.6,999.9,464.6,105.46,UP,0.65,A30,S30.wav,A30.png,9,25440791,task,[11],[Relative Clause Verb],[4812],[5772],[960],[0],[zusammenbaut],[assembles],[1.0],[0.0],[nan],[nan],[zusammenbauen],[nan],[nan],[nan],[nan],[man_1],,,0.5398009950248757,0.6903313049357674,0.2698412698412698,0.0499776885319054,0.1669294542495295,0.09672298968242102,0.07885304659498207,1.0,0.23058837898079448,0.09932397295891836
p14,Trial: 16,p14.edf,19640,26,Fixation: 19602 ms,168,19602,19769,[2],4,996,2170,1004.3,475.9,3,4,36.35,37.2,49,Saccade: 19580 ms,LEFT,22,1.66,75.52,120.33,"[ 2, 99]",19580,19601,1059.9,455.6,999.9,464.6,50,Saccade: 19770 ms,RIGHT,24,1.56,65.0,111.75,"[ 2, 99]",19770,19793,1003.9,470.7,1060.9,474.0,15.76,RIGHT,1.7,A30,S30.wav,A30.png,9,25440791,post,,,,,,,,,,,,,,,,,,[man_1],,,0.13930348258706468,0.6734279918864098,0.3492063492063492,0.07407407407407407,0.1920553379787396,0.1384073890889014,0.08602150537634409,1.0,0.1984672223748893,0.09224178490949161
p14,Trial: 16,p14.edf,.,27,Fixation: 19794 ms,1206,19794,20999,[2],4,982,2170,1062.0,487.5,4,4,36.8,37.4,50,Saccade: 19770 ms,RIGHT,24,1.56,65.0,111.75,"[ 2, 99]",19770,19793,1003.9,470.7,1060.9,474.0,51,Saccade: 21000 ms,LEFT,146,22.49,154.07,838.79,[ 99],21000,21145,1056.0,503.3,254.1,723.2,168.85,LEFT,1.61,A30,S30.wav,A30.png,9,25440791,post,,,,,,,,,,,,,,,,,,[man_1],,,1.0,0.6639621365787695,0.38095238095238093,0.06961178045515395,0.1653018666395402,0.12853840048769827,0.5232974910394266,1.0,0.4704283838661415,0.6923622976665098
