RECORDING_SESSION_LABEL,TRIAL_LABEL,DATA_FILE,CURRENT_FIX_MSG_TIME_1,CURRENT_FIX_INDEX,CURRENT_FIX_LABEL,CURRENT_FIX_DURATION,CURRENT_FIX_START,CURRENT_FIX_END,CURRENT_FIX_INTEREST_AREAS,CURRENT_FIX_INTEREST_AREA_FIX_COUNT,CURRENT_FIX_PUPIL,CURRENT_FIX_RUN_DWELL_TIME,CURRENT_FIX_X,CURRENT_FIX_Y,CURRENT_FIX_RUN_INDEX,CURRENT_FIX_RUN_SIZE,CURRENT_FIX_X_RESOLUTION,CURRENT_FIX_Y_RESOLUTION,PREVIOUS_SAC_INDEX,PREVIOUS_SAC_LABEL,PREVIOUS_SAC_DIRECTION,PREVIOUS_SAC_DURATION,PREVIOUS_SAC_AMPLITUDE,PREVIOUS_SAC_AVG_VELOCITY,PREVIOUS_SAC_PEAK_VELOCITY,PREVIOUS_SAC_START_INTEREST_AREAS,PREVIOUS_SAC_START_TIME,PREVIOUS_SAC_END_TIME,PREVIOUS_SAC_START_X,PREVIOUS_SAC_START_Y,PREVIOUS_SAC_END_X,PREVIOUS_SAC_END_Y,NEXT_SAC_INDEX,NEXT_SAC_LABEL,NEXT_SAC_DIRECTION,NEXT_SAC_DURATION,NEXT_SAC_AMPLITUDE,NEXT_SAC_AVG_VELOCITY,NEXT_SAC_PEAK_VELOCITY,NEXT_SAC_END_INTEREST_AREAS,NEXT_SAC_START_TIME,NEXT_SAC_END_TIME,NEXT_SAC_START_X,NEXT_SAC_START_Y,NEXT_SAC_END_X,NEXT_SAC_END_Y,PREVIOUS_FIX_ANGLE,PREVIOUS_FIX_DIRECTION,PREVIOUS_FIX_DISTANCE,ItemNO,audiofilename,imagefilename,TRIAL_INDEX,TRIAL_START_TIME,viewtype,word_index,Label,word_onset,word_offset,word_duration,Continuation,wordDE,wordEN,REFWord,TargetObj,ObjectLabel,ObjectID,LemmaDE,LingIndex,DepS,pos_1,pos_2,CURRENT_FIX_INTEREST_AREAS_Labelled,PREVIOUS_SAC_START_INTEREST_AREAS_Labelled,NEXT_SAC_END_INTEREST_AREAS_Labelled,NORMALIZED_CURRENT_FIX_DURATION,NORMALIZED_CURRENT_FIX_PUPIL,NORMALIZED_PREVIOUS_SAC_DURATION,NORMALIZED_PREVIOUS_SAC_AMPLITUDE,NORMALIZED_PREVIOUS_SAC_AVG_VELOCITY,NORMALIZED_PREVIOUS_SAC_PEAK_VELOCITY,NORMALIZED_NEXT_SAC_DURATION,NORMALIZED_NEXT_SAC_AMPLITUDE,NORMALIZED_NEXT_SAC_AVG_VELOCITY,NORMALIZED_NEXT_SAC_PEAK_VELOCITY
p11,Trial: 33,p11.edf,.,1,Fixation: 3195 ms,193,3195,3387,[],.,1077,.,639.9,884.5,.,.,36.3,38.85,5,Saccade: 3184 ms,LEFT,11,0.53,47.78,46.18,[ ],3184,3194,646.8,892.3,628.4,886.9,6,Saccade: 3388 ms,UP,94,2.99,31.76,340.34,"[ 15, 99]",3388,3481,643.0,878.4,610.3,769.3,-56.21,.,0.45,A13,S13.wav,A13.png,16,14329156,preview,,,,,,,,,,,,,,,,,,[],,,0.23536585365853657,0.7573839662447257,0.11702127659574468,0.029875986471251413,0.18311424519986202,0.07599394418114798,0.4519230769230769,1.0,0.12171846855478481,0.5171475893087781
p11,Trial: 33,p11.edf,.,2,Fixation: 3482 ms,282,3482,3763,[15],3,1062,282,615.6,776.7,1,1,35.9,37.95,6,Saccade: 3388 ms,UP,94,2.99,31.76,340.34,[ ],3388,3481,643.0,878.4,610.3,769.3,7,Saccade: 3764 ms,UP,179,15.38,85.92,564.55,"[ 3, 99]",3764,3942,613.8,778.8,899.1,286.6,-76.52,DOWN,2.89,A13,S13.wav,A13.png,16,14329156,preview,,,,,,,,,,,,,,,,,,[woman_1],,,0.3439024390243902,0.7468354430379747,1.0,0.16854565952649384,0.12171846855478481,0.5600645076355977,0.8605769230769231,1.0,0.32928371593914074,0.8578353162845116
p11,Trial: 33,p11.edf,.,3,Fixation: 4217 ms,225,4217,4441,[3],17,1071,500,863.5,357.9,1,2,35.6,36.7,8,Saccade: 4192 ms,DOWN,25,2.31,92.52,161.28,"[ 3, 99]",4192,4216,888.5,289.7,857.1,368.3,9,Saccade: 4442 ms,RIGHT,17,0.84,49.21,63.5,"[ 3, 99]",4442,4458,863.1,361.2,886.9,342.7,-121.72,DOWN,13.19,A13,S13.wav,A13.png,16,14329156,preview,,,,,,,,,,,,,,,,,,[man_1],,,0.27439024390243905,0.7531645569620253,0.26595744680851063,0.1302142051860203,0.35457785612999654,0.26540284360189575,0.08173076923076923,1.0,0.1885946422412141,0.09648842898603577
p11,Trial: 33,p11.edf,.,4,Fixation: 4459 ms,275,4459,4733,[3],17,1039,500,881.9,350.5,2,2,35.7,36.7,9,Saccade: 4442 ms,RIGHT,17,0.84,49.21,63.5,"[ 3, 99]",4442,4458,863.1,361.2,886.9,342.7,10,Saccade: 4734 ms,LEFT,76,13.89,182.72,408.32,"[ 4, 9, 99]",4734,4809,879.1,351.1,384.7,313.3,-158.66,LEFT,0.55,A13,S13.wav,A13.png,16,14329156,preview,,,,,,,,,,,,,,,,,,[man_1],,,0.3353658536585366,0.7306610407876231,0.18085106382978725,0.04735062006764375,0.1885946422412141,0.10449578725645077,0.36538461538461536,1.0,0.700264438738359,0.6204433909224901
p11,Trial: 33,p11.edf,.,5,Fixation: 4810 ms,210,4810,5019,"[4, 9]",6,1026,377,383.9,314.0,1,2,35.75,36.8,10,Saccade: 4734 ms,LEFT,76,13.89,182.72,408.32,"[ 3, 99]",4734,4809,879.1,351.1,384.7,313.3,11,Saccade: 5020 ms,LEFT,26,2.61,100.32,175.83,"[ 4, 9, 99]",5020,5045,380.0,311.2,286.0,308.8,-4.08,RIGHT,13.98,A13,S13.wav,A13.png,16,14329156,preview,,,,,,,,,,,,,,,,,,"[box_2, counter_2]",,,0.25609756097560976,0.7215189873417721,0.8085106382978723,0.7829763246899663,0.700264438738359,0.6719325961032122,0.125,1.0,0.3844709309010079,0.26717418060810505
p11,Trial: 33,p11.edf,.,6,Fixation: 5046 ms,167,5046,5212,"[4, 9]",6,1042,377,308.7,312.0,2,2,36.15,37.0,11,Saccade: 5020 ms,LEFT,26,2.61,100.32,175.83,"[ 4, 9, 99]",5020,5045,380.0,311.2,286.0,308.8,12,Saccade: 5213 ms,DOWN,59,9.15,155.09,422.03,"[ 8, 99]",5213,5271,313.5,312.7,80.8,562.9,-1.48,RIGHT,2.09,A13,S13.wav,A13.png,16,14329156,preview,,,,,,,,,,,,,,,,,,"[box_2, counter_2]",,,0.20365853658536584,0.7327707454289732,0.2765957446808511,0.1471251409244645,0.3844709309010079,0.28934636650868883,0.28365384615384615,1.0,0.5943739700302764,0.6412757745665618
p11,Trial: 33,p11.edf,.,7,Fixation: 5272 ms,275,5272,5546,[8],5,1068,1347,76.2,577.3,1,3,38.0,38.25,12,Saccade: 5213 ms,DOWN,59,9.15,155.09,422.03,"[ 4, 9, 99]",5213,5271,313.5,312.7,80.8,562.9,13,Saccade: 5547 ms,RIGHT,21,1.57,74.91,128.49,"[ 8, 99]",5547,5567,83.3,581.0,141.8,591.3,48.35,UP,9.44,A13,S13.wav,A13.png,16,14329156,preview,,,,,,,,,,,,,,,,,,[drawer_1],,,0.3353658536585366,0.7510548523206751,0.6276595744680851,0.515783540022548,0.5943739700302764,0.6944938125329121,0.10096153846153846,1.0,0.28708849116621316,0.19524091717190137
p11,Trial: 33,p11.edf,.,8,Fixation: 5568 ms,252,5568,5819,[8],5,1159,1347,133.7,594.7,2,3,37.55,38.05,13,Saccade: 5547 ms,RIGHT,21,1.57,74.91,128.49,"[ 8, 99]",5547,5567,83.3,581.0,141.8,591.3,14,Saccade: 5820 ms,UP,30,4.05,134.87,285.99,"[ 8, 99]",5820,5849,130.4,592.6,59.2,456.3,163.32,LEFT,1.59,A13,S13.wav,A13.png,16,14329156,preview,,,,,,,,,,,,,,,,,,[drawer_1],,,0.3073170731707317,0.8150492264416315,0.22340425531914893,0.08850056369785796,0.28708849116621316,0.21144352290679308,0.14423076923076922,1.0,0.5168819223546545,0.43456261111364364
p11,Trial: 33,p11.edf,.,9,Fixation: 5850 ms,820,5850,6669,[8],5,1235,1347,72.1,489.6,3,3,38.05,38.0,14,Saccade: 5820 ms,UP,30,4.05,134.87,285.99,"[ 8, 99]",5820,5849,130.4,592.6,59.2,456.3,15,Saccade: 6670 ms,RIGHT,64,12.65,197.64,456.31,"[ 7, 99]",6670,6733,73.7,482.8,536.6,518.4,-59.48,DOWN,3.21,A13,S13.wav,A13.png,16,14329156,preview,,,,,,,,,,,,,,,,,,[drawer_1],,,1.0,0.8684950773558369,0.3191489361702128,0.22829763246899662,0.5168819223546545,0.4706259873617694,0.3076923076923077,1.0,0.7574445253516268,0.6933643311908343
p11,Trial: 33,p11.edf,.,10,Fixation: 6734 ms,278,6734,7011,"[7, 12]",15,1262,582,560.3,521.3,1,2,35.35,36.75,15,Saccade: 6670 ms,RIGHT,64,12.65,197.64,456.31,"[ 8, 10, 99]",6670,6733,73.7,482.8,536.6,518.4,16,Saccade: 7012 ms,DOWN,173,10.9,62.99,658.11,"[ 15, 99]",7012,7184,416.4,375.1,580.6,743.1,176.35,LEFT,13.33,A13,S13.wav,A13.png,16,14329156,preview,,,,,,,,,,,,,,,,,,"[counter_1, notebook_1]",,,0.33902439024390246,0.8874824191279888,0.6808510638297872,0.7130777903043969,0.7574445253516268,0.7509050816219063,0.8317307692307693,1.0,0.24140574100333423,1.0
p11,Trial: 33,p11.edf,.,11,Fixation: 7504 ms,304,7504,7807,[7],15,1280,582,572.4,672.6,2,2,35.6,37.4,17,Saccade: 7455 ms,UP,49,2.69,54.87,220.43,"[ 15, 99]",7455,7503,579.5,784.3,573.5,683.0,18,Saccade: 7808 ms,UP,56,3.97,70.9,176.86,"[ 7, 12, 99]",7808,7863,571.9,679.4,667.6,571.1,94.78,UP,4.1,A13,S13.wav,A13.png,16,14329156,preview,,,,,,,,,,,,,,,,,,[counter_1],,,0.37073170731707317,0.90014064697609,0.5212765957446809,0.15163472378804962,0.21028628367761468,0.36274025803054244,0.2692307692307692,1.0,0.2717203847775266,0.2687392685113431
p11,Trial: 33,p11.edf,.,12,Fixation: 8113 ms,169,8113,8281,[3],17,1387,886,843.2,416.2,1,3,35.6,36.7,19,Saccade: 8071 ms,RIGHT,42,6.2,147.63,305.55,"[ 7, 99]",8071,8112,679.5,552.4,852.7,412.1,20,Saccade: 8282 ms,UP,37,2.33,62.88,255.34,"[ 3, 99]",8282,8318,846.0,415.8,878.4,337.2,-137.71,LEFT,10.28,A13,S13.wav,A13.png,16,14329156,preview,,,,,,,,,,,,,,,,,,[man_1],,,0.20609756097560974,0.9753867791842475,0.44680851063829785,0.3494926719278467,0.5657839267236423,0.5028139810426541,0.1778846153846154,1.0,0.2409841720001533,0.38798984972117123
p11,Trial: 33,p11.edf,.,13,Fixation: 8319 ms,324,8319,8642,[3],17,1422,886,872.9,336.1,2,3,35.7,36.7,20,Saccade: 8282 ms,UP,37,2.33,62.88,255.34,"[ 3, 99]",8282,8318,846.0,415.8,878.4,337.2,21,Saccade: 8643 ms,RIGHT,11,0.53,48.32,45.58,"[ 3, 99]",8643,8653,874.5,340.4,889.0,327.8,-110.89,DOWN,2.34,A13,S13.wav,A13.png,16,14329156,preview,,,,,,,,,,,,,,,,,,[man_1],,,0.3951219512195122,1.0,0.39361702127659576,0.1313416009019166,0.2409841720001533,0.42018825697735657,0.052884615384615384,1.0,0.18518376576093204,0.06925893847533086
p11,Trial: 33,p11.edf,.,14,Fixation: 8654 ms,393,8654,9046,[3],17,1301,886,887.5,338.7,3,3,35.7,36.75,21,Saccade: 8643 ms,RIGHT,11,0.53,48.32,45.58,"[ 3, 99]",8643,8653,874.5,340.4,889.0,327.8,22,Saccade: 9047 ms,DOWN,55,5.24,95.31,317.64,"[ 7, 18, 99]",9047,9101,888.8,346.1,777.5,500.4,170.18,.,0.42,A13,S13.wav,A13.png,16,14329156,preview,,,,,,,,,,,,,,,,,,[man_1],,,0.4792682926829268,0.9149085794655415,0.11702127659574468,0.029875986471251413,0.18518376576093204,0.07500658241179568,0.2644230769230769,1.0,0.36527037902885834,0.4826548753247937
p11,Trial: 33,p11.edf,.,15,Fixation: 9102 ms,299,9102,9400,"[7, 18]",15,1262,623,767.3,517.3,1,2,35.4,36.75,22,Saccade: 9047 ms,DOWN,55,5.24,95.31,317.64,"[ 3, 99]",9047,9101,888.8,346.1,777.5,500.4,23,Saccade: 9401 ms,LEFT,41,6.36,155.04,269.55,"[ 7, 12, 99]",9401,9441,768.8,521.3,544.9,544.7,55.17,UP,5.92,A13,S13.wav,A13.png,16,14329156,preview,,,,,,,,,,,,,,,,,,"[counter_1, paintbucket_1]",,,0.3646341463414634,0.8874824191279888,0.5851063829787234,0.2953776775648253,0.36527037902885834,0.5227093206951027,0.1971153846153846,1.0,0.5941823477561031,0.40958198477458174
p11,Trial: 33,p11.edf,.,16,Fixation: 9442 ms,324,9442,9765,"[7, 12]",15,1386,623,554.2,543.8,2,2,35.4,36.8,23,Saccade: 9401 ms,LEFT,41,6.36,155.04,269.55,"[ 7, 18, 99]",9401,9441,768.8,521.3,544.9,544.7,24,Saccade: 9766 ms,LEFT,208,6.36,30.56,23.26,"[ 7, 12, 99]",9766,9973,768.8,521.3,544.9,544.7,6.83,RIGHT,6.06,A13,S13.wav,A13.png,16,14329156,preview,,,,,,,,,,,,,,,,,,"[counter_1, notebook_1]",,,0.3951219512195122,0.9746835443037974,0.43617021276595747,0.358511837655017,0.5941823477561031,0.4435722748815166,1.0,1.0,0.11711953397462921,0.03534363556244397
p11,Trial: 33,p11.edf,.,17,Fixation: 10305 ms,249,10305,10553,"[8, 11]",5,1332,892,113.0,502.0,1,2,37.6,37.85,25,Saccade: 10245 ms,LEFT,60,7.91,131.76,460.46,"[ 4, 9, 99]",10245,10304,335.1,277.9,118.3,474.8,26,Saccade: 10554 ms,LEFT,20,1.35,67.64,98.21,"[ 8, 99]",10554,10573,115.6,509.5,65.3,499.9,-5.29,RIGHT,12.14,A13,S13.wav,A13.png,16,14329156,preview,,,,,,,,,,,,,,,,,,"[drawer_1, paint_1]",,,0.30365853658536585,0.9367088607594937,0.6382978723404256,0.44588500563697864,0.5049630169010846,0.7577343338599263,0.09615384615384616,1.0,0.25922661250143714,0.14923037182233972
p11,Trial: 33,p11.edf,.,18,Fixation: 10574 ms,643,10574,11216,"[8, 11]",5,1347,892,82.4,504.0,2,2,38.0,38.05,26,Saccade: 10554 ms,LEFT,20,1.35,67.64,98.21,"[ 8, 11, 99]",10554,10573,115.6,509.5,65.3,499.9,27,Saccade: 11217 ms,RIGHT,56,6.17,110.21,342.73,"[ 20, 99]",11217,11272,84.4,497.5,309.8,458.5,3.72,RIGHT,0.81,A13,S13.wav,A13.png,16,14329156,preview,,,,,,,,,,,,,,,,,,"[drawer_1, paint_1]",,,0.7841463414634147,0.9472573839662447,0.2127659574468085,0.07609921082299888,0.25922661250143714,0.16161466561348078,0.2692307692307692,1.0,0.42237381673245694,0.520779201045418
p11,Trial: 33,p11.edf,.,19,Fixation: 11273 ms,288,11273,11560,"[19, 20]",2,1364,288,327.3,449.8,1,1,36.05,37.0,27,Saccade: 11217 ms,RIGHT,56,6.17,110.21,342.73,"[ 8, 11, 99]",11217,11272,84.4,497.5,309.8,458.5,28,Saccade: 11561 ms,RIGHT,66,10.61,160.79,388.4,"[ 7, 99]",11561,11626,333.3,454.9,710.8,480.6,-167.68,LEFT,6.77,A13,S13.wav,A13.png,16,14329156,preview,,,,,,,,,,,,,,,,,,"[vase_1, stool_1]",,,0.35121951219512193,0.9592123769338959,0.5957446808510638,0.34780157835400227,0.42237381673245694,0.5639974986835177,0.3173076923076923,1.0,0.6162189092860154,0.5901748947744297
p11,Trial: 33,p11.edf,.,20,Fixation: 11627 ms,181,11627,11807,[7],15,1376,343,730.6,480.6,1,2,35.3,36.65,28,Saccade: 11561 ms,RIGHT,66,10.61,160.79,388.4,"[ 19, 20, 99]",11561,11626,333.3,454.9,710.8,480.6,29,Saccade: 11808 ms,RIGHT,24,1.95,81.29,148.99,"[ 7, 18, 99]",11808,11831,734.2,480.8,803.2,477.7,175.77,LEFT,11.34,A13,S13.wav,A13.png,16,14329156,preview,,,,,,,,,,,,,,,,,,[counter_1],,,0.22073170731707317,0.9676511954992968,0.7021276595744681,0.5980834272829764,0.6162189092860154,0.6391521853607162,0.11538461538461539,1.0,0.3115394933507071,0.2263907249547948
p11,Trial: 33,p11.edf,.,21,Fixation: 11832 ms,162,11832,11993,"[7, 18]",15,1400,343,784.0,478.1,2,2,35.45,36.7,29,Saccade: 11808 ms,RIGHT,24,1.95,81.29,148.99,"[ 7, 99]",11808,11831,734.2,480.8,803.2,477.7,30,Saccade: 11994 ms,UP,41,4.81,117.34,327.82,"[ 3, 99]",11994,12034,781.7,478.3,894.6,345.5,-177.42,LEFT,1.51,A13,S13.wav,A13.png,16,14329156,preview,,,,,,,,,,,,,,,,,,"[counter_1, paintbucket_1]",,,0.1975609756097561,0.9845288326300985,0.2553191489361702,0.10992108229988727,0.3115394933507071,0.24517838335966302,0.1971153846153846,1.0,0.44969915302954816,0.498123414018933
p11,Trial: 33,p11.edf,.,22,Fixation: 12035 ms,443,12035,12477,[3],17,1348,443,881.2,339.8,1,1,35.7,36.75,30,Saccade: 11994 ms,UP,41,4.81,117.34,327.82,"[ 7, 18, 99]",11994,12034,781.7,478.3,894.6,345.5,31,Saccade: 12478 ms,DOWN,64,9.82,153.51,397.62,"[ 7, 99]",12478,12541,880.2,339.5,682.0,638.6,-125.96,DOWN,4.65,A13,S13.wav,A13.png,16,14329156,preview,,,,,,,,,,,,,,,,,,[man_1],,,0.5402439024390244,0.9479606188466948,0.43617021276595747,0.2711386696730552,0.44969915302954816,0.5394615587151133,0.3076923076923077,1.0,0.5883187061664047,0.6041847107626385
p11,Trial: 33,p11.edf,.,23,Fixation: 12542 ms,299,12542,12840,[7],15,1250,816,675.0,662.3,1,3,35.55,37.25,31,Saccade: 12478 ms,DOWN,64,9.82,153.51,397.62,"[ 3, 99]",12478,12541,880.2,339.5,682.0,638.6,32,Saccade: 12841 ms,LEFT,56,5.63,100.6,327.05,"[ 7, 99]",12841,12896,672.1,659.2,494.7,562.2,56.41,UP,10.46,A13,S13.wav,A13.png,16,14329156,preview,,,,,,,,,,,,,,,,,,[counter_1],,,0.3646341463414634,0.8790436005625879,0.6808510638297872,0.5535512965050734,0.5883187061664047,0.6543246445497631,0.2692307692307692,1.0,0.3855440156363775,0.49695339684855117
p11,Trial: 33,p11.edf,.,24,Fixation: 12897 ms,195,12897,13091,[7],15,1291,816,491.7,551.4,2,3,35.5,36.9,32,Saccade: 12841 ms,LEFT,56,5.63,100.6,327.05,"[ 7, 99]",12841,12896,672.1,659.2,494.7,562.2,33,Saccade: 13092 ms,RIGHT,24,1.24,51.73,99.41,"[ 7, 99]",13092,13115,492.9,544.4,532.1,523.6,-30.1,RIGHT,5.96,A13,S13.wav,A13.png,16,14329156,preview,,,,,,,,,,,,,,,,,,[counter_1],,,0.23780487804878048,0.9078762306610408,0.5957446808510638,0.31736189402480275,0.3855440156363775,0.5381944444444445,0.11538461538461539,1.0,0.19825240485954085,0.151053775204753
p11,Trial: 33,p11.edf,13147,25,Fixation: 13116 ms,322,13116,13437,[7],15,1258,816,528.9,523.3,3,3,35.4,36.8,33,Saccade: 13092 ms,RIGHT,24,1.24,51.73,99.41,"[ 7, 99]",13092,13115,492.9,544.4,532.1,523.6,34,Saccade: 13438 ms,UP,68,9.99,146.97,445.89,[ 99],13438,13505,528.8,520.0,366.5,191.7,-144.0,LEFT,1.3,A13,S13.wav,A13.png,16,14329156,preview,,,,,,,,,,,,,,,,,,[counter_1],,,0.3926829268292683,0.8846694796061885,0.2553191489361702,0.06989853438556934,0.19825240485954085,0.16358938915218538,0.3269230769230769,1.0,0.5632545127045567,0.6775311118202124
p11,Trial: 33,p11.edf,13860,26,Fixation: 13699 ms,273,13699,13971,"[4, 9]",6,1331,674,331.0,287.9,1,2,36.0,36.9,35,Saccade: 13665 ms,DOWN,34,3.77,111.0,282.97,[ 99],13665,13698,370.7,165.2,322.1,295.6,36,Saccade: 13972 ms,LEFT,19,1.28,67.39,96.17,"[ 4, 9, 99]",13972,13990,337.3,292.8,295.5,272.6,-49.05,DOWN,8.46,A13,S13.wav,A13.png,16,14329156,task,"[2, 3]","[Verb, Determiner_1]","[290, 480]","[410, 610]","[120, 130]","[0, 0]","[ist, ein]","[is, a]","[0.0, 0.0]","[0.0, 0.0]","[nan, nan]","[nan, nan]","[sein, eine]","[nan, nan]","[nan, nan]","[nan, nan]","[nan, nan]","[box_2, counter_2]",,,0.3329268292682927,0.9360056258790436,0.3617021276595745,0.21251409244644873,0.4254014486643927,0.4656562664560296,0.09134615384615384,1.0,0.2582685011305714,0.14613058607223717
p11,Trial: 33,p11.edf,.,27,Fixation: 13991 ms,401,13991,14391,"[4, 9]",6,1276,674,310.6,277.1,2,2,36.15,37.0,36,Saccade: 13972 ms,LEFT,19,1.28,67.39,96.17,"[ 4, 9, 99]",13972,13990,337.3,292.8,295.5,272.6,37,Saccade: 14392 ms,LEFT,26,2.29,88.23,167.74,"[ 9, 17, 99]",14392,14417,317.0,292.7,242.1,329.9,-27.33,RIGHT,0.64,A13,S13.wav,A13.png,16,14329156,task,[4],[Noun_1],[660],[1245],[585],[0],[Kasten],[box],[0.0],[1.0],[box_1],[S01_I013_E004],[Kaste],[nan],[nan],[nan],[nan],"[box_2, counter_2]",,,0.48902439024390243,0.8973277074542897,0.20212765957446807,0.0721533258173619,0.2582685011305714,0.158257635597683,0.125,1.0,0.3381366650059403,0.2548814028050022
p11,Trial: 33,p11.edf,.,28,Fixation: 14418 ms,168,14418,14585,"[9, 17]",9,1163,1035,249.9,325.2,3,4,36.5,37.15,37,Saccade: 14392 ms,LEFT,26,2.29,88.23,167.74,"[ 4, 9, 99]",14392,14417,317.0,292.7,242.1,329.9,38,Saccade: 14586 ms,RIGHT,28,2.95,105.36,197.78,"[ 4, 9, 99]",14586,14613,249.5,329.5,342.1,274.9,37.83,RIGHT,2.12,A13,S13.wav,A13.png,16,14329156,task,[4],[Noun_1],[660],[1245],[585],[0],[Kasten],[box],[0.0],[1.0],[box_1],[S01_I013_E004],[Kaste],[nan],[nan],[nan],[nan],"[counter_2, roller_2]",,,0.2048780487804878,0.8178621659634318,0.2765957446808511,0.12908680947012402,0.3381366650059403,0.2760334386519221,0.1346153846153846,1.0,0.40378645613766145,0.3005272674780812
p11,Trial: 33,p11.edf,.,29,Fixation: 14614 ms,193,14614,14806,"[4, 9]",6,1191,193,341.4,291.9,1,1,35.95,36.9,38,Saccade: 14586 ms,RIGHT,28,2.95,105.36,197.78,"[ 9, 17, 99]",14586,14613,249.5,329.5,342.1,274.9,39,Saccade: 14807 ms,RIGHT,186,14.91,80.16,269.87,"[ 7, 18, 99]",14807,14992,342.8,298.4,836.6,505.2,-160.4,LEFT,2.68,A13,S13.wav,A13.png,16,14329156,task,,break,,,,,,,,,,,,,,,,"[box_2, counter_2]",,,0.23536585365853657,0.8375527426160337,0.2978723404255319,0.16629086809470126,0.40378645613766145,0.32546735123749343,0.8942307692307693,1.0,0.30720882995439386,0.41006822567655865
p11,Trial: 33,p11.edf,15240,30,Fixation: 15206 ms,254,15206,15459,"[5, 7]",5,1275,254,925.3,467.2,1,1,35.95,36.95,40,Saccade: 15179 ms,RIGHT,27,2.99,110.61,207.35,"[ 7, 18, 99]",15179,15205,843.7,495.6,945.3,461.3,41,Saccade: 15460 ms,UP,28,2.96,105.78,224.22,"[ 3, 99]",15460,15487,926.1,459.0,882.6,359.6,163.71,LEFT,16.92,A13,S13.wav,A13.png,16,14329156,task,[6],[Determiner_2],[1770],[1990],[220],[0],[einem],[a],[0.0],[0.0],[nan],[nan],[eine],[nan],[nan],[nan],[nan],"[box_1, counter_1]",,,0.3097560975609756,0.8966244725738397,0.2872340425531915,0.16854565952649384,0.42390679492584216,0.3412157714586625,0.1346153846153846,1.0,0.4053960832407159,0.3407029220039203
p11,Trial: 33,p11.edf,.,31,Fixation: 15488 ms,184,15488,15671,[3],17,1231,973,891.4,376.8,1,3,35.7,36.75,41,Saccade: 15460 ms,UP,28,2.96,105.78,224.22,"[ 5, 7, 99]",15460,15487,926.1,459.0,882.6,359.6,42,Saccade: 15672 ms,UP,25,1.38,55.32,116.63,"[ 3, 99]",15672,15696,895.0,373.5,873.8,327.6,-68.91,DOWN,2.63,A13,S13.wav,A13.png,16,14329156,task,[7],[Noun_2],[2040],[2630],[590],[0],[Tresen],[counter],[0.0],[0.0],[counter_1],[S01_I013_E006],[Tresen],[nan],[nan],[nan],[nan],[man_1],,,0.22439024390243903,0.8656821378340366,0.2978723404255319,0.1668545659526494,0.4053960832407159,0.36897709320695105,0.1201923076923077,1.0,0.21201088414517302,0.17721961374238349
p11,Trial: 33,p11.edf,.,32,Fixation: 15697 ms,325,15697,16021,[3],17,1181,973,879.6,338.6,2,3,35.7,36.7,42,Saccade: 15672 ms,UP,25,1.38,55.32,116.63,"[ 3, 99]",15672,15696,895.0,373.5,873.8,327.6,43,Saccade: 16022 ms,DOWN,41,2.43,59.36,217.93,"[ 3, 99]",16022,16062,878.3,336.6,900.8,423.0,-72.37,DOWN,1.09,A13,S13.wav,A13.png,16,14329156,task,[7],[Noun_2],[2040],[2630],[590],[0],[Tresen],[counter],[0.0],[0.0],[counter_1],[S01_I013_E006],[Tresen],[nan],[nan],[nan],[nan],[man_1],,,0.39634146341463417,0.8305203938115331,0.26595744680851063,0.0777903043968433,0.21201088414517302,0.1919266719325961,0.1971153846153846,1.0,0.22749396389836354,0.3311452492744374
p11,Trial: 33,p11.edf,16510,33,Fixation: 16063 ms,464,16063,16526,[3],17,1182,973,894.0,443.4,3,3,35.8,36.85,43,Saccade: 16022 ms,DOWN,41,2.43,59.36,217.93,"[ 3, 99]",16022,16062,878.3,336.6,900.8,423.0,44,Saccade: 16527 ms,RIGHT,14,0.89,63.28,70.11,"[ 7, 99]",16527,16540,893.6,456.0,924.8,449.9,98.05,UP,2.88,A13,S13.wav,A13.png,16,14329156,task,[8],[Relative Clause Pronoun],[3000],[3080],[80],[1],[den],[that],[0.0],[0.0],[nan],[nan],[die],[nan],[nan],[nan],[nan],[man_1],,,0.5658536585365853,0.8312236286919831,0.43617021276595747,0.136978579481398,0.22749396389836354,0.3586262506582412,0.0673076923076923,1.0,0.2425171501935385,0.10653234261749556
p11,Trial: 33,p11.edf,.,34,Fixation: 16541 ms,184,16541,16724,[],63,1219,17863,915.6,452.8,33,62,35.9,36.9,44,Saccade: 16527 ms,RIGHT,14,0.89,63.28,70.11,"[ 3, 99]",16527,16540,893.6,456.0,924.8,449.9,45,Saccade: 16725 ms,UP,25,2.75,110.08,181.66,"[ 3, 99]",16725,16749,910.9,454.1,859.1,368.0,157.07,LEFT,0.65,A13,S13.wav,A13.png,16,14329156,task,[9],[Relative Clause Pers. Pronoun],[3090],[3300],[210],[0],[er],[he],[0.0],[0.0],[man_1],[S01_I013_E002],[er],[nan],[nan],[nan],[nan],[],,,0.22439024390243903,0.8572433192686357,0.14893617021276595,0.050169109357384445,0.2425171501935385,0.11537322274881517,0.1201923076923077,1.0,0.4218755988196068,0.2760328820409962
p11,Trial: 33,p11.edf,.,35,Fixation: 16750 ms,198,16750,16947,[3],17,1225,588,871.3,376.5,1,3,35.6,36.7,45,Saccade: 16725 ms,UP,25,2.75,110.08,181.66,[ 99],16725,16749,910.9,454.1,859.1,368.0,46,Saccade: 16948 ms,UP,25,0.95,38.11,107.28,"[ 3, 99]",16948,16972,869.4,375.8,860.0,342.2,-59.14,DOWN,2.42,A13,S13.wav,A13.png,16,14329156,task,[10],[Relative Clause Adverb],[3310],[3940],[630],[0],[vorsichtig],[cautiously],[0.0],[0.0],[nan],[nan],[ig],[nan],[nan],[nan],[nan],[man_1],,,0.24146341463414633,0.8614627285513361,0.26595744680851063,0.15501691093573847,0.4218755988196068,0.29894023170089523,0.1201923076923077,1.0,0.14605449737477483,0.16301226238774671
p11,Trial: 33,p11.edf,.,36,Fixation: 16973 ms,201,16973,17173,[3],17,1214,588,861.8,351.0,2,3,35.6,36.7,46,Saccade: 16948 ms,UP,25,0.95,38.11,107.28,"[ 3, 99]",16948,16972,869.4,375.8,860.0,342.2,47,Saccade: 17174 ms,UP,33,1.01,30.68,131.51,"[ 3, 99]",17174,17206,866.4,354.5,868.3,317.4,-68.99,DOWN,0.74,A13,S13.wav,A13.png,16,14329156,task,[10],[Relative Clause Adverb],[3310],[3940],[630],[0],[vorsichtig],[cautiously],[0.0],[0.0],[nan],[nan],[ig],[nan],[nan],[nan],[nan],[man_1],,,0.2451219512195122,0.8537271448663853,0.26595744680851063,0.05355129650507328,0.14605449737477483,0.1765402843601896,0.15865384615384615,1.0,0.11757942743264477,0.19982981568430808
p11,Trial: 33,p11.edf,17207,37,Fixation: 17207 ms,189,17207,17395,[3],17,1155,588,872.9,311.5,3,3,35.65,36.7,47,Saccade: 17174 ms,UP,33,1.01,30.68,131.51,"[ 3, 99]",17174,17206,866.4,354.5,868.3,317.4,48,Saccade: 17396 ms,LEFT,69,15.05,218.14,445.95,"[ 4, 9, 99]",17396,17464,879.3,313.0,340.2,289.2,-106.15,DOWN,1.12,A13,S13.wav,A13.png,16,14329156,task,[10],[Relative Clause Adverb],[3310],[3940],[630],[0],[vorsichtig],[cautiously],[0.0],[0.0],[nan],[nan],[ig],[nan],[nan],[nan],[nan],[man_1],,,0.2304878048780488,0.8122362869198312,0.35106382978723405,0.05693348365276212,0.11757942743264477,0.2164132438125329,0.3317307692307692,1.0,0.8360096577626183,0.677622281989333
p11,Trial: 33,p11.edf,.,38,Fixation: 17465 ms,217,17465,17681,"[4, 9]",6,1165,217,331.6,298.5,1,1,36.0,36.9,48,Saccade: 17396 ms,LEFT,69,15.05,218.14,445.95,"[ 3, 99]",17396,17464,879.3,313.0,340.2,289.2,49,Saccade: 17682 ms,LEFT,23,1.91,83.03,135.81,"[ 9, 99]",17682,17704,332.0,304.3,263.0,300.0,-1.34,RIGHT,15.11,A13,S13.wav,A13.png,16,14329156,task,[11],[Relative Clause Verb],[4007],[4532],[525],[0],[bemalt],[paints],[1.0],[0.0],[nan],[nan],[bemalen],[nan],[nan],[nan],[nan],"[box_2, counter_2]",,,0.2646341463414634,0.819268635724332,0.7340425531914894,0.8483652762119505,0.8360096577626183,0.7338566350710901,0.11057692307692307,1.0,0.3182079484919327,0.20636367780462234
p11,Trial: 33,p11.edf,.,39,Fixation: 17705 ms,352,17705,18056,[9],9,1208,569,281.0,300.6,2,2,36.35,37.1,49,Saccade: 17682 ms,LEFT,23,1.91,83.03,135.81,"[ 4, 9, 99]",17682,17704,332.0,304.3,263.0,300.0,50,Saccade: 18057 ms,RIGHT,68,17.74,260.93,607.68,"[ 5, 7, 99]",18057,18124,278.5,301.9,892.7,485.2,2.32,RIGHT,1.4,A13,S13.wav,A13.png,16,14329156,task,[11],[Relative Clause Verb],[4007],[4532],[525],[0],[bemalt],[paints],[1.0],[0.0],[nan],[nan],[bemalen],[nan],[nan],[nan],[nan],[counter_2],,,0.4292682926829268,0.849507735583685,0.24468085106382978,0.1076662908680947,0.3182079484919327,0.22348933649289102,0.3269230769230769,1.0,1.0,0.923371472854082
p11,Trial: 33,p11.edf,.,40,Fixation: 18125 ms,182,18125,18306,"[5, 7]",5,1198,566,912.7,503.8,1,2,35.85,36.95,50,Saccade: 18057 ms,RIGHT,68,17.74,260.93,607.68,"[ 9, 99]",18057,18124,278.5,301.9,892.7,485.2,51,Saccade: 18307 ms,UP,25,1.92,76.78,159.37,"[ 5, 7, 99]",18307,18331,911.9,507.3,948.2,446.9,162.59,LEFT,18.34,A13,S13.wav,A13.png,16,14329156,post,,,,,,,,,,,,,,,,,,"[box_1, counter_1]",,,0.22195121951219512,0.8424753867791842,0.723404255319149,1.0,1.0,1.0,0.1201923076923077,1.0,0.29425516422028897,0.24216316421266962
p11,Trial: 33,p11.edf,18400,41,Fixation: 18332 ms,384,18332,18715,"[5, 7]",5,1208,566,938.9,458.7,2,2,36.0,36.95,51,Saccade: 18307 ms,UP,25,1.92,76.78,159.37,"[ 5, 7, 99]",18307,18331,911.9,507.3,948.2,446.9,52,Saccade: 18716 ms,LEFT,16,0.85,53.29,66.95,[ 99],18716,18731,932.3,458.0,901.7,458.7,-120.86,DOWN,1.42,A13,S13.wav,A13.png,16,14329156,post,,,,,,,,,,,,,,,,,,"[box_1, counter_1]",,,0.4682926829268293,0.849507735583685,0.26595744680851063,0.10822998872604285,0.29425516422028897,0.2622597419694576,0.07692307692307693,1.0,0.20423101981374314,0.10173071371047393
