RECORDING_SESSION_LABEL,TRIAL_LABEL,DATA_FILE,CURRENT_FIX_MSG_TIME_1,CURRENT_FIX_INDEX,CURRENT_FIX_LABEL,CURRENT_FIX_DURATION,CURRENT_FIX_START,CURRENT_FIX_END,CURRENT_FIX_INTEREST_AREAS,CURRENT_FIX_INTEREST_AREA_FIX_COUNT,CURRENT_FIX_PUPIL,CURRENT_FIX_RUN_DWELL_TIME,CURRENT_FIX_X,CURRENT_FIX_Y,CURRENT_FIX_RUN_INDEX,CURRENT_FIX_RUN_SIZE,CURRENT_FIX_X_RESOLUTION,CURRENT_FIX_Y_RESOLUTION,PREVIOUS_SAC_INDEX,PREVIOUS_SAC_LABEL,PREVIOUS_SAC_DIRECTION,PREVIOUS_SAC_DURATION,PREVIOUS_SAC_AMPLITUDE,PREVIOUS_SAC_AVG_VELOCITY,PREVIOUS_SAC_PEAK_VELOCITY,PREVIOUS_SAC_START_INTEREST_AREAS,PREVIOUS_SAC_START_TIME,PREVIOUS_SAC_END_TIME,PREVIOUS_SAC_START_X,PREVIOUS_SAC_START_Y,PREVIOUS_SAC_END_X,PREVIOUS_SAC_END_Y,NEXT_SAC_INDEX,NEXT_SAC_LABEL,NEXT_SAC_DIRECTION,NEXT_SAC_DURATION,NEXT_SAC_AMPLITUDE,NEXT_SAC_AVG_VELOCITY,NEXT_SAC_PEAK_VELOCITY,NEXT_SAC_END_INTEREST_AREAS,NEXT_SAC_START_TIME,NEXT_SAC_END_TIME,NEXT_SAC_START_X,NEXT_SAC_START_Y,NEXT_SAC_END_X,NEXT_SAC_END_Y,PREVIOUS_FIX_ANGLE,PREVIOUS_FIX_DIRECTION,PREVIOUS_FIX_DISTANCE,ItemNO,audiofilename,imagefilename,TRIAL_INDEX,TRIAL_START_TIME,viewtype,word_index,Label,word_onset,word_offset,word_duration,Continuation,wordDE,wordEN,REFWord,TargetObj,ObjectLabel,ObjectID,LemmaDE,LingIndex,DepS,pos_1,pos_2,CURRENT_FIX_INTEREST_AREAS_Labelled,PREVIOUS_SAC_START_INTEREST_AREAS_Labelled,NEXT_SAC_END_INTEREST_AREAS_Labelled,NORMALIZED_CURRENT_FIX_DURATION,NORMALIZED_CURRENT_FIX_PUPIL,NORMALIZED_PREVIOUS_SAC_DURATION,NORMALIZED_PREVIOUS_SAC_AMPLITUDE,NORMALIZED_PREVIOUS_SAC_AVG_VELOCITY,NORMALIZED_PREVIOUS_SAC_PEAK_VELOCITY,NORMALIZED_NEXT_SAC_DURATION,NORMALIZED_NEXT_SAC_AMPLITUDE,NORMALIZED_NEXT_SAC_AVG_VELOCITY,NORMALIZED_NEXT_SAC_PEAK_VELOCITY
p4,Trial: 36,p4.edf,.,1,Fixation: 3318 ms,252,3318,3569,[],78,828,21482,636.2,476.2,2,77,35.2,36.6,6,Saccade: 3251 ms,UP,67,14.84,221.53,445.63,[ ],3251,3317,672.2,1058.6,636.5,486.2,7,Saccade: 3570 ms,RIGHT,20,1.49,74.49,111.02,"[ 7, 12, 99]",3570,3589,634.5,480.1,672.8,442.9,-126.44,DOWN,1.97,A6,S6.wav,A6.png,16,6493144,preview,,,,,,,,,,,,,,,,,,[],,,0.15365853658536585,0.8922413793103449,0.8701298701298701,0.7794117647058824,0.7365918536990856,0.8356711547837827,0.06779661016949153,1.0,0.24768079800498752,0.20819112627986347
p4,Trial: 36,p4.edf,.,2,Fixation: 3590 ms,215,3590,3804,[],78,831,21482,669.6,445.6,3,77,35.2,36.5,7,Saccade: 3570 ms,RIGHT,20,1.49,74.49,111.02,"[ 12, 99]",3570,3589,634.5,480.1,672.8,442.9,8,Saccade: 3805 ms,RIGHT,21,1.57,74.78,121.98,"[ 7, 12, 99]",3805,3825,668.6,444.7,723.7,450.2,-138.58,LEFT,1.27,A6,S6.wav,A6.png,16,6493144,preview,,,,,,,,,,,,,,,,,,[],,,0.13109756097560976,0.8954741379310345,0.2597402597402597,0.0782563025210084,0.24768079800498752,0.20819112627986347,0.0711864406779661,1.0,0.2486450540315877,0.22874395229344036
p4,Trial: 36,p4.edf,.,3,Fixation: 3826 ms,156,3826,3981,"[7, 12]",13,858,156,718.9,450.4,1,1,35.3,36.6,8,Saccade: 3805 ms,RIGHT,21,1.57,74.78,121.98,[ 99],3805,3825,668.6,444.7,723.7,450.2,9,Saccade: 3982 ms,UP,54,5.31,98.42,204.06,"[ 8, 99]",3982,4035,716.6,446.7,649.6,265.3,174.64,LEFT,1.4,A6,S6.wav,A6.png,16,6493144,preview,,,,,,,,,,,,,,,,,,"[box_1, counter_1]",,,0.0951219512195122,0.9245689655172413,0.2727272727272727,0.08245798319327732,0.2486450540315877,0.22874395229344036,0.18305084745762712,1.0,0.32724854530340813,0.38266511645351237
p4,Trial: 36,p4.edf,.,4,Fixation: 4036 ms,641,4036,4676,[8],8,871,641,653.3,258.2,1,1,35.2,36.5,9,Saccade: 3982 ms,UP,54,5.31,98.42,204.06,"[ 7, 12, 99]",3982,4035,716.6,446.7,649.6,265.3,10,Saccade: 4677 ms,DOWN,30,4.45,148.24,302.37,"[ 6, 7, 12, 99]",4677,4706,657.6,264.4,724.0,411.4,-70.51,DOWN,5.58,A6,S6.wav,A6.png,16,6493144,preview,,,,,,,,,,,,,,,,,,[man_1],,,0.3908536585365854,0.9385775862068966,0.7012987012987013,0.27888655462184875,0.32724854530340813,0.38266511645351237,0.1016949152542373,1.0,0.492901080631754,0.5670217154858793
p4,Trial: 36,p4.edf,.,5,Fixation: 4707 ms,163,4707,4869,"[6, 7, 12]",1,868,163,727.0,416.2,1,1,35.25,36.5,10,Saccade: 4677 ms,DOWN,30,4.45,148.24,302.37,"[ 8, 99]",4677,4706,657.6,264.4,724.0,411.4,11,Saccade: 4870 ms,LEFT,36,1.86,51.74,188.23,"[ 7, 12, 99]",4870,4905,731.6,418.3,672.8,448.6,115.8,UP,4.81,A6,S6.wav,A6.png,16,6493144,preview,,,,,,,,,,,,,,,,,,"[bottleopener_1, box_1, counter_1]",,,0.09939024390243903,0.9353448275862069,0.38961038961038963,0.233718487394958,0.492901080631754,0.5670217154858793,0.12203389830508475,1.0,0.1720365752285952,0.35297978472039904
p4,Trial: 36,p4.edf,.,6,Fixation: 4906 ms,98,4906,5003,"[7, 12]",13,849,261,669.5,456.5,2,2,35.2,36.6,11,Saccade: 4870 ms,LEFT,36,1.86,51.74,188.23,"[ 6, 7, 12, 99]",4870,4905,731.6,418.3,672.8,448.6,12,Saccade: 5004 ms,DOWN,46,6.11,132.9,356.83,"[ 12, 99]",5004,5049,669.3,456.3,722.4,675.6,34.04,RIGHT,1.97,A6,S6.wav,A6.png,16,6493144,preview,,,,,,,,,,,,,,,,,,"[box_1, counter_1]",,,0.05975609756097561,0.9148706896551724,0.4675324675324675,0.09768907563025211,0.1720365752285952,0.35297978472039904,0.15593220338983052,1.0,0.4418952618453866,0.6691482578854593
p4,Trial: 36,p4.edf,.,7,Fixation: 5050 ms,168,5050,5217,"[11, 12]",6,804,303,715.4,696.5,1,2,35.7,37.45,12,Saccade: 5004 ms,DOWN,46,6.11,132.9,356.83,"[ 7, 12, 99]",5004,5049,669.3,456.3,722.4,675.6,13,Saccade: 5218 ms,DOWN,33,2.44,73.97,260.9,"[ 11, 99]",5218,5250,712.6,697.7,662.1,772.9,101.3,UP,6.61,A6,S6.wav,A6.png,16,6493144,preview,,,,,,,,,,,,,,,,,,"[woman_1, counter_1]",,,0.1024390243902439,0.8663793103448276,0.5974025974025974,0.32090336134453784,0.4418952618453866,0.6691482578854593,0.11186440677966102,1.0,0.24595178719866997,0.489254772531223
p4,Trial: 36,p4.edf,.,8,Fixation: 5251 ms,135,5251,5385,[11],6,819,303,654.3,779.5,2,2,35.9,38.0,13,Saccade: 5218 ms,DOWN,33,2.44,73.97,260.9,"[ 11, 99]",5218,5250,712.6,697.7,662.1,772.9,14,Saccade: 5386 ms,UP,54,6.74,124.83,192.65,[ 99],5386,5439,653.2,780.4,514.8,573.6,52.2,UP,2.78,A6,S6.wav,A6.png,16,6493144,preview,,,,,,,,,,,,,,,,,,[woman_1],,,0.08231707317073171,0.8825431034482759,0.42857142857142855,0.1281512605042017,0.24595178719866997,0.489254772531223,0.18305084745762712,1.0,0.4150623441396509,0.36126842440835616
p4,Trial: 36,p4.edf,.,9,Fixation: 5440 ms,84,5440,5523,[],78,854,21482,519.6,568.0,10,77,35.5,36.9,14,Saccade: 5386 ms,UP,54,6.74,124.83,192.65,"[ 11, 99]",5386,5439,653.2,780.4,514.8,573.6,15,Saccade: 5524 ms,LEFT,54,7.99,148.02,362.86,"[ 23, 99]",5524,5577,518.7,568.8,232.3,532.5,-56.25,DOWN,6.79,A6,S6.wav,A6.png,16,6493144,preview,,,,,,,,,,,,,,,,,,[],,,0.05121951219512195,0.9202586206896551,0.7012987012987013,0.3539915966386555,0.4150623441396509,0.36126842440835616,0.18305084745762712,1.0,0.4921695760598504,0.6804560627086225
p4,Trial: 36,p4.edf,.,10,Fixation: 5578 ms,284,5578,5861,[23],8,848,284,216.0,531.6,1,1,36.75,37.5,15,Saccade: 5524 ms,LEFT,54,7.99,148.02,362.86,[ 99],5524,5577,518.7,568.8,232.3,532.5,16,Saccade: 5862 ms,UP,295,6.65,22.55,323.88,[ 99],5862,6156,218.4,533.0,249.0,286.5,-6.64,RIGHT,8.46,A6,S6.wav,A6.png,16,6493144,preview,,,,,,,,,,,,,,,,,,[faucet_1],,,0.17317073170731706,0.9137931034482759,0.7012987012987013,0.41964285714285715,0.4921695760598504,0.6804560627086225,1.0,1.0,0.07497921862011638,0.6073585117953718
p4,Trial: 36,p4.edf,.,11,Fixation: 6408 ms,284,6408,6691,[],78,833,21482,197.1,319.7,12,77,36.85,37.35,17,Saccade: 6387 ms,LEFT,21,1.64,78.13,135.55,[ 99],6387,6407,248.9,317.6,188.7,316.2,18,Saccade: 6692 ms,RIGHT,50,11.88,237.67,456.65,"[ 8, 99]",6692,6741,200.0,321.4,626.1,282.2,-84.82,DOWN,5.69,A6,S6.wav,A6.png,16,6493144,preview,,,,,,,,,,,,,,,,,,[],,,0.17317073170731706,0.8976293103448276,0.2727272727272727,0.0861344537815126,0.2597838736492103,0.2541912012901774,0.1694915254237288,1.0,0.7902576891105569,0.8563364962682368
p4,Trial: 36,p4.edf,.,12,Fixation: 6742 ms,129,6742,6870,[8],8,869,477,622.5,278.6,1,2,35.2,36.5,18,Saccade: 6692 ms,RIGHT,50,11.88,237.67,456.65,[ 99],6692,6741,200.0,321.4,626.1,282.2,19,Saccade: 6871 ms,RIGHT,20,1.25,62.6,111.39,"[ 8, 99]",6871,6890,623.3,279.1,667.2,275.1,-174.62,LEFT,11.86,A6,S6.wav,A6.png,16,6493144,preview,,,,,,,,,,,,,,,,,,[man_1],,,0.07865853658536585,0.9364224137931034,0.6493506493506493,0.6239495798319329,0.7902576891105569,0.8563364962682368,0.06779661016949153,1.0,0.20814630091438072,0.2088849716836065
p4,Trial: 36,p4.edf,.,13,Fixation: 6891 ms,348,6891,7238,[8],8,836,477,661.8,279.6,2,2,35.2,36.5,19,Saccade: 6871 ms,RIGHT,20,1.25,62.6,111.39,"[ 8, 99]",6871,6890,623.3,279.1,667.2,275.1,20,Saccade: 7239 ms,DOWN,61,10.1,165.57,390.08,"[ 12, 99]",7239,7299,655.4,277.0,733.0,640.3,178.59,LEFT,1.12,A6,S6.wav,A6.png,16,6493144,preview,,,,,,,,,,,,,,,,,,[man_1],,,0.2121951219512195,0.9008620689655172,0.2597402597402597,0.06565126050420168,0.20814630091438072,0.2088849716836065,0.20677966101694914,1.0,0.5505236907730673,0.7315005813299329
p4,Trial: 36,p4.edf,.,14,Fixation: 7300 ms,135,7300,7434,[12],34,811,577,730.3,667.1,1,4,35.65,37.3,20,Saccade: 7239 ms,DOWN,61,10.1,165.57,390.08,"[ 8, 99]",7239,7299,655.4,277.0,733.0,640.3,21,Saccade: 7435 ms,RIGHT,37,3.81,102.85,178.24,"[ 12, 99]",7435,7471,729.8,673.8,839.8,590.6,100.43,UP,10.68,A6,S6.wav,A6.png,16,6493144,preview,,,,,,,,,,,,,,,,,,[counter_1],,,0.08231707317073171,0.8739224137931034,0.7922077922077922,0.5304621848739496,0.5505236907730673,0.7315005813299329,0.12542372881355932,1.0,0.34197838736492103,0.33424595881933766
p4,Trial: 36,p4.edf,.,15,Fixation: 7472 ms,120,7472,7591,[12],34,832,577,834.8,594.8,2,4,35.7,37.1,21,Saccade: 7435 ms,RIGHT,37,3.81,102.85,178.24,"[ 12, 99]",7435,7471,729.8,673.8,839.8,590.6,22,Saccade: 7592 ms,RIGHT,25,2.28,91.1,150.45,"[ 10, 12, 99]",7592,7616,834.2,596.2,892.4,537.1,-146.44,LEFT,3.52,A6,S6.wav,A6.png,16,6493144,preview,,,,,,,,,,,,,,,,,,[counter_1],,,0.07317073170731707,0.896551724137931,0.4805194805194805,0.20010504201680673,0.34197838736492103,0.33424595881933766,0.0847457627118644,1.0,0.30290939318370735,0.2821325432246934
p4,Trial: 36,p4.edf,.,16,Fixation: 7617 ms,161,7617,7777,"[10, 12]",9,856,322,889.9,541.3,1,2,35.9,37.05,22,Saccade: 7592 ms,RIGHT,25,2.28,91.1,150.45,"[ 12, 99]",7592,7616,834.2,596.2,892.4,537.1,23,Saccade: 7778 ms,RIGHT,27,2.03,75.36,161.52,"[ 5, 10, 12, 99]",7778,7804,889.3,541.6,962.4,535.4,-136.85,LEFT,2.11,A6,S6.wav,A6.png,16,6493144,preview,,,,,,,,,,,,,,,,,,"[tray_1, counter_1]",,,0.09817073170731708,0.9224137931034483,0.3246753246753247,0.11974789915966386,0.30290939318370735,0.2821325432246934,0.09152542372881356,1.0,0.25057356608478804,0.30289164760154524
p4,Trial: 36,p4.edf,.,17,Fixation: 7805 ms,161,7805,7965,"[5, 10, 12]",4,883,161,962.5,545.1,1,1,36.2,37.2,23,Saccade: 7778 ms,RIGHT,27,2.03,75.36,161.52,"[ 10, 12, 99]",7778,7804,889.3,541.6,962.4,535.4,24,Saccade: 7966 ms,UP,63,9.67,153.54,381.08,"[ 9, 99]",7966,8028,961.2,542.8,1092.8,207.4,177.09,LEFT,2.02,A6,S6.wav,A6.png,16,6493144,preview,,,,,,,,,,,,,,,,,,"[bottleopener_3, tray_1, counter_1]",,,0.09817073170731708,0.9515086206896551,0.35064935064935066,0.10661764705882353,0.25057356608478804,0.30289164760154524,0.2135593220338983,1.0,0.5105236907730673,0.714623260698346
p4,Trial: 36,p4.edf,.,18,Fixation: 8029 ms,487,8029,8515,[9],11,928,1568,1096.7,207.3,1,6,37.05,37.6,24,Saccade: 7966 ms,UP,63,9.67,153.54,381.08,"[ 5, 10, 12, 99]",7966,8028,961.2,542.8,1092.8,207.4,25,Saccade: 8516 ms,DOWN,39,2.08,53.28,138.3,"[ 9, 15, 99]",8516,8554,1101.0,202.2,1082.8,277.9,-112.08,DOWN,9.75,A6,S6.wav,A6.png,16,6493144,preview,,,,,,,,,,,,,,,,,,[man_2],,,0.2969512195121951,1.0,0.8181818181818182,0.5078781512605042,0.5105236907730673,0.714623260698346,0.13220338983050847,1.0,0.1771571072319202,0.25934816037205116
p4,Trial: 36,p4.edf,.,19,Fixation: 8555 ms,151,8555,8705,"[9, 15]",11,915,1568,1077.2,280.4,2,6,36.9,37.4,25,Saccade: 8516 ms,DOWN,39,2.08,53.28,138.3,"[ 9, 99]",8516,8554,1101.0,202.2,1082.8,277.9,26,Saccade: 8706 ms,RIGHT,22,1.86,84.45,138.04,"[ 9, 99]",8706,8727,1077.1,277.6,1145.7,269.9,74.86,UP,2.02,A6,S6.wav,A6.png,16,6493144,preview,,,,,,,,,,,,,,,,,,"[man_2, ladle_1]",,,0.09207317073170732,0.9859913793103449,0.5064935064935064,0.10924369747899161,0.1771571072319202,0.25934816037205116,0.07457627118644068,1.0,0.28079800498753116,0.25886059333158307
p4,Trial: 36,p4.edf,.,20,Fixation: 8728 ms,267,8728,8994,[9],11,871,1568,1139.2,269.3,3,6,37.4,37.6,26,Saccade: 8706 ms,RIGHT,22,1.86,84.45,138.04,"[ 9, 15, 99]",8706,8727,1077.1,277.6,1145.7,269.9,27,Saccade: 8995 ms,LEFT,24,2.24,93.25,161.8,"[ 9, 99]",8995,9018,1138.7,267.7,1058.3,288.2,-169.94,LEFT,1.69,A6,S6.wav,A6.png,16,6493144,preview,,,,,,,,,,,,,,,,,,[man_2],,,0.1628048780487805,0.9385775862068966,0.2857142857142857,0.09768907563025211,0.28079800498753116,0.25886059333158307,0.08135593220338982,1.0,0.3100581878636742,0.3034167197989724
p4,Trial: 36,p4.edf,.,21,Fixation: 9019 ms,281,9019,9299,"[9, 15]",11,831,1568,1066.5,285.0,4,6,36.75,37.3,27,Saccade: 8995 ms,LEFT,24,2.24,93.25,161.8,"[ 9, 99]",8995,9018,1138.7,267.7,1058.3,288.2,28,Saccade: 9300 ms,RIGHT,21,1.72,82.11,128.95,"[ 9, 99]",9300,9320,1065.3,281.4,1122.4,252.6,12.07,RIGHT,2.01,A6,S6.wav,A6.png,16,6493144,preview,,,,,,,,,,,,,,,,,,"[man_2, ladle_1]",,,0.17134146341463416,0.8954741379310345,0.3116883116883117,0.11764705882352942,0.3100581878636742,0.3034167197989724,0.0711864406779661,1.0,0.27301745635910224,0.24181449949368036
p4,Trial: 36,p4.edf,.,22,Fixation: 9321 ms,156,9321,9476,[9],11,787,1568,1121.2,253.0,5,6,37.2,37.6,28,Saccade: 9300 ms,RIGHT,21,1.72,82.11,128.95,"[ 9, 15, 99]",9300,9320,1065.3,281.4,1122.4,252.6,29,Saccade: 9477 ms,LEFT,24,1.96,81.79,143.1,"[ 9, 99]",9477,9500,1118.0,254.0,1057.8,295.0,-149.99,LEFT,1.71,A6,S6.wav,A6.png,16,6493144,preview,,,,,,,,,,,,,,,,,,[man_2],,,0.0951219512195122,0.8480603448275862,0.2727272727272727,0.09033613445378151,0.27301745635910224,0.24181449949368036,0.08135593220338982,1.0,0.2719534497090607,0.2683493980422308
p4,Trial: 36,p4.edf,.,23,Fixation: 9501 ms,226,9501,9726,"[9, 15]",11,780,1568,1066.0,292.5,6,6,36.75,37.3,29,Saccade: 9477 ms,LEFT,24,1.96,81.79,143.1,"[ 9, 99]",9477,9500,1118.0,254.0,1057.8,295.0,30,Saccade: 9727 ms,DOWN,40,2.1,52.58,217.42,"[ 3, 12, 99]",9727,9766,1066.3,296.8,1028.0,364.7,35.24,RIGHT,1.83,A6,S6.wav,A6.png,16,6493144,preview,,,,,,,,,,,,,,,,,,"[man_2, ladle_1]",,,0.1378048780487805,0.8405172413793104,0.3116883116883117,0.10294117647058824,0.2719534497090607,0.2683493980422308,0.13559322033898305,1.0,0.17482959268495427,0.40771856130217904
p4,Trial: 36,p4.edf,.,24,Fixation: 9767 ms,485,9767,10251,"[3, 4, 12]",4,767,1103,1019.8,384.2,1,2,36.45,37.1,30,Saccade: 9727 ms,DOWN,40,2.1,52.58,217.42,"[ 9, 15, 99]",9727,9766,1066.3,296.8,1028.0,364.7,31,Saccade: 10252 ms,LEFT,21,1.48,70.32,126.35,"[ 3, 4, 12, 99]",10252,10272,1020.5,386.8,967.1,383.0,62.88,UP,2.77,A6,S6.wav,A6.png,16,6493144,preview,,,,,,,,,,,,,,,,,,"[box_2, bottleopener_2, counter_1]",,,0.29573170731707316,0.8265086206896551,0.5194805194805194,0.11029411764705883,0.17482959268495427,0.40771856130217904,0.0711864406779661,1.0,0.2338154613466334,0.23693882908899974
p4,Trial: 36,p4.edf,.,25,Fixation: 10273 ms,618,10273,10890,"[3, 4, 12]",4,736,1103,969.8,380.3,2,2,36.1,37.0,31,Saccade: 10252 ms,LEFT,21,1.48,70.32,126.35,"[ 3, 4, 12, 99]",10252,10272,1020.5,386.8,967.1,383.0,32,Saccade: 10891 ms,LEFT,36,7.19,199.77,389.52,"[ 7, 12, 99]",10891,10926,972.2,377.9,725.0,449.4,-4.37,RIGHT,1.38,A6,S6.wav,A6.png,16,6493144,preview,,,,,,,,,,,,,,,,,,"[box_2, bottleopener_2, counter_1]",,,0.37682926829268293,0.7931034482758621,0.2727272727272727,0.07773109243697479,0.2338154613466334,0.23693882908899974,0.12203389830508475,1.0,0.6642394014962594,0.7304504369350786
p4,Trial: 36,p4.edf,.,26,Fixation: 10927 ms,240,10927,11166,"[7, 12]",13,711,240,720.2,453.5,1,1,35.3,36.6,32,Saccade: 10891 ms,LEFT,36,7.19,199.77,389.52,"[ 3, 4, 12, 99]",10891,10926,972.2,377.9,725.0,449.4,33,Saccade: 11167 ms,UP,60,6.66,111.0,281.9,"[ 8, 99]",11167,11226,717.6,450.9,651.5,217.0,15.88,RIGHT,7.27,A6,S6.wav,A6.png,16,6493144,preview,,,,,,,,,,,,,,,,,,"[box_1, counter_1]",,,0.14634146341463414,0.7661637931034483,0.4675324675324675,0.3776260504201681,0.6642394014962594,0.7304504369350786,0.2033898305084746,1.0,0.3690773067331671,0.528635187338259
p4,Trial: 36,p4.edf,.,27,Fixation: 11227 ms,202,11227,11428,[8],8,681,500,649.3,222.2,1,2,35.2,36.6,33,Saccade: 11167 ms,UP,60,6.66,111.0,281.9,"[ 7, 12, 99]",11167,11226,717.6,450.9,651.5,217.0,34,Saccade: 11429 ms,.,6,0.37,60.99,39.55,"[ 8, 99]",11429,11434,652.9,225.6,658.0,237.9,-72.35,DOWN,6.63,A6,S6.wav,A6.png,16,6493144,preview,,,,,,,,,,,,,,,,,,[man_1],,,0.12317073170731707,0.7338362068965517,0.7792207792207793,0.3497899159663866,0.3690773067331671,0.528635187338259,0.020338983050847456,1.0,0.2027930174563591,0.0741664478865844
p4,Trial: 36,p4.edf,.,28,Fixation: 11435 ms,298,11435,11732,[8],8,693,500,654.7,236.9,2,2,35.2,36.6,34,Saccade: 11429 ms,.,6,0.37,60.99,39.55,"[ 8, 99]",11429,11434,652.9,225.6,658.0,237.9,35,Saccade: 11733 ms,LEFT,70,15.3,218.63,488.46,"[ 23, 99]",11733,11802,656.6,234.6,146.9,458.8,110.91,.,0.43,A6,S6.wav,A6.png,16,6493144,preview,,,,,,,,,,,,,,,,,,[man_1],,,0.18170731707317073,0.7467672413793104,0.07792207792207792,0.019432773109243698,0.2027930174563591,0.0741664478865844,0.23728813559322035,1.0,0.7269492934330839,0.9159884484116566
p4,Trial: 36,p4.edf,.,29,Fixation: 11803 ms,219,11803,12021,[23],8,665,219,135.7,473.2,1,1,37.35,37.65,35,Saccade: 11733 ms,LEFT,70,15.3,218.63,488.46,"[ 8, 99]",11733,11802,656.6,234.6,146.9,458.8,36,Saccade: 12022 ms,RIGHT,63,14.28,226.74,452.06,"[ 8, 99]",12022,12084,132.6,475.2,600.5,246.5,23.98,RIGHT,15.66,A6,S6.wav,A6.png,16,6493144,preview,,,,,,,,,,,,,,,,,,[faucet_1],,,0.13353658536585367,0.7165948275862069,0.9090909090909091,0.8035714285714286,0.7269492934330839,0.9159884484116566,0.2135593220338983,1.0,0.7539152119700748,0.8477290627461276
p4,Trial: 36,p4.edf,.,30,Fixation: 12085 ms,111,12085,12195,[],78,681,21482,602.8,234.4,31,77,35.2,36.6,36,Saccade: 12022 ms,RIGHT,63,14.28,226.74,452.06,"[ 23, 99]",12022,12084,132.6,475.2,600.5,246.5,37,Saccade: 12196 ms,RIGHT,22,1.07,48.61,100.34,"[ 8, 99]",12196,12217,602.1,235.7,637.9,223.6,-153.46,LEFT,14.39,A6,S6.wav,A6.png,16,6493144,preview,,,,,,,,,,,,,,,,,,[],,,0.0676829268292683,0.7338362068965517,0.8181818181818182,0.75,0.7539152119700748,0.8477290627461276,0.07457627118644068,1.0,0.16162926018287613,0.18816337246371376
p4,Trial: 36,p4.edf,.,31,Fixation: 12218 ms,189,12218,12406,[8],8,665,189,639.6,228.3,1,1,35.2,36.6,37,Saccade: 12196 ms,RIGHT,22,1.07,48.61,100.34,[ 99],12196,12217,602.1,235.7,637.9,223.6,38,Saccade: 12407 ms,RIGHT,54,13.59,251.62,421.67,"[ 9, 99]",12407,12460,641.3,225.7,1130.4,160.5,-170.94,LEFT,1.06,A6,S6.wav,A6.png,16,6493144,preview,,,,,,,,,,,,,,,,,,[man_1],,,0.1152439024390244,0.7165948275862069,0.2857142857142857,0.05619747899159665,0.16162926018287613,0.18816337246371376,0.18305084745762712,1.0,0.8366417290108064,0.7907399767468027
p4,Trial: 36,p4.edf,13116,32,Fixation: 12461 ms,859,12461,13319,[9],11,627,1774,1117.3,165.5,1,5,37.3,37.75,38,Saccade: 12407 ms,RIGHT,54,13.59,251.62,421.67,"[ 8, 99]",12407,12460,641.3,225.7,1130.4,160.5,39,Saccade: 13320 ms,DOWN,39,4.13,106.0,382.19,"[ 9, 15, 99]",13320,13358,1106.0,165.3,1066.6,315.1,-172.7,LEFT,13.29,A6,S6.wav,A6.png,16,6493144,preview,,,,,,,,,,,,,,,,,,[man_2],,,0.5237804878048781,0.6756465517241379,0.7012987012987013,0.7137605042016807,0.8366417290108064,0.7907399767468027,0.13220338983050847,1.0,0.35245220282626766,0.7167047969095751
p4,Trial: 36,p4.edf,.,33,Fixation: 13359 ms,162,13359,13520,[9],11,659,1774,1054.8,330.7,2,5,36.7,37.25,39,Saccade: 13320 ms,DOWN,39,4.13,106.0,382.19,"[ 9, 99]",13320,13358,1106.0,165.3,1066.6,315.1,40,Saccade: 13521 ms,UP,16,0.81,50.82,70.52,"[ 9, 99]",13521,13536,1050.8,330.3,1054.1,300.2,69.02,UP,4.72,A6,S6.wav,A6.png,16,6493144,task,,break,,,,,,,,,,,,,,,,[man_2],,,0.09878048780487805,0.7101293103448276,0.5064935064935064,0.21691176470588236,0.35245220282626766,0.7167047969095751,0.05423728813559322,1.0,0.16897755610972567,0.13224318343772268
p4,Trial: 36,p4.edf,.,34,Fixation: 13537 ms,259,13537,13795,[9],11,688,1774,1049.9,303.7,3,5,36.65,37.25,40,Saccade: 13521 ms,UP,16,0.81,50.82,70.52,"[ 9, 99]",13521,13536,1050.8,330.3,1054.1,300.2,41,Saccade: 13796 ms,UP,41,4.22,102.98,197.38,"[ 9, 99]",13796,13836,1046.8,309.6,1111.6,165.8,-79.56,DOWN,0.74,A6,S6.wav,A6.png,16,6493144,task,[2],[Verb],[280],[800],[520],[0],[befindet],[is],[0.0],[0.0],[nan],[nan],[befinden],[nan],[nan],[VVFIN],[nan],[man_2],,,0.15792682926829268,0.7413793103448276,0.2077922077922078,0.04254201680672269,0.16897755610972567,0.13224318343772268,0.13898305084745763,1.0,0.3424106400665004,0.37013839402917903
p4,Trial: 36,p4.edf,.,35,Fixation: 13837 ms,206,13837,14042,[9],11,703,1774,1106.7,175.0,4,5,37.2,37.7,41,Saccade: 13796 ms,UP,41,4.22,102.98,197.38,"[ 9, 99]",13796,13836,1046.8,309.6,1111.6,165.8,42,Saccade: 14043 ms,DOWN,29,3.3,113.78,212.65,"[ 9, 99]",14043,14071,1107.8,176.6,1059.7,290.3,-114.13,DOWN,3.76,A6,S6.wav,A6.png,16,6493144,task,[2],[Verb],[280],[800],[520],[0],[befindet],[is],[0.0],[0.0],[nan],[nan],[befinden],[nan],[nan],[VVFIN],[nan],[man_2],,,0.12560975609756098,0.7575431034482759,0.5324675324675324,0.22163865546218486,0.3424106400665004,0.37013839402917903,0.09830508474576272,1.0,0.37832086450540314,0.398773581367438
p4,Trial: 36,p4.edf,.,36,Fixation: 14072 ms,288,14072,14359,[9],11,754,1774,1057.8,298.5,5,5,36.7,37.3,42,Saccade: 14043 ms,DOWN,29,3.3,113.78,212.65,"[ 9, 99]",14043,14071,1107.8,176.6,1059.7,290.3,43,Saccade: 14360 ms,DOWN,34,1.62,47.55,126.39,[ 99],14360,14393,1058.7,303.6,1086.1,357.2,68.11,UP,3.55,A6,S6.wav,A6.png,16,6493144,task,[3],[Pronoun_ref],[880],[1110],[230],[0],[sich],[nan],[0.0],[0.0],[nan],[nan],[sie],[nan],[nan],[PRF],[nan],[man_2],,,0.17560975609756097,0.8125,0.37662337662337664,0.17331932773109243,0.37832086450540314,0.398773581367438,0.1152542372881356,1.0,0.15810473815461346,0.2370138394029179
p4,Trial: 36,p4.edf,.,37,Fixation: 14394 ms,149,14394,14542,"[3, 12]",4,804,149,1078.9,368.8,1,1,36.85,37.35,43,Saccade: 14360 ms,DOWN,34,1.62,47.55,126.39,"[ 9, 15, 99]",14360,14393,1058.7,303.6,1086.1,357.2,44,Saccade: 14543 ms,LEFT,63,11.25,178.49,471.67,"[ 7, 12, 99]",14543,14605,1078.6,369.2,680.5,444.6,106.94,UP,1.97,A6,S6.wav,A6.png,16,6493144,task,,break,,,,,,,,,,,,,,,,"[box_2, counter_1]",,,0.09085365853658536,0.8663793103448276,0.44155844155844154,0.08508403361344538,0.15810473815461346,0.2370138394029179,0.2135593220338983,1.0,0.5934829592684955,0.8845028691445074
p4,Trial: 36,p4.edf,14860,38,Fixation: 14606 ms,400,14606,15005,"[7, 12]",13,764,400,677.9,445.2,1,1,35.2,36.55,44,Saccade: 14543 ms,LEFT,63,11.25,178.49,471.67,"[ 3, 12, 99]",14543,14605,1078.6,369.2,680.5,444.6,45,Saccade: 15006 ms,RIGHT,43,6.57,152.82,278.54,"[ 3, 12, 99]",15006,15048,676.3,451.1,904.7,402.0,10.52,RIGHT,11.32,A6,S6.wav,A6.png,16,6493144,task,[4],[Determiner_1],[1505],[1672],[167],[0],[ein],[a],[0.0],[0.0],[nan],[nan],[eine],[nan],[nan],[ART],[nan],"[box_1, counter_1]",,,0.24390243902439024,0.8232758620689655,0.8181818181818182,0.5908613445378151,0.5934829592684955,0.8845028691445074,0.14576271186440679,1.0,0.5081296758104737,0.5223343209691333
p4,Trial: 36,p4.edf,.,39,Fixation: 15049 ms,152,15049,15200,[12],34,774,984,899.0,406.3,3,5,35.8,36.8,45,Saccade: 15006 ms,RIGHT,43,6.57,152.82,278.54,"[ 7, 12, 99]",15006,15048,676.3,451.1,904.7,402.0,46,Saccade: 15201 ms,DOWN,36,2.74,75.99,224.37,"[ 10, 12, 14, 99]",15201,15236,896.7,407.3,932.5,501.3,-170.34,LEFT,6.32,A6,S6.wav,A6.png,16,6493144,task,[5],[Noun_1],[1660],[2610],[950],[0],[Flaschenöffner],[bottle opener],[0.0],[1.0],[bottleopener_1],[S01_I006_E005],[Flaschenöffner],[nan],[nan],[NN],[nan],[counter_1],,,0.09268292682926829,0.834051724137931,0.5584415584415584,0.3450630252100841,0.5081296758104737,0.5223343209691333,0.12203389830508475,1.0,0.25266832917705734,0.42075160334546
p4,Trial: 36,p4.edf,.,40,Fixation: 15237 ms,168,15237,15404,"[10, 12, 14]",9,770,283,925.5,512.0,1,2,36.0,37.0,46,Saccade: 15201 ms,DOWN,36,2.74,75.99,224.37,"[ 12, 99]",15201,15236,896.7,407.3,932.5,501.3,47,Saccade: 15405 ms,RIGHT,32,1.22,38.04,106.47,"[ 5, 10, 12, 99]",15405,15436,922.9,512.7,960.0,536.9,104.45,UP,2.96,A6,S6.wav,A6.png,16,6493144,task,[5],[Noun_1],[1660],[2610],[950],[0],[Flaschenöffner],[bottle opener],[0.0],[1.0],[bottleopener_1],[S01_I006_E005],[Flaschenöffner],[nan],[nan],[NN],[nan],"[tray_1, counter_1, bottles_1]",,,0.1024390243902439,0.8297413793103449,0.4675324675324675,0.1439075630252101,0.25266832917705734,0.42075160334546,0.10847457627118644,1.0,0.12648379052369077,0.19965870307167236
p4,Trial: 36,p4.edf,.,41,Fixation: 15437 ms,115,15437,15551,"[5, 10, 12]",4,790,115,962.2,545.1,1,1,36.2,37.2,47,Saccade: 15405 ms,RIGHT,32,1.22,38.04,106.47,"[ 10, 12, 14, 99]",15405,15436,922.9,512.7,960.0,536.9,48,Saccade: 15552 ms,LEFT,77,19.04,247.24,533.26,"[ 23, 99]",15552,15628,964.2,540.3,273.4,521.0,138.73,LEFT,1.35,A6,S6.wav,A6.png,16,6493144,task,[5],[Noun_1],[1660],[2610],[950],[0],[Flaschenöffner],[bottle opener],[0.0],[1.0],[bottleopener_1],[S01_I006_E005],[Flaschenöffner],[nan],[nan],[NN],[nan],"[bottleopener_3, tray_1, counter_1]",,,0.0701219512195122,0.8512931034482759,0.4155844155844156,0.06407563025210085,0.12648379052369077,0.19965870307167236,0.26101694915254237,1.0,0.8220781379883625,1.0
p4,Trial: 36,p4.edf,.,42,Fixation: 15629 ms,145,15629,15773,[23],8,825,352,281.0,526.1,1,2,36.4,37.3,48,Saccade: 15552 ms,LEFT,77,19.04,247.24,533.26,"[ 5, 10, 12, 99]",15552,15628,964.2,540.3,273.4,521.0,49,Saccade: 15774 ms,LEFT,35,2.2,62.83,216.95,"[ 23, 99]",15774,15808,285.7,528.5,206.0,540.7,-1.56,RIGHT,18.77,A6,S6.wav,A6.png,16,6493144,task,[5],[Noun_1],[1660],[2610],[950],[0],[Flaschenöffner],[bottle opener],[0.0],[1.0],[bottleopener_1],[S01_I006_E005],[Flaschenöffner],[nan],[nan],[NN],[nan],[faucet_1],,,0.08841463414634146,0.8890086206896551,1.0,1.0,0.8220781379883625,1.0,0.11864406779661017,1.0,0.20891105569409807,0.4068371901136406
p4,Trial: 36,p4.edf,.,43,Fixation: 15809 ms,207,15809,16015,"[17, 23]",3,833,207,196.0,535.8,1,1,36.95,37.6,49,Saccade: 15774 ms,LEFT,35,2.2,62.83,216.95,"[ 23, 99]",15774,15808,285.7,528.5,206.0,540.7,50,Saccade: 16016 ms,UP,56,8.21,146.57,277.44,[ 99],16016,16071,196.2,534.6,405.8,317.9,6.38,RIGHT,2.33,A6,S6.wav,A6.png,16,6493144,task,[5],[Noun_1],[1660],[2610],[950],[0],[Flaschenöffner],[bottle opener],[0.0],[1.0],[bottleopener_1],[S01_I006_E005],[Flaschenöffner],[nan],[nan],[NN],[nan],"[mug_1, faucet_1]",,,0.12621951219512195,0.8976293103448276,0.45454545454545453,0.11554621848739498,0.20891105569409807,0.4068371901136406,0.18983050847457628,1.0,0.48734829592684953,0.5202715373363838
p4,Trial: 36,p4.edf,.,44,Fixation: 16072 ms,342,16072,16413,[],78,836,21482,407.0,316.3,45,77,35.6,36.7,50,Saccade: 16016 ms,UP,56,8.21,146.57,277.44,"[ 17, 23, 99]",16016,16071,196.2,534.6,405.8,317.9,51,Saccade: 16414 ms,RIGHT,53,15.94,300.75,516.7,"[ 5, 10, 12, 99]",16414,16466,406.2,322.8,932.4,552.5,-134.55,DOWN,8.29,A6,S6.wav,A6.png,16,6493144,task,[6],[Preposition_1],[2930],[3062],[132],[0],[auf],[on],[0.0],[0.0],[nan],[nan],[auf],[nan],[nan],[APPR],[nan],[],,,0.20853658536585365,0.9008620689655172,0.7272727272727273,0.4311974789915967,0.48734829592684953,0.5202715373363838,0.17966101694915254,1.0,1.0,0.9689457300378803
p4,Trial: 36,p4.edf,16571,45,Fixation: 16467 ms,230,16467,16696,"[5, 10, 12]",4,832,230,933.5,547.7,1,1,36.1,37.2,51,Saccade: 16414 ms,RIGHT,53,15.94,300.75,516.7,[ 99],16414,16466,406.2,322.8,932.4,552.5,52,Saccade: 16697 ms,RIGHT,22,1.25,56.99,119.87,"[ 10, 12, 99]",16697,16718,933.9,548.6,973.2,572.0,156.91,LEFT,15.97,A6,S6.wav,A6.png,16,6493144,task,[7],[Determiner_2],[3074],[3340],[266],[0],[einem],[a],[0.0],[0.0],[nan],[nan],[eine],[nan],[nan],[ART],[nan],"[bottleopener_3, tray_1, counter_1]",,,0.1402439024390244,0.896551724137931,0.6883116883116883,0.8371848739495799,1.0,0.9689457300378803,0.07457627118644068,1.0,0.18949293433083958,0.2247871582342572
p4,Trial: 36,p4.edf,.,46,Fixation: 16719 ms,420,16719,17138,"[10, 12]",9,843,820,972.1,573.5,2,3,36.3,37.4,52,Saccade: 16697 ms,RIGHT,22,1.25,56.99,119.87,"[ 5, 10, 12, 99]",16697,16718,933.9,548.6,973.2,572.0,53,Saccade: 17139 ms,UP,21,1.23,58.42,80.76,"[ 5, 10, 12, 99]",17139,17159,972.7,578.1,949.0,539.4,147.03,LEFT,1.27,A6,S6.wav,A6.png,16,6493144,task,[8],[Noun_2],[3371],[4120],[749],[0],[Kasten],[box],[0.0],[0.0],[box_1],[S01_I006_E006],[Kaste],[nan],[nan],[NN],[nan],"[tray_1, counter_1]",,,0.25609756097560976,0.9084051724137931,0.2857142857142857,0.06565126050420168,0.18949293433083958,0.2247871582342572,0.0711864406779661,1.0,0.1942477140482128,0.15144582380077262
p4,Trial: 36,p4.edf,.,47,Fixation: 17160 ms,170,17160,17329,"[5, 10, 12]",4,848,170,947.1,538.7,1,1,36.1,37.2,53,Saccade: 17139 ms,UP,21,1.23,58.42,80.76,"[ 10, 12, 99]",17139,17159,972.7,578.1,949.0,539.4,54,Saccade: 17330 ms,UP,26,3.46,133.08,266.13,"[ 3, 12, 99]",17330,17355,949.1,537.2,998.1,418.9,-53.49,DOWN,1.16,A6,S6.wav,A6.png,16,6493144,task,[8],[Noun_2],[3371],[4120],[749],[0],[Kasten],[box],[0.0],[0.0],[box_1],[S01_I006_E006],[Kaste],[nan],[nan],[NN],[nan],"[bottleopener_3, tray_1, counter_1]",,,0.10365853658536585,0.9137931034482759,0.2727272727272727,0.06460084033613446,0.1942477140482128,0.15144582380077262,0.08813559322033898,1.0,0.442493765586035,0.49906237107602297
p4,Trial: 36,p4.edf,.,48,Fixation: 17356 ms,151,17356,17506,"[3, 12]",4,857,151,996.2,423.6,1,1,36.3,37.1,54,Saccade: 17330 ms,UP,26,3.46,133.08,266.13,"[ 5, 10, 12, 99]",17330,17355,949.1,537.2,998.1,418.9,55,Saccade: 17507 ms,LEFT,56,8.27,147.6,393.12,"[ 6, 7, 12, 99]",17507,17562,994.0,424.8,698.8,438.2,-113.64,DOWN,3.38,A6,S6.wav,A6.png,16,6493144,task,[8],[Noun_2],[3371],[4120],[749],[0],[Kasten],[box],[0.0],[0.0],[box_1],[S01_I006_E006],[Kaste],[nan],[nan],[NN],[nan],"[box_2, counter_1]",,,0.09207317073170732,0.9234913793103449,0.33766233766233766,0.18172268907563024,0.442493765586035,0.49906237107602297,0.18983050847457628,1.0,0.4907730673316708,0.7372013651877133
p4,Trial: 36,p4.edf,.,49,Fixation: 17684 ms,115,17684,17798,[],78,848,21482,390.5,377.6,50,77,35.7,36.8,56,Saccade: 17626 ms,LEFT,58,8.78,151.44,414.82,"[ 7, 12, 99]",17626,17683,694.8,444.3,390.6,375.5,57,Saccade: 17799 ms,RIGHT,59,10.0,169.41,463.32,"[ 7, 12, 99]",17799,17857,389.6,379.8,736.3,457.9,-4.23,RIGHT,16.87,A6,S6.wav,A6.png,16,6493144,task,,break,,,,,,,,,,,,,,,,[],,,0.0701219512195122,0.9137931034482759,0.7532467532467533,0.4611344537815126,0.5035411471321696,0.7778944604883171,0.2,1.0,0.563291770573566,0.8688444661140907
p4,Trial: 36,p4.edf,17960,50,Fixation: 17858 ms,118,17858,17975,"[7, 12]",13,858,3241,727.9,460.5,1,6,35.3,36.6,57,Saccade: 17799 ms,RIGHT,59,10.0,169.41,463.32,[ 99],17799,17857,389.6,379.8,736.3,457.9,58,Saccade: 17976 ms,LEFT,28,0.75,26.95,100.22,"[ 7, 12, 99]",17976,18003,729.1,458.7,704.3,448.7,166.63,LEFT,9.77,A6,S6.wav,A6.png,16,6493144,task,[9],[Relative Clause Pronoun],[4450],[4595],[145],[1],[den],[that],[0.0],[0.0],[nan],[nan],[die],[nan],[nan],[PRELS],[nan],"[box_1, counter_1]",,,0.07195121951219512,0.9245689655172413,0.7662337662337663,0.5252100840336135,0.563291770573566,0.8688444661140907,0.09491525423728814,1.0,0.08960931005818785,0.18793834152195926
p4,Trial: 36,p4.edf,18525,51,Fixation: 18004 ms,690,18004,18693,"[7, 12]",13,843,3241,704.0,452.1,2,6,35.25,36.6,58,Saccade: 17976 ms,LEFT,28,0.75,26.95,100.22,"[ 7, 12, 99]",17976,18003,729.1,458.7,704.3,448.7,59,Saccade: 18694 ms,DOWN,23,1.48,64.5,107.74,"[ 7, 12, 99]",18694,18716,713.6,460.4,694.2,510.9,-18.71,RIGHT,0.72,A6,S6.wav,A6.png,16,6493144,task,[11],[Relative Clause Adverb],[4700],[5285],[585],[0],[entschlossen],[tightly],[0.0],[0.0],[nan],[nan],[entschlossen],[nan],[nan],[nan],[nan],"[box_1, counter_1]",,,0.42073170731707316,0.9084051724137931,0.36363636363636365,0.03939075630252101,0.08960931005818785,0.18793834152195926,0.07796610169491526,1.0,0.2144638403990025,0.20204028053857404
p4,Trial: 36,p4.edf,.,52,Fixation: 18717 ms,174,18717,18890,"[7, 12]",13,812,3241,698.3,507.0,3,6,35.3,36.7,59,Saccade: 18694 ms,DOWN,23,1.48,64.5,107.74,"[ 7, 12, 99]",18694,18716,713.6,460.4,694.2,510.9,60,Saccade: 18891 ms,UP,17,1.04,61.11,78.27,"[ 7, 12, 99]",18891,18907,699.1,508.3,708.5,471.5,83.84,UP,1.51,A6,S6.wav,A6.png,16,6493144,task,[12],[Relative Clause Verb],[5325],[5774],[449],[0],[greift],[grasps],[1.0],[0.0],[nan],[nan],[greifen],[nan],[nan],[VVPP],[nan],"[box_1, counter_1]",,,0.10609756097560975,0.875,0.2987012987012987,0.07773109243697479,0.2144638403990025,0.20204028053857404,0.0576271186440678,1.0,0.20319201995012467,0.14677643175936692
p4,Trial: 36,p4.edf,.,53,Fixation: 18908 ms,176,18908,19083,"[7, 12]",13,825,3241,707.8,470.4,4,6,35.3,36.6,60,Saccade: 18891 ms,UP,17,1.04,61.11,78.27,"[ 7, 12, 99]",18891,18907,699.1,508.3,708.5,471.5,61,Saccade: 19084 ms,LEFT,21,0.97,45.99,106.73,"[ 7, 12, 99]",19084,19104,707.5,470.9,680.4,449.5,-105.08,DOWN,1.03,A6,S6.wav,A6.png,16,6493144,task,[12],[Relative Clause Verb],[5325],[5774],[449],[0],[greift],[grasps],[1.0],[0.0],[nan],[nan],[greifen],[nan],[nan],[VVPP],[nan],"[box_1, counter_1]",,,0.1073170731707317,0.8890086206896551,0.22077922077922077,0.054621848739495805,0.20319201995012467,0.14677643175936692,0.0711864406779661,1.0,0.15291770573566085,0.20014627011214042
p4,Trial: 36,p4.edf,19462,54,Fixation: 19105 ms,443,19105,19547,"[7, 12]",13,854,3241,676.9,447.5,5,6,35.2,36.6,61,Saccade: 19084 ms,LEFT,21,0.97,45.99,106.73,"[ 7, 12, 99]",19084,19104,707.5,470.9,680.4,449.5,62,Saccade: 19548 ms,RIGHT,10,0.57,57.07,56.26,"[ 7, 12, 99]",19548,19557,684.3,465.4,704.4,464.5,-35.52,RIGHT,1.08,A6,S6.wav,A6.png,16,6493144,task,,break,,,,,,,,,,,,,,,,"[box_1, counter_1]",,,0.2701219512195122,0.9202586206896551,0.2727272727272727,0.050945378151260504,0.15291770573566085,0.20014627011214042,0.03389830508474576,1.0,0.18975893599334995,0.10550200652589731
p4,Trial: 36,p4.edf,.,55,Fixation: 19558 ms,1640,19558,21197,"[7, 12]",13,867,3241,703.3,451.8,6,6,35.25,36.6,62,Saccade: 19548 ms,RIGHT,10,0.57,57.07,56.26,"[ 7, 12, 99]",19548,19557,684.3,465.4,704.4,464.5,63,Saccade: 21198 ms,RIGHT,23,2.61,113.48,195.43,"[ 12, 99]",21198,21220,704.8,446.7,787.1,489.7,171.09,LEFT,0.76,A6,S6.wav,A6.png,16,6493144,post,,,,,,,,,,,,,,,,,,"[box_1, counter_1]",,,1.0,0.9342672413793104,0.12987012987012986,0.029936974789915964,0.18975893599334995,0.10550200652589731,0.07796610169491526,1.0,0.37732335827098923,0.36648164122566856
