RECORDING_SESSION_LABEL,TRIAL_LABEL,DATA_FILE,CURRENT_FIX_MSG_TIME_1,CURRENT_FIX_INDEX,CURRENT_FIX_LABEL,CURRENT_FIX_DURATION,CURRENT_FIX_START,CURRENT_FIX_END,CURRENT_FIX_INTEREST_AREAS,CURRENT_FIX_INTEREST_AREA_FIX_COUNT,CURRENT_FIX_PUPIL,CURRENT_FIX_RUN_DWELL_TIME,CURRENT_FIX_X,CURRENT_FIX_Y,CURRENT_FIX_RUN_INDEX,CURRENT_FIX_RUN_SIZE,CURRENT_FIX_X_RESOLUTION,CURRENT_FIX_Y_RESOLUTION,PREVIOUS_SAC_INDEX,PREVIOUS_SAC_LABEL,PREVIOUS_SAC_DIRECTION,PREVIOUS_SAC_DURATION,PREVIOUS_SAC_AMPLITUDE,PREVIOUS_SAC_AVG_VELOCITY,PREVIOUS_SAC_PEAK_VELOCITY,PREVIOUS_SAC_START_INTEREST_AREAS,PREVIOUS_SAC_START_TIME,PREVIOUS_SAC_END_TIME,PREVIOUS_SAC_START_X,PREVIOUS_SAC_START_Y,PREVIOUS_SAC_END_X,PREVIOUS_SAC_END_Y,NEXT_SAC_INDEX,NEXT_SAC_LABEL,NEXT_SAC_DIRECTION,NEXT_SAC_DURATION,NEXT_SAC_AMPLITUDE,NEXT_SAC_AVG_VELOCITY,NEXT_SAC_PEAK_VELOCITY,NEXT_SAC_END_INTEREST_AREAS,NEXT_SAC_START_TIME,NEXT_SAC_END_TIME,NEXT_SAC_START_X,NEXT_SAC_START_Y,NEXT_SAC_END_X,NEXT_SAC_END_Y,PREVIOUS_FIX_ANGLE,PREVIOUS_FIX_DIRECTION,PREVIOUS_FIX_DISTANCE,ItemNO,audiofilename,imagefilename,TRIAL_INDEX,TRIAL_START_TIME,viewtype,word_index,Label,word_onset,word_offset,word_duration,Continuation,wordDE,wordEN,REFWord,TargetObj,ObjectLabel,ObjectID,LemmaDE,LingIndex,DepS,pos_1,pos_2,CURRENT_FIX_INTEREST_AREAS_Labelled,PREVIOUS_SAC_START_INTEREST_AREAS_Labelled,NEXT_SAC_END_INTEREST_AREAS_Labelled,NORMALIZED_CURRENT_FIX_DURATION,NORMALIZED_CURRENT_FIX_PUPIL,NORMALIZED_PREVIOUS_SAC_DURATION,NORMALIZED_PREVIOUS_SAC_AMPLITUDE,NORMALIZED_PREVIOUS_SAC_AVG_VELOCITY,NORMALIZED_PREVIOUS_SAC_PEAK_VELOCITY,NORMALIZED_NEXT_SAC_DURATION,NORMALIZED_NEXT_SAC_AMPLITUDE,NORMALIZED_NEXT_SAC_AVG_VELOCITY,NORMALIZED_NEXT_SAC_PEAK_VELOCITY
p10,Trial: 26,p10.edf,.,1,Fixation: 4226 ms,128,4226,4353,[11],4,944,128,621.9,731.5,1,1,35.75,37.65,6,Saccade: 4184 ms,DOWN,42,4.33,103.11,276.84,[ 99],4184,4225,676.4,569.4,624.3,721.2,7,Saccade: 4354 ms,LEFT,65,15.5,238.47,628.18,"[ 3, 99]",4354,4418,623.6,731.6,222.0,325.6,-83.89,DOWN,5.28,A14,S14.wav,A14.png,14,4781973,preview,,,,,,,,,,,,,,,,,,[woman_1],,,0.2006269592476489,0.9525731584258325,0.5316455696202531,0.1766625866993064,0.3155140758873929,0.4241263615890184,0.2981651376146789,1.0,0.7297123623011016,0.6086602652920828
p10,Trial: 26,p10.edf,.,2,Fixation: 4419 ms,158,4419,4576,[3],6,937,158,224.0,335.6,1,1,36.65,37.2,7,Saccade: 4354 ms,LEFT,65,15.5,238.47,628.18,"[ 11, 99]",4354,4418,623.6,731.6,222.0,325.6,8,Saccade: 4577 ms,LEFT,29,2.22,76.56,182.21,"[ 4, 99]",4577,4605,228.0,333.7,159.9,379.8,-43.9,RIGHT,15.26,A14,S14.wav,A14.png,14,4781973,preview,,,,,,,,,,,,,,,,,,[man_2],,,0.2476489028213166,0.9455095862764884,0.8227848101265823,0.6323949408404732,0.7297123623011016,0.9623887365373124,0.13302752293577982,1.0,0.23427172582619338,0.17654810235739826
p10,Trial: 26,p10.edf,.,3,Fixation: 4606 ms,165,4606,4770,[4],7,915,520,154.7,378.7,1,2,37.15,37.5,8,Saccade: 4577 ms,LEFT,29,2.22,76.56,182.21,"[ 3, 99]",4577,4605,228.0,333.7,159.9,379.8,9,Saccade: 4771 ms,LEFT,21,0.95,45.2,86.71,"[ 4, 23, 99]",4771,4791,157.3,377.3,121.9,379.2,31.57,RIGHT,2.2,A14,S14.wav,A14.png,14,4781973,preview,,,,,,,,,,,,,,,,,,[cage_2],,,0.25862068965517243,0.9233097880928355,0.3670886075949367,0.09057527539779682,0.23427172582619338,0.279150644217364,0.0963302752293578,1.0,0.1383108935128519,0.08401561909560398
p10,Trial: 26,p10.edf,.,4,Fixation: 4792 ms,355,4792,5146,"[4, 23]",7,900,520,127.5,381.3,2,2,37.45,37.65,9,Saccade: 4771 ms,LEFT,21,0.95,45.2,86.71,"[ 4, 99]",4771,4791,157.3,377.3,121.9,379.2,10,Saccade: 5147 ms,RIGHT,23,2.33,101.25,178.17,"[ 3, 22, 99]",5147,5169,127.4,383.3,210.6,359.8,5.42,RIGHT,0.73,A14,S14.wav,A14.png,14,4781973,preview,,,,,,,,,,,,,,,,,,"[cage_2, bird_1]",,,0.5564263322884012,0.9081735620585267,0.26582278481012656,0.03875968992248061,0.1383108935128519,0.1328420633339972,0.10550458715596331,1.0,0.30982252141982863,0.17263363919114014
p10,Trial: 26,p10.edf,.,5,Fixation: 5170 ms,388,5170,5557,"[3, 22]",6,897,388,204.7,359.0,1,1,36.8,37.3,10,Saccade: 5147 ms,RIGHT,23,2.33,101.25,178.17,"[ 4, 23, 99]",5147,5169,127.4,383.3,210.6,359.8,11,Saccade: 5558 ms,LEFT,26,2.53,97.3,173.55,"[ 4, 23, 99]",5558,5583,205.9,355.7,114.7,379.1,-164.03,LEFT,2.16,A14,S14.wav,A14.png,14,4781973,preview,,,,,,,,,,,,,,,,,,"[man_2, spray_1]",,,0.6081504702194357,0.905146316851665,0.2911392405063291,0.09506323949408405,0.30982252141982863,0.27296125503653884,0.11926605504587157,1.0,0.29773561811505506,0.1681571986396272
p10,Trial: 26,p10.edf,.,6,Fixation: 5584 ms,638,5584,6221,"[4, 23]",7,898,781,120.3,381.0,1,2,37.55,37.7,11,Saccade: 5558 ms,LEFT,26,2.53,97.3,173.55,"[ 3, 22, 99]",5558,5583,205.9,355.7,114.7,379.1,12,Saccade: 6222 ms,DOWN,15,0.72,48.13,55.35,"[ 4, 23, 99]",6222,6236,111.6,381.9,120.8,407.5,14.49,RIGHT,2.34,A14,S14.wav,A14.png,14,4781973,preview,,,,,,,,,,,,,,,,,,"[cage_2, bird_1]",,,1.0,0.9061553985872856,0.3291139240506329,0.10322317421460626,0.29773561811505506,0.2658832901812388,0.06880733944954129,1.0,0.14727662178702572,0.05363008323078861
p10,Trial: 26,p10.edf,.,7,Fixation: 6237 ms,143,6237,6379,"[4, 23]",7,888,781,118.7,406.1,2,2,37.5,37.7,12,Saccade: 6222 ms,DOWN,15,0.72,48.13,55.35,"[ 4, 23, 99]",6222,6236,111.6,381.9,120.8,407.5,13,Saccade: 6380 ms,DOWN,48,6.73,140.29,340.17,"[ 6, 99]",6380,6427,117.5,407.4,125.6,663.5,86.34,UP,0.67,A14,S14.wav,A14.png,14,4781973,preview,,,,,,,,,,,,,,,,,,"[cage_2, bird_1]",,,0.22413793103448276,0.8960645812310797,0.189873417721519,0.029375764993880046,0.14727662178702572,0.08479769583135446,0.22018348623853212,1.0,0.42928396572827415,0.32959973645198487
p10,Trial: 26,p10.edf,.,8,Fixation: 6428 ms,212,6428,6639,[],81,875,19216,122.8,679.9,8,79,37.85,38.45,13,Saccade: 6380 ms,DOWN,48,6.73,140.29,340.17,"[ 4, 23, 99]",6380,6427,117.5,407.4,125.6,663.5,14,Saccade: 6640 ms,UP,59,9.07,153.65,461.96,"[ 3, 22, 99]",6640,6698,123.1,681.8,193.7,345.3,90.87,UP,7.19,A14,S14.wav,A14.png,14,4781973,preview,,,,,,,,,,,,,,,,,,[],,,0.3322884012539185,0.8829465186680121,0.6075949367088608,0.27458180334557325,0.42928396572827415,0.5211496330795276,0.2706422018348624,1.0,0.47016523867809057,0.44760529809024585
p10,Trial: 26,p10.edf,.,9,Fixation: 6699 ms,215,6699,6913,"[3, 22]",6,886,501,189.2,363.2,1,2,36.9,37.4,14,Saccade: 6640 ms,UP,59,9.07,153.65,461.96,[ 99],6640,6698,123.1,681.8,193.7,345.3,15,Saccade: 6914 ms,UP,16,0.73,45.65,61.44,"[ 3, 22, 99]",6914,6929,188.8,365.2,204.3,342.9,-102.01,DOWN,8.54,A14,S14.wav,A14.png,14,4781973,preview,,,,,,,,,,,,,,,,,,"[man_2, spray_1]",,,0.33699059561128525,0.8940464177598385,0.7468354430379747,0.37005303957568336,0.47016523867809057,0.7077352044490064,0.07339449541284404,1.0,0.13968788249694,0.05953084577596481
p10,Trial: 26,p10.edf,.,10,Fixation: 6930 ms,286,6930,7215,"[3, 22]",6,885,501,199.8,346.7,2,2,36.8,37.3,15,Saccade: 6914 ms,UP,16,0.73,45.65,61.44,"[ 3, 22, 99]",6914,6929,188.8,365.2,204.3,342.9,16,Saccade: 7216 ms,DOWN,55,8.62,156.73,346.09,"[ 6, 99]",7216,7270,200.8,348.7,140.2,669.1,-123.07,DOWN,0.53,A14,S14.wav,A14.png,14,4781973,preview,,,,,,,,,,,,,,,,,,"[man_2, spray_1]",,,0.4482758620689655,0.893037336024218,0.20253164556962025,0.02978376172990616,0.13968788249694,0.09412774041334089,0.25229357798165136,1.0,0.4795899632802937,0.3353357814876898
p10,Trial: 26,p10.edf,.,11,Fixation: 7271 ms,166,7271,7436,[],81,879,19216,140.4,686.8,11,79,37.7,38.45,16,Saccade: 7216 ms,DOWN,55,8.62,156.73,346.09,"[ 3, 22, 99]",7216,7270,200.8,348.7,140.2,669.1,17,Saccade: 7437 ms,LEFT,22,0.9,41.03,92.68,"[ 12, 99]",7437,7458,141.7,689.0,112.1,706.4,79.93,UP,9.12,A14,S14.wav,A14.png,14,4781973,preview,,,,,,,,,,,,,,,,,,[],,,0.2601880877742947,0.8869828456104945,0.6962025316455697,0.3516931864545083,0.4795899632802937,0.5302192330672713,0.10091743119266056,1.0,0.12555079559363524,0.08980011045762401
p10,Trial: 26,p10.edf,.,12,Fixation: 7459 ms,218,7459,7676,[12],1,882,218,113.0,701.1,1,1,38.0,38.7,17,Saccade: 7437 ms,LEFT,22,0.9,41.03,92.68,[ 99],7437,7458,141.7,689.0,112.1,706.4,18,Saccade: 7677 ms,RIGHT,64,13.58,212.15,548.61,"[ 11, 99]",7677,7740,115.4,707.0,613.8,760.0,27.12,RIGHT,0.81,A14,S14.wav,A14.png,14,4781973,preview,,,,,,,,,,,,,,,,,,[sticks_1],,,0.34169278996865204,0.8900100908173562,0.27848101265822783,0.03671970624235006,0.12555079559363524,0.14198826467298883,0.29357798165137616,1.0,0.6491738066095472,0.5315627815942717
p10,Trial: 26,p10.edf,.,13,Fixation: 7741 ms,156,7741,7896,[11],4,871,156,607.7,763.5,1,1,35.85,37.9,18,Saccade: 7677 ms,RIGHT,64,13.58,212.15,548.61,"[ 12, 99]",7677,7740,115.4,707.0,613.8,760.0,19,Saccade: 7897 ms,UP,65,14.75,227.0,586.04,"[ 24, 99]",7897,7961,610.4,764.9,361.3,277.9,173.07,LEFT,13.5,A14,S14.wav,A14.png,14,4781973,preview,,,,,,,,,,,,,,,,,,[woman_1],,,0.2445141065830721,0.8789101917255298,0.810126582278481,0.5540595675234598,0.6491738066095472,0.8404853461615063,0.2981651376146789,1.0,0.6946144430844553,0.5678297014737372
p10,Trial: 26,p10.edf,.,14,Fixation: 7962 ms,150,7962,8111,[24],6,854,805,360.2,292.5,1,5,35.9,36.9,19,Saccade: 7897 ms,UP,65,14.75,227.0,586.04,"[ 11, 99]",7897,7961,610.4,764.9,361.3,277.9,20,Saccade: 8112 ms,RIGHT,29,1.67,57.46,164.63,"[ 17, 24, 99]",8112,8140,354.0,289.8,413.5,286.9,-61.29,DOWN,14.36,A14,S14.wav,A14.png,14,4781973,preview,,,,,,,,,,,,,,,,,,[shelf_1],,,0.23510971786833856,0.8617558022199798,0.8227848101265823,0.6017951856385149,0.6946144430844553,0.8978291177056362,0.13302752293577982,1.0,0.17582619339045288,0.1595143740250177
p10,Trial: 26,p10.edf,.,15,Fixation: 8141 ms,225,8141,8365,"[17, 24]",2,839,348,421.2,284.7,1,2,35.6,36.7,20,Saccade: 8112 ms,RIGHT,29,1.67,57.46,164.63,"[ 24, 99]",8112,8140,354.0,289.8,413.5,286.9,21,Saccade: 8366 ms,RIGHT,11,0.51,46.08,45.83,"[ 17, 24, 99]",8366,8376,425.8,286.4,443.1,291.6,-172.92,LEFT,1.72,A14,S14.wav,A14.png,14,4781973,preview,,,,,,,,,,,,,,,,,,"[medbottles_1, shelf_1]",,,0.35266457680250785,0.8466195761856711,0.3670886075949367,0.06813545491636067,0.17582619339045288,0.25221760911862484,0.05045871559633028,1.0,0.14100367197062422,0.04440590270039823
p10,Trial: 26,p10.edf,.,16,Fixation: 8377 ms,123,8377,8499,"[17, 24]",2,835,348,438.1,292.2,2,2,35.5,36.7,21,Saccade: 8366 ms,RIGHT,11,0.51,46.08,45.83,"[ 17, 24, 99]",8366,8376,425.8,286.4,443.1,291.6,22,Saccade: 8500 ms,UP,29,3.02,104.12,191.88,"[ 19, 24, 99]",8500,8528,440.5,288.6,426.7,178.4,156.74,LEFT,0.52,A14,S14.wav,A14.png,14,4781973,preview,,,,,,,,,,,,,,,,,,"[medbottles_1, shelf_1]",,,0.19278996865203762,0.8425832492431887,0.13924050632911392,0.0208078335373317,0.14100367197062422,0.07021279855376648,0.13302752293577982,1.0,0.3186046511627907,0.18591762186673386
p10,Trial: 26,p10.edf,.,17,Fixation: 8529 ms,160,8529,8688,"[19, 24]",1,814,160,430.0,193.0,1,1,35.7,36.9,22,Saccade: 8500 ms,UP,29,3.02,104.12,191.88,"[ 17, 24, 99]",8500,8528,440.5,288.6,426.7,178.4,23,Saccade: 8689 ms,LEFT,35,5.59,159.78,293.62,"[ 20, 24, 99]",8689,8723,429.6,191.6,227.2,180.0,-85.18,DOWN,2.71,A14,S14.wav,A14.png,14,4781973,preview,,,,,,,,,,,,,,,,,,"[flower_2, shelf_1]",,,0.2507836990595611,0.8213925327951564,0.3670886075949367,0.12321501427988575,0.3186046511627907,0.29396534554869547,0.16055045871559634,1.0,0.48892288861689104,0.2844962066526496
p10,Trial: 26,p10.edf,.,18,Fixation: 8724 ms,147,8724,8870,"[20, 24]",1,800,147,230.7,178.9,1,1,36.7,37.45,23,Saccade: 8689 ms,LEFT,35,5.59,159.78,293.62,"[ 19, 24, 99]",8689,8723,429.6,191.6,227.2,180.0,24,Saccade: 8871 ms,RIGHT,53,12.88,243.0,552.49,"[ 5, 99]",8871,8923,231.4,180.7,655.3,372.1,-3.94,RIGHT,5.52,A14,S14.wav,A14.png,14,4781973,preview,,,,,,,,,,,,,,,,,,"[books_1, shelf_1]",,,0.2304075235109718,0.8072653884964682,0.4430379746835443,0.22807017543859648,0.48892288861689104,0.4498337750677922,0.24311926605504589,1.0,0.7435740514075887,0.5353222165163216
p10,Trial: 26,p10.edf,.,19,Fixation: 8924 ms,167,8924,9090,[5],12,836,167,664.6,378.7,1,1,35.2,36.5,24,Saccade: 8871 ms,RIGHT,53,12.88,243.0,552.49,"[ 20, 24, 99]",8871,8923,231.4,180.7,655.3,372.1,25,Saccade: 9091 ms,RIGHT,33,1.97,59.55,210.95,"[ 13, 99]",9091,9123,659.9,377.3,719.5,413.7,155.88,LEFT,13.22,A14,S14.wav,A14.png,14,4781973,preview,,,,,,,,,,,,,,,,,,[cage_3],,,0.2617554858934169,0.8435923309788093,0.6708860759493671,0.525499796001632,0.7435740514075887,0.8464296110183384,0.15137614678899083,1.0,0.18222154222766215,0.20439505072330366
p10,Trial: 26,p10.edf,.,20,Fixation: 9124 ms,178,9124,9301,[13],7,854,178,723.6,414.8,1,1,35.25,36.5,25,Saccade: 9091 ms,RIGHT,33,1.97,59.55,210.95,"[ 5, 99]",9091,9123,659.9,377.3,719.5,413.7,26,Saccade: 9302 ms,LEFT,18,0.64,35.59,61.41,"[ 5, 99]",9302,9319,724.1,414.4,702.3,420.5,149.44,LEFT,1.95,A14,S14.wav,A14.png,14,4781973,preview,,,,,,,,,,,,,,,,,,[dog_1],,,0.27899686520376177,0.8617558022199798,0.4177215189873418,0.08037535699714402,0.18222154222766215,0.3231811009146201,0.08256880733944955,1.0,0.1089045287637699,0.059501777980175766
p10,Trial: 26,p10.edf,.,21,Fixation: 9320 ms,392,9320,9711,[5],12,879,1213,703.2,425.4,1,5,35.2,36.5,26,Saccade: 9302 ms,LEFT,18,0.64,35.59,61.41,"[ 13, 99]",9302,9319,724.1,414.4,702.3,420.5,27,Saccade: 9712 ms,UP,9,0.51,57.02,47.65,[ 99],9712,9720,702.1,427.6,707.1,409.6,26.63,RIGHT,0.65,A14,S14.wav,A14.png,14,4781973,preview,,,,,,,,,,,,,,,,,,[cage_3],,,0.6144200626959248,0.8869828456104945,0.22784810126582278,0.026111791105671155,0.1089045287637699,0.09408177960259219,0.04128440366972477,1.0,0.17447980416156672,0.04616934897826698
p10,Trial: 26,p10.edf,.,22,Fixation: 9721 ms,137,9721,9857,[5],12,876,1213,702.3,412.3,2,5,35.2,36.5,27,Saccade: 9712 ms,UP,9,0.51,57.02,47.65,"[ 5, 99]",9712,9720,702.1,427.6,707.1,409.6,28,Saccade: 9858 ms,LEFT,40,3.69,92.21,252.08,"[ 5, 99]",9858,9897,700.2,414.3,587.7,347.1,-85.93,.,0.36,A14,S14.wav,A14.png,14,4781973,preview,,,,,,,,,,,,,,,,,,[cage_3],,,0.21473354231974923,0.8839556004036327,0.11392405063291139,0.0208078335373317,0.17447980416156672,0.07300108773918772,0.1834862385321101,1.0,0.2821603427172582,0.24424699875008482
p10,Trial: 26,p10.edf,.,23,Fixation: 9898 ms,279,9898,10176,[5],12,889,1213,578.9,338.6,3,5,35.2,36.5,28,Saccade: 9858 ms,LEFT,40,3.69,92.21,252.08,"[ 5, 99]",9858,9897,700.2,414.3,587.7,347.1,29,Saccade: 10177 ms,UP,14,0.75,53.79,60.1,"[ 5, 99]",10177,10190,578.9,344.8,587.5,318.8,-29.94,RIGHT,4.05,A14,S14.wav,A14.png,14,4781973,preview,,,,,,,,,,,,,,,,,,[cage_3],,,0.4373040752351097,0.8970736629667003,0.5063291139240507,0.15055079559363524,0.2821603427172582,0.38619337245109003,0.06422018348623854,1.0,0.16459608323133415,0.05823248423072079
p10,Trial: 26,p10.edf,.,24,Fixation: 10191 ms,162,10191,10352,[5],12,884,1213,587.6,331.1,4,5,35.2,36.5,29,Saccade: 10177 ms,UP,14,0.75,53.79,60.1,"[ 5, 99]",10177,10190,578.9,344.8,587.5,318.8,30,Saccade: 10353 ms,RIGHT,42,3.76,89.64,294.68,"[ 5, 99]",10353,10394,588.3,330.2,697.0,408.8,-140.26,.,0.32,A14,S14.wav,A14.png,14,4781973,preview,,,,,,,,,,,,,,,,,,[cage_3],,,0.25391849529780564,0.8920282542885973,0.17721518987341772,0.030599755201958383,0.16459608323133415,0.09207482419989889,0.1926605504587156,1.0,0.27429620563035495,0.28552326877052914
p10,Trial: 26,p10.edf,.,25,Fixation: 10395 ms,243,10395,10637,[5],12,854,1213,701.5,421.0,5,5,35.2,36.5,30,Saccade: 10353 ms,RIGHT,42,3.76,89.64,294.68,"[ 5, 99]",10353,10394,588.3,330.2,697.0,408.8,31,Saccade: 10638 ms,RIGHT,40,6.26,156.58,326.87,"[ 14, 99]",10638,10677,699.3,422.9,913.0,359.5,142.72,LEFT,4.07,A14,S14.wav,A14.png,14,4781973,preview,,,,,,,,,,,,,,,,,,[cage_3],,,0.38087774294670845,0.8617558022199798,0.5316455696202531,0.15340677274581802,0.27429620563035495,0.4514577237142463,0.1834862385321101,1.0,0.4791309669522644,0.3167130136521748
p10,Trial: 26,p10.edf,.,26,Fixation: 10678 ms,183,10678,10860,[14],1,845,183,905.6,357.7,1,1,35.8,36.8,31,Saccade: 10638 ms,RIGHT,40,6.26,156.58,326.87,"[ 5, 99]",10638,10677,699.3,422.9,913.0,359.5,32,Saccade: 10861 ms,RIGHT,36,5.41,150.17,328.76,"[ 10, 99]",10861,10896,903.8,352.6,1073.4,453.5,-163.28,LEFT,6.0,A14,S14.wav,A14.png,14,4781973,preview,,,,,,,,,,,,,,,,,,[chair_1],,,0.28683385579937304,0.8526740665993946,0.5063291139240507,0.25540595675234595,0.4791309669522644,0.5007736736476032,0.1651376146788991,1.0,0.459516523867809,0.3185442847868846
p10,Trial: 26,p10.edf,.,27,Fixation: 10897 ms,214,10897,11110,[10],19,856,805,1069.5,451.4,1,4,36.8,37.4,32,Saccade: 10861 ms,RIGHT,36,5.41,150.17,328.76,"[ 14, 99]",10861,10896,903.8,352.6,1073.4,453.5,33,Saccade: 11111 ms,LEFT,17,0.96,56.45,76.53,"[ 10, 99]",11111,11127,1069.0,450.0,1033.8,448.9,150.78,LEFT,5.17,A14,S14.wav,A14.png,14,4781973,preview,,,,,,,,,,,,,,,,,,[cage_1],,,0.335423197492163,0.863773965691221,0.45569620253164556,0.22072623419012646,0.459516523867809,0.5036692047247713,0.0779816513761468,1.0,0.17273561811505508,0.0741519470578546
p10,Trial: 26,p10.edf,.,28,Fixation: 11128 ms,203,11128,11330,[10],19,868,805,1039.5,454.6,2,4,36.6,37.25,33,Saccade: 11111 ms,LEFT,17,0.96,56.45,76.53,"[ 10, 99]",11111,11127,1069.0,450.0,1033.8,448.9,34,Saccade: 11331 ms,RIGHT,20,0.68,33.8,63.94,"[ 10, 99]",11331,11350,1038.5,458.1,1062.0,466.2,5.99,RIGHT,0.82,A14,S14.wav,A14.png,14,4781973,preview,,,,,,,,,,,,,,,,,,[cage_1],,,0.3181818181818182,0.875882946518668,0.21518987341772153,0.03916768665850673,0.17273561811505508,0.11724602821993779,0.09174311926605505,1.0,0.10342717258261933,0.06195316209171858
p10,Trial: 26,p10.edf,.,29,Fixation: 11351 ms,165,11351,11515,[10],19,837,805,1062.1,465.2,3,4,36.8,37.4,34,Saccade: 11331 ms,RIGHT,20,0.68,33.8,63.94,"[ 10, 99]",11331,11350,1038.5,458.1,1062.0,466.2,35,Saccade: 11516 ms,LEFT,15,0.51,34.3,52.58,"[ 10, 99]",11516,11530,1060.5,467.9,1046.4,455.1,155.24,LEFT,0.68,A14,S14.wav,A14.png,14,4781973,preview,,,,,,,,,,,,,,,,,,[cage_1],,,0.25862068965517243,0.8446014127144299,0.25316455696202533,0.0277437780497756,0.10342717258261933,0.09795780797573268,0.06880733944954129,1.0,0.10495716034271725,0.05094615675293342
p10,Trial: 26,p10.edf,.,30,Fixation: 11531 ms,223,11531,11753,[10],19,826,805,1051.7,453.2,4,4,36.7,37.3,35,Saccade: 11516 ms,LEFT,15,0.51,34.3,52.58,"[ 10, 99]",11516,11530,1060.5,467.9,1046.4,455.1,36,Saccade: 11754 ms,UP,40,3.67,91.82,246.08,"[ 2, 99]",11754,11793,1049.5,452.6,1125.8,339.0,-48.63,.,0.43,A14,S14.wav,A14.png,14,4781973,preview,,,,,,,,,,,,,,,,,,[cage_1],,,0.3495297805642633,0.8335015136226034,0.189873417721519,0.0208078335373317,0.10495716034271725,0.08055398097222434,0.1834862385321101,1.0,0.28096695226438184,0.23843343959227575
p10,Trial: 26,p10.edf,.,31,Fixation: 11794 ms,167,11794,11960,[2],6,803,167,1124.8,327.7,1,1,37.2,37.5,36,Saccade: 11754 ms,UP,40,3.67,91.82,246.08,"[ 10, 99]",11754,11793,1049.5,452.6,1125.8,339.0,37,Saccade: 11961 ms,.,6,0.27,45.8,34.02,[ 99],11961,11966,1119.6,328.3,1109.5,329.8,-120.52,DOWN,3.9,A14,S14.wav,A14.png,14,4781973,preview,,,,,,,,,,,,,,,,,,[man_1],,,0.2617554858934169,0.8102926337033299,0.5063291139240507,0.14973480212158302,0.28096695226438184,0.3770012103013497,0.027522935779816515,1.0,0.14014687882496937,0.032962880424777394
p10,Trial: 26,p10.edf,.,32,Fixation: 11967 ms,356,11967,12322,[],81,826,19216,1109.3,327.4,32,79,37.1,37.4,37,Saccade: 11961 ms,.,6,0.27,45.8,34.02,"[ 2, 99]",11961,11966,1119.6,328.3,1109.5,329.8,38,Saccade: 12323 ms,LEFT,36,5.89,163.65,294.45,"[ 8, 99]",12323,12358,1107.4,330.2,897.1,286.0,-1.1,.,0.42,A14,S14.wav,A14.png,14,4781973,preview,,,,,,,,,,,,,,,,,,[],,,0.5579937304075235,0.8335015136226034,0.0759493670886076,0.011015911872705019,0.14014687882496937,0.052119559389027625,0.1651376146788991,1.0,0.5007649938800489,0.2853004156694798
p10,Trial: 26,p10.edf,.,33,Fixation: 12359 ms,309,12359,12667,[8],2,855,309,895.7,284.9,1,1,35.8,36.8,38,Saccade: 12323 ms,LEFT,36,5.89,163.65,294.45,[ 99],12323,12358,1107.4,330.2,897.1,286.0,39,Saccade: 12668 ms,DOWN,49,6.45,131.55,361.7,"[ 10, 99]",12668,12716,894.1,285.2,1030.6,478.9,-11.06,RIGHT,5.97,A14,S14.wav,A14.png,14,4781973,preview,,,,,,,,,,,,,,,,,,[table_3],,,0.4843260188087774,0.8627648839556004,0.45569620253164556,0.24031007751937983,0.5007649938800489,0.4511053574985062,0.22477064220183487,1.0,0.4025397796817626,0.3504607245632564
p10,Trial: 26,p10.edf,.,34,Fixation: 12717 ms,296,12717,13012,[10],19,872,464,1033.1,490.5,1,2,36.6,37.3,39,Saccade: 12668 ms,DOWN,49,6.45,131.55,361.7,"[ 8, 99]",12668,12716,894.1,285.2,1030.6,478.9,40,Saccade: 13013 ms,RIGHT,24,1.83,76.3,143.16,"[ 10, 99]",13013,13036,1032.2,491.8,1097.3,474.1,124.37,UP,6.72,A14,S14.wav,A14.png,14,4781973,preview,,,,,,,,,,,,,,,,,,[cage_1],,,0.46394984326018807,0.8799192734611504,0.620253164556962,0.2631578947368421,0.4025397796817626,0.5541341749268457,0.11009174311926606,1.0,0.23347613219094246,0.13871152150532426
p10,Trial: 26,p10.edf,13118,35,Fixation: 13037 ms,168,13037,13204,[10],19,883,464,1087.6,473.3,2,2,37.0,37.5,40,Saccade: 13013 ms,RIGHT,24,1.83,76.3,143.16,"[ 10, 99]",13013,13036,1032.2,491.8,1097.3,474.1,41,Saccade: 13205 ms,UP,40,3.2,79.88,232.44,"[ 2, 99]",13205,13244,1086.6,474.4,1138.3,366.4,-162.75,LEFT,1.55,A14,S14.wav,A14.png,14,4781973,preview,,,,,,,,,,,,,,,,,,[cage_1],,,0.26332288401253917,0.8910191725529768,0.3037974683544304,0.07466340269277845,0.23347613219094246,0.21932498889280405,0.1834862385321101,1.0,0.24443084455324354,0.22521728177352313
p10,Trial: 26,p10.edf,13275,36,Fixation: 13245 ms,209,13245,13453,[2],6,868,488,1139.3,357.6,1,2,37.3,37.6,41,Saccade: 13205 ms,UP,40,3.2,79.88,232.44,"[ 10, 99]",13205,13244,1086.6,474.4,1138.3,366.4,42,Saccade: 13454 ms,DOWN,11,0.57,51.78,50.45,"[ 2, 99]",13454,13464,1138.6,359.1,1128.3,377.8,-114.31,DOWN,3.38,A14,S14.wav,A14.png,14,4781973,taskpreview,,,,,,,,,,,,,,,,,,[man_1],,,0.3275862068965517,0.875882946518668,0.5063291139240507,0.13055895552835578,0.24443084455324354,0.35610436168094006,0.05045871559633028,1.0,0.1584455324357405,0.048882343251911216
p10,Trial: 26,p10.edf,.,37,Fixation: 13465 ms,279,13465,13743,[2],6,894,488,1125.6,382.1,2,2,37.2,37.5,42,Saccade: 13454 ms,DOWN,11,0.57,51.78,50.45,"[ 2, 99]",13454,13464,1138.6,359.1,1128.3,377.8,43,Saccade: 13744 ms,LEFT,218,15.82,72.56,1032.07,"[ 11, 99]",13744,13961,1124.9,381.4,638.9,700.5,60.59,UP,0.75,A14,S14.wav,A14.png,14,4781973,task,"[1, 2]","[Adverb, Verb]","[75, 260]","[250, 750]","[175, 490]","[0, 0]","[Da, befindet]","[It, is]","[0.0, 0.0]","[0.0, 0.0]","[nan, nan]","[nan, nan]","[da, befinden]","[nan, nan]","[nan, nan]","[nan, nan]","[nan, nan]",[man_1],,,0.4373040752351097,0.9021190716448032,0.13924050632911392,0.02325581395348837,0.1584455324357405,0.07729076340906654,1.0,1.0,0.22203182374541003,1.0
p10,Trial: 26,p10.edf,.,38,Fixation: 14884 ms,175,14884,15058,[10],19,908,572,1023.1,470.1,1,3,36.5,37.25,46,Saccade: 14827 ms,RIGHT,57,9.24,162.15,466.07,"[ 5, 99]",14827,14883,700.5,425.4,1029.0,470.0,47,Saccade: 15059 ms,RIGHT,19,1.25,65.98,96.4,"[ 10, 99]",15059,15077,1020.8,473.8,1055.2,442.9,40.25,RIGHT,3.64,A14,S14.wav,A14.png,14,4781973,task,[5],[Noun_1],[1286],[1857],[571],[0],[Käfig],[cage],[0.0],[1.0],[cage_1],[S01_I014_E009],[Käfig],[nan],[nan],[nan],[nan],[cage_1],,,0.274294670846395,0.9162462159434914,0.7215189873417721,0.37698898408812725,0.4961750305997552,0.7140318355215786,0.0871559633027523,1.0,0.20189718482252142,0.09340451713546563
p10,Trial: 26,p10.edf,.,39,Fixation: 15078 ms,255,15078,15332,[10],19,897,572,1050.2,444.8,2,3,36.7,37.3,47,Saccade: 15059 ms,RIGHT,19,1.25,65.98,96.4,"[ 10, 99]",15059,15077,1020.8,473.8,1055.2,442.9,48,Saccade: 15333 ms,LEFT,22,1.68,76.48,127.56,"[ 10, 99]",15333,15354,1052.3,446.8,990.9,448.0,-137.49,LEFT,1.0,A14,S14.wav,A14.png,14,4781973,task,[5],[Noun_1],[1286],[1857],[571],[0],[Käfig],[cage],[0.0],[1.0],[cage_1],[S01_I014_E009],[Käfig],[nan],[nan],[nan],[nan],[cage_1],,,0.3996865203761755,0.905146316851665,0.24050632911392406,0.05099959200326397,0.20189718482252142,0.14768740520582785,0.10091743119266056,1.0,0.23402692778457773,0.12359626769502069
p10,Trial: 26,p10.edf,.,40,Fixation: 15355 ms,142,15355,15496,[10],19,870,572,994.1,449.8,3,3,36.3,37.1,48,Saccade: 15333 ms,LEFT,22,1.68,76.48,127.56,"[ 10, 99]",15333,15354,1052.3,446.8,990.9,448.0,49,Saccade: 15497 ms,LEFT,67,20.39,304.4,568.22,"[ 3, 99]",15497,15563,992.0,452.9,255.2,369.3,5.0,RIGHT,1.54,A14,S14.wav,A14.png,14,4781973,task,,break,,,,,,,,,,,,,,,,[cage_1],,,0.2225705329153605,0.8779011099899092,0.27848101265822783,0.06854345165238677,0.23402692778457773,0.19542536730347923,0.3073394495412844,1.0,0.9314565483476132,0.5505634307750444
p10,Trial: 26,p10.edf,.,41,Fixation: 15564 ms,149,15564,15712,[3],6,933,149,240.3,365.8,1,1,36.5,37.15,49,Saccade: 15497 ms,LEFT,67,20.39,304.4,568.22,"[ 10, 99]",15497,15563,992.0,452.9,255.2,369.3,50,Saccade: 15713 ms,LEFT,27,2.95,109.3,207.12,"[ 4, 23, 99]",15713,15739,241.6,364.5,133.4,378.2,-6.24,RIGHT,20.83,A14,S14.wav,A14.png,14,4781973,task,[6],[Preposition_1],[2250],[2350],[100],[0],[auf],[on],[0.0],[0.0],[nan],[nan],[auf],[nan],[nan],[nan],[nan],[man_2],,,0.2335423197492163,0.941473259334006,0.8481012658227848,0.8319053447572419,0.9314565483476132,0.8705283961209076,0.12385321100917432,1.0,0.3344553243574051,0.2006840621275689
p10,Trial: 26,p10.edf,.,42,Fixation: 15740 ms,121,15740,15860,[4],7,950,121,140.5,382.4,1,1,37.35,37.6,50,Saccade: 15713 ms,LEFT,27,2.95,109.3,207.12,"[ 3, 99]",15713,15739,241.6,364.5,133.4,378.2,51,Saccade: 15861 ms,RIGHT,205,26.25,128.06,800.86,[ 99],15861,16065,138.5,381.2,1114.9,435.8,9.33,RIGHT,2.74,A14,S14.wav,A14.png,14,4781973,task,[7],[Determiner_2],[2400],[2642],[242],[0],[einem],[a],[0.0],[0.0],[nan],[nan],[eine],[nan],[nan],[nan],[nan],[cage_2],,,0.1896551724137931,0.958627648839556,0.34177215189873417,0.12035903712770298,0.3344553243574051,0.3173134374090359,0.9403669724770642,1.0,0.3918604651162791,0.7759744978538278
p10,Trial: 26,p10.edf,16390,43,Fixation: 16206 ms,233,16206,16438,[10],19,959,2263,1023.6,454.4,1,7,36.5,37.2,52,Saccade: 16183 ms,LEFT,23,2.14,93.21,161.14,"[ 10, 99]",16183,16205,1104.3,443.8,1025.7,450.7,53,Saccade: 16439 ms,LEFT,22,1.23,56.02,112.38,"[ 10, 99]",16439,16460,1019.8,456.1,975.0,456.0,175.4,LEFT,23.99,A14,S14.wav,A14.png,14,4781973,task,[8],[Adj_2],[2670],[3180],[510],[0],[kleinen],[small],[0.0],[0.0],[nan],[nan],[klein],[nan],[nan],[nan],[nan],[cage_1],,,0.3652037617554859,0.9677093844601413,0.2911392405063291,0.08731130150958792,0.2852203182374541,0.24687083480152588,0.10091743119266056,1.0,0.17141982864137087,0.10888796302576376
p10,Trial: 26,p10.edf,.,44,Fixation: 16461 ms,402,16461,16862,[10],19,948,2263,978.4,466.2,2,7,36.2,37.1,53,Saccade: 16439 ms,LEFT,22,1.23,56.02,112.38,"[ 10, 99]",16439,16460,1019.8,456.1,975.0,456.0,54,Saccade: 16863 ms,UP,10,0.51,50.82,47.08,[ 99],16863,16872,976.8,473.6,968.3,456.9,14.33,RIGHT,1.28,A14,S14.wav,A14.png,14,4781973,task,[9],[Noun_2],[3190],[3580],[390],[0],[Tisch],[table],[0.0],[0.0],[table_1],[S01_I014_E006],[Tisch],[nan],[nan],[nan],[nan],[cage_1],,,0.6300940438871473,0.9566094853683148,0.27848101265822783,0.050183598531211744,0.17141982864137087,0.1721691970646362,0.045871559633027525,1.0,0.1555079559363525,0.04561706085827512
p10,Trial: 26,p10.edf,.,45,Fixation: 16873 ms,413,16873,17285,[10],19,912,2263,972.2,462.0,3,7,36.15,37.05,54,Saccade: 16863 ms,UP,10,0.51,50.82,47.08,"[ 10, 99]",16863,16872,976.8,473.6,968.3,456.9,55,Saccade: 17286 ms,RIGHT,24,2.22,92.57,171.21,"[ 10, 99]",17286,17309,975.2,462.5,1054.8,447.3,-33.46,.,0.21,A14,S14.wav,A14.png,14,4781973,task,,break,,,,,,,,,,,,,,,,[cage_1],,,0.6473354231974922,0.9202825428859738,0.12658227848101267,0.0208078335373317,0.1555079559363525,0.07212783233496238,0.11009174311926606,1.0,0.28326193390452875,0.16588991056808164
p10,Trial: 26,p10.edf,17442,46,Fixation: 17310 ms,464,17310,17773,[10],19,929,2263,1046.4,449.9,4,7,36.65,37.3,55,Saccade: 17286 ms,RIGHT,24,2.22,92.57,171.21,"[ 10, 99]",17286,17309,975.2,462.5,1054.8,447.3,56,Saccade: 17774 ms,LEFT,23,1.96,85.42,134.59,"[ 10, 99]",17774,17796,1046.7,449.6,975.2,451.1,-170.93,LEFT,2.06,A14,S14.wav,A14.png,14,4781973,task,"[10, 11, 12]","[Relative Clause Pronoun, Relative Clause Pers. Pronoun, Relative Clause Adverb]","[3930, 4100, 4242]","[4100, 4170, 4700]","[170, 70, 458]","[0, 0, 0]","[den, er, achtsam]","[that, he, carefully]","[0.0, 0.0, 0.0]","[0.0, 0.0, 0.0]","[nan, man_1, nan]","[nan, S01_I014_E001, nan]","[die, er, achtsam]","[nan, nan, nan]","[nan, nan, nan]","[nan, nan, nan]","[nan, nan, nan]",[cage_1],,,0.7272727272727273,0.9374369323915237,0.3037974683544304,0.09057527539779682,0.28326193390452875,0.2622983469428401,0.10550458715596331,1.0,0.2613831089351285,0.1304078211749203
p10,Trial: 26,p10.edf,17920,47,Fixation: 17797 ms,266,17797,18062,[10],19,946,2263,980.3,449.5,5,7,36.2,37.1,56,Saccade: 17774 ms,LEFT,23,1.96,85.42,134.59,"[ 10, 99]",17774,17796,1046.7,449.6,975.2,451.1,57,Saccade: 18063 ms,RIGHT,24,2.13,88.78,168.46,"[ 10, 99]",18063,18086,978.3,451.5,1055.9,454.7,-0.34,RIGHT,1.81,A14,S14.wav,A14.png,14,4781973,task,[12],[Relative Clause Adverb],[4242],[4700],[458],[0],[achtsam],[carefully],[0.0],[0.0],[nan],[nan],[achtsam],[nan],[nan],[nan],[nan],[cage_1],,,0.4169278996865204,0.9545913218970736,0.2911392405063291,0.0799673602611179,0.2613831089351285,0.206195517288925,0.11009174311926606,1.0,0.2716646266829865,0.1632253626207525
p10,Trial: 26,p10.edf,.,48,Fixation: 18087 ms,246,18087,18332,[10],19,944,2263,1050.1,449.9,6,7,36.7,37.3,57,Saccade: 18063 ms,RIGHT,24,2.13,88.78,168.46,"[ 10, 99]",18063,18086,978.3,451.5,1055.9,454.7,58,Saccade: 18333 ms,DOWN,20,1.29,64.65,102.92,"[ 10, 99]",18333,18352,1049.9,449.7,1080.3,486.9,179.68,LEFT,1.91,A14,S14.wav,A14.png,14,4781973,task,[13],[Relative Clause Verb],[4720],[5120],[400],[0],[trägt],[moves],[1.0],[0.0],[nan],[nan],[tragen],[nan],[nan],[nan],[nan],[cage_1],,,0.38557993730407525,0.9525731584258325,0.3037974683544304,0.0869033047735618,0.2716646266829865,0.2580852726242091,0.09174311926605505,1.0,0.19782741738066095,0.09972191808695148
p10,Trial: 26,p10.edf,.,49,Fixation: 18353 ms,239,18353,18591,[10],19,959,2263,1073.4,482.2,7,7,36.9,37.5,58,Saccade: 18333 ms,DOWN,20,1.29,64.65,102.92,"[ 10, 99]",18333,18352,1049.9,449.7,1080.3,486.9,59,Saccade: 18592 ms,LEFT,75,24.51,326.8,595.3,[ 99],18592,18666,1073.4,485.9,172.6,379.8,126.25,UP,1.07,A14,S14.wav,A14.png,14,4781973,task,[13],[Relative Clause Verb],[4720],[5120],[400],[0],[trägt],[moves],[1.0],[0.0],[nan],[nan],[tragen],[nan],[nan],[nan],[nan],[cage_1],,,0.37460815047021945,0.9677093844601413,0.25316455696202533,0.05263157894736842,0.19782741738066095,0.15767622140854565,0.3440366972477064,1.0,1.0,0.5768019611072892
p10,Trial: 26,p10.edf,18990,50,Fixation: 18667 ms,383,18667,19049,[4],7,991,383,157.1,388.7,1,1,37.15,37.45,59,Saccade: 18592 ms,LEFT,75,24.51,326.8,595.3,"[ 10, 99]",18592,18666,1073.4,485.9,172.6,379.8,60,Saccade: 19050 ms,RIGHT,79,24.33,307.91,652.73,"[ 10, 99]",19050,19128,157.9,396.5,1047.2,528.9,-5.76,RIGHT,24.87,A14,S14.wav,A14.png,14,4781973,post,,,,,,,,,,,,,,,,,,[cage_2],,,0.6003134796238244,1.0,0.9493670886075949,1.0,1.0,0.9120156879567355,0.3623853211009174,1.0,0.9421970624235007,0.632447411512785
p10,Trial: 26,p10.edf,.,51,Fixation: 19129 ms,214,19129,19342,[10],19,935,214,1034.5,536.9,1,1,36.65,37.45,60,Saccade: 19050 ms,RIGHT,79,24.33,307.91,652.73,"[ 4, 99]",19050,19128,157.9,396.5,1047.2,528.9,61,Saccade: 19343 ms,RIGHT,24,1.75,73.07,156.64,"[ 2, 99]",19343,19366,1030.1,540.9,1094.6,536.9,170.55,LEFT,24.1,A14,S14.wav,A14.png,14,4781973,post,,,,,,,,,,,,,,,,,,[cage_1],,,0.335423197492163,0.9434914228052472,1.0,0.9926560587515298,0.9421970624235007,1.0,0.11009174311926606,1.0,0.2235924112607099,0.15177265107986862
