RECORDING_SESSION_LABEL,TRIAL_LABEL,DATA_FILE,CURRENT_FIX_MSG_TIME_1,CURRENT_FIX_INDEX,CURRENT_FIX_LABEL,CURRENT_FIX_DURATION,CURRENT_FIX_START,CURRENT_FIX_END,CURRENT_FIX_INTEREST_AREAS,CURRENT_FIX_INTEREST_AREA_FIX_COUNT,CURRENT_FIX_PUPIL,CURRENT_FIX_RUN_DWELL_TIME,CURRENT_FIX_X,CURRENT_FIX_Y,CURRENT_FIX_RUN_INDEX,CURRENT_FIX_RUN_SIZE,CURRENT_FIX_X_RESOLUTION,CURRENT_FIX_Y_RESOLUTION,PREVIOUS_SAC_INDEX,PREVIOUS_SAC_LABEL,PREVIOUS_SAC_DIRECTION,PREVIOUS_SAC_DURATION,PREVIOUS_SAC_AMPLITUDE,PREVIOUS_SAC_AVG_VELOCITY,PREVIOUS_SAC_PEAK_VELOCITY,PREVIOUS_SAC_START_INTEREST_AREAS,PREVIOUS_SAC_START_TIME,PREVIOUS_SAC_END_TIME,PREVIOUS_SAC_START_X,PREVIOUS_SAC_START_Y,PREVIOUS_SAC_END_X,PREVIOUS_SAC_END_Y,NEXT_SAC_INDEX,NEXT_SAC_LABEL,NEXT_SAC_DIRECTION,NEXT_SAC_DURATION,NEXT_SAC_AMPLITUDE,NEXT_SAC_AVG_VELOCITY,NEXT_SAC_PEAK_VELOCITY,NEXT_SAC_END_INTEREST_AREAS,NEXT_SAC_START_TIME,NEXT_SAC_END_TIME,NEXT_SAC_START_X,NEXT_SAC_START_Y,NEXT_SAC_END_X,NEXT_SAC_END_Y,PREVIOUS_FIX_ANGLE,PREVIOUS_FIX_DIRECTION,PREVIOUS_FIX_DISTANCE,ItemNO,audiofilename,imagefilename,TRIAL_INDEX,TRIAL_START_TIME,viewtype,word_index,Label,word_onset,word_offset,word_duration,Continuation,wordDE,wordEN,REFWord,TargetObj,ObjectLabel,ObjectID,LemmaDE,LingIndex,DepS,pos_1,pos_2,CURRENT_FIX_INTEREST_AREAS_Labelled,PREVIOUS_SAC_START_INTEREST_AREAS_Labelled,NEXT_SAC_END_INTEREST_AREAS_Labelled,NORMALIZED_CURRENT_FIX_DURATION,NORMALIZED_CURRENT_FIX_PUPIL,NORMALIZED_PREVIOUS_SAC_DURATION,NORMALIZED_PREVIOUS_SAC_AMPLITUDE,NORMALIZED_PREVIOUS_SAC_AVG_VELOCITY,NORMALIZED_PREVIOUS_SAC_PEAK_VELOCITY,NORMALIZED_NEXT_SAC_DURATION,NORMALIZED_NEXT_SAC_AMPLITUDE,NORMALIZED_NEXT_SAC_AVG_VELOCITY,NORMALIZED_NEXT_SAC_PEAK_VELOCITY
p9,Trial: 11,p9.edf,.,1,Fixation: 3468 ms,132,3468,3599,[],54,1298,20345,581.7,550.9,1,51,35.4,36.8,5,Saccade: 3397 ms,LEFT,71,13.05,183.83,426.04,[ ],3397,3467,927.8,880.3,573.9,551.7,6,Saccade: 3600 ms,UP,56,5.36,95.75,240.04,"[ 9, 99]",3600,3655,580.3,549.6,627.9,359.4,-42.93,RIGHT,12.41,A24,S24.wav,A24.png,6,912945,preview,,,,,,,,,,,,,,,,,,[],,,0.04918032786885246,0.9495245062179956,0.922077922077922,0.7077006507592191,0.6437977166071304,0.7351601325234678,0.19112627986348124,1.0,0.33532955102612594,0.1396767023170831
p9,Trial: 11,p9.edf,.,2,Fixation: 3656 ms,284,3656,3939,[9],6,1367,284,628.2,349.4,1,1,35.2,36.5,6,Saccade: 3600 ms,UP,56,5.36,95.75,240.04,[ 99],3600,3655,580.3,549.6,627.9,359.4,7,Saccade: 3940 ms,LEFT,25,2.14,85.59,154.76,"[ 12, 15, 99]",3940,3964,625.6,350.7,550.3,352.6,-103.47,DOWN,5.65,A24,S24.wav,A24.png,6,912945,preview,,,,,,,,,,,,,,,,,,[woman_1],,,0.10581222056631892,1.0,0.7272727272727273,0.29067245119305857,0.33532955102612594,0.41420485919381556,0.08532423208191127,1.0,0.29974784618617356,0.09005318468001908
p9,Trial: 11,p9.edf,.,3,Fixation: 3965 ms,99,3965,4063,"[12, 15]",3,1304,99,560.9,352.8,1,1,35.2,36.5,7,Saccade: 3940 ms,LEFT,25,2.14,85.59,154.76,"[ 9, 99]",3940,3964,625.6,350.7,550.3,352.6,8,Saccade: 4064 ms,LEFT,293,15.7,53.57,1718.54,[ ],4064,4356,563.2,361.9,-9.6,463.5,2.79,RIGHT,1.91,A24,S24.wav,A24.png,6,912945,preview,,,,,,,,,,,,,,,,,,"[box_1, cabinet_1]",,,0.036885245901639344,0.9539136795903438,0.3246753246753247,0.11605206073752711,0.29974784618617356,0.2670485919381557,1.0,1.0,0.18760944175947328,1.0
p9,Trial: 11,p9.edf,.,4,Fixation: 4412 ms,492,4412,4903,[5],9,1212,492,134.8,502.2,1,1,37.55,37.85,9,Saccade: 4383 ms,RIGHT,29,4.07,140.25,280.44,[ ],4383,4411,-16.9,518.5,137.9,505.2,10,Saccade: 4904 ms,RIGHT,63,14.87,235.98,517.56,"[ 4, 99]",4904,4966,121.3,516.2,600.2,788.1,18.94,RIGHT,12.38,A24,S24.wav,A24.png,6,912945,preview,,,,,,,,,,,,,,,,,,[kid_1],,,0.18330849478390462,0.8866130212143379,0.37662337662337664,0.22071583514099782,0.49117461651607475,0.48391772501380453,0.2150170648464164,1.0,0.8264341248161378,0.3011626147776601
p9,Trial: 11,p9.edf,.,5,Fixation: 4967 ms,377,4967,5343,[4],6,1062,377,602.4,801.9,1,1,35.95,38.1,10,Saccade: 4904 ms,RIGHT,63,14.87,235.98,517.56,"[ 5, 99]",4904,4966,121.3,516.2,600.2,788.1,11,Saccade: 5344 ms,LEFT,66,12.66,191.8,485.54,"[ 10, 99]",5344,5409,596.8,796.6,180.8,585.1,148.19,LEFT,14.97,A24,S24.wav,A24.png,6,912945,preview,,,,,,,,,,,,,,,,,,[man_1],,,0.14046199701937406,0.7768836869056328,0.8181818181818182,0.8063991323210411,0.8264341248161378,0.8930839315295416,0.22525597269624573,1.0,0.6717097429431953,0.2825305200926368
p9,Trial: 11,p9.edf,.,6,Fixation: 5410 ms,123,5410,5532,[5],9,1179,881,174.0,584.1,1,3,37.25,37.85,11,Saccade: 5344 ms,LEFT,66,12.66,191.8,485.54,"[ 4, 99]",5344,5409,596.8,796.6,180.8,585.1,12,Saccade: 5533 ms,UP,22,1.93,87.79,137.28,"[ 5, 99]",5533,5554,172.5,583.4,130.7,523.7,-26.1,RIGHT,13.03,A24,S24.wav,A24.png,6,912945,preview,,,,,,,,,,,,,,,,,,[kid_1],,,0.045827123695976156,0.8624725676664228,0.8571428571428571,0.6865509761388285,0.6717097429431953,0.8378313086692436,0.07508532423208192,1.0,0.3074525460530924,0.07988176009868843
p9,Trial: 11,p9.edf,.,7,Fixation: 5555 ms,146,5555,5700,[5],9,1216,881,129.7,521.9,2,3,37.55,37.9,12,Saccade: 5533 ms,UP,22,1.93,87.79,137.28,"[ 5, 99]",5533,5554,172.5,583.4,130.7,523.7,13,Saccade: 5701 ms,UP,12,0.64,53.28,58.8,"[ 5, 99]",5701,5712,124.4,516.4,124.7,492.2,-54.2,DOWN,2.02,A24,S24.wav,A24.png,6,912945,preview,,,,,,,,,,,,,,,,,,[kid_1],,,0.05439642324888227,0.8895391367959035,0.2857142857142857,0.1046637744034707,0.3074525460530924,0.236885698509111,0.040955631399317405,1.0,0.18659382223156123,0.0342150895527599
p9,Trial: 11,p9.edf,.,8,Fixation: 5713 ms,612,5713,6324,[5],9,1126,881,136.9,503.3,3,3,37.5,37.8,13,Saccade: 5701 ms,UP,12,0.64,53.28,58.8,"[ 5, 99]",5701,5712,124.4,516.4,124.7,492.2,14,Saccade: 6325 ms,RIGHT,30,3.94,131.36,252.69,"[ 10, 99]",6325,6354,133.9,508.7,274.3,548.7,-111.33,DOWN,0.53,A24,S24.wav,A24.png,6,912945,preview,,,,,,,,,,,,,,,,,,[kid_1],,,0.22801788375558868,0.8237015362106803,0.15584415584415584,0.03470715835140998,0.18659382223156123,0.1014632799558255,0.10238907849829351,1.0,0.4600406247811165,0.14703760168515134
p9,Trial: 11,p9.edf,.,9,Fixation: 6355 ms,160,6355,6514,[10],5,1039,298,282.5,558.0,1,2,36.45,37.4,14,Saccade: 6325 ms,RIGHT,30,3.94,131.36,252.69,"[ 5, 99]",6325,6354,133.9,508.7,274.3,548.7,15,Saccade: 6515 ms,DOWN,20,1.43,71.71,101.5,"[ 10, 99]",6515,6534,282.2,556.5,248.5,597.7,159.72,LEFT,4.2,A24,S24.wav,A24.png,6,912945,preview,,,,,,,,,,,,,,,,,,[radio_1],,,0.05961251862891207,0.7600585223116313,0.38961038961038963,0.21366594360086766,0.4600406247811165,0.43603326891220323,0.06825938566552901,1.0,0.2511381942985221,0.059061761727978404
p9,Trial: 11,p9.edf,.,10,Fixation: 6535 ms,138,6535,6672,[10],5,1029,298,256.9,589.3,2,2,36.65,37.6,15,Saccade: 6515 ms,DOWN,20,1.43,71.71,101.5,"[ 10, 99]",6515,6534,282.2,556.5,248.5,597.7,16,Saccade: 6673 ms,LEFT,26,3.41,131.11,222.59,"[ 5, 99]",6673,6698,259.5,587.4,143.1,537.9,50.0,UP,1.09,A24,S24.wav,A24.png,6,912945,preview,,,,,,,,,,,,,,,,,,[radio_1],,,0.05141579731743666,0.7527432333577176,0.2597402597402597,0.07754880694143167,0.2511381942985221,0.17514494754279405,0.08873720136518772,1.0,0.4591650907053303,0.1295227344140957
p9,Trial: 11,p9.edf,.,11,Fixation: 6699 ms,272,6699,6970,[5],9,1032,272,136.4,525.0,1,1,37.45,37.8,16,Saccade: 6673 ms,LEFT,26,3.41,131.11,222.59,"[ 10, 99]",6673,6698,259.5,587.4,143.1,537.9,17,Saccade: 6971 ms,RIGHT,62,17.7,285.54,474.65,"[ 28, 99]",6971,7032,132.4,527.1,750.3,340.2,-27.67,RIGHT,3.67,A24,S24.wav,A24.png,6,912945,preview,,,,,,,,,,,,,,,,,,[kid_1],,,0.10134128166915052,0.7549378200438918,0.33766233766233766,0.18492407809110628,0.4591650907053303,0.38409373274434017,0.21160409556313994,1.0,1.0,0.2761937458540389
p9,Trial: 11,p9.edf,.,12,Fixation: 7033 ms,2684,7033,9716,[],54,1007,20345,736.8,314.9,12,51,35.3,36.5,17,Saccade: 6971 ms,RIGHT,62,17.7,285.54,474.65,"[ 5, 99]",6971,7032,132.4,527.1,750.3,340.2,18,Saccade: 9717 ms,DOWN,221,3.04,13.75,1519.75,"[ 28, 99]",9717,9937,734.5,293.6,761.7,401.0,-161.09,LEFT,17.45,A24,S24.wav,A24.png,6,912945,preview,,,,,,,,,,,,,,,,,,[],,,1.0,0.7366495976591075,0.8051948051948052,0.9598698481561821,1.0,0.819039895085588,0.7542662116040956,1.0,0.04815437416824263,0.8843262304048786
p9,Trial: 11,p9.edf,13199,13,Fixation: 11857 ms,2063,11857,13919,[28],6,1207,2063,769.1,530.9,1,1,35.45,36.8,19,Saccade: 11830 ms,DOWN,27,3.83,141.92,273.76,"[ 28, 99]",11830,11856,749.1,394.6,786.8,529.5,20,Saccade: 13920 ms,LEFT,47,5.63,119.86,222.99,[ 99],13920,13966,759.6,541.6,614.7,400.2,98.81,UP,5.96,A24,S24.wav,A24.png,6,912945,preview,"[1, 2]","[Adverb, Verb]","[110, 290]","[250, 830]","[140, 540]","[0, 0]","[Da, befindet]","[It, is]","[0.0, 0.0]","[0.0, 0.0]","[nan, nan]","[nan, nan]","[da, befinden]","[nan, nan]","[nan, nan]","[nan, nan]","[nan, nan]",[shelves_1],,,0.768628912071535,0.8829553767373811,0.35064935064935066,0.2077006507592191,0.4970231841423267,0.47239094422970734,0.16040955631399317,1.0,0.41976605729494987,0.12975549012533896
p9,Trial: 11,p9.edf,.,14,Fixation: 13967 ms,178,13967,14144,[9],6,1108,178,624.9,403.8,1,1,35.2,36.5,20,Saccade: 13920 ms,LEFT,47,5.63,119.86,222.99,"[ 28, 99]",13920,13966,759.6,541.6,614.7,400.2,21,Saccade: 14145 ms,LEFT,24,1.73,71.96,127.31,"[ 7, 15, 99]",14145,14168,626.3,405.4,573.2,374.7,-40.35,RIGHT,5.36,A24,S24.wav,A24.png,6,912945,task,[2],[Verb],[290],[830],[540],[0],[befindet],[is],[0.0],[0.0],[nan],[nan],[befinden],[nan],[nan],[nan],[nan],[woman_1],,,0.06631892697466468,0.8105340160936357,0.6103896103896104,0.3053145336225596,0.41976605729494987,0.3847839591385975,0.08191126279863481,1.0,0.2520137283743083,0.07408032399595005
p9,Trial: 11,p9.edf,14790,15,Fixation: 14169 ms,1250,14169,15418,[15],6,1015,1250,585.6,367.5,1,1,35.2,36.5,21,Saccade: 14145 ms,LEFT,24,1.73,71.96,127.31,"[ 9, 99]",14145,14168,626.3,405.4,573.2,374.7,22,Saccade: 15419 ms,RIGHT,52,8.3,159.52,354.19,"[ 27, 28, 99]",15419,15470,590.3,363.3,828.1,541.9,-41.69,RIGHT,1.5,A24,S24.wav,A24.png,6,912945,task,"[2, 3, 4, 5]","[Verb, Pronoun_ref, Determiner_1, Noun_1]","[290, 920, 1430, 1590]","[830, 1250, 1705, 2350]","[540, 330, 275, 760]","[0, 0, 0, 0]","[befindet, sich, ein, Radio]","[is, nan, a, radio]","[0.0, 0.0, 0.0, 0.0]","[0.0, 0.0, 0.0, 0.0]","[nan, nan, nan, radio_1]","[nan, nan, nan, S01_I024_E009]","[befinden, sie, eine, Radio]","[nan, nan, nan, nan]","[nan, nan, nan, nan]","[nan, nan, nan, nan]","[nan, nan, nan, nan]",[cabinet_1],,,0.46572280178837555,0.7425018288222385,0.3116883116883117,0.0938177874186551,0.2520137283743083,0.2196818056322474,0.17747440273037543,1.0,0.5586607830776774,0.20609936341312976
p9,Trial: 11,p9.edf,.,16,Fixation: 15471 ms,323,15471,15793,[28],6,1142,323,836.4,532.7,1,1,35.6,36.9,22,Saccade: 15419 ms,RIGHT,52,8.3,159.52,354.19,"[ 15, 99]",15419,15470,590.3,363.3,828.1,541.9,23,Saccade: 15794 ms,LEFT,52,7.98,153.56,379.77,[ 99],15794,15845,838.8,529.3,604.5,698.0,147.57,LEFT,8.39,A24,S24.wav,A24.png,6,912945,task,[5],[Noun_1],[1590],[2350],[760],[0],[Radio],[radio],[0.0],[0.0],[radio_1],[S01_I024_E009],[Radio],[nan],[nan],[nan],[nan],[shelves_1],,,0.12034277198211625,0.8354059985369422,0.6753246753246753,0.45010845986984815,0.5586607830776774,0.6111782164549973,0.17747440273037543,1.0,0.5377880507109336,0.22098409114713652
p9,Trial: 11,p9.edf,16380,17,Fixation: 15846 ms,618,15846,16463,[],54,1151,20345,591.6,707.3,17,51,35.7,37.5,23,Saccade: 15794 ms,LEFT,52,7.98,153.56,379.77,"[ 28, 99]",15794,15845,838.8,529.3,604.5,698.0,24,Saccade: 16464 ms,RIGHT,65,13.86,213.25,324.79,"[ 31, 99]",16464,16528,583.6,705.7,1085.4,644.6,34.35,RIGHT,8.32,A24,S24.wav,A24.png,6,912945,task,[6],[Preposition_1],[2680],[2820],[140],[0],[auf],[on],[0.0],[0.0],[nan],[nan],[auf],[nan],[nan],[nan],[nan],[],,,0.23025335320417287,0.8419897585954645,0.6753246753246753,0.43275488069414314,0.5377880507109336,0.6553181943677526,0.22184300341296928,1.0,0.7468305666456538,0.18899181863674983
p9,Trial: 11,p9.edf,.,18,Fixation: 16529 ms,241,16529,16769,"[8, 31]",1,1139,241,1069.6,645.8,1,1,37.15,38.0,24,Saccade: 16464 ms,RIGHT,65,13.86,213.25,324.79,[ 99],16464,16528,583.6,705.7,1085.4,644.6,25,Saccade: 16770 ms,LEFT,59,10.68,181.04,507.46,[ 99],16770,16828,1070.3,643.2,682.6,648.2,-172.92,LEFT,13.22,A24,S24.wav,A24.png,6,912945,task,[7],[Determiner_2],[2870],[3100],[230],[0],[einem],[a],[0.0],[0.0],[nan],[nan],[eine],[nan],[nan],[nan],[nan],"[pillow_3, sidetable_1]",,,0.0897913561847988,0.8332114118507681,0.8441558441558441,0.7516268980477223,0.7468305666456538,0.5604465764770845,0.20136518771331058,1.0,0.634026756321356,0.29528553306876765
p9,Trial: 11,p9.edf,.,19,Fixation: 16829 ms,123,16829,16951,[],54,1188,20345,672.8,655.3,19,51,35.55,37.25,25,Saccade: 16770 ms,LEFT,59,10.68,181.04,507.46,"[ 8, 31, 99]",16770,16828,1070.3,643.2,682.6,648.2,26,Saccade: 16952 ms,UP,44,3.45,78.42,123.43,"[ 9, 99]",16952,16995,670.9,654.7,659.1,527.8,1.33,RIGHT,10.92,A24,S24.wav,A24.png,6,912945,task,[8],[Noun_2],[3180],[3720],[540],[0],[Kissen],[pillow],[0.0],[1.0],[pillow_1],[S01_I024_E010],[Kissen],[nan],[nan],[nan],[nan],[],,,0.045827123695976156,0.8690563277249451,0.7662337662337663,0.5791757049891539,0.634026756321356,0.8756557150745444,0.15017064846416384,1.0,0.2746375288926245,0.07182259359689039
p9,Trial: 11,p9.edf,.,20,Fixation: 16996 ms,118,16996,17113,[9],6,1198,118,659.8,538.2,1,1,35.3,36.75,26,Saccade: 16952 ms,UP,44,3.45,78.42,123.43,[ 99],16952,16995,670.9,654.7,659.1,527.8,27,Saccade: 17114 ms,RIGHT,37,4.88,131.88,364.85,"[ 3, 99]",17114,17150,654.1,539.2,776.6,667.2,-83.39,DOWN,3.19,A24,S24.wav,A24.png,6,912945,task,[8],[Noun_2],[3180],[3720],[540],[0],[Kissen],[pillow],[0.0],[1.0],[pillow_1],[S01_I024_E010],[Kissen],[nan],[nan],[nan],[nan],[woman_1],,,0.043964232488822655,0.8763716166788588,0.5714285714285714,0.18709327548806942,0.2746375288926245,0.21298660960795143,0.12627986348122866,1.0,0.46186173565875177,0.21230230311776277
p9,Trial: 11,p9.edf,.,21,Fixation: 17151 ms,182,17151,17332,[3],4,1191,490,779.6,666.5,1,2,35.7,37.4,27,Saccade: 17114 ms,RIGHT,37,4.88,131.88,364.85,"[ 9, 99]",17114,17150,654.1,539.2,776.6,667.2,28,Saccade: 17333 ms,LEFT,18,1.25,69.24,91.09,"[ 3, 99]",17333,17350,782.2,664.8,741.4,683.4,134.28,UP,4.83,A24,S24.wav,A24.png,6,912945,task,[8],[Noun_2],[3180],[3720],[540],[0],[Kissen],[pillow],[0.0],[1.0],[pillow_1],[S01_I024_E010],[Kissen],[nan],[nan],[nan],[nan],[radio_3],,,0.06780923994038748,0.8712509144111192,0.4805194805194805,0.26464208242950105,0.46186173565875177,0.6295727498619548,0.06143344709897611,1.0,0.2424879176297541,0.05300429434287244
p9,Trial: 11,p9.edf,.,22,Fixation: 17351 ms,308,17351,17658,[3],4,1144,490,748.9,675.3,2,2,35.7,37.4,28,Saccade: 17333 ms,LEFT,18,1.25,69.24,91.09,"[ 3, 99]",17333,17350,782.2,664.8,741.4,683.4,29,Saccade: 17659 ms,RIGHT,26,2.42,92.94,176.59,"[ 3, 99]",17659,17684,746.8,669.1,828.2,700.1,15.3,RIGHT,0.89,A24,S24.wav,A24.png,6,912945,task,[9],[Preposition_2_of_RC],[4045],[4210],[165],[0],[auf],[on],[0.0],[0.0],[nan],[nan],[auf],[nan],[nan],[nan],[nan],[radio_3],,,0.11475409836065574,0.8368690563277249,0.23376623376623376,0.0677874186550976,0.2424879176297541,0.1571818056322474,0.08873720136518772,1.0,0.32548854801428867,0.10275582762112026
p9,Trial: 11,p9.edf,.,23,Fixation: 17817 ms,135,17817,17951,[5],9,1143,135,157.9,611.0,1,1,37.45,38.1,30,Saccade: 17740 ms,LEFT,77,18.44,239.5,579.52,"[ 3, 99]",17740,17816,816.0,692.5,144.4,606.2,31,Saccade: 17952 ms,RIGHT,30,1.79,59.64,169.62,"[ 10, 99]",17952,17981,156.2,613.5,221.9,603.2,-6.02,RIGHT,16.25,A24,S24.wav,A24.png,6,912945,task,[10],[Relative Clause Pronoun],[4270],[4430],[160],[1],[dem],[that],[0.0],[0.0],[nan],[nan],[die],[nan],[nan],[nan],[nan],[kid_1],,,0.05029806259314456,0.8361375274323336,1.0,1.0,0.8387616446032079,1.0,0.10238907849829351,1.0,0.20886740911956292,0.09870005935270637
p9,Trial: 11,p9.edf,.,24,Fixation: 17982 ms,392,17982,18373,[10],5,1047,392,231.0,609.8,1,1,36.9,37.8,31,Saccade: 17952 ms,RIGHT,30,1.79,59.64,169.62,"[ 5, 99]",17952,17981,156.2,613.5,221.9,603.2,32,Saccade: 18374 ms,RIGHT,19,1.22,64.34,96.49,"[ 6, 99]",18374,18392,235.1,613.0,269.6,642.6,-179.08,LEFT,1.97,A24,S24.wav,A24.png,6,912945,task,"[11, 12]","[Relative Clause Pers. Pronoun, Relative Clause Adverb]","[4440, 4580]","[4580, 5220]","[140, 640]","[0, 0]","[sie, fröhlich]","[she, cheerfully]","[0.0, 0.0]","[0.0, 0.0]","[kid_1, nan]","[S01_I024_E004, nan]","[sie, fröhlich]","[nan, nan]","[nan, nan]","[nan, nan]","[nan, nan]",[radio_1],,,0.14605067064083457,0.7659107534747622,0.38961038961038963,0.09707158351409978,0.20886740911956292,0.29269050248481504,0.06484641638225255,1.0,0.22532744974434404,0.05614649644465651
p9,Trial: 11,p9.edf,18560,25,Fixation: 18393 ms,183,18393,18575,[6],1,885,183,261.5,642.3,1,1,36.75,37.8,32,Saccade: 18374 ms,RIGHT,19,1.22,64.34,96.49,"[ 10, 99]",18374,18392,235.1,613.0,269.6,642.6,33,Saccade: 18576 ms,UP,10,0.52,52.34,56.7,"[ 10, 99]",18576,18585,246.3,632.1,239.8,613.5,133.93,UP,1.19,A24,S24.wav,A24.png,6,912945,task,[12],[Relative Clause Adverb],[4580],[5220],[640],[0],[fröhlich],[cheerfully],[0.0],[0.0],[nan],[nan],[fröhlich],[nan],[nan],[nan],[nan],[pillow_1],,,0.06818181818181818,0.6474030724213606,0.24675324675324675,0.06616052060737526,0.22532744974434404,0.16649986195472113,0.034129692832764506,1.0,0.18330181410660504,0.03299312206873276
p9,Trial: 11,p9.edf,19590,26,Fixation: 18586 ms,1203,18586,19788,[10],5,834,1203,224.6,605.3,1,1,36.9,37.75,33,Saccade: 18576 ms,UP,10,0.52,52.34,56.7,"[ 6, 99]",18576,18585,246.3,632.1,239.8,613.5,34,Saccade: 19789 ms,LEFT,28,2.87,102.38,142.45,"[ 5, 99]",19789,19816,216.1,608.9,112.5,580.9,-44.35,RIGHT,1.4,A24,S24.wav,A24.png,6,912945,task,"[12, 13]","[Relative Clause Adverb, Relative Clause Verb]","[4580, 5360]","[5220, 5840]","[640, 480]","[0, 0]","[fröhlich, sitzt]","[cheerfully, sits]","[0.0, 1.0]","[0.0, 0.0]","[nan, nan]","[nan, nan]","[fröhlich, sitzen]","[nan, nan]","[nan, nan]","[nan, nan]","[nan, nan]",[radio_1],,,0.44821162444113266,0.6100950987564009,0.12987012987012986,0.028199566160520606,0.18330181410660504,0.0978395913859746,0.09556313993174062,1.0,0.3585487147159767,0.08289012766650761
p9,Trial: 11,p9.edf,.,27,Fixation: 19817 ms,113,19817,19929,[5],9,795,286,113.2,563.8,1,2,37.8,38.1,34,Saccade: 19789 ms,LEFT,28,2.87,102.38,142.45,"[ 10, 99]",19789,19816,216.1,608.9,112.5,580.9,35,Saccade: 19930 ms,UP,18,1.26,70.04,85.7,"[ 5, 99]",19930,19947,108.7,566.9,107.7,519.0,-20.15,RIGHT,3.18,A24,S24.wav,A24.png,6,912945,post,,,,,,,,,,,,,,,,,,[kid_1],,,0.042101341281669154,0.5815654718361375,0.36363636363636365,0.1556399132321041,0.3585487147159767,0.2458068746548868,0.06143344709897611,1.0,0.24528962667227008,0.04986791113386945
