RECORDING_SESSION_LABEL,TRIAL_LABEL,DATA_FILE,CURRENT_FIX_MSG_TIME_1,CURRENT_FIX_INDEX,CURRENT_FIX_LABEL,CURRENT_FIX_DURATION,CURRENT_FIX_START,CURRENT_FIX_END,CURRENT_FIX_INTEREST_AREAS,CURRENT_FIX_INTEREST_AREA_FIX_COUNT,CURRENT_FIX_PUPIL,CURRENT_FIX_RUN_DWELL_TIME,CURRENT_FIX_X,CURRENT_FIX_Y,CURRENT_FIX_RUN_INDEX,CURRENT_FIX_RUN_SIZE,CURRENT_FIX_X_RESOLUTION,CURRENT_FIX_Y_RESOLUTION,PREVIOUS_SAC_INDEX,PREVIOUS_SAC_LABEL,PREVIOUS_SAC_DIRECTION,PREVIOUS_SAC_DURATION,PREVIOUS_SAC_AMPLITUDE,PREVIOUS_SAC_AVG_VELOCITY,PREVIOUS_SAC_PEAK_VELOCITY,PREVIOUS_SAC_START_INTEREST_AREAS,PREVIOUS_SAC_START_TIME,PREVIOUS_SAC_END_TIME,PREVIOUS_SAC_START_X,PREVIOUS_SAC_START_Y,PREVIOUS_SAC_END_X,PREVIOUS_SAC_END_Y,NEXT_SAC_INDEX,NEXT_SAC_LABEL,NEXT_SAC_DIRECTION,NEXT_SAC_DURATION,NEXT_SAC_AMPLITUDE,NEXT_SAC_AVG_VELOCITY,NEXT_SAC_PEAK_VELOCITY,NEXT_SAC_END_INTEREST_AREAS,NEXT_SAC_START_TIME,NEXT_SAC_END_TIME,NEXT_SAC_START_X,NEXT_SAC_START_Y,NEXT_SAC_END_X,NEXT_SAC_END_Y,PREVIOUS_FIX_ANGLE,PREVIOUS_FIX_DIRECTION,PREVIOUS_FIX_DISTANCE,ItemNO,audiofilename,imagefilename,TRIAL_INDEX,TRIAL_START_TIME,viewtype,word_index,Label,word_onset,word_offset,word_duration,Continuation,wordDE,wordEN,REFWord,TargetObj,ObjectLabel,ObjectID,LemmaDE,LingIndex,DepS,pos_1,pos_2,CURRENT_FIX_INTEREST_AREAS_Labelled,PREVIOUS_SAC_START_INTEREST_AREAS_Labelled,NEXT_SAC_END_INTEREST_AREAS_Labelled,NORMALIZED_CURRENT_FIX_DURATION,NORMALIZED_CURRENT_FIX_PUPIL,NORMALIZED_PREVIOUS_SAC_DURATION,NORMALIZED_PREVIOUS_SAC_AMPLITUDE,NORMALIZED_PREVIOUS_SAC_AVG_VELOCITY,NORMALIZED_PREVIOUS_SAC_PEAK_VELOCITY,NORMALIZED_NEXT_SAC_DURATION,NORMALIZED_NEXT_SAC_AMPLITUDE,NORMALIZED_NEXT_SAC_AVG_VELOCITY,NORMALIZED_NEXT_SAC_PEAK_VELOCITY
p8,Trial: 17,p8.edf,.,1,Fixation: 3643 ms,353,3643,3995,[8],7,1166,353,558.3,861.2,1,1,36.3,38.7,4,Saccade: 3618 ms,LEFT,25,2.42,96.74,146.38,[ ],3618,3642,637.3,908.8,557.6,869.1,5,Saccade: 3996 ms,RIGHT,17,1.1,64.6,84.06,[ ],3996,4012,560.1,866.5,599.0,875.8,-43.36,RIGHT,2.84,A11,S11.wav,A11.png,9,24601158,preview,,,,,,,,,,,,,,,,,,[woman_1],,,0.11766666666666667,0.8346456692913385,0.25773195876288657,0.1288604898828541,0.4995868622185499,0.36524689971804275,0.04941860465116279,1.0,0.3336087585209667,0.08365594180110068
p8,Trial: 17,p8.edf,.,2,Fixation: 4013 ms,348,4013,4360,[],.,1194,.,595.8,881.0,.,.,36.3,38.85,5,Saccade: 3996 ms,RIGHT,17,1.1,64.6,84.06,[ ],3996,4012,560.1,866.5,599.0,875.8,6,Saccade: 4361 ms,DOWN,15,0.95,63.02,74.09,[ ],4361,4375,591.4,888.7,614.7,915.8,153.7,LEFT,1.15,A11,S11.wav,A11.png,9,24601158,preview,,,,,,,,,,,,,,,,,,[],,,0.116,0.854688618468146,0.17525773195876287,0.058572949946751864,0.3336087585209667,0.209746238490905,0.0436046511627907,1.0,0.32544928733732703,0.07373386542997323
p8,Trial: 17,p8.edf,.,3,Fixation: 4376 ms,2258,4376,6633,[],.,1082,.,603.6,929.7,.,.,36.45,39.2,6,Saccade: 4361 ms,DOWN,15,0.95,63.02,74.09,[ ],4361,4375,591.4,888.7,614.7,915.8,7,Saccade: 6634 ms,LEFT,16,1.08,67.44,77.34,[ ],6634,6649,607.7,937.4,569.1,946.1,99.75,UP,1.27,A11,S11.wav,A11.png,9,24601158,preview,,,,,,,,,,,,,,,,,,[],,,0.7526666666666667,0.7745168217609163,0.15463917525773196,0.05058572949946751,0.32544928733732703,0.1848691269306585,0.046511627906976744,1.0,0.3482751497624458,0.07696824338445309
p8,Trial: 17,p8.edf,.,4,Fixation: 6650 ms,92,6650,6741,[],.,1102,.,579.0,947.2,.,.,36.6,39.45,7,Saccade: 6634 ms,LEFT,16,1.08,67.44,77.34,[ ],6634,6649,607.7,937.4,569.1,946.1,8,Saccade: 6742 ms,RIGHT,17,1.06,62.28,75.1,[ ],6742,6758,578.6,948.1,615.9,937.0,33.45,RIGHT,0.81,A11,S11.wav,A11.png,9,24601158,preview,,,,,,,,,,,,,,,,,,[],,,0.030666666666666665,0.7888332140300645,0.16494845360824742,0.05750798722044728,0.3482751497624458,0.19297851635601468,0.04941860465116279,1.0,0.3216277628589135,0.07473901057890389
p8,Trial: 17,p8.edf,.,5,Fixation: 6759 ms,3000,6759,9758,[],.,1234,.,614.2,934.4,.,.,36.5,39.3,8,Saccade: 6742 ms,RIGHT,17,1.06,62.28,75.1,[ ],6742,6758,578.6,948.1,615.9,937.0,9,Saccade: 9759 ms,UP,344,16.48,47.91,1004.83,"[ 21, 99]",9759,10102,616.2,934.4,708.5,317.4,-161.35,LEFT,1.02,A11,S11.wav,A11.png,9,24601158,preview,,,,,,,,,,,,,,,,,,[],,,1.0,0.8833214030064424,0.17525773195876287,0.05644302449414271,0.3216277628589135,0.18738927564438457,1.0,1.0,0.2474178888659368,1.0
p8,Trial: 17,p8.edf,.,6,Fixation: 10316 ms,298,10316,10613,[21],7,1234,452,548.2,323.1,1,2,35.2,36.5,10,Saccade: 10288 ms,LEFT,28,4.63,165.36,297.12,[ 99],10288,10315,711.5,330.6,548.8,320.7,11,Saccade: 10614 ms,RIGHT,24,2.39,99.5,159.4,"[ 21, 99]",10614,10637,549.3,324.7,630.0,349.1,-83.49,DOWN,16.23,A11,S11.wav,A11.png,9,24601158,preview,,,,,,,,,,,,,,,,,,[table_1],,,0.09933333333333333,0.8833214030064424,0.28865979381443296,0.2465388711395101,0.853955794257385,0.7413728572497942,0.06976744186046512,1.0,0.5138401156785788,0.1586337987520277
p8,Trial: 17,p8.edf,.,7,Fixation: 10638 ms,154,10638,10791,[21],7,1090,452,639.7,359.5,2,2,35.2,36.5,11,Saccade: 10614 ms,RIGHT,24,2.39,99.5,159.4,"[ 21, 99]",10614,10637,549.3,324.7,630.0,349.1,12,Saccade: 10792 ms,LEFT,55,8.07,146.68,400.77,[ 99],10792,10846,645.4,361.7,358.6,360.0,159.01,LEFT,2.78,A11,S11.wav,A11.png,9,24601158,preview,,,,,,,,,,,,,,,,,,[table_1],,,0.051333333333333335,0.7802433786685755,0.24742268041237114,0.12726304579339723,0.5138401156785788,0.39773436135439283,0.15988372093023256,1.0,0.7574881222887834,0.39884358548212134
p8,Trial: 17,p8.edf,.,8,Fixation: 10847 ms,188,10847,11034,[22],2,1087,188,347.5,354.3,1,1,35.9,36.85,12,Saccade: 10792 ms,LEFT,55,8.07,146.68,400.77,"[ 21, 99]",10792,10846,645.4,361.7,358.6,360.0,13,Saccade: 11035 ms,LEFT,24,2.46,102.64,188.73,"[ 5, 13, 99]",11035,11058,346.7,353.4,260.0,332.6,-0.99,RIGHT,8.22,A11,S11.wav,A11.png,9,24601158,preview,,,,,,,,,,,,,,,,,,[shelf_1],,,0.06266666666666666,0.7780959198282033,0.5670103092783505,0.42971246006389774,0.7574881222887834,1.0,0.06976744186046512,1.0,0.5300557736004958,0.1878228157996875
p8,Trial: 17,p8.edf,.,9,Fixation: 11059 ms,354,11059,11412,"[5, 13]",14,1123,2013,266.4,331.3,1,5,36.4,37.1,13,Saccade: 11035 ms,LEFT,24,2.46,102.64,188.73,"[ 22, 99]",11035,11058,346.7,353.4,260.0,332.6,14,Saccade: 11413 ms,.,8,0.43,53.72,44.3,"[ 5, 13, 99]",11413,11420,264.0,328.6,278.8,323.5,-15.5,RIGHT,2.33,A11,S11.wav,A11.png,9,24601158,preview,,,,,,,,,,,,,,,,,,"[sofa_2, man_1]",,,0.118,0.80386542591267,0.24742268041237114,0.13099041533546324,0.5300557736004958,0.47091848192229957,0.023255813953488372,1.0,0.2774220202437513,0.04408705950260242
p8,Trial: 17,p8.edf,.,10,Fixation: 11421 ms,434,11421,11854,"[5, 13]",14,1182,2013,279.0,314.4,2,5,36.3,37.0,14,Saccade: 11413 ms,.,8,0.43,53.72,44.3,"[ 5, 13, 99]",11413,11420,264.0,328.6,278.8,323.5,15,Saccade: 11855 ms,LEFT,14,1.0,71.63,79.85,"[ 5, 13, 99]",11855,11868,282.1,309.5,245.7,312.3,-127.23,DOWN,0.57,A11,S11.wav,A11.png,9,24601158,preview,,,,,,,,,,,,,,,,,,"[sofa_2, man_1]",,,0.14466666666666667,0.8460987831066571,0.08247422680412371,0.022896698615548453,0.2774220202437513,0.11053721585947052,0.040697674418604654,1.0,0.36991324106589546,0.0794661783585283
p8,Trial: 17,p8.edf,.,11,Fixation: 11869 ms,472,11869,12340,"[5, 13]",14,1282,2013,252.5,309.5,3,5,36.45,37.15,15,Saccade: 11855 ms,LEFT,14,1.0,71.63,79.85,"[ 5, 13, 99]",11855,11868,282.1,309.5,245.7,312.3,16,Saccade: 12341 ms,DOWN,37,3.06,82.66,116.75,"[ 5, 13, 99]",12341,12377,258.1,309.7,197.9,405.8,-10.28,RIGHT,0.74,A11,S11.wav,A11.png,9,24601158,preview,,,,,,,,,,,,,,,,,,"[sofa_2, man_1]",,,0.15733333333333333,0.917680744452398,0.14432989690721648,0.05324813631522896,0.36991324106589546,0.1992414601891359,0.10755813953488372,1.0,0.4268746126833299,0.11618880805708427
p8,Trial: 17,p8.edf,.,12,Fixation: 12378 ms,220,12378,12597,"[5, 13]",14,1347,2013,204.8,394.5,4,5,36.85,37.35,16,Saccade: 12341 ms,DOWN,37,3.06,82.66,116.75,"[ 5, 13, 99]",12341,12377,258.1,309.7,197.9,405.8,17,Saccade: 12598 ms,LEFT,46,1.31,28.44,105.37,"[ 5, 13, 99]",12598,12643,209.6,395.4,170.3,423.9,60.3,UP,2.63,A11,S11.wav,A11.png,9,24601158,preview,,,,,,,,,,,,,,,,,,"[sofa_2, man_1]",,,0.07333333333333333,0.9642090193271295,0.38144329896907214,0.16293929712460062,0.4268746126833299,0.29131422012625696,0.13372093023255813,1.0,0.14687048130551542,0.10486350925032095
p8,Trial: 17,p8.edf,13117,13,Fixation: 12644 ms,533,12644,13176,[5],14,1368,2013,174.2,482.4,5,5,37.15,37.55,17,Saccade: 12598 ms,LEFT,46,1.31,28.44,105.37,"[ 5, 13, 99]",12598,12643,209.6,395.4,170.3,423.9,18,Saccade: 13177 ms,UP,41,3.96,96.48,132.43,[ 99],13177,13217,167.9,485.3,177.7,337.3,70.59,UP,2.49,A11,S11.wav,A11.png,9,24601158,preview,,,,,,,,,,,,,,,,,,[sofa_2],,,0.17766666666666667,0.9792412312097352,0.4742268041237113,0.06975505857294995,0.14687048130551542,0.262918881153779,0.11918604651162791,1.0,0.49824416442883707,0.13179343769592866
p8,Trial: 17,p8.edf,13235,14,Fixation: 13218 ms,189,13218,13406,[],51,1377,13338,176.8,340.7,9,49,37.0,37.4,18,Saccade: 13177 ms,UP,41,3.96,96.48,132.43,"[ 5, 99]",13177,13217,167.9,485.3,177.7,337.3,19,Saccade: 13407 ms,RIGHT,22,2.18,99.3,166.56,"[ 5, 13, 99]",13407,13428,179.3,338.9,259.3,333.5,-91.06,DOWN,3.78,A11,S11.wav,A11.png,9,24601158,taskpreview,,,,,,,,,,,,,,,,,,[],,,0.063,0.9856836077308518,0.422680412371134,0.2108626198083067,0.49824416442883707,0.33043890510766777,0.06395348837209303,1.0,0.5128072712249535,0.16575938218405104
p8,Trial: 17,p8.edf,.,15,Fixation: 13429 ms,369,13429,13797,"[5, 13]",14,1343,369,264.7,333.1,1,1,36.4,37.1,19,Saccade: 13407 ms,RIGHT,22,2.18,99.3,166.56,[ 99],13407,13428,179.3,338.9,259.3,333.5,20,Saccade: 13798 ms,RIGHT,39,3.63,93.1,154.06,"[ 22, 99]",13798,13836,262.4,334.9,388.5,298.9,-175.13,LEFT,2.4,A11,S11.wav,A11.png,9,24601158,task,"[1, 2]","[Adverb, Verb]","[50, 260]","[220, 820]","[170, 560]","[0, 0]","[Da, befindet]","[It, is]","[0.0, 0.0]","[0.0, 0.0]","[nan, nan]","[nan, nan]","[da, befinden]","[nan, nan]","[nan, nan]","[nan, nan]","[nan, nan]","[sofa_2, man_1]",,,0.123,0.9613457408732999,0.2268041237113402,0.11608093716719915,0.5128072712249535,0.41559997005763905,0.11337209302325581,1.0,0.48078909316256974,0.1533194669745131
p8,Trial: 17,p8.edf,.,16,Fixation: 13837 ms,141,13837,13977,[22],2,1376,141,384.2,298.3,1,1,35.7,36.8,20,Saccade: 13798 ms,RIGHT,39,3.63,93.1,154.06,"[ 5, 13, 99]",13798,13836,262.4,334.9,388.5,298.9,21,Saccade: 13978 ms,LEFT,26,2.98,114.71,198.62,[ 99],13978,14003,385.1,296.8,280.4,272.4,-164.14,LEFT,3.45,A11,S11.wav,A11.png,9,24601158,task,[2],[Verb],[260],[820],[560],[0],[befindet],[is],[0.0],[0.0],[nan],[nan],[befinden],[nan],[nan],[nan],[nan],[shelf_1],,,0.047,0.9849677881173944,0.4020618556701031,0.19329073482428114,0.48078909316256974,0.38441001072934605,0.0755813953488372,1.0,0.5923879363767817,0.19766527671347392
p8,Trial: 17,p8.edf,.,17,Fixation: 14004 ms,361,14004,14364,[13],8,1390,361,279.1,275.3,1,1,36.3,37.1,21,Saccade: 13978 ms,LEFT,26,2.98,114.71,198.62,"[ 22, 99]",13978,14003,385.1,296.8,280.4,272.4,22,Saccade: 14365 ms,RIGHT,17,1.07,62.82,83.91,"[ 22, 99]",14365,14381,276.9,280.1,315.2,285.5,-12.04,RIGHT,2.99,A11,S11.wav,A11.png,9,24601158,task,"[2, 3]","[Verb, Pronoun_ref]","[260, 900]","[820, 1150]","[560, 250]","[0, 0]","[befindet, sich]","[is, nan]","[0.0, 0.0]","[0.0, 0.0]","[nan, nan]","[nan, nan]","[befinden, sie]","[nan, nan]","[nan, nan]","[nan, nan]","[nan, nan]",[man_1],,,0.12033333333333333,0.9949892627057981,0.26804123711340205,0.15867944621938232,0.5923879363767817,0.4955959777428451,0.04941860465116279,1.0,0.32441644288370175,0.08350666281858622
p8,Trial: 17,p8.edf,.,18,Fixation: 15292 ms,425,15292,15716,"[5, 7]",14,1397,2674,184.2,538.0,1,7,37.1,37.7,24,Saccade: 15251 ms,DOWN,41,6.68,162.96,334.43,"[ 5, 13, 99]",15251,15291,250.1,305.4,183.3,546.2,25,Saccade: 15717 ms,LEFT,22,1.36,61.86,103.02,"[ 5, 7, 99]",15717,15738,184.2,546.4,145.1,513.7,69.79,UP,7.48,A11,S11.wav,A11.png,9,24601158,task,[6],[Preposition_1],[2200],[2350],[150],[0],[auf],[on],[0.0],[0.0],[nan],[nan],[auf],[nan],[nan],[nan],[nan],"[sofa_2, book_2]",,,0.14166666666666666,1.0,0.422680412371134,0.35569755058572944,0.8415616608138815,0.8344686478528832,0.06395348837209303,1.0,0.31945878950630036,0.10252480519092781
p8,Trial: 17,p8.edf,15810,19,Fixation: 15739 ms,496,15739,16234,"[5, 7]",14,1355,2674,158.1,514.5,2,7,37.35,37.75,25,Saccade: 15717 ms,LEFT,22,1.36,61.86,103.02,"[ 5, 7, 99]",15717,15738,184.2,546.4,145.1,513.7,26,Saccade: 16235 ms,LEFT,10,0.54,54.45,52.62,"[ 5, 99]",16235,16244,155.2,517.2,136.2,509.8,-41.62,RIGHT,0.94,A11,S11.wav,A11.png,9,24601158,task,"[7, 8]","[Determiner_2, Noun_2]","[2390, 2610]","[2600, 3200]","[210, 590]","[0, 0]","[einem, Sofa]","[a, sofa]","[0.0, 0.0]","[0.0, 0.0]","[nan, sofa_1]","[nan, S01_I011_E003]","[eine, Sofa]","[nan, nan]","[nan, nan]","[nan, nan]","[nan, nan]","[sofa_2, book_2]",,,0.16533333333333333,0.9699355762347889,0.2268041237113402,0.0724174653887114,0.31945878950630036,0.2570551688000599,0.029069767441860465,1.0,0.2811919024994836,0.052367067066070874
p8,Trial: 17,p8.edf,.,20,Fixation: 16245 ms,552,16245,16796,[5],14,1386,2674,136.8,504.5,3,7,37.45,37.8,26,Saccade: 16235 ms,LEFT,10,0.54,54.45,52.62,"[ 5, 7, 99]",16235,16244,155.2,517.2,136.2,509.8,27,Saccade: 16797 ms,RIGHT,30,3.02,100.71,155.47,"[ 5, 10, 13, 99]",16797,16826,136.4,504.8,246.4,484.6,-24.93,RIGHT,0.63,A11,S11.wav,A11.png,9,24601158,task,[8],[Noun_2],[2610],[3200],[590],[0],[Sofa],[sofa],[0.0],[0.0],[sofa_1],[S01_I011_E003],[Sofa],[nan],[nan],[nan],[nan],[sofa_2],,,0.184,0.9921259842519685,0.10309278350515463,0.02875399361022364,0.2811919024994836,0.13129725278838236,0.0872093023255814,1.0,0.5200888246230118,0.15472268941014897
p8,Trial: 17,p8.edf,.,21,Fixation: 16827 ms,126,16827,16952,"[5, 10, 13]",14,1366,2674,252.6,484.1,4,7,36.55,37.3,27,Saccade: 16797 ms,RIGHT,30,3.02,100.71,155.47,"[ 5, 99]",16797,16826,136.4,504.8,246.4,484.6,28,Saccade: 16953 ms,LEFT,26,2.76,106.06,193.35,"[ 5, 99]",16953,16978,253.0,488.9,152.7,506.3,-170.15,LEFT,3.18,A11,S11.wav,A11.png,9,24601158,task,,break,,,,,,,,,,,,,,,,"[sofa_2, newspaper_1, man_1]",,,0.042,0.9778095919828204,0.30927835051546393,0.16080937167199147,0.5200888246230118,0.38792823814157745,0.0755813953488372,1.0,0.5477174137574882,0.1924206084611327
p8,Trial: 17,p8.edf,.,22,Fixation: 16979 ms,451,16979,17429,[5],14,1362,2674,162.8,507.1,5,7,37.25,37.7,28,Saccade: 16953 ms,LEFT,26,2.76,106.06,193.35,"[ 5, 10, 13, 99]",16953,16978,253.0,488.9,152.7,506.3,29,Saccade: 17430 ms,RIGHT,24,1.8,74.8,110.59,"[ 5, 13, 99]",17430,17453,163.8,507.6,229.0,495.2,14.15,RIGHT,2.51,A11,S11.wav,A11.png,9,24601158,task,"[9, 10, 11]","[Relative Clause Pronoun, Relative Clause Pers. Pronoun, Relative Clause Adverb]","[3580, 3740, 3830]","[3730, 3820, 4480]","[150, 80, 650]","[1, 1, 0]","[das, er, ruhig]","[that, he, quietly]","[0.0, 0.0, 0.0]","[0.0, 0.0, 0.0]","[nan, kid_1, nan]","[nan, S01_I011_E001, nan]","[die, er, ruhig]","[nan, nan, nan]","[nan, nan, nan]","[nan, nan, nan]","[nan, nan, nan]",[sofa_2],,,0.15033333333333335,0.9749463135289907,0.26804123711340205,0.14696485623003192,0.5477174137574882,0.4824462908900367,0.06976744186046512,1.0,0.38628382565585623,0.11005841784182399
p8,Trial: 17,p8.edf,.,23,Fixation: 17454 ms,166,17454,17619,"[5, 13]",14,1357,2674,241.0,496.2,6,7,36.65,37.35,29,Saccade: 17430 ms,RIGHT,24,1.8,74.8,110.59,"[ 5, 99]",17430,17453,163.8,507.6,229.0,495.2,30,Saccade: 17620 ms,LEFT,24,2.47,103.06,176.36,"[ 5, 99]",17620,17643,242.1,497.3,150.9,503.3,-172.19,LEFT,2.14,A11,S11.wav,A11.png,9,24601158,task,[11],[Relative Clause Adverb],[3830],[4480],[650],[0],[ruhig],[quietly],[0.0],[0.0],[nan],[nan],[ruhig],[nan],[nan],[nan],[nan],"[sofa_2, man_1]",,,0.05533333333333333,0.9713672154617037,0.24742268041237114,0.09584664536741214,0.38628382565585623,0.27594380816927416,0.06976744186046512,1.0,0.532224746953109,0.17551227570832878
p8,Trial: 17,p8.edf,17745,24,Fixation: 17644 ms,458,17644,18101,"[5, 7]",14,1345,2674,166.3,514.5,7,7,37.25,37.7,30,Saccade: 17620 ms,LEFT,24,2.47,103.06,176.36,"[ 5, 13, 99]",17620,17643,242.1,497.3,150.9,503.3,31,Saccade: 18102 ms,RIGHT,97,18.78,193.64,374.88,"[ 4, 99]",18102,18198,163.8,521.9,839.5,421.7,13.56,RIGHT,2.08,A11,S11.wav,A11.png,9,24601158,task,"[11, 12]","[Relative Clause Adverb, Relative Clause Verb]","[3830, 4545]","[4480, 4960]","[650, 415]","[0, 0]","[ruhig, liest]","[quietly, reads]","[0.0, 1.0]","[0.0, 0.0]","[nan, nan]","[nan, nan]","[ruhig, lesen]","[nan, nan]","[nan, nan]","[nan, nan]","[nan, nan]","[sofa_2, book_2]",,,0.15266666666666667,0.9627773801002147,0.24742268041237114,0.13152289669861555,0.532224746953109,0.44005289817102083,0.2819767441860465,1.0,1.0,0.3730780331001264
p8,Trial: 17,p8.edf,.,25,Fixation: 18199 ms,179,18199,18377,[4],10,1274,1839,838.5,423.1,1,9,35.55,36.7,31,Saccade: 18102 ms,RIGHT,97,18.78,193.64,374.88,"[ 5, 7, 99]",18102,18198,163.8,521.9,839.5,421.7,32,Saccade: 18378 ms,RIGHT,23,2.43,105.64,190.09,"[ 3, 4, 99]",18378,18400,841.8,424.7,924.1,453.3,-172.42,LEFT,18.63,A11,S11.wav,A11.png,9,24601158,task,[12],[Relative Clause Verb],[4545],[4960],[415],[0],[liest],[reads],[1.0],[0.0],[nan],[nan],[lesen],[nan],[nan],[nan],[nan],[sofa_1],,,0.059666666666666666,0.9119541875447388,1.0,1.0,1.0,0.9353993562392395,0.06686046511627906,1.0,0.545548440404875,0.18917627857448524
p8,Trial: 17,p8.edf,.,26,Fixation: 18401 ms,298,18401,18698,[4],10,1227,1839,910.0,450.2,2,9,35.85,36.9,32,Saccade: 18378 ms,RIGHT,23,2.43,105.64,190.09,"[ 4, 99]",18378,18400,841.8,424.7,924.1,453.3,33,Saccade: 18699 ms,UP,33,1.85,55.91,133.51,"[ 4, 99]",18699,18731,910.2,445.6,951.9,392.7,159.81,LEFT,2.13,A11,S11.wav,A11.png,9,24601158,post,,,,,,,,,,,,,,,,,,[sofa_1],,,0.09933333333333333,0.8783106657122405,0.23711340206185566,0.12939297124600638,0.545548440404875,0.4743119494972179,0.09593023255813954,1.0,0.28873166701094816,0.13286824637003272
p8,Trial: 17,p8.edf,18865,27,Fixation: 18799 ms,130,18799,18928,[4],10,1179,1839,854.5,313.1,3,9,35.6,36.7,34,Saccade: 18760 ms,LEFT,39,3.51,89.91,291.07,"[ 4, 99]",18760,18798,951.1,400.6,862.2,309.5,35,Saccade: 18929 ms,RIGHT,20,1.4,69.94,100.04,"[ 2, 4, 99]",18929,18948,853.1,312.1,902.9,308.3,-67.36,DOWN,4.04,A11,S11.wav,A11.png,9,24601158,post,,,,,,,,,,,,,,,,,,[sofa_1],,,0.043333333333333335,0.8439513242662849,0.4020618556701031,0.18690095846645366,0.46431522412724646,0.7262769169349004,0.05813953488372093,1.0,0.36118570543276185,0.09955912940497398
p8,Trial: 17,p8.edf,.,28,Fixation: 18949 ms,145,18949,19093,"[2, 4]",3,1134,145,899.2,309.1,1,1,35.8,36.8,35,Saccade: 18929 ms,RIGHT,20,1.4,69.94,100.04,"[ 4, 99]",18929,18948,853.1,312.1,902.9,308.3,36,Saccade: 19094 ms,DOWN,46,4.08,88.74,298.71,"[ 3, 4, 99]",19094,19139,899.6,308.3,982.6,432.6,-175.03,LEFT,1.26,A11,S11.wav,A11.png,9,24601158,post,,,,,,,,,,,,,,,,,,"[kid_1, sofa_1]",,,0.04833333333333333,0.8117394416607016,0.20618556701030927,0.07454739084132055,0.36118570543276185,0.24961948249619484,0.13372093023255813,1.0,0.4582730840735385,0.297274165779286
